<?xml version="1.0" encoding="utf-8"  standalone="no"?>
<svg 
 viewBox="0 0 1280 720"
 xmlns="http://www.w3.org/2000/svg"
 xmlns:xlink="http://www.w3.org/1999/xlink"
>

<title>Gnuplot</title>
<desc>Produced by GNUPLOT 5.2 patchlevel 8 </desc>

<g id="gnuplot_canvas">

<rect x="0" y="0" width="1280" height="720" fill="none"/>
<defs>

	<circle id='gpDot' r='0.5' stroke-width='0.5' stroke='currentColor'/>
	<path id='gpPt0' stroke-width='0.222' stroke='currentColor' d='M-1,0 h2 M0,-1 v2'/>
	<path id='gpPt1' stroke-width='0.222' stroke='currentColor' d='M-1,-1 L1,1 M1,-1 L-1,1'/>
	<path id='gpPt2' stroke-width='0.222' stroke='currentColor' d='M-1,0 L1,0 M0,-1 L0,1 M-1,-1 L1,1 M-1,1 L1,-1'/>
	<rect id='gpPt3' stroke-width='0.222' stroke='currentColor' x='-1' y='-1' width='2' height='2'/>
	<rect id='gpPt4' stroke-width='0.222' stroke='currentColor' fill='currentColor' x='-1' y='-1' width='2' height='2'/>
	<circle id='gpPt5' stroke-width='0.222' stroke='currentColor' cx='0' cy='0' r='1'/>
	<use xlink:href='#gpPt5' id='gpPt6' fill='currentColor' stroke='none'/>
	<path id='gpPt7' stroke-width='0.222' stroke='currentColor' d='M0,-1.33 L-1.33,0.67 L1.33,0.67 z'/>
	<use xlink:href='#gpPt7' id='gpPt8' fill='currentColor' stroke='none'/>
	<use xlink:href='#gpPt7' id='gpPt9' stroke='currentColor' transform='rotate(180)'/>
	<use xlink:href='#gpPt9' id='gpPt10' fill='currentColor' stroke='none'/>
	<use xlink:href='#gpPt3' id='gpPt11' stroke='currentColor' transform='rotate(45)'/>
	<use xlink:href='#gpPt11' id='gpPt12' fill='currentColor' stroke='none'/>
	<path id='gpPt13' stroke-width='0.222' stroke='currentColor' d='M0,1.330 L1.265,0.411 L0.782,-1.067 L-0.782,-1.076 L-1.265,0.411 z'/>
	<use xlink:href='#gpPt13' id='gpPt14' fill='currentColor' stroke='none'/>
	<filter id='textbox' filterUnits='objectBoundingBox' x='0' y='0' height='1' width='1'>
	  <feFlood flood-color='white' flood-opacity='1' result='bgnd'/>
	  <feComposite in='SourceGraphic' in2='bgnd' operator='atop'/>
	</filter>
	<filter id='greybox' filterUnits='objectBoundingBox' x='0' y='0' height='1' width='1'>
	  <feFlood flood-color='lightgrey' flood-opacity='1' result='grey'/>
	  <feComposite in='SourceGraphic' in2='grey' operator='atop'/>
	</filter>
</defs>
<g fill="none" color="white" stroke="currentColor" stroke-width="1.00" stroke-linecap="butt" stroke-linejoin="miter">
</g>
<g fill="none" color="black" stroke="currentColor" stroke-width="1.00" stroke-linecap="butt" stroke-linejoin="miter">
	<path stroke='black'  d='M80.2,662.4 L89.2,662.4  '/>	<g transform="translate(71.9,666.3)" stroke="none" fill="black" font-family="Helvetica" font-size="12.00"  text-anchor="end">
		<text><tspan font-family="Helvetica" > 0</tspan></text>
	</g>
</g>
<g fill="none" color="black" stroke="currentColor" stroke-width="1.00" stroke-linecap="butt" stroke-linejoin="miter">
	<path stroke='black'  d='M80.2,594.8 L89.2,594.8  '/>	<g transform="translate(71.9,598.7)" stroke="none" fill="black" font-family="Helvetica" font-size="12.00"  text-anchor="end">
		<text><tspan font-family="Helvetica" > 0.01</tspan></text>
	</g>
</g>
<g fill="none" color="black" stroke="currentColor" stroke-width="1.00" stroke-linecap="butt" stroke-linejoin="miter">
	<path stroke='black'  d='M80.2,527.2 L89.2,527.2  '/>	<g transform="translate(71.9,531.1)" stroke="none" fill="black" font-family="Helvetica" font-size="12.00"  text-anchor="end">
		<text><tspan font-family="Helvetica" > 0.02</tspan></text>
	</g>
</g>
<g fill="none" color="black" stroke="currentColor" stroke-width="1.00" stroke-linecap="butt" stroke-linejoin="miter">
	<path stroke='black'  d='M80.2,459.6 L89.2,459.6  '/>	<g transform="translate(71.9,463.5)" stroke="none" fill="black" font-family="Helvetica" font-size="12.00"  text-anchor="end">
		<text><tspan font-family="Helvetica" > 0.03</tspan></text>
	</g>
</g>
<g fill="none" color="black" stroke="currentColor" stroke-width="1.00" stroke-linecap="butt" stroke-linejoin="miter">
	<path stroke='black'  d='M80.2,392.0 L89.2,392.0  '/>	<g transform="translate(71.9,395.9)" stroke="none" fill="black" font-family="Helvetica" font-size="12.00"  text-anchor="end">
		<text><tspan font-family="Helvetica" > 0.04</tspan></text>
	</g>
</g>
<g fill="none" color="black" stroke="currentColor" stroke-width="1.00" stroke-linecap="butt" stroke-linejoin="miter">
	<path stroke='black'  d='M80.2,324.5 L89.2,324.5  '/>	<g transform="translate(71.9,328.4)" stroke="none" fill="black" font-family="Helvetica" font-size="12.00"  text-anchor="end">
		<text><tspan font-family="Helvetica" > 0.05</tspan></text>
	</g>
</g>
<g fill="none" color="black" stroke="currentColor" stroke-width="1.00" stroke-linecap="butt" stroke-linejoin="miter">
	<path stroke='black'  d='M80.2,256.9 L89.2,256.9  '/>	<g transform="translate(71.9,260.8)" stroke="none" fill="black" font-family="Helvetica" font-size="12.00"  text-anchor="end">
		<text><tspan font-family="Helvetica" > 0.06</tspan></text>
	</g>
</g>
<g fill="none" color="black" stroke="currentColor" stroke-width="1.00" stroke-linecap="butt" stroke-linejoin="miter">
	<path stroke='black'  d='M80.2,189.3 L89.2,189.3  '/>	<g transform="translate(71.9,193.2)" stroke="none" fill="black" font-family="Helvetica" font-size="12.00"  text-anchor="end">
		<text><tspan font-family="Helvetica" > 0.07</tspan></text>
	</g>
</g>
<g fill="none" color="black" stroke="currentColor" stroke-width="1.00" stroke-linecap="butt" stroke-linejoin="miter">
	<path stroke='black'  d='M80.2,121.7 L89.2,121.7  '/>	<g transform="translate(71.9,125.6)" stroke="none" fill="black" font-family="Helvetica" font-size="12.00"  text-anchor="end">
		<text><tspan font-family="Helvetica" > 0.08</tspan></text>
	</g>
</g>
<g fill="none" color="black" stroke="currentColor" stroke-width="1.00" stroke-linecap="butt" stroke-linejoin="miter">
	<path stroke='black'  d='M80.2,54.1 L89.2,54.1  '/>	<g transform="translate(71.9,58.0)" stroke="none" fill="black" font-family="Helvetica" font-size="12.00"  text-anchor="end">
		<text><tspan font-family="Helvetica" > 0.09</tspan></text>
	</g>
</g>
<g fill="none" color="black" stroke="currentColor" stroke-width="1.00" stroke-linecap="butt" stroke-linejoin="miter">
	<path stroke='black'  d='M227.9,662.4 L227.9,653.4  '/>	<g transform="translate(227.9,684.3)" stroke="none" fill="black" font-family="Helvetica" font-size="12.00"  text-anchor="middle">
		<text><tspan font-family="Helvetica" > 40</tspan></text>
	</g>
</g>
<g fill="none" color="black" stroke="currentColor" stroke-width="1.00" stroke-linecap="butt" stroke-linejoin="miter">
	<path stroke='black'  d='M421.9,662.4 L421.9,653.4  '/>	<g transform="translate(421.9,684.3)" stroke="none" fill="black" font-family="Helvetica" font-size="12.00"  text-anchor="middle">
		<text><tspan font-family="Helvetica" > 45</tspan></text>
	</g>
</g>
<g fill="none" color="black" stroke="currentColor" stroke-width="1.00" stroke-linecap="butt" stroke-linejoin="miter">
	<path stroke='black'  d='M615.8,662.4 L615.8,653.4  '/>	<g transform="translate(615.8,684.3)" stroke="none" fill="black" font-family="Helvetica" font-size="12.00"  text-anchor="middle">
		<text><tspan font-family="Helvetica" > 50</tspan></text>
	</g>
</g>
<g fill="none" color="black" stroke="currentColor" stroke-width="1.00" stroke-linecap="butt" stroke-linejoin="miter">
	<path stroke='black'  d='M809.8,662.4 L809.8,653.4  '/>	<g transform="translate(809.8,684.3)" stroke="none" fill="black" font-family="Helvetica" font-size="12.00"  text-anchor="middle">
		<text><tspan font-family="Helvetica" > 55</tspan></text>
	</g>
</g>
<g fill="none" color="black" stroke="currentColor" stroke-width="1.00" stroke-linecap="butt" stroke-linejoin="miter">
	<path stroke='black'  d='M1003.7,662.4 L1003.7,653.4  '/>	<g transform="translate(1003.7,684.3)" stroke="none" fill="black" font-family="Helvetica" font-size="12.00"  text-anchor="middle">
		<text><tspan font-family="Helvetica" > 60</tspan></text>
	</g>
</g>
<g fill="none" color="black" stroke="currentColor" stroke-width="1.00" stroke-linecap="butt" stroke-linejoin="miter">
</g>
<g fill="none" color="black" stroke="currentColor" stroke-width="1.00" stroke-linecap="butt" stroke-linejoin="miter">
	<path stroke='black'  d='M80.2,54.1 L80.2,662.4 L1013.6,662.4 L1013.6,54.1 L80.2,54.1 Z  '/></g>
<g fill="none" color="black" stroke="currentColor" stroke-width="1.00" stroke-linecap="butt" stroke-linejoin="miter">
	<g transform="translate(19.0,358.3) rotate(270)" stroke="none" fill="black" font-family="Helvetica" font-size="12.00"  text-anchor="middle">
		<text><tspan font-family="Helvetica" >Density (a.u.)</tspan></text>
	</g>
</g>
<g fill="none" color="black" stroke="currentColor" stroke-width="1.00" stroke-linecap="butt" stroke-linejoin="miter">
	<g transform="translate(546.9,711.3)" stroke="none" fill="black" font-family="Helvetica" font-size="12.00"  text-anchor="middle">
		<text><tspan font-family="Helvetica" >Average time (ps)</tspan></text>
	</g>
</g>
<g fill="none" color="black" stroke="currentColor" stroke-width="1.00" stroke-linecap="butt" stroke-linejoin="miter">
	<g transform="translate(546.9,31.0)" stroke="none" fill="black" font-family="Helvetica" font-size="12.00"  text-anchor="middle">
		<text><tspan font-family="Helvetica" >Parse/Standard parse/1: MAD</tspan></text>
	</g>
</g>
<g fill="none" color="black" stroke="currentColor" stroke-width="1.00" stroke-linecap="butt" stroke-linejoin="miter">
</g>
	<g id="gnuplot_plot_1" ><title>Bootstrap distribution</title>
<g fill="none" color="white" stroke="currentColor" stroke-width="2.00" stroke-linecap="butt" stroke-linejoin="miter">
</g>
<g fill="none" color="black" stroke="currentColor" stroke-width="2.00" stroke-linecap="butt" stroke-linejoin="miter">
	<g transform="translate(1089.0,67.0)" stroke="none" fill="black" font-family="Helvetica" font-size="12.00"  text-anchor="start">
		<text><tspan font-family="Helvetica" >Bootstrap distribution</tspan></text>
	</g>
</g>
<g fill="none" color="black" stroke="currentColor" stroke-width="2.00" stroke-linecap="butt" stroke-linejoin="miter">
	<path stroke='rgb( 31, 120, 180)'  d='M1038.5,63.1 L1080.7,63.1 M80.2,630.1 L82.1,629.8 L83.9,629.6 L85.8,629.3 L87.7,629.1 L89.6,629.0
		L91.4,628.8 L93.3,628.7 L95.2,628.5 L97.0,628.5 L98.9,628.4 L100.8,628.3 L102.6,628.3 L104.5,628.3
		L106.4,628.2 L108.3,628.2 L110.1,628.2 L112.0,628.1 L113.9,628.1 L115.7,628.0 L117.6,627.9 L119.5,627.8
		L121.4,627.6 L123.2,627.4 L125.1,627.1 L127.0,626.7 L128.8,626.3 L130.7,625.9 L132.6,625.4 L134.4,624.8
		L136.3,624.1 L138.2,623.4 L140.1,622.7 L141.9,621.9 L143.8,621.0 L145.7,620.1 L147.5,619.2 L149.4,618.2
		L151.3,617.2 L153.2,616.2 L155.0,615.1 L156.9,614.0 L158.8,612.9 L160.6,611.8 L162.5,610.7 L164.4,609.6
		L166.2,608.5 L168.1,607.4 L170.0,606.3 L171.9,605.3 L173.7,604.2 L175.6,603.2 L177.5,602.3 L179.3,601.3
		L181.2,600.4 L183.1,599.5 L185.0,598.6 L186.8,597.7 L188.7,596.8 L190.6,596.0 L192.4,595.1 L194.3,594.3
		L196.2,593.4 L198.0,592.5 L199.9,591.5 L201.8,590.5 L203.7,589.5 L205.5,588.4 L207.4,587.3 L209.3,586.0
		L211.1,584.8 L213.0,583.4 L214.9,581.9 L216.7,580.4 L218.6,578.8 L220.5,577.2 L222.4,575.4 L224.2,573.6
		L226.1,571.7 L228.0,569.8 L229.8,567.8 L231.7,565.8 L233.6,563.7 L235.5,561.5 L237.3,559.3 L239.2,557.1
		L241.1,554.8 L242.9,552.4 L244.8,550.1 L246.7,547.6 L248.5,545.2 L250.4,542.8 L252.3,540.3 L254.2,537.8
		L256.0,535.3 L257.9,532.8 L259.8,530.4 L261.6,527.9 L263.5,525.5 L265.4,523.1 L267.3,520.8 L269.1,518.5
		L271.0,516.3 L272.9,514.1 L274.7,512.0 L276.6,510.0 L278.5,508.0 L280.3,506.1 L282.2,504.2 L284.1,502.4
		L286.0,500.6 L287.8,498.9 L289.7,497.3 L291.6,495.7 L293.4,494.1 L295.3,492.6 L297.2,491.2 L299.1,489.8
		L300.9,488.5 L302.8,487.2 L304.7,486.0 L306.5,484.7 L308.4,483.6 L310.3,482.4 L312.1,481.2 L314.0,480.0
		L315.9,478.8 L317.8,477.5 L319.6,476.2 L321.5,474.7 L323.4,473.2 L325.2,471.5 L327.1,469.7 L329.0,467.8
		L330.9,465.7 L332.7,463.5 L334.6,461.1 L336.5,458.6 L338.3,455.9 L340.2,453.1 L342.1,450.2 L343.9,447.1
		L345.8,444.0 L347.7,440.8 L349.6,437.4 L351.4,434.0 L353.3,430.5 L355.2,426.9 L357.0,423.3 L358.9,419.5
		L360.8,415.6 L362.7,411.6 L364.5,407.5 L366.4,403.3 L368.3,398.9 L370.1,394.3 L372.0,389.5 L373.9,384.6
		L375.7,379.5 L377.6,374.1 L379.5,368.6 L381.4,362.8 L383.2,356.9 L385.1,350.7 L387.0,344.4 L388.8,337.8
		L390.7,331.1 L392.6,324.3 L394.5,317.2 L396.3,310.1 L398.2,302.9 L400.1,295.6 L401.9,288.2 L403.8,280.8
		L405.7,273.4 L407.5,266.0 L409.4,258.7 L411.3,251.6 L413.2,244.6 L415.0,237.8 L416.9,231.2 L418.8,225.0
		L420.6,219.1 L422.5,213.6 L424.4,208.6 L426.3,204.1 L428.1,200.1 L430.0,196.6 L431.9,193.8 L433.7,191.5
		L435.6,189.8 L437.5,188.6 L439.3,188.0 L441.2,187.8 L443.1,188.1 L445.0,188.7 L446.8,189.7 L448.7,190.8
		L450.6,192.1 L452.4,193.4 L454.3,194.6 L456.2,195.7 L458.0,196.6 L459.9,197.1 L461.8,197.3 L463.7,197.1
		L465.5,196.3 L467.4,195.2 L469.3,193.5 L471.1,191.3 L473.0,188.7 L474.9,185.8 L476.8,182.4 L478.6,178.9
		L480.5,175.2 L482.4,171.4 L484.2,167.6 L486.1,164.0 L488.0,160.6 L489.8,157.5 L491.7,154.8 L493.6,152.6
		L495.5,151.0 L497.3,149.8 L499.2,149.2 L501.1,149.2 L502.9,149.7 L504.8,150.7 L506.7,152.2 L508.6,153.9
		L510.4,156.0 L512.3,158.2 L514.2,160.6 L516.0,162.9 L517.9,165.2 L519.8,167.3 L521.6,169.2 L523.5,170.8
		L525.4,172.1 L527.3,173.0 L529.1,173.5 L531.0,173.7 L532.9,173.5 L534.7,173.0 L536.6,172.2 L538.5,171.1
		L540.4,169.9 L542.2,168.6 L544.1,167.3 L546.0,165.9 L547.8,164.7 L549.7,163.6 L551.6,162.6 L553.4,161.9
		L555.3,161.4 L557.2,161.1 L559.1,161.1 L560.9,161.3 L562.8,161.8 L564.7,162.4 L566.5,163.2 L568.4,164.1
		L570.3,165.0 L572.2,166.0 L574.0,166.8 L575.9,167.6 L577.8,168.2 L579.6,168.6 L581.5,168.8 L583.4,168.7
		L585.2,168.3 L587.1,167.7 L589.0,166.7 L590.9,165.5 L592.7,164.0 L594.6,162.3 L596.5,160.3 L598.3,158.2
		L600.2,155.9 L602.1,153.6 L604.0,151.2 L605.8,148.9 L607.7,146.6 L609.6,144.5 L611.4,142.5 L613.3,140.7
		L615.2,139.1 L617.0,137.9 L618.9,136.9 L620.8,136.1 L622.7,135.7 L624.5,135.6 L626.4,135.7 L628.3,136.0
		L630.1,136.6 L632.0,137.3 L633.9,138.2 L635.8,139.2 L637.6,140.3 L639.5,141.3 L641.4,142.4 L643.2,143.4
		L645.1,144.3 L647.0,145.2 L648.8,145.8 L650.7,146.4 L652.6,146.7 L654.5,146.8 L656.3,146.8 L658.2,146.5
		L660.1,146.0 L661.9,145.3 L663.8,144.4 L665.7,143.3 L667.5,141.9 L669.4,140.4 L671.3,138.6 L673.2,136.8
		L675.0,134.7 L676.9,132.6 L678.8,130.4 L680.6,128.2 L682.5,126.0 L684.4,123.8 L686.3,121.7 L688.1,119.8
		L690.0,118.0 L691.9,116.4 L693.7,115.0 L695.6,113.9 L697.5,113.0 L699.3,112.5 L701.2,112.3 L703.1,112.5
		L705.0,112.9 L706.8,113.8 L708.7,115.0 L710.6,116.5 L712.4,118.4 L714.3,120.6 L716.2,123.1 L718.1,126.0
		L719.9,129.1 L721.8,132.5 L723.7,136.2 L725.5,140.1 L727.4,144.3 L729.3,148.7 L731.1,153.2 L733.0,157.9
		L734.9,162.7 L736.8,167.7 L738.6,172.8 L740.5,178.0 L742.4,183.3 L744.2,188.6 L746.1,194.0 L748.0,199.5
		L749.9,205.0 L751.7,210.5 L753.6,216.1 L755.5,221.6 L757.3,227.2 L759.2,232.8 L761.1,238.3 L762.9,243.8
		L764.8,249.3 L766.7,254.8 L768.6,260.3 L770.4,265.7 L772.3,271.1 L774.2,276.5 L776.0,281.9 L777.9,287.3
		L779.8,292.8 L781.7,298.3 L783.5,303.9 L785.4,309.5 L787.3,315.2 L789.1,321.0 L791.0,326.9 L792.9,332.9
		L794.7,339.0 L796.6,345.2 L798.5,351.6 L800.4,358.0 L802.2,364.5 L804.1,371.2 L806.0,377.9 L807.8,384.6
		L809.7,391.4 L811.6,398.3 L813.5,405.1 L815.3,412.0 L817.2,418.9 L819.1,425.7 L820.9,432.5 L822.8,439.3
		L824.7,445.9 L826.5,452.5 L828.4,458.9 L830.3,465.3 L832.2,471.4 L834.0,477.5 L835.9,483.4 L837.8,489.1
		L839.6,494.7 L841.5,500.1 L843.4,505.3 L845.3,510.4 L847.1,515.3 L849.0,520.0 L850.9,524.6 L852.7,529.1
		L854.6,533.4 L856.5,537.6 L858.3,541.6 L860.2,545.6 L862.1,549.4 L864.0,553.1 L865.8,556.7 L867.7,560.1
		L869.6,563.5 L871.4,566.7 L873.3,569.8 L875.2,572.8 L877.1,575.6 L878.9,578.3 L880.8,580.9 L882.7,583.3
		L884.5,585.6 L886.4,587.8 L888.3,589.8 L890.1,591.7 L892.0,593.5 L893.9,595.1 L895.8,596.6 L897.6,597.9
		L899.5,599.1 L901.4,600.2 L903.2,601.1 L905.1,602.0 L907.0,602.7 L908.8,603.4 L910.7,604.0 L912.6,604.5
		L914.5,604.9 L916.3,605.3 L918.2,605.7 L920.1,606.1 L921.9,606.5 L923.8,606.9 L925.7,607.3 L927.6,607.8
		L929.4,608.3 L931.3,608.9 L933.2,609.6 L935.0,610.3 L936.9,611.0 L938.8,611.9 L940.6,612.7 L942.5,613.6
		L944.4,614.5 L946.3,615.5 L948.1,616.4 L950.0,617.4 L951.9,618.3 L953.7,619.2 L955.6,620.1 L957.5,620.9
		L959.4,621.7 L961.2,622.5 L963.1,623.1 L965.0,623.8 L966.8,624.3 L968.7,624.8 L970.6,625.3 L972.4,625.7
		L974.3,626.1 L976.2,626.5 L978.1,626.8 L979.9,627.1 L981.8,627.4 L983.7,627.7 L985.5,627.9 L987.4,628.2
		L989.3,628.5 L991.2,628.7 L993.0,629.0 L994.9,629.3 L996.8,629.6 L998.6,630.0 L1000.5,630.4 L1002.4,630.7
		L1004.2,631.2 L1006.1,631.6 L1008.0,632.0 L1009.9,632.5 L1011.7,633.0 L1013.6,633.6  '/></g>
	</g>
	<g id="gnuplot_plot_2" ><title>Confidence interval</title>
<g fill="none" color="white" stroke="rgb( 31, 120, 180)" stroke-width="1.00" stroke-linecap="butt" stroke-linejoin="miter">
</g>
<g fill="none" color="black" stroke="currentColor" stroke-width="1.00" stroke-linecap="butt" stroke-linejoin="miter">
	<g transform="translate(1089.0,85.0)" stroke="none" fill="black" font-family="Helvetica" font-size="12.00"  text-anchor="start">
		<text><tspan font-family="Helvetica" >Confidence interval</tspan></text>
	</g>
</g>
<g fill="none" color="black" stroke="currentColor" stroke-width="1.00" stroke-linecap="butt" stroke-linejoin="miter">
	<g stroke='none' shape-rendering='crispEdges'>
		<polygon fill = 'rgb( 31, 120, 180)' fill-opacity = '0.250000' points = '1038.5,85.6 1080.7,85.6 1080.7,76.6 1038.5,76.6 '/>
		<polygon fill = 'rgb( 31, 120, 180)' fill-opacity = '0.250000' points = '166.2,608.5 168.1,607.4 170.0,606.3 171.9,605.3 173.7,604.2 175.6,603.2 177.5,602.3 179.3,601.3 181.2,600.4 183.1,599.5 185.0,598.6 186.8,597.7 188.7,596.8 190.6,596.0 192.4,595.1 194.3,594.3
196.2,593.4 198.0,592.5 199.9,591.5 201.8,590.5 203.7,589.5 205.5,588.4 207.4,587.3 209.3,586.0 211.1,584.8 213.0,583.4 214.9,581.9 216.7,580.4 218.6,578.8 220.5,577.2 222.4,575.4 224.2,573.6
226.1,571.7 228.0,569.8 229.8,567.8 231.7,565.8 233.6,563.7 235.5,561.5 237.3,559.3 239.2,557.1 241.1,554.8 242.9,552.4 244.8,550.1 246.7,547.6 248.5,545.2 250.4,542.8 252.3,540.3 254.2,537.8
256.0,535.3 257.9,532.8 259.8,530.4 261.6,527.9 263.5,525.5 265.4,523.1 267.3,520.8 269.1,518.5 271.0,516.3 272.9,514.1 274.7,512.0 276.6,510.0 278.5,508.0 280.3,506.1 282.2,504.2 284.1,502.4
286.0,500.6 287.8,498.9 289.7,497.3 291.6,495.7 293.4,494.1 295.3,492.6 297.2,491.2 299.1,489.8 300.9,488.5 302.8,487.2 304.7,486.0 306.5,484.7 308.4,483.6 310.3,482.4 312.1,481.2 314.0,480.0
315.9,478.8 317.8,477.5 319.6,476.2 321.5,474.7 323.4,473.2 325.2,471.5 327.1,469.7 329.0,467.8 330.9,465.7 332.7,463.5 334.6,461.1 336.5,458.6 338.3,455.9 340.2,453.1 342.1,450.2 343.9,447.1
345.8,444.0 347.7,440.8 349.6,437.4 351.4,434.0 353.3,430.5 355.2,426.9 357.0,423.3 358.9,419.5 360.8,415.6 362.7,411.6 364.5,407.5 366.4,403.3 368.3,398.9 370.1,394.3 372.0,389.5 373.9,384.6
375.7,379.5 377.6,374.1 379.5,368.6 381.4,362.8 383.2,356.9 385.1,350.7 387.0,344.4 388.8,337.8 390.7,331.1 392.6,324.3 394.5,317.2 396.3,310.1 398.2,302.9 400.1,295.6 401.9,288.2 403.8,280.8
405.7,273.4 407.5,266.0 409.4,258.7 411.3,251.6 413.2,244.6 415.0,237.8 416.9,231.2 418.8,225.0 420.6,219.1 422.5,213.6 424.4,208.6 426.3,204.1 428.1,200.1 430.0,196.6 431.9,193.8 433.7,191.5
435.6,189.8 437.5,188.6 439.3,188.0 441.2,187.8 443.1,188.1 445.0,188.7 446.8,189.7 448.7,190.8 450.6,192.1 452.4,193.4 454.3,194.6 456.2,195.7 458.0,196.6 459.9,197.1 461.8,197.3 463.7,197.1
465.5,196.3 467.4,195.2 469.3,193.5 471.1,191.3 473.0,188.7 474.9,185.8 476.8,182.4 478.6,178.9 480.5,175.2 482.4,171.4 484.2,167.6 486.1,164.0 488.0,160.6 489.8,157.5 491.7,154.8 493.6,152.6
495.5,151.0 497.3,149.8 499.2,149.2 501.1,149.2 502.9,149.7 504.8,150.7 506.7,152.2 508.6,153.9 510.4,156.0 512.3,158.2 514.2,160.6 516.0,162.9 517.9,165.2 519.8,167.3 521.6,169.2 523.5,170.8
525.4,172.1 527.3,173.0 529.1,173.5 531.0,173.7 532.9,173.5 534.7,173.0 536.6,172.2 538.5,171.1 540.4,169.9 542.2,168.6 544.1,167.3 546.0,165.9 547.8,164.7 549.7,163.6 551.6,162.6 553.4,161.9
555.3,161.4 557.2,161.1 559.1,161.1 560.9,161.3 562.8,161.8 564.7,162.4 566.5,163.2 568.4,164.1 570.3,165.0 572.2,166.0 574.0,166.8 575.9,167.6 577.8,168.2 579.6,168.6 581.5,168.8 583.4,168.7
585.2,168.3 587.1,167.7 589.0,166.7 590.9,165.5 592.7,164.0 594.6,162.3 596.5,160.3 598.3,158.2 600.2,155.9 602.1,153.6 604.0,151.2 605.8,148.9 607.7,146.6 609.6,144.5 611.4,142.5 613.3,140.7
615.2,139.1 617.0,137.9 618.9,136.9 620.8,136.1 622.7,135.7 624.5,135.6 626.4,135.7 628.3,136.0 630.1,136.6 632.0,137.3 633.9,138.2 635.8,139.2 637.6,140.3 639.5,141.3 641.4,142.4 643.2,143.4
645.1,144.3 647.0,145.2 648.8,145.8 650.7,146.4 652.6,146.7 654.5,146.8 656.3,146.8 658.2,146.5 660.1,146.0 661.9,145.3 663.8,144.4 665.7,143.3 667.5,141.9 669.4,140.4 671.3,138.6 673.2,136.8
675.0,134.7 676.9,132.6 678.8,130.4 680.6,128.2 682.5,126.0 684.4,123.8 686.3,121.7 688.1,119.8 690.0,118.0 691.9,116.4 693.7,115.0 695.6,113.9 697.5,113.0 699.3,112.5 701.2,112.3 703.1,112.5
705.0,112.9 706.8,113.8 708.7,115.0 710.6,116.5 712.4,118.4 714.3,120.6 716.2,123.1 718.1,126.0 719.9,129.1 721.8,132.5 723.7,136.2 725.5,140.1 727.4,144.3 729.3,148.7 731.1,153.2 733.0,157.9
734.9,162.7 736.8,167.7 738.6,172.8 740.5,178.0 742.4,183.3 744.2,188.6 746.1,194.0 748.0,199.5 749.9,205.0 751.7,210.5 753.6,216.1 755.5,221.6 757.3,227.2 759.2,232.8 761.1,238.3 762.9,243.8
764.8,249.3 766.7,254.8 768.6,260.3 770.4,265.7 772.3,271.1 774.2,276.5 776.0,281.9 777.9,287.3 779.8,292.8 781.7,298.3 783.5,303.9 785.4,309.5 787.3,315.2 789.1,321.0 791.0,326.9 792.9,332.9
794.7,339.0 796.6,345.2 798.5,351.6 800.4,358.0 802.2,364.5 804.1,371.2 806.0,377.9 807.8,384.6 809.7,391.4 811.6,398.3 813.5,405.1 815.3,412.0 817.2,418.9 819.1,425.7 820.9,432.5 822.8,439.3
824.7,445.9 826.5,452.5 828.4,458.9 830.3,465.3 832.2,471.4 834.0,477.5 835.9,483.4 837.8,489.1 839.6,494.7 841.5,500.1 843.4,505.3 845.3,510.4 847.1,515.3 849.0,520.0 850.9,524.6 852.7,529.1
854.6,533.4 856.5,537.6 858.3,541.6 860.2,545.6 862.1,549.4 864.0,553.1 865.8,556.7 867.7,560.1 869.6,563.5 871.4,566.7 873.3,569.8 875.2,572.8 877.1,575.6 878.9,578.3 880.8,580.9 882.7,583.3
884.5,585.6 886.4,587.8 888.3,589.8 890.1,591.7 892.0,593.5 893.9,595.1 895.8,596.6 897.6,597.9 899.5,599.1 901.4,600.2 903.2,601.1 905.1,602.0 907.0,602.7 908.8,603.4 910.7,604.0 912.6,604.5
914.5,604.9 916.3,605.3 918.2,605.7 920.1,606.1 921.9,606.5 923.8,606.9 925.7,607.3 925.7,662.4 923.8,662.4 921.9,662.4 920.1,662.4 918.2,662.4 916.3,662.4 914.5,662.4 912.6,662.4 910.7,662.4
908.8,662.4 907.0,662.4 905.1,662.4 903.2,662.4 901.4,662.4 899.5,662.4 897.6,662.4 895.8,662.4 893.9,662.4 892.0,662.4 890.1,662.4 888.3,662.4 886.4,662.4 884.5,662.4 882.7,662.4 880.8,662.4
878.9,662.4 877.1,662.4 875.2,662.4 873.3,662.4 871.4,662.4 869.6,662.4 867.7,662.4 865.8,662.4 864.0,662.4 862.1,662.4 860.2,662.4 858.3,662.4 856.5,662.4 854.6,662.4 852.7,662.4 850.9,662.4
849.0,662.4 847.1,662.4 845.3,662.4 843.4,662.4 841.5,662.4 839.6,662.4 837.8,662.4 835.9,662.4 834.0,662.4 832.2,662.4 830.3,662.4 828.4,662.4 826.5,662.4 824.7,662.4 822.8,662.4 820.9,662.4
819.1,662.4 817.2,662.4 815.3,662.4 813.5,662.4 811.6,662.4 809.7,662.4 807.8,662.4 806.0,662.4 804.1,662.4 802.2,662.4 800.4,662.4 798.5,662.4 796.6,662.4 794.7,662.4 792.9,662.4 791.0,662.4
789.1,662.4 787.3,662.4 785.4,662.4 783.5,662.4 781.7,662.4 779.8,662.4 777.9,662.4 776.0,662.4 774.2,662.4 772.3,662.4 770.4,662.4 768.6,662.4 766.7,662.4 764.8,662.4 762.9,662.4 761.1,662.4
759.2,662.4 757.3,662.4 755.5,662.4 753.6,662.4 751.7,662.4 749.9,662.4 748.0,662.4 746.1,662.4 744.2,662.4 742.4,662.4 740.5,662.4 738.6,662.4 736.8,662.4 734.9,662.4 733.0,662.4 731.1,662.4
729.3,662.4 727.4,662.4 725.5,662.4 723.7,662.4 721.8,662.4 719.9,662.4 718.1,662.4 716.2,662.4 714.3,662.4 712.4,662.4 710.6,662.4 708.7,662.4 706.8,662.4 705.0,662.4 703.1,662.4 701.2,662.4
699.3,662.4 697.5,662.4 695.6,662.4 693.7,662.4 691.9,662.4 690.0,662.4 688.1,662.4 686.3,662.4 684.4,662.4 682.5,662.4 680.6,662.4 678.8,662.4 676.9,662.4 675.0,662.4 673.2,662.4 671.3,662.4
669.4,662.4 667.5,662.4 665.7,662.4 663.8,662.4 661.9,662.4 660.1,662.4 658.2,662.4 656.3,662.4 654.5,662.4 652.6,662.4 650.7,662.4 648.8,662.4 647.0,662.4 645.1,662.4 643.2,662.4 641.4,662.4
639.5,662.4 637.6,662.4 635.8,662.4 633.9,662.4 632.0,662.4 630.1,662.4 628.3,662.4 626.4,662.4 624.5,662.4 622.7,662.4 620.8,662.4 618.9,662.4 617.0,662.4 615.2,662.4 613.3,662.4 611.4,662.4
609.6,662.4 607.7,662.4 605.8,662.4 604.0,662.4 602.1,662.4 600.2,662.4 598.3,662.4 596.5,662.4 594.6,662.4 592.7,662.4 590.9,662.4 589.0,662.4 587.1,662.4 585.2,662.4 583.4,662.4 581.5,662.4
579.6,662.4 577.8,662.4 575.9,662.4 574.0,662.4 572.2,662.4 570.3,662.4 568.4,662.4 566.5,662.4 564.7,662.4 562.8,662.4 560.9,662.4 559.1,662.4 557.2,662.4 555.3,662.4 553.4,662.4 551.6,662.4
549.7,662.4 547.8,662.4 546.0,662.4 544.1,662.4 542.2,662.4 540.4,662.4 538.5,662.4 536.6,662.4 534.7,662.4 532.9,662.4 531.0,662.4 529.1,662.4 527.3,662.4 525.4,662.4 523.5,662.4 521.6,662.4
519.8,662.4 517.9,662.4 516.0,662.4 514.2,662.4 512.3,662.4 510.4,662.4 508.6,662.4 506.7,662.4 504.8,662.4 502.9,662.4 501.1,662.4 499.2,662.4 497.3,662.4 495.5,662.4 493.6,662.4 491.7,662.4
489.8,662.4 488.0,662.4 486.1,662.4 484.2,662.4 482.4,662.4 480.5,662.4 478.6,662.4 476.8,662.4 474.9,662.4 473.0,662.4 471.1,662.4 469.3,662.4 467.4,662.4 465.5,662.4 463.7,662.4 461.8,662.4
459.9,662.4 458.0,662.4 456.2,662.4 454.3,662.4 452.4,662.4 450.6,662.4 448.7,662.4 446.8,662.4 445.0,662.4 443.1,662.4 441.2,662.4 439.3,662.4 437.5,662.4 435.6,662.4 433.7,662.4 431.9,662.4
430.0,662.4 428.1,662.4 426.3,662.4 424.4,662.4 422.5,662.4 420.6,662.4 418.8,662.4 416.9,662.4 415.0,662.4 413.2,662.4 411.3,662.4 409.4,662.4 407.5,662.4 405.7,662.4 403.8,662.4 401.9,662.4
400.1,662.4 398.2,662.4 396.3,662.4 394.5,662.4 392.6,662.4 390.7,662.4 388.8,662.4 387.0,662.4 385.1,662.4 383.2,662.4 381.4,662.4 379.5,662.4 377.6,662.4 375.7,662.4 373.9,662.4 372.0,662.4
370.1,662.4 368.3,662.4 366.4,662.4 364.5,662.4 362.7,662.4 360.8,662.4 358.9,662.4 357.0,662.4 355.2,662.4 353.3,662.4 351.4,662.4 349.6,662.4 347.7,662.4 345.8,662.4 343.9,662.4 342.1,662.4
340.2,662.4 338.3,662.4 336.5,662.4 334.6,662.4 332.7,662.4 330.9,662.4 329.0,662.4 327.1,662.4 325.2,662.4 323.4,662.4 321.5,662.4 319.6,662.4 317.8,662.4 315.9,662.4 314.0,662.4 312.1,662.4
310.3,662.4 308.4,662.4 306.5,662.4 304.7,662.4 302.8,662.4 300.9,662.4 299.1,662.4 297.2,662.4 295.3,662.4 293.4,662.4 291.6,662.4 289.7,662.4 287.8,662.4 286.0,662.4 284.1,662.4 282.2,662.4
280.3,662.4 278.5,662.4 276.6,662.4 274.7,662.4 272.9,662.4 271.0,662.4 269.1,662.4 267.3,662.4 265.4,662.4 263.5,662.4 261.6,662.4 259.8,662.4 257.9,662.4 256.0,662.4 254.2,662.4 252.3,662.4
250.4,662.4 248.5,662.4 246.7,662.4 244.8,662.4 242.9,662.4 241.1,662.4 239.2,662.4 237.3,662.4 235.5,662.4 233.6,662.4 231.7,662.4 229.8,662.4 228.0,662.4 226.1,662.4 224.2,662.4 222.4,662.4
220.5,662.4 218.6,662.4 216.7,662.4 214.9,662.4 213.0,662.4 211.1,662.4 209.3,662.4 207.4,662.4 205.5,662.4 203.7,662.4 201.8,662.4 199.9,662.4 198.0,662.4 196.2,662.4 194.3,662.4 192.4,662.4
190.6,662.4 188.7,662.4 186.8,662.4 185.0,662.4 183.1,662.4 181.2,662.4 179.3,662.4 177.5,662.4 175.6,662.4 173.7,662.4 171.9,662.4 170.0,662.4 168.1,662.4 166.2,662.4 '/>
	</g>
</g>
	</g>
	<g id="gnuplot_plot_3" ><title>Point estimate</title>
<g fill="none" color="white" stroke="rgb( 31, 120, 180)" stroke-width="2.00" stroke-linecap="butt" stroke-linejoin="miter">
</g>
<g fill="none" color="black" stroke="currentColor" stroke-width="2.00" stroke-linecap="butt" stroke-linejoin="miter">
	<g transform="translate(1089.0,103.0)" stroke="none" fill="black" font-family="Helvetica" font-size="12.00"  text-anchor="start">
		<text><tspan font-family="Helvetica" >Point estimate</tspan></text>
	</g>
</g>
<g fill="none" color="black" stroke="currentColor" stroke-width="2.00" stroke-linecap="butt" stroke-linejoin="miter">
	<path stroke='rgb( 31, 120, 180)'  d='M1038.5,99.1 L1080.7,99.1 M668.6,662.4 L668.6,141.0  '/></g>
	</g>
<g fill="none" color="black" stroke="currentColor" stroke-width="2.00" stroke-linecap="butt" stroke-linejoin="miter">
</g>
<g fill="none" color="black" stroke="black" stroke-width="1.00" stroke-linecap="butt" stroke-linejoin="miter">
</g>
<g fill="none" color="black" stroke="currentColor" stroke-width="1.00" stroke-linecap="butt" stroke-linejoin="miter">
	<path stroke='black'  d='M80.2,54.1 L80.2,662.4 L1013.6,662.4 L1013.6,54.1 L80.2,54.1 Z  '/></g>
<g fill="none" color="black" stroke="currentColor" stroke-width="1.00" stroke-linecap="butt" stroke-linejoin="miter">
</g>
</g>
</svg>

