<?xml version="1.0" encoding="utf-8"  standalone="no"?>
<svg 
 viewBox="0 0 1280 325"
 xmlns="http://www.w3.org/2000/svg"
 xmlns:xlink="http://www.w3.org/1999/xlink"
>

<title>Gnuplot</title>
<desc>Produced by GNUPLOT 5.2 patchlevel 8 </desc>

<g id="gnuplot_canvas">

<rect x="0" y="0" width="1280" height="325" fill="none"/>
<defs>

	<circle id='gpDot' r='0.5' stroke-width='0.5' stroke='currentColor'/>
	<path id='gpPt0' stroke-width='0.222' stroke='currentColor' d='M-1,0 h2 M0,-1 v2'/>
	<path id='gpPt1' stroke-width='0.222' stroke='currentColor' d='M-1,-1 L1,1 M1,-1 L-1,1'/>
	<path id='gpPt2' stroke-width='0.222' stroke='currentColor' d='M-1,0 L1,0 M0,-1 L0,1 M-1,-1 L1,1 M-1,1 L1,-1'/>
	<rect id='gpPt3' stroke-width='0.222' stroke='currentColor' x='-1' y='-1' width='2' height='2'/>
	<rect id='gpPt4' stroke-width='0.222' stroke='currentColor' fill='currentColor' x='-1' y='-1' width='2' height='2'/>
	<circle id='gpPt5' stroke-width='0.222' stroke='currentColor' cx='0' cy='0' r='1'/>
	<use xlink:href='#gpPt5' id='gpPt6' fill='currentColor' stroke='none'/>
	<path id='gpPt7' stroke-width='0.222' stroke='currentColor' d='M0,-1.33 L-1.33,0.67 L1.33,0.67 z'/>
	<use xlink:href='#gpPt7' id='gpPt8' fill='currentColor' stroke='none'/>
	<use xlink:href='#gpPt7' id='gpPt9' stroke='currentColor' transform='rotate(180)'/>
	<use xlink:href='#gpPt9' id='gpPt10' fill='currentColor' stroke='none'/>
	<use xlink:href='#gpPt3' id='gpPt11' stroke='currentColor' transform='rotate(45)'/>
	<use xlink:href='#gpPt11' id='gpPt12' fill='currentColor' stroke='none'/>
	<path id='gpPt13' stroke-width='0.222' stroke='currentColor' d='M0,1.330 L1.265,0.411 L0.782,-1.067 L-0.782,-1.076 L-1.265,0.411 z'/>
	<use xlink:href='#gpPt13' id='gpPt14' fill='currentColor' stroke='none'/>
	<filter id='textbox' filterUnits='objectBoundingBox' x='0' y='0' height='1' width='1'>
	  <feFlood flood-color='white' flood-opacity='1' result='bgnd'/>
	  <feComposite in='SourceGraphic' in2='bgnd' operator='atop'/>
	</filter>
	<filter id='greybox' filterUnits='objectBoundingBox' x='0' y='0' height='1' width='1'>
	  <feFlood flood-color='lightgrey' flood-opacity='1' result='grey'/>
	  <feComposite in='SourceGraphic' in2='grey' operator='atop'/>
	</filter>
</defs>
<g fill="none" color="white" stroke="currentColor" stroke-width="1.00" stroke-linecap="butt" stroke-linejoin="miter">
</g>
<g fill="none" color="black" stroke="currentColor" stroke-width="1.00" stroke-linecap="butt" stroke-linejoin="miter">
	<path stroke='black'  d='M229.6,246.1 L238.6,246.1  '/>	<g transform="translate(221.3,250.0)" stroke="none" fill="black" font-family="Helvetica" font-size="12.00"  text-anchor="end">
		<text><tspan font-family="Helvetica" >Parse/Manual/9999999999</tspan></text>
	</g>
</g>
<g fill="none" color="black" stroke="currentColor" stroke-width="1.00" stroke-linecap="butt" stroke-linejoin="miter">
	<path stroke='black'  d='M229.6,203.4 L238.6,203.4  '/>	<g transform="translate(221.3,207.3)" stroke="none" fill="black" font-family="Helvetica" font-size="12.00"  text-anchor="end">
		<text><tspan font-family="Helvetica" >Parse/Manual/9999</tspan></text>
	</g>
</g>
<g fill="none" color="black" stroke="currentColor" stroke-width="1.00" stroke-linecap="butt" stroke-linejoin="miter">
	<path stroke='black'  d='M229.6,160.7 L238.6,160.7  '/>	<g transform="translate(221.3,164.6)" stroke="none" fill="black" font-family="Helvetica" font-size="12.00"  text-anchor="end">
		<text><tspan font-family="Helvetica" >Parse/Manual/999</tspan></text>
	</g>
</g>
<g fill="none" color="black" stroke="currentColor" stroke-width="1.00" stroke-linecap="butt" stroke-linejoin="miter">
	<path stroke='black'  d='M229.6,118.1 L238.6,118.1  '/>	<g transform="translate(221.3,122.0)" stroke="none" fill="black" font-family="Helvetica" font-size="12.00"  text-anchor="end">
		<text><tspan font-family="Helvetica" >Parse/Manual/50</tspan></text>
	</g>
</g>
<g fill="none" color="black" stroke="currentColor" stroke-width="1.00" stroke-linecap="butt" stroke-linejoin="miter">
	<path stroke='black'  d='M229.6,75.4 L238.6,75.4  '/>	<g transform="translate(221.3,79.3)" stroke="none" fill="black" font-family="Helvetica" font-size="12.00"  text-anchor="end">
		<text><tspan font-family="Helvetica" >Parse/Manual/1</tspan></text>
	</g>
</g>
<g fill="none" color="black" stroke="currentColor" stroke-width="1.00" stroke-linecap="butt" stroke-linejoin="miter">
</g>
<g fill="none" color="black" stroke="black" stroke-width="0.50" stroke-linecap="butt" stroke-linejoin="miter">
</g>
<g fill="none" color="gray" stroke="currentColor" stroke-width="0.50" stroke-linecap="butt" stroke-linejoin="miter">
	<path stroke='gray' stroke-dasharray='2,4' class="gridline"  d='M229.6,267.4 L229.6,54.1  '/></g>
<g fill="none" color="gray" stroke="gray" stroke-width="1.00" stroke-linecap="butt" stroke-linejoin="miter">
</g>
<g fill="none" color="black" stroke="currentColor" stroke-width="1.00" stroke-linecap="butt" stroke-linejoin="miter">
	<path stroke='black'  d='M229.6,267.4 L229.6,258.4  '/>	<g transform="translate(229.6,289.3)" stroke="none" fill="black" font-family="Helvetica" font-size="12.00"  text-anchor="middle">
		<text><tspan font-family="Helvetica" > 0</tspan></text>
	</g>
</g>
<g fill="none" color="black" stroke="currentColor" stroke-width="1.00" stroke-linecap="butt" stroke-linejoin="miter">
</g>
<g fill="none" color="black" stroke="black" stroke-width="0.50" stroke-linecap="butt" stroke-linejoin="miter">
</g>
<g fill="none" color="gray" stroke="currentColor" stroke-width="0.50" stroke-linecap="butt" stroke-linejoin="miter">
	<path stroke='gray' stroke-dasharray='2,4' class="gridline"  d='M376.1,267.4 L376.1,54.1  '/></g>
<g fill="none" color="gray" stroke="gray" stroke-width="1.00" stroke-linecap="butt" stroke-linejoin="miter">
</g>
<g fill="none" color="black" stroke="currentColor" stroke-width="1.00" stroke-linecap="butt" stroke-linejoin="miter">
	<path stroke='black'  d='M376.1,267.4 L376.1,258.4  '/>	<g transform="translate(376.1,289.3)" stroke="none" fill="black" font-family="Helvetica" font-size="12.00"  text-anchor="middle">
		<text><tspan font-family="Helvetica" > 1</tspan></text>
	</g>
</g>
<g fill="none" color="black" stroke="currentColor" stroke-width="1.00" stroke-linecap="butt" stroke-linejoin="miter">
</g>
<g fill="none" color="black" stroke="black" stroke-width="0.50" stroke-linecap="butt" stroke-linejoin="miter">
</g>
<g fill="none" color="gray" stroke="currentColor" stroke-width="0.50" stroke-linecap="butt" stroke-linejoin="miter">
	<path stroke='gray' stroke-dasharray='2,4' class="gridline"  d='M522.6,267.4 L522.6,54.1  '/></g>
<g fill="none" color="gray" stroke="gray" stroke-width="1.00" stroke-linecap="butt" stroke-linejoin="miter">
</g>
<g fill="none" color="black" stroke="currentColor" stroke-width="1.00" stroke-linecap="butt" stroke-linejoin="miter">
	<path stroke='black'  d='M522.6,267.4 L522.6,258.4  '/>	<g transform="translate(522.6,289.3)" stroke="none" fill="black" font-family="Helvetica" font-size="12.00"  text-anchor="middle">
		<text><tspan font-family="Helvetica" > 2</tspan></text>
	</g>
</g>
<g fill="none" color="black" stroke="currentColor" stroke-width="1.00" stroke-linecap="butt" stroke-linejoin="miter">
</g>
<g fill="none" color="black" stroke="black" stroke-width="0.50" stroke-linecap="butt" stroke-linejoin="miter">
</g>
<g fill="none" color="gray" stroke="currentColor" stroke-width="0.50" stroke-linecap="butt" stroke-linejoin="miter">
	<path stroke='gray' stroke-dasharray='2,4' class="gridline"  d='M669.1,267.4 L669.1,54.1  '/></g>
<g fill="none" color="gray" stroke="gray" stroke-width="1.00" stroke-linecap="butt" stroke-linejoin="miter">
</g>
<g fill="none" color="black" stroke="currentColor" stroke-width="1.00" stroke-linecap="butt" stroke-linejoin="miter">
	<path stroke='black'  d='M669.1,267.4 L669.1,258.4  '/>	<g transform="translate(669.1,289.3)" stroke="none" fill="black" font-family="Helvetica" font-size="12.00"  text-anchor="middle">
		<text><tspan font-family="Helvetica" > 3</tspan></text>
	</g>
</g>
<g fill="none" color="black" stroke="currentColor" stroke-width="1.00" stroke-linecap="butt" stroke-linejoin="miter">
</g>
<g fill="none" color="black" stroke="black" stroke-width="0.50" stroke-linecap="butt" stroke-linejoin="miter">
</g>
<g fill="none" color="gray" stroke="currentColor" stroke-width="0.50" stroke-linecap="butt" stroke-linejoin="miter">
	<path stroke='gray' stroke-dasharray='2,4' class="gridline"  d='M815.5,267.4 L815.5,54.1  '/></g>
<g fill="none" color="gray" stroke="gray" stroke-width="1.00" stroke-linecap="butt" stroke-linejoin="miter">
</g>
<g fill="none" color="black" stroke="currentColor" stroke-width="1.00" stroke-linecap="butt" stroke-linejoin="miter">
	<path stroke='black'  d='M815.5,267.4 L815.5,258.4  '/>	<g transform="translate(815.5,289.3)" stroke="none" fill="black" font-family="Helvetica" font-size="12.00"  text-anchor="middle">
		<text><tspan font-family="Helvetica" > 4</tspan></text>
	</g>
</g>
<g fill="none" color="black" stroke="currentColor" stroke-width="1.00" stroke-linecap="butt" stroke-linejoin="miter">
</g>
<g fill="none" color="black" stroke="black" stroke-width="0.50" stroke-linecap="butt" stroke-linejoin="miter">
</g>
<g fill="none" color="gray" stroke="currentColor" stroke-width="0.50" stroke-linecap="butt" stroke-linejoin="miter">
	<path stroke='gray' stroke-dasharray='2,4' class="gridline"  d='M962.0,267.4 L962.0,54.1  '/></g>
<g fill="none" color="gray" stroke="gray" stroke-width="1.00" stroke-linecap="butt" stroke-linejoin="miter">
</g>
<g fill="none" color="black" stroke="currentColor" stroke-width="1.00" stroke-linecap="butt" stroke-linejoin="miter">
	<path stroke='black'  d='M962.0,267.4 L962.0,258.4  '/>	<g transform="translate(962.0,289.3)" stroke="none" fill="black" font-family="Helvetica" font-size="12.00"  text-anchor="middle">
		<text><tspan font-family="Helvetica" > 5</tspan></text>
	</g>
</g>
<g fill="none" color="black" stroke="currentColor" stroke-width="1.00" stroke-linecap="butt" stroke-linejoin="miter">
</g>
<g fill="none" color="black" stroke="black" stroke-width="0.50" stroke-linecap="butt" stroke-linejoin="miter">
</g>
<g fill="none" color="gray" stroke="currentColor" stroke-width="0.50" stroke-linecap="butt" stroke-linejoin="miter">
	<path stroke='gray' stroke-dasharray='2,4' class="gridline"  d='M1108.5,267.4 L1108.5,54.1  '/></g>
<g fill="none" color="gray" stroke="gray" stroke-width="1.00" stroke-linecap="butt" stroke-linejoin="miter">
</g>
<g fill="none" color="black" stroke="currentColor" stroke-width="1.00" stroke-linecap="butt" stroke-linejoin="miter">
	<path stroke='black'  d='M1108.5,267.4 L1108.5,258.4  '/>	<g transform="translate(1108.5,289.3)" stroke="none" fill="black" font-family="Helvetica" font-size="12.00"  text-anchor="middle">
		<text><tspan font-family="Helvetica" > 6</tspan></text>
	</g>
</g>
<g fill="none" color="black" stroke="currentColor" stroke-width="1.00" stroke-linecap="butt" stroke-linejoin="miter">
</g>
<g fill="none" color="black" stroke="black" stroke-width="0.50" stroke-linecap="butt" stroke-linejoin="miter">
</g>
<g fill="none" color="gray" stroke="currentColor" stroke-width="0.50" stroke-linecap="butt" stroke-linejoin="miter">
	<path stroke='gray' stroke-dasharray='2,4' class="gridline"  d='M1255.0,267.4 L1255.0,54.1  '/></g>
<g fill="none" color="gray" stroke="gray" stroke-width="1.00" stroke-linecap="butt" stroke-linejoin="miter">
</g>
<g fill="none" color="black" stroke="currentColor" stroke-width="1.00" stroke-linecap="butt" stroke-linejoin="miter">
	<path stroke='black'  d='M1255.0,267.4 L1255.0,258.4  '/>	<g transform="translate(1255.0,289.3)" stroke="none" fill="black" font-family="Helvetica" font-size="12.00"  text-anchor="middle">
		<text><tspan font-family="Helvetica" > 7</tspan></text>
	</g>
</g>
<g fill="none" color="black" stroke="currentColor" stroke-width="1.00" stroke-linecap="butt" stroke-linejoin="miter">
</g>
<g fill="none" color="black" stroke="currentColor" stroke-width="1.00" stroke-linecap="butt" stroke-linejoin="miter">
	<path stroke='black'  d='M229.6,54.1 L229.6,267.4 L1255.0,267.4 L1255.0,54.1 L229.6,54.1 Z  '/></g>
<g fill="none" color="black" stroke="currentColor" stroke-width="1.00" stroke-linecap="butt" stroke-linejoin="miter">
	<g transform="translate(19.0,160.8) rotate(270)" stroke="none" fill="black" font-family="Helvetica" font-size="12.00"  text-anchor="middle">
		<text><tspan font-family="Helvetica" >Input</tspan></text>
	</g>
</g>
<g fill="none" color="black" stroke="currentColor" stroke-width="1.00" stroke-linecap="butt" stroke-linejoin="miter">
	<g transform="translate(742.3,316.3)" stroke="none" fill="black" font-family="Helvetica" font-size="12.00"  text-anchor="middle">
		<text><tspan font-family="Helvetica" >Average time (ns)</tspan></text>
	</g>
</g>
<g fill="none" color="black" stroke="currentColor" stroke-width="1.00" stroke-linecap="butt" stroke-linejoin="miter">
	<g transform="translate(742.3,31.0)" stroke="none" fill="black" font-family="Helvetica" font-size="12.00"  text-anchor="middle">
		<text><tspan font-family="Helvetica" >Parse/Manual: Violin plot</tspan></text>
	</g>
</g>
<g fill="none" color="black" stroke="currentColor" stroke-width="1.00" stroke-linecap="butt" stroke-linejoin="miter">
</g>
	<g id="gnuplot_plot_1" ><title>PDF</title>
<g fill="none" color="black" stroke="currentColor" stroke-width="1.00" stroke-linecap="butt" stroke-linejoin="miter">
	<g transform="translate(1187.9,76.0)" stroke="none" fill="black" font-family="Helvetica" font-size="12.00"  text-anchor="end">
		<text><tspan font-family="Helvetica" >PDF</tspan></text>
	</g>
</g>
<g fill="none" color="black" stroke="currentColor" stroke-width="1.00" stroke-linecap="butt" stroke-linejoin="miter">
	<g stroke='none' shape-rendering='crispEdges'>
		<polygon fill = 'rgb( 31, 120, 180)' fill-opacity = '0.250000' points = '1196.2,76.6 1238.4,76.6 1238.4,67.6 1196.2,67.6 '/>
		<polygon fill = 'rgb( 31, 120, 180)' fill-opacity = '0.250000' points = '987.4,246.1 987.9,246.1 988.4,246.1 988.9,246.1 989.4,246.1 989.9,246.1 990.4,246.1 990.9,246.1 991.4,246.1 992.0,246.1 992.5,246.1 993.0,246.0 993.5,246.0 994.0,246.0 994.5,246.0 995.0,246.0
995.5,246.0 996.0,246.0 996.5,246.0 997.0,246.0 997.5,246.0 998.0,246.0 998.5,246.0 999.0,246.0 999.5,246.0 1000.0,246.0 1000.5,246.0 1001.0,246.0 1001.5,246.0 1002.0,246.0 1002.5,245.9 1003.0,245.9
1003.6,245.9 1004.1,245.9 1004.6,245.9 1005.1,245.9 1005.6,245.9 1006.1,245.8 1006.6,245.8 1007.1,245.8 1007.6,245.8 1008.1,245.8 1008.6,245.7 1009.1,245.7 1009.6,245.7 1010.1,245.6 1010.6,245.6 1011.1,245.6
1011.6,245.5 1012.1,245.5 1012.6,245.5 1013.1,245.4 1013.6,245.4 1014.1,245.3 1014.6,245.2 1015.2,245.2 1015.7,245.1 1016.2,245.1 1016.7,245.0 1017.2,244.9 1017.7,244.8 1018.2,244.8 1018.7,244.7 1019.2,244.6
1019.7,244.5 1020.2,244.4 1020.7,244.3 1021.2,244.2 1021.7,244.1 1022.2,243.9 1022.7,243.8 1023.2,243.7 1023.7,243.6 1024.2,243.4 1024.7,243.3 1025.2,243.1 1025.7,242.9 1026.2,242.8 1026.8,242.6 1027.3,242.4
1027.8,242.2 1028.3,242.0 1028.8,241.8 1029.3,241.6 1029.8,241.4 1030.3,241.2 1030.8,241.0 1031.3,240.7 1031.8,240.5 1032.3,240.3 1032.8,240.0 1033.3,239.7 1033.8,239.5 1034.3,239.2 1034.8,238.9 1035.3,238.7
1035.8,238.4 1036.3,238.1 1036.8,237.8 1037.3,237.5 1037.8,237.2 1038.4,236.9 1038.9,236.6 1039.4,236.3 1039.9,235.9 1040.4,235.6 1040.9,235.3 1041.4,235.0 1041.9,234.7 1042.4,234.4 1042.9,234.0 1043.4,233.7
1043.9,233.4 1044.4,233.1 1044.9,232.8 1045.4,232.5 1045.9,232.2 1046.4,231.9 1046.9,231.6 1047.4,231.3 1047.9,231.0 1048.4,230.7 1048.9,230.4 1049.4,230.2 1050.0,229.9 1050.5,229.7 1051.0,229.4 1051.5,229.2
1052.0,229.0 1052.5,228.7 1053.0,228.5 1053.5,228.3 1054.0,228.2 1054.5,228.0 1055.0,227.8 1055.5,227.7 1056.0,227.6 1056.5,227.4 1057.0,227.3 1057.5,227.2 1058.0,227.1 1058.5,227.1 1059.0,227.0 1059.5,226.9
1060.0,226.9 1060.5,226.9 1061.0,226.9 1061.6,226.9 1062.1,226.9 1062.6,226.9 1063.1,226.9 1063.6,227.0 1064.1,227.1 1064.6,227.1 1065.1,227.2 1065.6,227.3 1066.1,227.4 1066.6,227.5 1067.1,227.6 1067.6,227.8
1068.1,227.9 1068.6,228.1 1069.1,228.2 1069.6,228.4 1070.1,228.6 1070.6,228.8 1071.1,228.9 1071.6,229.1 1072.1,229.3 1072.6,229.5 1073.2,229.7 1073.7,230.0 1074.2,230.2 1074.7,230.4 1075.2,230.6 1075.7,230.9
1076.2,231.1 1076.7,231.3 1077.2,231.5 1077.7,231.8 1078.2,232.0 1078.7,232.2 1079.2,232.5 1079.7,232.7 1080.2,232.9 1080.7,233.2 1081.2,233.4 1081.7,233.6 1082.2,233.9 1082.7,234.1 1083.2,234.3 1083.7,234.5
1084.2,234.7 1084.8,234.9 1085.3,235.1 1085.8,235.3 1086.3,235.5 1086.8,235.7 1087.3,235.9 1087.8,236.1 1088.3,236.3 1088.8,236.4 1089.3,236.6 1089.8,236.7 1090.3,236.9 1090.8,237.0 1091.3,237.2 1091.8,237.3
1092.3,237.5 1092.8,237.6 1093.3,237.7 1093.8,237.8 1094.3,237.9 1094.8,238.0 1095.3,238.1 1095.8,238.2 1096.4,238.3 1096.9,238.4 1097.4,238.5 1097.9,238.6 1098.4,238.6 1098.9,238.7 1099.4,238.8 1099.9,238.8
1100.4,238.9 1100.9,238.9 1101.4,239.0 1101.9,239.1 1102.4,239.1 1102.9,239.1 1103.4,239.2 1103.9,239.2 1104.4,239.3 1104.9,239.3 1105.4,239.4 1105.9,239.4 1106.4,239.4 1106.9,239.5 1107.4,239.5 1108.0,239.6
1108.5,239.6 1109.0,239.6 1109.5,239.7 1110.0,239.7 1110.5,239.8 1111.0,239.8 1111.5,239.9 1112.0,239.9 1112.5,240.0 1113.0,240.0 1113.5,240.1 1114.0,240.1 1114.5,240.2 1115.0,240.2 1115.5,240.3 1116.0,240.3
1116.5,240.4 1117.0,240.4 1117.5,240.5 1118.0,240.6 1118.5,240.6 1119.0,240.7 1119.6,240.8 1120.1,240.8 1120.6,240.9 1121.1,241.0 1121.6,241.0 1122.1,241.1 1122.6,241.2 1123.1,241.2 1123.6,241.3 1124.1,241.4
1124.6,241.4 1125.1,241.5 1125.6,241.6 1126.1,241.6 1126.6,241.7 1127.1,241.8 1127.6,241.8 1128.1,241.9 1128.6,241.9 1129.1,242.0 1129.6,242.1 1130.1,242.1 1130.6,242.2 1131.2,242.2 1131.7,242.3 1132.2,242.3
1132.7,242.4 1133.2,242.4 1133.7,242.5 1134.2,242.5 1134.7,242.6 1135.2,242.6 1135.7,242.7 1136.2,242.7 1136.7,242.8 1137.2,242.8 1137.7,242.8 1138.2,242.9 1138.7,242.9 1139.2,243.0 1139.7,243.0 1140.2,243.0
1140.7,243.1 1141.2,243.1 1141.7,243.2 1142.2,243.2 1142.8,243.2 1143.3,243.3 1143.8,243.3 1144.3,243.3 1144.8,243.4 1145.3,243.4 1145.8,243.4 1146.3,243.5 1146.8,243.5 1147.3,243.5 1147.8,243.6 1148.3,243.6
1148.8,243.6 1149.3,243.7 1149.8,243.7 1150.3,243.7 1150.8,243.8 1151.3,243.8 1151.8,243.8 1152.3,243.8 1152.8,243.9 1153.3,243.9 1153.8,243.9 1154.4,244.0 1154.9,244.0 1155.4,244.0 1155.9,244.1 1156.4,244.1
1156.9,244.1 1157.4,244.1 1157.9,244.2 1158.4,244.2 1158.9,244.2 1159.4,244.2 1159.9,244.3 1160.4,244.3 1160.9,244.3 1161.4,244.3 1161.9,244.3 1162.4,244.4 1162.9,244.4 1163.4,244.4 1163.9,244.4 1164.4,244.4
1164.9,244.5 1165.4,244.5 1166.0,244.5 1166.5,244.5 1167.0,244.5 1167.5,244.5 1168.0,244.5 1168.5,244.5 1169.0,244.6 1169.5,244.6 1170.0,244.6 1170.5,244.6 1171.0,244.6 1171.5,244.6 1172.0,244.6 1172.5,244.6
1173.0,244.6 1173.5,244.6 1174.0,244.6 1174.5,244.6 1175.0,244.6 1175.5,244.6 1176.0,244.7 1176.5,244.7 1177.0,244.7 1177.6,244.7 1178.1,244.7 1178.6,244.7 1179.1,244.7 1179.6,244.7 1180.1,244.7 1180.6,244.7
1181.1,244.7 1181.6,244.7 1182.1,244.7 1182.6,244.7 1183.1,244.7 1183.6,244.8 1184.1,244.8 1184.6,244.8 1185.1,244.8 1185.6,244.8 1186.1,244.8 1186.6,244.8 1187.1,244.8 1187.6,244.8 1188.1,244.9 1188.6,244.9
1189.1,244.9 1189.7,244.9 1190.2,244.9 1190.7,244.9 1191.2,245.0 1191.7,245.0 1192.2,245.0 1192.7,245.0 1193.2,245.0 1193.7,245.1 1194.2,245.1 1194.7,245.1 1195.2,245.1 1195.7,245.1 1196.2,245.2 1196.7,245.2
1197.2,245.2 1197.7,245.2 1198.2,245.2 1198.7,245.3 1199.2,245.3 1199.7,245.3 1200.2,245.3 1200.7,245.4 1201.3,245.4 1201.8,245.4 1202.3,245.4 1202.8,245.4 1203.3,245.5 1203.8,245.5 1204.3,245.5 1204.8,245.5
1205.3,245.5 1205.8,245.6 1206.3,245.6 1206.8,245.6 1207.3,245.6 1207.8,245.6 1208.3,245.7 1208.8,245.7 1209.3,245.7 1209.8,245.7 1210.3,245.7 1210.8,245.7 1211.3,245.8 1211.8,245.8 1212.3,245.8 1212.9,245.8
1213.4,245.8 1213.9,245.8 1214.4,245.8 1214.9,245.9 1215.4,245.9 1215.9,245.9 1216.4,245.9 1216.9,245.9 1217.4,245.9 1217.9,245.9 1218.4,245.9 1218.9,245.9 1219.4,245.9 1219.9,246.0 1220.4,246.0 1220.9,246.0
1221.4,246.0 1221.9,246.0 1222.4,246.0 1222.9,246.0 1223.4,246.0 1223.9,246.0 1224.5,246.0 1225.0,246.0 1225.5,246.0 1226.0,246.0 1226.5,246.0 1227.0,246.0 1227.5,246.0 1228.0,246.0 1228.5,246.0 1229.0,246.0
1229.5,246.0 1230.0,246.0 1230.5,246.0 1231.0,246.0 1231.5,246.1 1232.0,246.1 1232.5,246.1 1233.0,246.1 1233.5,246.1 1234.0,246.1 1234.5,246.1 1235.0,246.1 1235.5,246.1 1236.1,246.1 1236.6,246.1 1237.1,246.1
1237.6,246.1 1238.1,246.1 1238.6,246.1 1239.1,246.1 1239.1,246.1 1238.6,246.1 1238.1,246.1 1237.6,246.1 1237.1,246.1 1236.6,246.1 1236.1,246.1 1235.5,246.1 1235.0,246.1 1234.5,246.1 1234.0,246.1 1233.5,246.1
1233.0,246.1 1232.5,246.1 1232.0,246.1 1231.5,246.1 1231.0,246.1 1230.5,246.1 1230.0,246.1 1229.5,246.1 1229.0,246.1 1228.5,246.1 1228.0,246.1 1227.5,246.1 1227.0,246.1 1226.5,246.1 1226.0,246.1 1225.5,246.1
1225.0,246.1 1224.5,246.1 1223.9,246.1 1223.4,246.1 1222.9,246.1 1222.4,246.2 1221.9,246.2 1221.4,246.2 1220.9,246.2 1220.4,246.2 1219.9,246.2 1219.4,246.2 1218.9,246.2 1218.4,246.2 1217.9,246.2 1217.4,246.2
1216.9,246.2 1216.4,246.3 1215.9,246.3 1215.4,246.3 1214.9,246.3 1214.4,246.3 1213.9,246.3 1213.4,246.3 1212.9,246.3 1212.3,246.4 1211.8,246.4 1211.3,246.4 1210.8,246.4 1210.3,246.4 1209.8,246.4 1209.3,246.4
1208.8,246.5 1208.3,246.5 1207.8,246.5 1207.3,246.5 1206.8,246.5 1206.3,246.6 1205.8,246.6 1205.3,246.6 1204.8,246.6 1204.3,246.6 1203.8,246.7 1203.3,246.7 1202.8,246.7 1202.3,246.7 1201.8,246.7 1201.3,246.8
1200.7,246.8 1200.2,246.8 1199.7,246.8 1199.2,246.9 1198.7,246.9 1198.2,246.9 1197.7,246.9 1197.2,246.9 1196.7,247.0 1196.2,247.0 1195.7,247.0 1195.2,247.0 1194.7,247.0 1194.2,247.1 1193.7,247.1 1193.2,247.1
1192.7,247.1 1192.2,247.1 1191.7,247.2 1191.2,247.2 1190.7,247.2 1190.2,247.2 1189.7,247.2 1189.1,247.2 1188.6,247.3 1188.1,247.3 1187.6,247.3 1187.1,247.3 1186.6,247.3 1186.1,247.3 1185.6,247.3 1185.1,247.4
1184.6,247.4 1184.1,247.4 1183.6,247.4 1183.1,247.4 1182.6,247.4 1182.1,247.4 1181.6,247.4 1181.1,247.4 1180.6,247.4 1180.1,247.4 1179.6,247.4 1179.1,247.5 1178.6,247.5 1178.1,247.5 1177.6,247.5 1177.0,247.5
1176.5,247.5 1176.0,247.5 1175.5,247.5 1175.0,247.5 1174.5,247.5 1174.0,247.5 1173.5,247.5 1173.0,247.5 1172.5,247.5 1172.0,247.5 1171.5,247.5 1171.0,247.5 1170.5,247.6 1170.0,247.6 1169.5,247.6 1169.0,247.6
1168.5,247.6 1168.0,247.6 1167.5,247.6 1167.0,247.6 1166.5,247.6 1166.0,247.7 1165.4,247.7 1164.9,247.7 1164.4,247.7 1163.9,247.7 1163.4,247.7 1162.9,247.8 1162.4,247.8 1161.9,247.8 1161.4,247.8 1160.9,247.8
1160.4,247.9 1159.9,247.9 1159.4,247.9 1158.9,247.9 1158.4,248.0 1157.9,248.0 1157.4,248.0 1156.9,248.0 1156.4,248.1 1155.9,248.1 1155.4,248.1 1154.9,248.1 1154.4,248.2 1153.8,248.2 1153.3,248.2 1152.8,248.3
1152.3,248.3 1151.8,248.3 1151.3,248.4 1150.8,248.4 1150.3,248.4 1149.8,248.5 1149.3,248.5 1148.8,248.5 1148.3,248.5 1147.8,248.6 1147.3,248.6 1146.8,248.6 1146.3,248.7 1145.8,248.7 1145.3,248.7 1144.8,248.8
1144.3,248.8 1143.8,248.8 1143.3,248.9 1142.8,248.9 1142.2,249.0 1141.7,249.0 1141.2,249.0 1140.7,249.1 1140.2,249.1 1139.7,249.1 1139.2,249.2 1138.7,249.2 1138.2,249.3 1137.7,249.3 1137.2,249.3 1136.7,249.4
1136.2,249.4 1135.7,249.5 1135.2,249.5 1134.7,249.6 1134.2,249.6 1133.7,249.7 1133.2,249.7 1132.7,249.8 1132.2,249.8 1131.7,249.9 1131.2,249.9 1130.6,250.0 1130.1,250.0 1129.6,250.1 1129.1,250.1 1128.6,250.2
1128.1,250.3 1127.6,250.3 1127.1,250.4 1126.6,250.5 1126.1,250.5 1125.6,250.6 1125.1,250.6 1124.6,250.7 1124.1,250.8 1123.6,250.8 1123.1,250.9 1122.6,251.0 1122.1,251.0 1121.6,251.1 1121.1,251.2 1120.6,251.2
1120.1,251.3 1119.6,251.4 1119.0,251.4 1118.5,251.5 1118.0,251.6 1117.5,251.6 1117.0,251.7 1116.5,251.8 1116.0,251.8 1115.5,251.9 1115.0,251.9 1114.5,252.0 1114.0,252.0 1113.5,252.1 1113.0,252.1 1112.5,252.2
1112.0,252.2 1111.5,252.3 1111.0,252.3 1110.5,252.4 1110.0,252.4 1109.5,252.5 1109.0,252.5 1108.5,252.5 1108.0,252.6 1107.4,252.6 1106.9,252.7 1106.4,252.7 1105.9,252.7 1105.4,252.8 1104.9,252.8 1104.4,252.9
1103.9,252.9 1103.4,252.9 1102.9,253.0 1102.4,253.0 1101.9,253.1 1101.4,253.1 1100.9,253.2 1100.4,253.2 1099.9,253.3 1099.4,253.4 1098.9,253.4 1098.4,253.5 1097.9,253.6 1097.4,253.7 1096.9,253.7 1096.4,253.8
1095.8,253.9 1095.3,254.0 1094.8,254.1 1094.3,254.2 1093.8,254.3 1093.3,254.4 1092.8,254.6 1092.3,254.7 1091.8,254.8 1091.3,255.0 1090.8,255.1 1090.3,255.2 1089.8,255.4 1089.3,255.6 1088.8,255.7 1088.3,255.9
1087.8,256.1 1087.3,256.2 1086.8,256.4 1086.3,256.6 1085.8,256.8 1085.3,257.0 1084.8,257.2 1084.2,257.4 1083.7,257.6 1083.2,257.8 1082.7,258.1 1082.2,258.3 1081.7,258.5 1081.2,258.7 1080.7,259.0 1080.2,259.2
1079.7,259.4 1079.2,259.7 1078.7,259.9 1078.2,260.1 1077.7,260.4 1077.2,260.6 1076.7,260.8 1076.2,261.1 1075.7,261.3 1075.2,261.5 1074.7,261.7 1074.2,262.0 1073.7,262.2 1073.2,262.4 1072.6,262.6 1072.1,262.8
1071.6,263.0 1071.1,263.2 1070.6,263.4 1070.1,263.6 1069.6,263.7 1069.1,263.9 1068.6,264.1 1068.1,264.2 1067.6,264.4 1067.1,264.5 1066.6,264.6 1066.1,264.7 1065.6,264.8 1065.1,264.9 1064.6,265.0 1064.1,265.1
1063.6,265.1 1063.1,265.2 1062.6,265.2 1062.1,265.3 1061.6,265.3 1061.0,265.3 1060.5,265.3 1060.0,265.2 1059.5,265.2 1059.0,265.1 1058.5,265.1 1058.0,265.0 1057.5,264.9 1057.0,264.8 1056.5,264.7 1056.0,264.6
1055.5,264.5 1055.0,264.3 1054.5,264.1 1054.0,264.0 1053.5,263.8 1053.0,263.6 1052.5,263.4 1052.0,263.2 1051.5,263.0 1051.0,262.7 1050.5,262.5 1050.0,262.2 1049.4,262.0 1048.9,261.7 1048.4,261.4 1047.9,261.2
1047.4,260.9 1046.9,260.6 1046.4,260.3 1045.9,260.0 1045.4,259.7 1044.9,259.4 1044.4,259.0 1043.9,258.7 1043.4,258.4 1042.9,258.1 1042.4,257.8 1041.9,257.5 1041.4,257.1 1040.9,256.8 1040.4,256.5 1039.9,256.2
1039.4,255.9 1038.9,255.6 1038.4,255.3 1037.8,254.9 1037.3,254.6 1036.8,254.3 1036.3,254.1 1035.8,253.8 1035.3,253.5 1034.8,253.2 1034.3,252.9 1033.8,252.7 1033.3,252.4 1032.8,252.1 1032.3,251.9 1031.8,251.6
1031.3,251.4 1030.8,251.2 1030.3,250.9 1029.8,250.7 1029.3,250.5 1028.8,250.3 1028.3,250.1 1027.8,249.9 1027.3,249.7 1026.8,249.5 1026.2,249.4 1025.7,249.2 1025.2,249.0 1024.7,248.9 1024.2,248.7 1023.7,248.6
1023.2,248.4 1022.7,248.3 1022.2,248.2 1021.7,248.1 1021.2,248.0 1020.7,247.8 1020.2,247.7 1019.7,247.6 1019.2,247.6 1018.7,247.5 1018.2,247.4 1017.7,247.3 1017.2,247.2 1016.7,247.1 1016.2,247.1 1015.7,247.0
1015.2,246.9 1014.6,246.9 1014.1,246.8 1013.6,246.8 1013.1,246.7 1012.6,246.7 1012.1,246.6 1011.6,246.6 1011.1,246.6 1010.6,246.5 1010.1,246.5 1009.6,246.5 1009.1,246.4 1008.6,246.4 1008.1,246.4 1007.6,246.4
1007.1,246.3 1006.6,246.3 1006.1,246.3 1005.6,246.3 1005.1,246.3 1004.6,246.2 1004.1,246.2 1003.6,246.2 1003.0,246.2 1002.5,246.2 1002.0,246.2 1001.5,246.2 1001.0,246.2 1000.5,246.2 1000.0,246.2 999.5,246.1
999.0,246.1 998.5,246.1 998.0,246.1 997.5,246.1 997.0,246.1 996.5,246.1 996.0,246.1 995.5,246.1 995.0,246.1 994.5,246.1 994.0,246.1 993.5,246.1 993.0,246.1 992.5,246.1 992.0,246.1 991.4,246.1
990.9,246.1 990.4,246.1 989.9,246.1 989.4,246.1 988.9,246.1 988.4,246.1 987.9,246.1 987.4,246.1 '/>
	</g>
</g>
	</g>
	<g id="gnuplot_plot_2" ><title>gnuplot_plot_2</title>
<g fill="none" color="black" stroke="currentColor" stroke-width="1.00" stroke-linecap="butt" stroke-linejoin="miter">
	<g stroke='none' shape-rendering='crispEdges'>
		<polygon fill = 'rgb( 31, 120, 180)' fill-opacity = '0.250000' points = '520.2,203.3 520.6,203.3 521.0,203.3 521.3,203.3 521.7,203.3 522.1,203.3 522.5,203.3 522.8,203.3 523.2,203.3 523.6,203.2 524.0,203.2 524.4,203.2 524.7,203.2 525.1,203.2 525.5,203.2 525.9,203.1
526.2,203.1 526.6,203.1 527.0,203.0 527.4,203.0 527.8,203.0 528.1,202.9 528.5,202.9 528.9,202.9 529.3,202.8 529.7,202.8 530.0,202.7 530.4,202.7 530.8,202.6 531.2,202.5 531.5,202.5 531.9,202.4
532.3,202.3 532.7,202.3 533.1,202.2 533.4,202.1 533.8,202.0 534.2,201.9 534.6,201.8 535.0,201.7 535.3,201.6 535.7,201.4 536.1,201.3 536.5,201.2 536.8,201.1 537.2,200.9 537.6,200.8 538.0,200.6
538.4,200.4 538.7,200.3 539.1,200.1 539.5,199.9 539.9,199.7 540.2,199.5 540.6,199.3 541.0,199.1 541.4,198.9 541.8,198.7 542.1,198.4 542.5,198.2 542.9,197.9 543.3,197.7 543.7,197.4 544.0,197.2
544.4,196.9 544.8,196.6 545.2,196.3 545.5,196.0 545.9,195.7 546.3,195.5 546.7,195.1 547.1,194.8 547.4,194.5 547.8,194.2 548.2,193.9 548.6,193.6 548.9,193.3 549.3,192.9 549.7,192.6 550.1,192.3
550.5,192.0 550.8,191.6 551.2,191.3 551.6,191.0 552.0,190.7 552.4,190.4 552.7,190.1 553.1,189.7 553.5,189.4 553.9,189.1 554.2,188.8 554.6,188.5 555.0,188.3 555.4,188.0 555.8,187.7 556.1,187.4
556.5,187.2 556.9,186.9 557.3,186.7 557.7,186.5 558.0,186.2 558.4,186.0 558.8,185.8 559.2,185.6 559.5,185.5 559.9,185.3 560.3,185.1 560.7,185.0 561.1,184.9 561.4,184.7 561.8,184.6 562.2,184.5
562.6,184.5 562.9,184.4 563.3,184.3 563.7,184.3 564.1,184.2 564.5,184.2 564.8,184.2 565.2,184.2 565.6,184.2 566.0,184.3 566.4,184.3 566.7,184.3 567.1,184.4 567.5,184.5 567.9,184.6 568.2,184.6
568.6,184.7 569.0,184.9 569.4,185.0 569.8,185.1 570.1,185.2 570.5,185.4 570.9,185.5 571.3,185.7 571.7,185.9 572.0,186.0 572.4,186.2 572.8,186.4 573.2,186.6 573.5,186.8 573.9,187.0 574.3,187.2
574.7,187.4 575.1,187.6 575.4,187.8 575.8,188.0 576.2,188.2 576.6,188.4 576.9,188.6 577.3,188.9 577.7,189.1 578.1,189.3 578.5,189.5 578.8,189.7 579.2,189.9 579.6,190.1 580.0,190.4 580.4,190.6
580.7,190.8 581.1,191.0 581.5,191.2 581.9,191.4 582.2,191.6 582.6,191.8 583.0,192.0 583.4,192.1 583.8,192.3 584.1,192.5 584.5,192.7 584.9,192.9 585.3,193.0 585.7,193.2 586.0,193.4 586.4,193.5
586.8,193.7 587.2,193.8 587.5,194.0 587.9,194.1 588.3,194.3 588.7,194.4 589.1,194.5 589.4,194.7 589.8,194.8 590.2,194.9 590.6,195.0 590.9,195.1 591.3,195.2 591.7,195.4 592.1,195.5 592.5,195.6
592.8,195.7 593.2,195.8 593.6,195.8 594.0,195.9 594.4,196.0 594.7,196.1 595.1,196.2 595.5,196.3 595.9,196.3 596.2,196.4 596.6,196.5 597.0,196.6 597.4,196.6 597.8,196.7 598.1,196.7 598.5,196.8
598.9,196.9 599.3,196.9 599.7,197.0 600.0,197.0 600.4,197.1 600.8,197.1 601.2,197.2 601.5,197.2 601.9,197.3 602.3,197.3 602.7,197.4 603.1,197.4 603.4,197.5 603.8,197.5 604.2,197.5 604.6,197.6
604.9,197.6 605.3,197.7 605.7,197.7 606.1,197.7 606.5,197.8 606.8,197.8 607.2,197.8 607.6,197.9 608.0,197.9 608.4,197.9 608.7,198.0 609.1,198.0 609.5,198.1 609.9,198.1 610.2,198.1 610.6,198.2
611.0,198.2 611.4,198.2 611.8,198.2 612.1,198.3 612.5,198.3 612.9,198.3 613.3,198.4 613.7,198.4 614.0,198.4 614.4,198.5 614.8,198.5 615.2,198.5 615.5,198.6 615.9,198.6 616.3,198.6 616.7,198.6
617.1,198.7 617.4,198.7 617.8,198.7 618.2,198.8 618.6,198.8 618.9,198.8 619.3,198.8 619.7,198.9 620.1,198.9 620.5,198.9 620.8,198.9 621.2,199.0 621.6,199.0 622.0,199.0 622.4,199.0 622.7,199.0
623.1,199.1 623.5,199.1 623.9,199.1 624.2,199.1 624.6,199.1 625.0,199.1 625.4,199.2 625.8,199.2 626.1,199.2 626.5,199.2 626.9,199.2 627.3,199.3 627.7,199.3 628.0,199.3 628.4,199.3 628.8,199.3
629.2,199.3 629.5,199.3 629.9,199.4 630.3,199.4 630.7,199.4 631.1,199.4 631.4,199.4 631.8,199.4 632.2,199.5 632.6,199.5 632.9,199.5 633.3,199.5 633.7,199.5 634.1,199.6 634.5,199.6 634.8,199.6
635.2,199.6 635.6,199.6 636.0,199.7 636.4,199.7 636.7,199.7 637.1,199.7 637.5,199.8 637.9,199.8 638.2,199.8 638.6,199.9 639.0,199.9 639.4,199.9 639.8,200.0 640.1,200.0 640.5,200.0 640.9,200.1
641.3,200.1 641.7,200.1 642.0,200.2 642.4,200.2 642.8,200.3 643.2,200.3 643.5,200.3 643.9,200.4 644.3,200.4 644.7,200.5 645.1,200.5 645.4,200.6 645.8,200.6 646.2,200.6 646.6,200.7 646.9,200.7
647.3,200.8 647.7,200.8 648.1,200.9 648.5,200.9 648.8,201.0 649.2,201.0 649.6,201.0 650.0,201.1 650.4,201.1 650.7,201.2 651.1,201.2 651.5,201.3 651.9,201.3 652.2,201.4 652.6,201.4 653.0,201.4
653.4,201.5 653.8,201.5 654.1,201.6 654.5,201.6 654.9,201.6 655.3,201.7 655.7,201.7 656.0,201.8 656.4,201.8 656.8,201.8 657.2,201.9 657.5,201.9 657.9,201.9 658.3,202.0 658.7,202.0 659.1,202.0
659.4,202.1 659.8,202.1 660.2,202.1 660.6,202.1 660.9,202.2 661.3,202.2 661.7,202.2 662.1,202.3 662.5,202.3 662.8,202.3 663.2,202.3 663.6,202.3 664.0,202.4 664.4,202.4 664.7,202.4 665.1,202.4
665.5,202.5 665.9,202.5 666.2,202.5 666.6,202.5 667.0,202.5 667.4,202.5 667.8,202.6 668.1,202.6 668.5,202.6 668.9,202.6 669.3,202.6 669.7,202.6 670.0,202.7 670.4,202.7 670.8,202.7 671.2,202.7
671.5,202.7 671.9,202.7 672.3,202.7 672.7,202.8 673.1,202.8 673.4,202.8 673.8,202.8 674.2,202.8 674.6,202.8 674.9,202.8 675.3,202.9 675.7,202.9 676.1,202.9 676.5,202.9 676.8,202.9 677.2,202.9
677.6,202.9 678.0,202.9 678.4,203.0 678.7,203.0 679.1,203.0 679.5,203.0 679.9,203.0 680.2,203.0 680.6,203.0 681.0,203.0 681.4,203.1 681.8,203.1 682.1,203.1 682.5,203.1 682.9,203.1 683.3,203.1
683.7,203.1 684.0,203.1 684.4,203.1 684.8,203.2 685.2,203.2 685.5,203.2 685.9,203.2 686.3,203.2 686.7,203.2 687.1,203.2 687.4,203.2 687.8,203.2 688.2,203.2 688.6,203.2 688.9,203.2 689.3,203.3
689.7,203.3 690.1,203.3 690.5,203.3 690.8,203.3 691.2,203.3 691.6,203.3 692.0,203.3 692.4,203.3 692.7,203.3 693.1,203.3 693.5,203.3 693.9,203.3 694.2,203.3 694.6,203.3 695.0,203.3 695.4,203.3
695.8,203.3 696.1,203.4 696.5,203.4 696.9,203.4 697.3,203.4 697.6,203.4 698.0,203.4 698.4,203.4 698.8,203.4 699.2,203.4 699.5,203.4 699.9,203.4 700.3,203.4 700.7,203.4 701.1,203.4 701.4,203.4
701.8,203.4 702.2,203.4 702.6,203.4 702.9,203.4 703.3,203.4 703.7,203.4 704.1,203.4 704.5,203.4 704.8,203.4 705.2,203.4 705.6,203.4 706.0,203.4 706.4,203.4 706.7,203.4 707.1,203.4 707.5,203.4
707.9,203.4 708.2,203.4 708.6,203.4 709.0,203.4 709.0,203.4 708.6,203.4 708.2,203.4 707.9,203.4 707.5,203.4 707.1,203.4 706.7,203.4 706.4,203.4 706.0,203.4 705.6,203.4 705.2,203.4 704.8,203.4
704.5,203.4 704.1,203.4 703.7,203.4 703.3,203.4 702.9,203.4 702.6,203.4 702.2,203.4 701.8,203.4 701.4,203.4 701.1,203.4 700.7,203.4 700.3,203.4 699.9,203.4 699.5,203.4 699.2,203.4 698.8,203.4
698.4,203.4 698.0,203.5 697.6,203.5 697.3,203.5 696.9,203.5 696.5,203.5 696.1,203.5 695.8,203.5 695.4,203.5 695.0,203.5 694.6,203.5 694.2,203.5 693.9,203.5 693.5,203.5 693.1,203.5 692.7,203.5
692.4,203.5 692.0,203.5 691.6,203.5 691.2,203.5 690.8,203.5 690.5,203.5 690.1,203.6 689.7,203.6 689.3,203.6 688.9,203.6 688.6,203.6 688.2,203.6 687.8,203.6 687.4,203.6 687.1,203.6 686.7,203.6
686.3,203.6 685.9,203.6 685.5,203.7 685.2,203.7 684.8,203.7 684.4,203.7 684.0,203.7 683.7,203.7 683.3,203.7 682.9,203.7 682.5,203.7 682.1,203.7 681.8,203.8 681.4,203.8 681.0,203.8 680.6,203.8
680.2,203.8 679.9,203.8 679.5,203.8 679.1,203.8 678.7,203.8 678.4,203.9 678.0,203.9 677.6,203.9 677.2,203.9 676.8,203.9 676.5,203.9 676.1,203.9 675.7,203.9 675.3,204.0 674.9,204.0 674.6,204.0
674.2,204.0 673.8,204.0 673.4,204.0 673.1,204.0 672.7,204.1 672.3,204.1 671.9,204.1 671.5,204.1 671.2,204.1 670.8,204.1 670.4,204.1 670.0,204.2 669.7,204.2 669.3,204.2 668.9,204.2 668.5,204.2
668.1,204.2 667.8,204.3 667.4,204.3 667.0,204.3 666.6,204.3 666.2,204.3 665.9,204.3 665.5,204.4 665.1,204.4 664.7,204.4 664.4,204.4 664.0,204.5 663.6,204.5 663.2,204.5 662.8,204.5 662.5,204.5
662.1,204.6 661.7,204.6 661.3,204.6 660.9,204.6 660.6,204.7 660.2,204.7 659.8,204.7 659.4,204.8 659.1,204.8 658.7,204.8 658.3,204.9 657.9,204.9 657.5,204.9 657.2,205.0 656.8,205.0 656.4,205.0
656.0,205.1 655.7,205.1 655.3,205.1 654.9,205.2 654.5,205.2 654.1,205.3 653.8,205.3 653.4,205.3 653.0,205.4 652.6,205.4 652.2,205.5 651.9,205.5 651.5,205.5 651.1,205.6 650.7,205.6 650.4,205.7
650.0,205.7 649.6,205.8 649.2,205.8 648.8,205.9 648.5,205.9 648.1,206.0 647.7,206.0 647.3,206.0 646.9,206.1 646.6,206.1 646.2,206.2 645.8,206.2 645.4,206.3 645.1,206.3 644.7,206.4 644.3,206.4
643.9,206.4 643.5,206.5 643.2,206.5 642.8,206.6 642.4,206.6 642.0,206.6 641.7,206.7 641.3,206.7 640.9,206.8 640.5,206.8 640.1,206.8 639.8,206.9 639.4,206.9 639.0,206.9 638.6,207.0 638.2,207.0
637.9,207.0 637.5,207.0 637.1,207.1 636.7,207.1 636.4,207.1 636.0,207.1 635.6,207.2 635.2,207.2 634.8,207.2 634.5,207.2 634.1,207.3 633.7,207.3 633.3,207.3 632.9,207.3 632.6,207.3 632.2,207.4
631.8,207.4 631.4,207.4 631.1,207.4 630.7,207.4 630.3,207.4 629.9,207.5 629.5,207.5 629.2,207.5 628.8,207.5 628.4,207.5 628.0,207.5 627.7,207.6 627.3,207.6 626.9,207.6 626.5,207.6 626.1,207.6
625.8,207.6 625.4,207.7 625.0,207.7 624.6,207.7 624.2,207.7 623.9,207.7 623.5,207.7 623.1,207.8 622.7,207.8 622.4,207.8 622.0,207.8 621.6,207.8 621.2,207.9 620.8,207.9 620.5,207.9 620.1,207.9
619.7,208.0 619.3,208.0 618.9,208.0 618.6,208.0 618.2,208.1 617.8,208.1 617.4,208.1 617.1,208.1 616.7,208.2 616.3,208.2 615.9,208.2 615.5,208.3 615.2,208.3 614.8,208.3 614.4,208.4 614.0,208.4
613.7,208.4 613.3,208.4 612.9,208.5 612.5,208.5 612.1,208.5 611.8,208.6 611.4,208.6 611.0,208.6 610.6,208.7 610.2,208.7 609.9,208.7 609.5,208.8 609.1,208.8 608.7,208.8 608.4,208.9 608.0,208.9
607.6,208.9 607.2,209.0 606.8,209.0 606.5,209.1 606.1,209.1 605.7,209.1 605.3,209.2 604.9,209.2 604.6,209.2 604.2,209.3 603.8,209.3 603.4,209.4 603.1,209.4 602.7,209.5 602.3,209.5 601.9,209.5
601.5,209.6 601.2,209.6 600.8,209.7 600.4,209.7 600.0,209.8 599.7,209.8 599.3,209.9 598.9,210.0 598.5,210.0 598.1,210.1 597.8,210.1 597.4,210.2 597.0,210.3 596.6,210.3 596.2,210.4 595.9,210.5
595.5,210.6 595.1,210.6 594.7,210.7 594.4,210.8 594.0,210.9 593.6,211.0 593.2,211.1 592.8,211.2 592.5,211.3 592.1,211.4 591.7,211.5 591.3,211.6 590.9,211.7 590.6,211.8 590.2,211.9 589.8,212.0
589.4,212.2 589.1,212.3 588.7,212.4 588.3,212.6 587.9,212.7 587.5,212.8 587.2,213.0 586.8,213.1 586.4,213.3 586.0,213.5 585.7,213.6 585.3,213.8 584.9,214.0 584.5,214.1 584.1,214.3 583.8,214.5
583.4,214.7 583.0,214.9 582.6,215.1 582.2,215.2 581.9,215.4 581.5,215.6 581.1,215.8 580.7,216.0 580.4,216.3 580.0,216.5 579.6,216.7 579.2,216.9 578.8,217.1 578.5,217.3 578.1,217.5 577.7,217.7
577.3,218.0 576.9,218.2 576.6,218.4 576.2,218.6 575.8,218.8 575.4,219.0 575.1,219.2 574.7,219.4 574.3,219.6 573.9,219.8 573.5,220.0 573.2,220.2 572.8,220.4 572.4,220.6 572.0,220.8 571.7,221.0
571.3,221.1 570.9,221.3 570.5,221.4 570.1,221.6 569.8,221.7 569.4,221.8 569.0,222.0 568.6,222.1 568.2,222.2 567.9,222.3 567.5,222.3 567.1,222.4 566.7,222.5 566.4,222.5 566.0,222.6 565.6,222.6
565.2,222.6 564.8,222.6 564.5,222.6 564.1,222.6 563.7,222.5 563.3,222.5 562.9,222.4 562.6,222.4 562.2,222.3 561.8,222.2 561.4,222.1 561.1,222.0 560.7,221.8 560.3,221.7 559.9,221.5 559.5,221.4
559.2,221.2 558.8,221.0 558.4,220.8 558.0,220.6 557.7,220.4 557.3,220.1 556.9,219.9 556.5,219.6 556.1,219.4 555.8,219.1 555.4,218.8 555.0,218.6 554.6,218.3 554.2,218.0 553.9,217.7 553.5,217.4
553.1,217.1 552.7,216.8 552.4,216.5 552.0,216.1 551.6,215.8 551.2,215.5 550.8,215.2 550.5,214.8 550.1,214.5 549.7,214.2 549.3,213.9 548.9,213.6 548.6,213.2 548.2,212.9 547.8,212.6 547.4,212.3
547.1,212.0 546.7,211.7 546.3,211.4 545.9,211.1 545.5,210.8 545.2,210.5 544.8,210.2 544.4,209.9 544.0,209.7 543.7,209.4 543.3,209.1 542.9,208.9 542.5,208.6 542.1,208.4 541.8,208.2 541.4,207.9
541.0,207.7 540.6,207.5 540.2,207.3 539.9,207.1 539.5,206.9 539.1,206.7 538.7,206.6 538.4,206.4 538.0,206.2 537.6,206.1 537.2,205.9 536.8,205.8 536.5,205.6 536.1,205.5 535.7,205.4 535.3,205.3
535.0,205.1 534.6,205.0 534.2,204.9 533.8,204.8 533.4,204.7 533.1,204.6 532.7,204.6 532.3,204.5 531.9,204.4 531.5,204.3 531.2,204.3 530.8,204.2 530.4,204.2 530.0,204.1 529.7,204.1 529.3,204.0
528.9,204.0 528.5,203.9 528.1,203.9 527.8,203.8 527.4,203.8 527.0,203.8 526.6,203.7 526.2,203.7 525.9,203.7 525.5,203.7 525.1,203.6 524.7,203.6 524.4,203.6 524.0,203.6 523.6,203.6 523.2,203.6
522.8,203.5 522.5,203.5 522.1,203.5 521.7,203.5 521.3,203.5 521.0,203.5 520.6,203.5 520.2,203.5 '/>
	</g>
</g>
	</g>
	<g id="gnuplot_plot_3" ><title>gnuplot_plot_3</title>
<g fill="none" color="black" stroke="currentColor" stroke-width="1.00" stroke-linecap="butt" stroke-linejoin="miter">
	<g stroke='none' shape-rendering='crispEdges'>
		<polygon fill = 'rgb( 31, 120, 180)' fill-opacity = '0.250000' points = '525.8,160.7 526.0,160.7 526.3,160.7 526.6,160.7 526.9,160.7 527.1,160.7 527.4,160.7 527.7,160.7 527.9,160.7 528.2,160.7 528.5,160.7 528.8,160.7 529.0,160.7 529.3,160.7 529.6,160.6 529.9,160.6
530.1,160.6 530.4,160.6 530.7,160.6 531.0,160.6 531.2,160.6 531.5,160.6 531.8,160.5 532.1,160.5 532.3,160.5 532.6,160.5 532.9,160.4 533.1,160.4 533.4,160.4 533.7,160.4 534.0,160.3 534.2,160.3
534.5,160.2 534.8,160.2 535.1,160.2 535.3,160.1 535.6,160.1 535.9,160.0 536.2,159.9 536.4,159.9 536.7,159.8 537.0,159.7 537.3,159.7 537.5,159.6 537.8,159.5 538.1,159.4 538.4,159.3 538.6,159.2
538.9,159.1 539.2,159.0 539.4,158.9 539.7,158.8 540.0,158.6 540.3,158.5 540.5,158.4 540.8,158.2 541.1,158.1 541.4,157.9 541.6,157.7 541.9,157.6 542.2,157.4 542.5,157.2 542.7,157.0 543.0,156.8
543.3,156.6 543.6,156.4 543.8,156.2 544.1,156.0 544.4,155.7 544.6,155.5 544.9,155.2 545.2,155.0 545.5,154.7 545.7,154.5 546.0,154.2 546.3,153.9 546.6,153.6 546.8,153.3 547.1,153.0 547.4,152.7
547.7,152.4 547.9,152.1 548.2,151.8 548.5,151.5 548.8,151.2 549.0,150.9 549.3,150.6 549.6,150.2 549.8,149.9 550.1,149.6 550.4,149.3 550.7,148.9 550.9,148.6 551.2,148.3 551.5,148.0 551.8,147.7
552.0,147.4 552.3,147.1 552.6,146.7 552.9,146.4 553.1,146.2 553.4,145.9 553.7,145.6 554.0,145.3 554.2,145.0 554.5,144.8 554.8,144.5 555.0,144.3 555.3,144.0 555.6,143.8 555.9,143.6 556.1,143.4
556.4,143.2 556.7,143.0 557.0,142.8 557.2,142.7 557.5,142.5 557.8,142.4 558.1,142.2 558.3,142.1 558.6,142.0 558.9,141.9 559.2,141.8 559.4,141.8 559.7,141.7 560.0,141.6 560.2,141.6 560.5,141.6
560.8,141.6 561.1,141.6 561.3,141.6 561.6,141.6 561.9,141.6 562.2,141.6 562.4,141.7 562.7,141.7 563.0,141.8 563.3,141.8 563.5,141.9 563.8,142.0 564.1,142.0 564.4,142.1 564.6,142.2 564.9,142.3
565.2,142.4 565.4,142.5 565.7,142.7 566.0,142.8 566.3,142.9 566.5,143.0 566.8,143.1 567.1,143.2 567.4,143.4 567.6,143.5 567.9,143.6 568.2,143.7 568.5,143.9 568.7,144.0 569.0,144.1 569.3,144.2
569.6,144.4 569.8,144.5 570.1,144.6 570.4,144.7 570.6,144.8 570.9,144.9 571.2,145.0 571.5,145.1 571.7,145.2 572.0,145.3 572.3,145.4 572.6,145.5 572.8,145.6 573.1,145.7 573.4,145.8 573.7,145.9
573.9,146.0 574.2,146.0 574.5,146.1 574.8,146.2 575.0,146.2 575.3,146.3 575.6,146.4 575.9,146.4 576.1,146.5 576.4,146.6 576.7,146.6 576.9,146.7 577.2,146.7 577.5,146.8 577.8,146.9 578.0,146.9
578.3,147.0 578.6,147.0 578.9,147.1 579.1,147.1 579.4,147.2 579.7,147.2 580.0,147.3 580.2,147.4 580.5,147.4 580.8,147.5 581.1,147.5 581.3,147.6 581.6,147.6 581.9,147.7 582.1,147.8 582.4,147.8
582.7,147.9 583.0,148.0 583.2,148.0 583.5,148.1 583.8,148.2 584.1,148.3 584.3,148.3 584.6,148.4 584.9,148.5 585.2,148.6 585.4,148.7 585.7,148.8 586.0,148.8 586.3,148.9 586.5,149.0 586.8,149.1
587.1,149.2 587.3,149.3 587.6,149.4 587.9,149.5 588.2,149.6 588.4,149.7 588.7,149.8 589.0,149.9 589.3,150.0 589.5,150.1 589.8,150.2 590.1,150.3 590.4,150.4 590.6,150.5 590.9,150.6 591.2,150.7
591.5,150.8 591.7,150.8 592.0,150.9 592.3,151.0 592.5,151.1 592.8,151.2 593.1,151.3 593.4,151.4 593.6,151.5 593.9,151.6 594.2,151.7 594.5,151.8 594.7,151.9 595.0,152.0 595.3,152.1 595.6,152.1
595.8,152.2 596.1,152.3 596.4,152.4 596.7,152.5 596.9,152.6 597.2,152.6 597.5,152.7 597.7,152.8 598.0,152.9 598.3,153.0 598.6,153.0 598.8,153.1 599.1,153.2 599.4,153.2 599.7,153.3 599.9,153.4
600.2,153.5 600.5,153.5 600.8,153.6 601.0,153.7 601.3,153.7 601.6,153.8 601.9,153.9 602.1,153.9 602.4,154.0 602.7,154.1 602.9,154.1 603.2,154.2 603.5,154.3 603.8,154.3 604.0,154.4 604.3,154.5
604.6,154.5 604.9,154.6 605.1,154.7 605.4,154.7 605.7,154.8 606.0,154.8 606.2,154.9 606.5,155.0 606.8,155.0 607.1,155.1 607.3,155.2 607.6,155.2 607.9,155.3 608.1,155.4 608.4,155.4 608.7,155.5
609.0,155.6 609.2,155.6 609.5,155.7 609.8,155.8 610.1,155.9 610.3,155.9 610.6,156.0 610.9,156.1 611.2,156.1 611.4,156.2 611.7,156.3 612.0,156.3 612.3,156.4 612.5,156.5 612.8,156.5 613.1,156.6
613.4,156.7 613.6,156.8 613.9,156.8 614.2,156.9 614.4,157.0 614.7,157.0 615.0,157.1 615.3,157.2 615.5,157.2 615.8,157.3 616.1,157.4 616.4,157.5 616.6,157.5 616.9,157.6 617.2,157.7 617.5,157.7
617.7,157.8 618.0,157.9 618.3,157.9 618.6,158.0 618.8,158.0 619.1,158.1 619.4,158.2 619.6,158.2 619.9,158.3 620.2,158.4 620.5,158.4 620.7,158.5 621.0,158.5 621.3,158.6 621.6,158.6 621.8,158.7
622.1,158.8 622.4,158.8 622.7,158.9 622.9,158.9 623.2,159.0 623.5,159.0 623.8,159.0 624.0,159.1 624.3,159.1 624.6,159.2 624.8,159.2 625.1,159.3 625.4,159.3 625.7,159.3 625.9,159.4 626.2,159.4
626.5,159.5 626.8,159.5 627.0,159.5 627.3,159.5 627.6,159.6 627.9,159.6 628.1,159.6 628.4,159.7 628.7,159.7 629.0,159.7 629.2,159.7 629.5,159.8 629.8,159.8 630.0,159.8 630.3,159.8 630.6,159.8
630.9,159.9 631.1,159.9 631.4,159.9 631.7,159.9 632.0,159.9 632.2,159.9 632.5,160.0 632.8,160.0 633.1,160.0 633.3,160.0 633.6,160.0 633.9,160.0 634.2,160.0 634.4,160.0 634.7,160.1 635.0,160.1
635.2,160.1 635.5,160.1 635.8,160.1 636.1,160.1 636.3,160.1 636.6,160.1 636.9,160.1 637.2,160.1 637.4,160.2 637.7,160.2 638.0,160.2 638.3,160.2 638.5,160.2 638.8,160.2 639.1,160.2 639.4,160.2
639.6,160.2 639.9,160.2 640.2,160.2 640.4,160.3 640.7,160.3 641.0,160.3 641.3,160.3 641.5,160.3 641.8,160.3 642.1,160.3 642.4,160.3 642.6,160.3 642.9,160.3 643.2,160.4 643.5,160.4 643.7,160.4
644.0,160.4 644.3,160.4 644.6,160.4 644.8,160.4 645.1,160.4 645.4,160.4 645.6,160.5 645.9,160.5 646.2,160.5 646.5,160.5 646.7,160.5 647.0,160.5 647.3,160.5 647.6,160.5 647.8,160.5 648.1,160.5
648.4,160.6 648.7,160.6 648.9,160.6 649.2,160.6 649.5,160.6 649.8,160.6 650.0,160.6 650.3,160.6 650.6,160.6 650.8,160.6 651.1,160.6 651.4,160.6 651.7,160.6 651.9,160.6 652.2,160.7 652.5,160.7
652.8,160.7 653.0,160.7 653.3,160.7 653.6,160.7 653.9,160.7 654.1,160.7 654.4,160.7 654.7,160.7 655.0,160.7 655.2,160.7 655.5,160.7 655.8,160.7 656.1,160.7 656.3,160.7 656.6,160.7 656.9,160.7
657.1,160.7 657.4,160.7 657.7,160.7 658.0,160.7 658.2,160.7 658.5,160.7 658.8,160.7 659.1,160.7 659.3,160.7 659.6,160.7 659.9,160.7 660.2,160.7 660.4,160.7 660.7,160.7 661.0,160.7 661.3,160.7
661.5,160.7 661.8,160.7 662.1,160.7 662.3,160.7 662.3,160.8 662.1,160.8 661.8,160.8 661.5,160.8 661.3,160.8 661.0,160.8 660.7,160.8 660.4,160.8 660.2,160.8 659.9,160.8 659.6,160.8 659.3,160.8
659.1,160.8 658.8,160.8 658.5,160.8 658.2,160.8 658.0,160.8 657.7,160.8 657.4,160.8 657.1,160.8 656.9,160.8 656.6,160.8 656.3,160.8 656.1,160.8 655.8,160.8 655.5,160.8 655.2,160.8 655.0,160.8
654.7,160.8 654.4,160.8 654.1,160.8 653.9,160.8 653.6,160.8 653.3,160.8 653.0,160.8 652.8,160.8 652.5,160.8 652.2,160.8 651.9,160.9 651.7,160.9 651.4,160.9 651.1,160.9 650.8,160.9 650.6,160.9
650.3,160.9 650.0,160.9 649.8,160.9 649.5,160.9 649.2,160.9 648.9,160.9 648.7,160.9 648.4,160.9 648.1,161.0 647.8,161.0 647.6,161.0 647.3,161.0 647.0,161.0 646.7,161.0 646.5,161.0 646.2,161.0
645.9,161.0 645.6,161.0 645.4,161.1 645.1,161.1 644.8,161.1 644.6,161.1 644.3,161.1 644.0,161.1 643.7,161.1 643.5,161.1 643.2,161.1 642.9,161.2 642.6,161.2 642.4,161.2 642.1,161.2 641.8,161.2
641.5,161.2 641.3,161.2 641.0,161.2 640.7,161.2 640.4,161.2 640.2,161.3 639.9,161.3 639.6,161.3 639.4,161.3 639.1,161.3 638.8,161.3 638.5,161.3 638.3,161.3 638.0,161.3 637.7,161.3 637.4,161.3
637.2,161.4 636.9,161.4 636.6,161.4 636.3,161.4 636.1,161.4 635.8,161.4 635.5,161.4 635.2,161.4 635.0,161.4 634.7,161.4 634.4,161.5 634.2,161.5 633.9,161.5 633.6,161.5 633.3,161.5 633.1,161.5
632.8,161.5 632.5,161.5 632.2,161.6 632.0,161.6 631.7,161.6 631.4,161.6 631.1,161.6 630.9,161.6 630.6,161.7 630.3,161.7 630.0,161.7 629.8,161.7 629.5,161.7 629.2,161.8 629.0,161.8 628.7,161.8
628.4,161.8 628.1,161.9 627.9,161.9 627.6,161.9 627.3,162.0 627.0,162.0 626.8,162.0 626.5,162.0 626.2,162.1 625.9,162.1 625.7,162.2 625.4,162.2 625.1,162.2 624.8,162.3 624.6,162.3 624.3,162.4
624.0,162.4 623.8,162.5 623.5,162.5 623.2,162.5 622.9,162.6 622.7,162.6 622.4,162.7 622.1,162.7 621.8,162.8 621.6,162.9 621.3,162.9 621.0,163.0 620.7,163.0 620.5,163.1 620.2,163.1 619.9,163.2
619.6,163.3 619.4,163.3 619.1,163.4 618.8,163.5 618.6,163.5 618.3,163.6 618.0,163.6 617.7,163.7 617.5,163.8 617.2,163.8 616.9,163.9 616.6,164.0 616.4,164.0 616.1,164.1 615.8,164.2 615.5,164.3
615.3,164.3 615.0,164.4 614.7,164.5 614.4,164.5 614.2,164.6 613.9,164.7 613.6,164.7 613.4,164.8 613.1,164.9 612.8,165.0 612.5,165.0 612.3,165.1 612.0,165.2 611.7,165.2 611.4,165.3 611.2,165.4
610.9,165.4 610.6,165.5 610.3,165.6 610.1,165.6 609.8,165.7 609.5,165.8 609.2,165.9 609.0,165.9 608.7,166.0 608.4,166.1 608.1,166.1 607.9,166.2 607.6,166.3 607.3,166.3 607.1,166.4 606.8,166.5
606.5,166.5 606.2,166.6 606.0,166.7 605.7,166.7 605.4,166.8 605.1,166.8 604.9,166.9 604.6,167.0 604.3,167.0 604.0,167.1 603.8,167.2 603.5,167.2 603.2,167.3 602.9,167.4 602.7,167.4 602.4,167.5
602.1,167.6 601.9,167.6 601.6,167.7 601.3,167.8 601.0,167.8 600.8,167.9 600.5,168.0 600.2,168.0 599.9,168.1 599.7,168.2 599.4,168.3 599.1,168.3 598.8,168.4 598.6,168.5 598.3,168.5 598.0,168.6
597.7,168.7 597.5,168.8 597.2,168.9 596.9,168.9 596.7,169.0 596.4,169.1 596.1,169.2 595.8,169.3 595.6,169.4 595.3,169.4 595.0,169.5 594.7,169.6 594.5,169.7 594.2,169.8 593.9,169.9 593.6,170.0
593.4,170.1 593.1,170.2 592.8,170.3 592.5,170.4 592.3,170.5 592.0,170.6 591.7,170.7 591.5,170.7 591.2,170.8 590.9,170.9 590.6,171.0 590.4,171.1 590.1,171.2 589.8,171.3 589.5,171.4 589.3,171.5
589.0,171.6 588.7,171.7 588.4,171.8 588.2,171.9 587.9,172.0 587.6,172.1 587.3,172.2 587.1,172.3 586.8,172.4 586.5,172.5 586.3,172.6 586.0,172.7 585.7,172.7 585.4,172.8 585.2,172.9 584.9,173.0
584.6,173.1 584.3,173.2 584.1,173.2 583.8,173.3 583.5,173.4 583.2,173.5 583.0,173.5 582.7,173.6 582.4,173.7 582.1,173.7 581.9,173.8 581.6,173.9 581.3,173.9 581.1,174.0 580.8,174.0 580.5,174.1
580.2,174.1 580.0,174.2 579.7,174.3 579.4,174.3 579.1,174.4 578.9,174.4 578.6,174.5 578.3,174.5 578.0,174.6 577.8,174.6 577.5,174.7 577.2,174.8 576.9,174.8 576.7,174.9 576.4,174.9 576.1,175.0
575.9,175.1 575.6,175.1 575.3,175.2 575.0,175.3 574.8,175.3 574.5,175.4 574.2,175.5 573.9,175.5 573.7,175.6 573.4,175.7 573.1,175.8 572.8,175.9 572.6,176.0 572.3,176.1 572.0,176.2 571.7,176.3
571.5,176.4 571.2,176.5 570.9,176.6 570.6,176.7 570.4,176.8 570.1,176.9 569.8,177.0 569.6,177.1 569.3,177.3 569.0,177.4 568.7,177.5 568.5,177.6 568.2,177.8 567.9,177.9 567.6,178.0 567.4,178.1
567.1,178.3 566.8,178.4 566.5,178.5 566.3,178.6 566.0,178.7 565.7,178.8 565.4,179.0 565.2,179.1 564.9,179.2 564.6,179.3 564.4,179.4 564.1,179.5 563.8,179.5 563.5,179.6 563.3,179.7 563.0,179.7
562.7,179.8 562.4,179.8 562.2,179.9 561.9,179.9 561.6,179.9 561.3,179.9 561.1,179.9 560.8,179.9 560.5,179.9 560.2,179.9 560.0,179.9 559.7,179.8 559.4,179.7 559.2,179.7 558.9,179.6 558.6,179.5
558.3,179.4 558.1,179.3 557.8,179.1 557.5,179.0 557.2,178.8 557.0,178.7 556.7,178.5 556.4,178.3 556.1,178.1 555.9,177.9 555.6,177.7 555.3,177.5 555.0,177.2 554.8,177.0 554.5,176.7 554.2,176.5
554.0,176.2 553.7,175.9 553.4,175.6 553.1,175.3 552.9,175.1 552.6,174.8 552.3,174.4 552.0,174.1 551.8,173.8 551.5,173.5 551.2,173.2 550.9,172.9 550.7,172.6 550.4,172.2 550.1,171.9 549.8,171.6
549.6,171.3 549.3,170.9 549.0,170.6 548.8,170.3 548.5,170.0 548.2,169.7 547.9,169.4 547.7,169.1 547.4,168.8 547.1,168.5 546.8,168.2 546.6,167.9 546.3,167.6 546.0,167.3 545.7,167.0 545.5,166.8
545.2,166.5 544.9,166.3 544.6,166.0 544.4,165.8 544.1,165.5 543.8,165.3 543.6,165.1 543.3,164.9 543.0,164.7 542.7,164.5 542.5,164.3 542.2,164.1 541.9,163.9 541.6,163.8 541.4,163.6 541.1,163.4
540.8,163.3 540.5,163.1 540.3,163.0 540.0,162.9 539.7,162.7 539.4,162.6 539.2,162.5 538.9,162.4 538.6,162.3 538.4,162.2 538.1,162.1 537.8,162.0 537.5,161.9 537.3,161.8 537.0,161.8 536.7,161.7
536.4,161.6 536.2,161.6 535.9,161.5 535.6,161.4 535.3,161.4 535.1,161.3 534.8,161.3 534.5,161.3 534.2,161.2 534.0,161.2 533.7,161.1 533.4,161.1 533.1,161.1 532.9,161.1 532.6,161.0 532.3,161.0
532.1,161.0 531.8,161.0 531.5,160.9 531.2,160.9 531.0,160.9 530.7,160.9 530.4,160.9 530.1,160.9 529.9,160.9 529.6,160.9 529.3,160.8 529.0,160.8 528.8,160.8 528.5,160.8 528.2,160.8 527.9,160.8
527.7,160.8 527.4,160.8 527.1,160.8 526.9,160.8 526.6,160.8 526.3,160.8 526.0,160.8 525.8,160.8 '/>
	</g>
</g>
	</g>
	<g id="gnuplot_plot_4" ><title>gnuplot_plot_4</title>
<g fill="none" color="black" stroke="currentColor" stroke-width="1.00" stroke-linecap="butt" stroke-linejoin="miter">
	<g stroke='none' shape-rendering='crispEdges'>
		<polygon fill = 'rgb( 31, 120, 180)' fill-opacity = '0.250000' points = '459.1,118.1 459.2,118.1 459.4,118.1 459.6,118.1 459.8,118.1 460.0,118.1 460.2,118.0 460.3,118.0 460.5,118.0 460.7,118.0 460.9,118.0 461.1,118.0 461.3,118.0 461.4,118.0 461.6,118.0 461.8,118.0
462.0,118.0 462.2,118.0 462.4,117.9 462.6,117.9 462.7,117.9 462.9,117.9 463.1,117.9 463.3,117.9 463.5,117.8 463.7,117.8 463.8,117.8 464.0,117.8 464.2,117.7 464.4,117.7 464.6,117.7 464.8,117.6
464.9,117.6 465.1,117.5 465.3,117.5 465.5,117.4 465.7,117.4 465.9,117.3 466.0,117.3 466.2,117.2 466.4,117.1 466.6,117.1 466.8,117.0 467.0,116.9 467.1,116.8 467.3,116.7 467.5,116.6 467.7,116.5
467.9,116.4 468.1,116.3 468.3,116.2 468.4,116.1 468.6,115.9 468.8,115.8 469.0,115.7 469.2,115.5 469.4,115.3 469.5,115.2 469.7,115.0 469.9,114.8 470.1,114.7 470.3,114.5 470.5,114.3 470.6,114.1
470.8,113.9 471.0,113.6 471.2,113.4 471.4,113.2 471.6,112.9 471.7,112.7 471.9,112.4 472.1,112.2 472.3,111.9 472.5,111.7 472.7,111.4 472.8,111.1 473.0,110.8 473.2,110.5 473.4,110.2 473.6,109.9
473.8,109.6 474.0,109.3 474.1,109.0 474.3,108.7 474.5,108.3 474.7,108.0 474.9,107.7 475.1,107.4 475.2,107.0 475.4,106.7 475.6,106.4 475.8,106.0 476.0,105.7 476.2,105.4 476.3,105.0 476.5,104.7
476.7,104.4 476.9,104.1 477.1,103.8 477.3,103.5 477.4,103.2 477.6,102.9 477.8,102.6 478.0,102.3 478.2,102.0 478.4,101.8 478.6,101.5 478.7,101.3 478.9,101.0 479.1,100.8 479.3,100.6 479.5,100.4
479.7,100.2 479.8,100.0 480.0,99.8 480.2,99.7 480.4,99.5 480.6,99.4 480.8,99.3 480.9,99.2 481.1,99.1 481.3,99.0 481.5,99.0 481.7,98.9 481.9,98.9 482.0,98.9 482.2,98.9 482.4,98.9
482.6,98.9 482.8,99.0 483.0,99.0 483.1,99.1 483.3,99.2 483.5,99.3 483.7,99.4 483.9,99.5 484.1,99.7 484.3,99.8 484.4,100.0 484.6,100.1 484.8,100.3 485.0,100.5 485.2,100.7 485.4,100.9
485.5,101.1 485.7,101.4 485.9,101.6 486.1,101.8 486.3,102.1 486.5,102.3 486.6,102.6 486.8,102.9 487.0,103.1 487.2,103.4 487.4,103.7 487.6,103.9 487.7,104.2 487.9,104.5 488.1,104.8 488.3,105.0
488.5,105.3 488.7,105.6 488.8,105.9 489.0,106.2 489.2,106.4 489.4,106.7 489.6,107.0 489.8,107.2 490.0,107.5 490.1,107.7 490.3,108.0 490.5,108.2 490.7,108.5 490.9,108.7 491.1,109.0 491.2,109.2
491.4,109.4 491.6,109.6 491.8,109.8 492.0,110.0 492.2,110.2 492.3,110.4 492.5,110.6 492.7,110.8 492.9,111.0 493.1,111.1 493.3,111.3 493.4,111.5 493.6,111.6 493.8,111.8 494.0,111.9 494.2,112.0
494.4,112.1 494.5,112.3 494.7,112.4 494.9,112.5 495.1,112.6 495.3,112.7 495.5,112.8 495.7,112.8 495.8,112.9 496.0,113.0 496.2,113.1 496.4,113.1 496.6,113.2 496.8,113.2 496.9,113.3 497.1,113.3
497.3,113.4 497.5,113.4 497.7,113.5 497.9,113.5 498.0,113.5 498.2,113.5 498.4,113.6 498.6,113.6 498.8,113.6 499.0,113.6 499.1,113.6 499.3,113.6 499.5,113.6 499.7,113.7 499.9,113.7 500.1,113.7
500.2,113.7 500.4,113.7 500.6,113.7 500.8,113.7 501.0,113.7 501.2,113.7 501.4,113.7 501.5,113.7 501.7,113.7 501.9,113.7 502.1,113.7 502.3,113.7 502.5,113.7 502.6,113.7 502.8,113.7 503.0,113.7
503.2,113.8 503.4,113.8 503.6,113.8 503.7,113.8 503.9,113.8 504.1,113.8 504.3,113.8 504.5,113.9 504.7,113.9 504.8,113.9 505.0,113.9 505.2,114.0 505.4,114.0 505.6,114.0 505.8,114.0 506.0,114.1
506.1,114.1 506.3,114.1 506.5,114.2 506.7,114.2 506.9,114.2 507.1,114.3 507.2,114.3 507.4,114.4 507.6,114.4 507.8,114.4 508.0,114.5 508.2,114.5 508.3,114.6 508.5,114.6 508.7,114.6 508.9,114.7
509.1,114.7 509.3,114.8 509.4,114.8 509.6,114.9 509.8,114.9 510.0,115.0 510.2,115.0 510.4,115.0 510.5,115.1 510.7,115.1 510.9,115.2 511.1,115.2 511.3,115.3 511.5,115.3 511.7,115.4 511.8,115.4
512.0,115.4 512.2,115.5 512.4,115.5 512.6,115.6 512.8,115.6 512.9,115.7 513.1,115.7 513.3,115.8 513.5,115.8 513.7,115.8 513.9,115.9 514.0,115.9 514.2,116.0 514.4,116.0 514.6,116.1 514.8,116.1
515.0,116.2 515.1,116.2 515.3,116.2 515.5,116.3 515.7,116.3 515.9,116.4 516.1,116.4 516.2,116.5 516.4,116.5 516.6,116.5 516.8,116.6 517.0,116.6 517.2,116.7 517.4,116.7 517.5,116.8 517.7,116.8
517.9,116.8 518.1,116.9 518.3,116.9 518.5,117.0 518.6,117.0 518.8,117.0 519.0,117.1 519.2,117.1 519.4,117.1 519.6,117.2 519.7,117.2 519.9,117.2 520.1,117.3 520.3,117.3 520.5,117.3 520.7,117.3
520.8,117.4 521.0,117.4 521.2,117.4 521.4,117.4 521.6,117.5 521.8,117.5 521.9,117.5 522.1,117.5 522.3,117.5 522.5,117.5 522.7,117.6 522.9,117.6 523.1,117.6 523.2,117.6 523.4,117.6 523.6,117.6
523.8,117.6 524.0,117.6 524.2,117.6 524.3,117.6 524.5,117.6 524.7,117.6 524.9,117.6 525.1,117.7 525.3,117.7 525.4,117.7 525.6,117.7 525.8,117.7 526.0,117.7 526.2,117.7 526.4,117.7 526.5,117.6
526.7,117.6 526.9,117.6 527.1,117.6 527.3,117.6 527.5,117.6 527.7,117.6 527.8,117.6 528.0,117.6 528.2,117.6 528.4,117.6 528.6,117.6 528.8,117.6 528.9,117.6 529.1,117.6 529.3,117.6 529.5,117.6
529.7,117.6 529.9,117.6 530.0,117.6 530.2,117.6 530.4,117.6 530.6,117.6 530.8,117.6 531.0,117.6 531.1,117.6 531.3,117.6 531.5,117.6 531.7,117.6 531.9,117.6 532.1,117.6 532.2,117.6 532.4,117.6
532.6,117.6 532.8,117.6 533.0,117.6 533.2,117.6 533.4,117.6 533.5,117.6 533.7,117.6 533.9,117.6 534.1,117.6 534.3,117.6 534.5,117.6 534.6,117.6 534.8,117.6 535.0,117.6 535.2,117.6 535.4,117.6
535.6,117.6 535.7,117.7 535.9,117.7 536.1,117.7 536.3,117.7 536.5,117.7 536.7,117.7 536.8,117.7 537.0,117.7 537.2,117.7 537.4,117.7 537.6,117.7 537.8,117.7 537.9,117.7 538.1,117.7 538.3,117.8
538.5,117.8 538.7,117.8 538.9,117.8 539.1,117.8 539.2,117.8 539.4,117.8 539.6,117.8 539.8,117.8 540.0,117.8 540.2,117.8 540.3,117.9 540.5,117.9 540.7,117.9 540.9,117.9 541.1,117.9 541.3,117.9
541.4,117.9 541.6,117.9 541.8,117.9 542.0,117.9 542.2,117.9 542.4,117.9 542.5,118.0 542.7,118.0 542.9,118.0 543.1,118.0 543.3,118.0 543.5,118.0 543.6,118.0 543.8,118.0 544.0,118.0 544.2,118.0
544.4,118.0 544.6,118.0 544.8,118.0 544.9,118.0 545.1,118.0 545.3,118.0 545.5,118.0 545.7,118.0 545.9,118.0 546.0,118.0 546.2,118.1 546.4,118.1 546.6,118.1 546.8,118.1 547.0,118.1 547.1,118.1
547.3,118.1 547.5,118.1 547.7,118.1 547.9,118.1 548.1,118.1 548.2,118.1 548.4,118.1 548.6,118.1 548.8,118.1 549.0,118.1 549.2,118.1 549.4,118.1 549.5,118.1 549.7,118.1 549.9,118.1 550.1,118.1
550.3,118.1 550.5,118.1 550.6,118.1 550.8,118.1 550.8,118.1 550.6,118.1 550.5,118.1 550.3,118.1 550.1,118.1 549.9,118.1 549.7,118.1 549.5,118.1 549.4,118.1 549.2,118.1 549.0,118.1 548.8,118.1
548.6,118.1 548.4,118.1 548.2,118.1 548.1,118.1 547.9,118.1 547.7,118.1 547.5,118.1 547.3,118.1 547.1,118.1 547.0,118.1 546.8,118.1 546.6,118.1 546.4,118.1 546.2,118.1 546.0,118.1 545.9,118.1
545.7,118.1 545.5,118.1 545.3,118.1 545.1,118.1 544.9,118.2 544.8,118.2 544.6,118.2 544.4,118.2 544.2,118.2 544.0,118.2 543.8,118.2 543.6,118.2 543.5,118.2 543.3,118.2 543.1,118.2 542.9,118.2
542.7,118.2 542.5,118.2 542.4,118.2 542.2,118.2 542.0,118.2 541.8,118.3 541.6,118.3 541.4,118.3 541.3,118.3 541.1,118.3 540.9,118.3 540.7,118.3 540.5,118.3 540.3,118.3 540.2,118.3 540.0,118.3
539.8,118.3 539.6,118.4 539.4,118.4 539.2,118.4 539.1,118.4 538.9,118.4 538.7,118.4 538.5,118.4 538.3,118.4 538.1,118.4 537.9,118.4 537.8,118.4 537.6,118.5 537.4,118.5 537.2,118.5 537.0,118.5
536.8,118.5 536.7,118.5 536.5,118.5 536.3,118.5 536.1,118.5 535.9,118.5 535.7,118.5 535.6,118.5 535.4,118.5 535.2,118.5 535.0,118.6 534.8,118.6 534.6,118.6 534.5,118.6 534.3,118.6 534.1,118.6
533.9,118.6 533.7,118.6 533.5,118.6 533.4,118.6 533.2,118.6 533.0,118.6 532.8,118.6 532.6,118.6 532.4,118.6 532.2,118.6 532.1,118.6 531.9,118.6 531.7,118.6 531.5,118.6 531.3,118.6 531.1,118.6
531.0,118.6 530.8,118.6 530.6,118.6 530.4,118.6 530.2,118.6 530.0,118.6 529.9,118.6 529.7,118.6 529.5,118.6 529.3,118.6 529.1,118.6 528.9,118.6 528.8,118.6 528.6,118.6 528.4,118.6 528.2,118.6
528.0,118.6 527.8,118.6 527.7,118.5 527.5,118.5 527.3,118.5 527.1,118.5 526.9,118.5 526.7,118.5 526.5,118.5 526.4,118.5 526.2,118.5 526.0,118.5 525.8,118.5 525.6,118.5 525.4,118.5 525.3,118.5
525.1,118.5 524.9,118.5 524.7,118.5 524.5,118.5 524.3,118.5 524.2,118.5 524.0,118.6 523.8,118.6 523.6,118.6 523.4,118.6 523.2,118.6 523.1,118.6 522.9,118.6 522.7,118.6 522.5,118.6 522.3,118.7
522.1,118.7 521.9,118.7 521.8,118.7 521.6,118.7 521.4,118.7 521.2,118.8 521.0,118.8 520.8,118.8 520.7,118.8 520.5,118.9 520.3,118.9 520.1,118.9 519.9,119.0 519.7,119.0 519.6,119.0 519.4,119.0
519.2,119.1 519.0,119.1 518.8,119.2 518.6,119.2 518.5,119.2 518.3,119.3 518.1,119.3 517.9,119.3 517.7,119.4 517.5,119.4 517.4,119.5 517.2,119.5 517.0,119.5 516.8,119.6 516.6,119.6 516.4,119.7
516.2,119.7 516.1,119.8 515.9,119.8 515.7,119.9 515.5,119.9 515.3,119.9 515.1,120.0 515.0,120.0 514.8,120.1 514.6,120.1 514.4,120.2 514.2,120.2 514.0,120.3 513.9,120.3 513.7,120.3 513.5,120.4
513.3,120.4 513.1,120.5 512.9,120.5 512.8,120.6 512.6,120.6 512.4,120.7 512.2,120.7 512.0,120.7 511.8,120.8 511.7,120.8 511.5,120.9 511.3,120.9 511.1,121.0 510.9,121.0 510.7,121.1 510.5,121.1
510.4,121.1 510.2,121.2 510.0,121.2 509.8,121.3 509.6,121.3 509.4,121.4 509.3,121.4 509.1,121.5 508.9,121.5 508.7,121.5 508.5,121.6 508.3,121.6 508.2,121.7 508.0,121.7 507.8,121.7 507.6,121.8
507.4,121.8 507.2,121.9 507.1,121.9 506.9,121.9 506.7,122.0 506.5,122.0 506.3,122.0 506.1,122.1 506.0,122.1 505.8,122.1 505.6,122.2 505.4,122.2 505.2,122.2 505.0,122.2 504.8,122.3 504.7,122.3
504.5,122.3 504.3,122.3 504.1,122.4 503.9,122.4 503.7,122.4 503.6,122.4 503.4,122.4 503.2,122.4 503.0,122.4 502.8,122.4 502.6,122.5 502.5,122.5 502.3,122.5 502.1,122.5 501.9,122.5 501.7,122.5
501.5,122.5 501.4,122.5 501.2,122.5 501.0,122.5 500.8,122.5 500.6,122.5 500.4,122.5 500.2,122.5 500.1,122.5 499.9,122.5 499.7,122.5 499.5,122.5 499.3,122.5 499.1,122.6 499.0,122.6 498.8,122.6
498.6,122.6 498.4,122.6 498.2,122.6 498.0,122.7 497.9,122.7 497.7,122.7 497.5,122.8 497.3,122.8 497.1,122.8 496.9,122.9 496.8,122.9 496.6,123.0 496.4,123.1 496.2,123.1 496.0,123.2 495.8,123.3
495.7,123.3 495.5,123.4 495.3,123.5 495.1,123.6 494.9,123.7 494.7,123.8 494.5,123.9 494.4,124.0 494.2,124.2 494.0,124.3 493.8,124.4 493.6,124.6 493.4,124.7 493.3,124.9 493.1,125.0 492.9,125.2
492.7,125.4 492.5,125.6 492.3,125.7 492.2,125.9 492.0,126.1 491.8,126.3 491.6,126.6 491.4,126.8 491.2,127.0 491.1,127.2 490.9,127.5 490.7,127.7 490.5,127.9 490.3,128.2 490.1,128.4 490.0,128.7
489.8,129.0 489.6,129.2 489.4,129.5 489.2,129.8 489.0,130.0 488.8,130.3 488.7,130.6 488.5,130.9 488.3,131.1 488.1,131.4 487.9,131.7 487.7,132.0 487.6,132.2 487.4,132.5 487.2,132.8 487.0,133.1
486.8,133.3 486.6,133.6 486.5,133.8 486.3,134.1 486.1,134.3 485.9,134.6 485.7,134.8 485.5,135.0 485.4,135.3 485.2,135.5 485.0,135.7 484.8,135.9 484.6,136.0 484.4,136.2 484.3,136.4 484.1,136.5
483.9,136.7 483.7,136.8 483.5,136.9 483.3,137.0 483.1,137.1 483.0,137.1 482.8,137.2 482.6,137.2 482.4,137.3 482.2,137.3 482.0,137.3 481.9,137.3 481.7,137.2 481.5,137.2 481.3,137.1 481.1,137.1
480.9,137.0 480.8,136.9 480.6,136.8 480.4,136.6 480.2,136.5 480.0,136.3 479.8,136.2 479.7,136.0 479.5,135.8 479.3,135.6 479.1,135.4 478.9,135.2 478.7,134.9 478.6,134.7 478.4,134.4 478.2,134.1
478.0,133.9 477.8,133.6 477.6,133.3 477.4,133.0 477.3,132.7 477.1,132.4 476.9,132.1 476.7,131.8 476.5,131.5 476.3,131.1 476.2,130.8 476.0,130.5 475.8,130.1 475.6,129.8 475.4,129.5 475.2,129.2
475.1,128.8 474.9,128.5 474.7,128.2 474.5,127.8 474.3,127.5 474.1,127.2 474.0,126.9 473.8,126.6 473.6,126.3 473.4,126.0 473.2,125.7 473.0,125.4 472.8,125.1 472.7,124.8 472.5,124.5 472.3,124.3
472.1,124.0 471.9,123.7 471.7,123.5 471.6,123.2 471.4,123.0 471.2,122.8 471.0,122.5 470.8,122.3 470.6,122.1 470.5,121.9 470.3,121.7 470.1,121.5 469.9,121.3 469.7,121.2 469.5,121.0 469.4,120.8
469.2,120.7 469.0,120.5 468.8,120.4 468.6,120.2 468.4,120.1 468.3,120.0 468.1,119.9 467.9,119.8 467.7,119.7 467.5,119.6 467.3,119.5 467.1,119.4 467.0,119.3 466.8,119.2 466.6,119.1 466.4,119.0
466.2,119.0 466.0,118.9 465.9,118.9 465.7,118.8 465.5,118.7 465.3,118.7 465.1,118.6 464.9,118.6 464.8,118.6 464.6,118.5 464.4,118.5 464.2,118.5 464.0,118.4 463.8,118.4 463.7,118.4 463.5,118.3
463.3,118.3 463.1,118.3 462.9,118.3 462.7,118.3 462.6,118.2 462.4,118.2 462.2,118.2 462.0,118.2 461.8,118.2 461.6,118.2 461.4,118.2 461.3,118.2 461.1,118.2 460.9,118.2 460.7,118.1 460.5,118.1
460.3,118.1 460.2,118.1 460.0,118.1 459.8,118.1 459.6,118.1 459.4,118.1 459.2,118.1 459.1,118.1 '/>
	</g>
</g>
	</g>
	<g id="gnuplot_plot_5" ><title>gnuplot_plot_5</title>
<g fill="none" color="black" stroke="currentColor" stroke-width="1.00" stroke-linecap="butt" stroke-linejoin="miter">
	<g stroke='none' shape-rendering='crispEdges'>
		<polygon fill = 'rgb( 31, 120, 180)' fill-opacity = '0.250000' points = '361.1,75.4 361.3,75.4 361.4,75.4 361.5,75.4 361.6,75.4 361.7,75.4 361.8,75.4 362.0,75.4 362.1,75.4 362.2,75.4 362.3,75.4 362.4,75.4 362.6,75.3 362.7,75.3 362.8,75.3 362.9,75.3
363.0,75.3 363.1,75.3 363.3,75.3 363.4,75.3 363.5,75.3 363.6,75.2 363.7,75.2 363.9,75.2 364.0,75.2 364.1,75.2 364.2,75.2 364.3,75.1 364.5,75.1 364.6,75.1 364.7,75.1 364.8,75.0
364.9,75.0 365.0,75.0 365.2,74.9 365.3,74.9 365.4,74.9 365.5,74.8 365.6,74.8 365.8,74.8 365.9,74.7 366.0,74.7 366.1,74.6 366.2,74.6 366.4,74.5 366.5,74.4 366.6,74.4 366.7,74.3
366.8,74.3 366.9,74.2 367.1,74.1 367.2,74.0 367.3,74.0 367.4,73.9 367.5,73.8 367.7,73.7 367.8,73.6 367.9,73.5 368.0,73.4 368.1,73.3 368.3,73.2 368.4,73.1 368.5,73.0 368.6,72.8
368.7,72.7 368.8,72.6 369.0,72.4 369.1,72.3 369.2,72.2 369.3,72.0 369.4,71.9 369.6,71.7 369.7,71.6 369.8,71.4 369.9,71.2 370.0,71.1 370.2,70.9 370.3,70.7 370.4,70.5 370.5,70.3
370.6,70.2 370.7,70.0 370.9,69.8 371.0,69.6 371.1,69.4 371.2,69.2 371.3,69.0 371.5,68.7 371.6,68.5 371.7,68.3 371.8,68.1 371.9,67.9 372.1,67.6 372.2,67.4 372.3,67.2 372.4,67.0
372.5,66.7 372.6,66.5 372.8,66.3 372.9,66.0 373.0,65.8 373.1,65.6 373.2,65.3 373.4,65.1 373.5,64.8 373.6,64.6 373.7,64.4 373.8,64.1 373.9,63.9 374.1,63.7 374.2,63.4 374.3,63.2
374.4,63.0 374.5,62.7 374.7,62.5 374.8,62.3 374.9,62.0 375.0,61.8 375.1,61.6 375.3,61.4 375.4,61.2 375.5,61.0 375.6,60.8 375.7,60.5 375.8,60.3 376.0,60.2 376.1,60.0 376.2,59.8
376.3,59.6 376.4,59.4 376.6,59.2 376.7,59.1 376.8,58.9 376.9,58.7 377.0,58.6 377.2,58.4 377.3,58.3 377.4,58.1 377.5,58.0 377.6,57.8 377.7,57.7 377.9,57.6 378.0,57.5 378.1,57.4
378.2,57.3 378.3,57.2 378.5,57.1 378.6,57.0 378.7,56.9 378.8,56.8 378.9,56.7 379.1,56.7 379.2,56.6 379.3,56.5 379.4,56.5 379.5,56.4 379.6,56.4 379.8,56.4 379.9,56.3 380.0,56.3
380.1,56.3 380.2,56.3 380.4,56.2 380.5,56.2 380.6,56.2 380.7,56.2 380.8,56.2 381.0,56.2 381.1,56.3 381.2,56.3 381.3,56.3 381.4,56.3 381.5,56.4 381.7,56.4 381.8,56.4 381.9,56.5
382.0,56.5 382.1,56.6 382.3,56.6 382.4,56.7 382.5,56.8 382.6,56.8 382.7,56.9 382.8,57.0 383.0,57.0 383.1,57.1 383.2,57.2 383.3,57.3 383.4,57.4 383.6,57.5 383.7,57.6 383.8,57.6
383.9,57.7 384.0,57.8 384.2,57.9 384.3,58.0 384.4,58.2 384.5,58.3 384.6,58.4 384.7,58.5 384.9,58.6 385.0,58.7 385.1,58.8 385.2,58.9 385.3,59.1 385.5,59.2 385.6,59.3 385.7,59.4
385.8,59.5 385.9,59.7 386.1,59.8 386.2,59.9 386.3,60.0 386.4,60.2 386.5,60.3 386.6,60.4 386.8,60.5 386.9,60.7 387.0,60.8 387.1,60.9 387.2,61.0 387.4,61.1 387.5,61.3 387.6,61.4
387.7,61.5 387.8,61.6 388.0,61.7 388.1,61.9 388.2,62.0 388.3,62.1 388.4,62.2 388.5,62.3 388.7,62.4 388.8,62.5 388.9,62.6 389.0,62.7 389.1,62.8 389.3,62.9 389.4,63.0 389.5,63.1
389.6,63.2 389.7,63.3 389.9,63.4 390.0,63.5 390.1,63.6 390.2,63.6 390.3,63.7 390.4,63.8 390.6,63.9 390.7,64.0 390.8,64.0 390.9,64.1 391.0,64.2 391.2,64.3 391.3,64.3 391.4,64.4
391.5,64.5 391.6,64.5 391.8,64.6 391.9,64.7 392.0,64.7 392.1,64.8 392.2,64.9 392.3,64.9 392.5,65.0 392.6,65.0 392.7,65.1 392.8,65.1 392.9,65.2 393.1,65.3 393.2,65.3 393.3,65.4
393.4,65.4 393.5,65.5 393.6,65.5 393.8,65.6 393.9,65.7 394.0,65.7 394.1,65.8 394.2,65.8 394.4,65.9 394.5,65.9 394.6,66.0 394.7,66.0 394.8,66.1 395.0,66.2 395.1,66.2 395.2,66.3
395.3,66.3 395.4,66.4 395.5,66.5 395.7,66.5 395.8,66.6 395.9,66.6 396.0,66.7 396.1,66.7 396.3,66.8 396.4,66.9 396.5,66.9 396.6,67.0 396.7,67.1 396.9,67.1 397.0,67.2 397.1,67.2
397.2,67.3 397.3,67.4 397.4,67.4 397.6,67.5 397.7,67.5 397.8,67.6 397.9,67.7 398.0,67.7 398.2,67.8 398.3,67.8 398.4,67.9 398.5,67.9 398.6,68.0 398.8,68.1 398.9,68.1 399.0,68.2
399.1,68.2 399.2,68.3 399.3,68.3 399.5,68.4 399.6,68.4 399.7,68.5 399.8,68.5 399.9,68.6 400.1,68.6 400.2,68.7 400.3,68.7 400.4,68.8 400.5,68.8 400.7,68.9 400.8,68.9 400.9,69.0
401.0,69.0 401.1,69.1 401.2,69.1 401.4,69.2 401.5,69.2 401.6,69.2 401.7,69.3 401.8,69.3 402.0,69.4 402.1,69.4 402.2,69.5 402.3,69.5 402.4,69.6 402.5,69.6 402.7,69.7 402.8,69.7
402.9,69.8 403.0,69.8 403.1,69.9 403.3,69.9 403.4,70.0 403.5,70.0 403.6,70.1 403.7,70.1 403.9,70.2 404.0,70.2 404.1,70.3 404.2,70.3 404.3,70.4 404.4,70.4 404.6,70.5 404.7,70.5
404.8,70.6 404.9,70.7 405.0,70.7 405.2,70.8 405.3,70.9 405.4,70.9 405.5,71.0 405.6,71.0 405.8,71.1 405.9,71.2 406.0,71.2 406.1,71.3 406.2,71.4 406.3,71.4 406.5,71.5 406.6,71.6
406.7,71.7 406.8,71.7 406.9,71.8 407.1,71.9 407.2,71.9 407.3,72.0 407.4,72.1 407.5,72.2 407.7,72.2 407.8,72.3 407.9,72.4 408.0,72.4 408.1,72.5 408.2,72.6 408.4,72.7 408.5,72.7
408.6,72.8 408.7,72.9 408.8,72.9 409.0,73.0 409.1,73.1 409.2,73.1 409.3,73.2 409.4,73.3 409.6,73.3 409.7,73.4 409.8,73.5 409.9,73.5 410.0,73.6 410.1,73.7 410.3,73.7 410.4,73.8
410.5,73.8 410.6,73.9 410.7,73.9 410.9,74.0 411.0,74.1 411.1,74.1 411.2,74.2 411.3,74.2 411.5,74.3 411.6,74.3 411.7,74.3 411.8,74.4 411.9,74.4 412.0,74.5 412.2,74.5 412.3,74.6
412.4,74.6 412.5,74.6 412.6,74.7 412.8,74.7 412.9,74.7 413.0,74.8 413.1,74.8 413.2,74.8 413.3,74.9 413.5,74.9 413.6,74.9 413.7,75.0 413.8,75.0 413.9,75.0 414.1,75.0 414.2,75.0
414.3,75.1 414.4,75.1 414.5,75.1 414.7,75.1 414.8,75.1 414.9,75.2 415.0,75.2 415.1,75.2 415.2,75.2 415.4,75.2 415.5,75.2 415.6,75.2 415.7,75.3 415.8,75.3 416.0,75.3 416.1,75.3
416.2,75.3 416.3,75.3 416.4,75.3 416.6,75.3 416.7,75.3 416.8,75.3 416.9,75.3 417.0,75.3 417.1,75.4 417.3,75.4 417.4,75.4 417.5,75.4 417.6,75.4 417.7,75.4 417.9,75.4 418.0,75.4
418.1,75.4 418.2,75.4 418.3,75.4 418.5,75.4 418.6,75.4 418.7,75.4 418.8,75.4 418.9,75.4 419.0,75.4 419.2,75.4 419.3,75.4 419.4,75.4 419.5,75.4 419.6,75.4 419.8,75.4 419.9,75.4
420.0,75.4 420.1,75.4 420.2,75.4 420.4,75.4 420.4,75.4 420.2,75.4 420.1,75.4 420.0,75.4 419.9,75.4 419.8,75.4 419.6,75.4 419.5,75.4 419.4,75.4 419.3,75.4 419.2,75.4 419.0,75.5
418.9,75.5 418.8,75.5 418.7,75.5 418.6,75.5 418.5,75.5 418.3,75.5 418.2,75.5 418.1,75.5 418.0,75.5 417.9,75.5 417.7,75.5 417.6,75.5 417.5,75.5 417.4,75.5 417.3,75.5 417.1,75.5
417.0,75.5 416.9,75.5 416.8,75.5 416.7,75.5 416.6,75.5 416.4,75.5 416.3,75.6 416.2,75.6 416.1,75.6 416.0,75.6 415.8,75.6 415.7,75.6 415.6,75.6 415.5,75.6 415.4,75.6 415.2,75.7
415.1,75.7 415.0,75.7 414.9,75.7 414.8,75.7 414.7,75.7 414.5,75.8 414.4,75.8 414.3,75.8 414.2,75.8 414.1,75.8 413.9,75.9 413.8,75.9 413.7,75.9 413.6,75.9 413.5,76.0 413.3,76.0
413.2,76.0 413.1,76.1 413.0,76.1 412.9,76.1 412.8,76.1 412.6,76.2 412.5,76.2 412.4,76.3 412.3,76.3 412.2,76.3 412.0,76.4 411.9,76.4 411.8,76.5 411.7,76.5 411.6,76.6 411.5,76.6
411.3,76.7 411.2,76.7 411.1,76.8 411.0,76.8 410.9,76.9 410.7,76.9 410.6,77.0 410.5,77.0 410.4,77.1 410.3,77.1 410.1,77.2 410.0,77.3 409.9,77.3 409.8,77.4 409.7,77.5 409.6,77.5
409.4,77.6 409.3,77.7 409.2,77.7 409.1,77.8 409.0,77.9 408.8,77.9 408.7,78.0 408.6,78.1 408.5,78.1 408.4,78.2 408.2,78.3 408.1,78.3 408.0,78.4 407.9,78.5 407.8,78.6 407.7,78.6
407.5,78.7 407.4,78.8 407.3,78.8 407.2,78.9 407.1,79.0 406.9,79.1 406.8,79.1 406.7,79.2 406.6,79.3 406.5,79.3 406.3,79.4 406.2,79.5 406.1,79.6 406.0,79.6 405.9,79.7 405.8,79.8
405.6,79.8 405.5,79.9 405.4,79.9 405.3,80.0 405.2,80.1 405.0,80.1 404.9,80.2 404.8,80.3 404.7,80.3 404.6,80.4 404.4,80.4 404.3,80.5 404.2,80.5 404.1,80.6 404.0,80.6 403.9,80.7
403.7,80.8 403.6,80.8 403.5,80.9 403.4,80.9 403.3,81.0 403.1,81.0 403.0,81.1 402.9,81.1 402.8,81.2 402.7,81.2 402.5,81.2 402.4,81.3 402.3,81.3 402.2,81.4 402.1,81.4 402.0,81.5
401.8,81.5 401.7,81.6 401.6,81.6 401.5,81.7 401.4,81.7 401.2,81.8 401.1,81.8 401.0,81.8 400.9,81.9 400.8,81.9 400.7,82.0 400.5,82.0 400.4,82.1 400.3,82.1 400.2,82.2 400.1,82.2
399.9,82.3 399.8,82.3 399.7,82.4 399.6,82.4 399.5,82.5 399.3,82.5 399.2,82.6 399.1,82.6 399.0,82.7 398.9,82.8 398.8,82.8 398.6,82.9 398.5,82.9 398.4,83.0 398.3,83.0 398.2,83.1
398.0,83.2 397.9,83.2 397.8,83.3 397.7,83.3 397.6,83.4 397.4,83.4 397.3,83.5 397.2,83.6 397.1,83.6 397.0,83.7 396.9,83.7 396.7,83.8 396.6,83.9 396.5,83.9 396.4,84.0 396.3,84.1
396.1,84.1 396.0,84.2 395.9,84.2 395.8,84.3 395.7,84.3 395.5,84.4 395.4,84.5 395.3,84.5 395.2,84.6 395.1,84.6 395.0,84.7 394.8,84.8 394.7,84.8 394.6,84.9 394.5,84.9 394.4,85.0
394.2,85.0 394.1,85.1 394.0,85.2 393.9,85.2 393.8,85.3 393.6,85.3 393.5,85.4 393.4,85.4 393.3,85.5 393.2,85.5 393.1,85.6 392.9,85.7 392.8,85.7 392.7,85.8 392.6,85.8 392.5,85.9
392.3,85.9 392.2,86.0 392.1,86.1 392.0,86.1 391.9,86.2 391.8,86.3 391.6,86.3 391.5,86.4 391.4,86.5 391.3,86.5 391.2,86.6 391.0,86.7 390.9,86.7 390.8,86.8 390.7,86.9 390.6,87.0
390.4,87.0 390.3,87.1 390.2,87.2 390.1,87.3 390.0,87.4 389.9,87.5 389.7,87.6 389.6,87.7 389.5,87.7 389.4,87.8 389.3,87.9 389.1,88.0 389.0,88.1 388.9,88.2 388.8,88.3 388.7,88.5
388.5,88.6 388.4,88.7 388.3,88.8 388.2,88.9 388.1,89.0 388.0,89.1 387.8,89.2 387.7,89.4 387.6,89.5 387.5,89.6 387.4,89.7 387.2,89.8 387.1,90.0 387.0,90.1 386.9,90.2 386.8,90.3
386.6,90.4 386.5,90.6 386.4,90.7 386.3,90.8 386.2,90.9 386.1,91.1 385.9,91.2 385.8,91.3 385.7,91.4 385.6,91.6 385.5,91.7 385.3,91.8 385.2,91.9 385.1,92.0 385.0,92.1 384.9,92.3
384.7,92.4 384.6,92.5 384.5,92.6 384.4,92.7 384.3,92.8 384.2,92.9 384.0,93.0 383.9,93.1 383.8,93.2 383.7,93.3 383.6,93.4 383.4,93.5 383.3,93.6 383.2,93.7 383.1,93.7 383.0,93.8
382.8,93.9 382.7,94.0 382.6,94.0 382.5,94.1 382.4,94.2 382.3,94.2 382.1,94.3 382.0,94.3 381.9,94.4 381.8,94.4 381.7,94.5 381.5,94.5 381.4,94.5 381.3,94.6 381.2,94.6 381.1,94.6
381.0,94.6 380.8,94.6 380.7,94.6 380.6,94.6 380.5,94.6 380.4,94.6 380.2,94.6 380.1,94.6 380.0,94.6 379.9,94.5 379.8,94.5 379.6,94.5 379.5,94.4 379.4,94.4 379.3,94.3 379.2,94.3
379.1,94.2 378.9,94.1 378.8,94.1 378.7,94.0 378.6,93.9 378.5,93.8 378.3,93.7 378.2,93.6 378.1,93.5 378.0,93.4 377.9,93.3 377.7,93.1 377.6,93.0 377.5,92.9 377.4,92.7 377.3,92.6
377.2,92.4 377.0,92.3 376.9,92.1 376.8,92.0 376.7,91.8 376.6,91.6 376.4,91.5 376.3,91.3 376.2,91.1 376.1,90.9 376.0,90.7 375.8,90.5 375.7,90.3 375.6,90.1 375.5,89.9 375.4,89.7
375.3,89.5 375.1,89.3 375.0,89.0 374.9,88.8 374.8,88.6 374.7,88.4 374.5,88.1 374.4,87.9 374.3,87.7 374.2,87.4 374.1,87.2 373.9,87.0 373.8,86.7 373.7,86.5 373.6,86.3 373.5,86.0
373.4,85.8 373.2,85.5 373.1,85.3 373.0,85.1 372.9,84.8 372.8,84.6 372.6,84.4 372.5,84.1 372.4,83.9 372.3,83.7 372.2,83.4 372.1,83.2 371.9,83.0 371.8,82.8 371.7,82.5 371.6,82.3
371.5,82.1 371.3,81.9 371.2,81.7 371.1,81.5 371.0,81.3 370.9,81.1 370.7,80.9 370.6,80.7 370.5,80.5 370.4,80.3 370.3,80.1 370.2,80.0 370.0,79.8 369.9,79.6 369.8,79.5 369.7,79.3
369.6,79.1 369.4,79.0 369.3,78.8 369.2,78.7 369.1,78.6 369.0,78.4 368.8,78.3 368.7,78.2 368.6,78.0 368.5,77.9 368.4,77.8 368.3,77.7 368.1,77.6 368.0,77.5 367.9,77.4 367.8,77.3
367.7,77.2 367.5,77.1 367.4,77.0 367.3,76.9 367.2,76.8 367.1,76.7 366.9,76.7 366.8,76.6 366.7,76.5 366.6,76.5 366.5,76.4 366.4,76.4 366.2,76.3 366.1,76.2 366.0,76.2 365.9,76.1
365.8,76.1 365.6,76.1 365.5,76.0 365.4,76.0 365.3,75.9 365.2,75.9 365.0,75.9 364.9,75.8 364.8,75.8 364.7,75.8 364.6,75.8 364.5,75.7 364.3,75.7 364.2,75.7 364.1,75.7 364.0,75.7
363.9,75.6 363.7,75.6 363.6,75.6 363.5,75.6 363.4,75.6 363.3,75.6 363.1,75.6 363.0,75.6 362.9,75.5 362.8,75.5 362.7,75.5 362.6,75.5 362.4,75.5 362.3,75.5 362.2,75.5 362.1,75.5
362.0,75.5 361.8,75.5 361.7,75.5 361.6,75.5 361.5,75.5 361.4,75.5 361.3,75.5 361.1,75.5 '/>
	</g>
</g>
	</g>
<g fill="none" color="white" stroke="rgb( 31, 120, 180)" stroke-width="2.00" stroke-linecap="butt" stroke-linejoin="miter">
</g>
<g fill="none" color="black" stroke="currentColor" stroke-width="2.00" stroke-linecap="butt" stroke-linejoin="miter">
</g>
<g fill="none" color="black" stroke="black" stroke-width="1.00" stroke-linecap="butt" stroke-linejoin="miter">
</g>
<g fill="none" color="black" stroke="currentColor" stroke-width="1.00" stroke-linecap="butt" stroke-linejoin="miter">
	<path stroke='black'  d='M229.6,54.1 L229.6,267.4 L1255.0,267.4 L1255.0,54.1 L229.6,54.1 Z  '/></g>
<g fill="none" color="black" stroke="currentColor" stroke-width="1.00" stroke-linecap="butt" stroke-linejoin="miter">
</g>
</g>
</svg>

