<?xml version="1.0" encoding="utf-8"  standalone="no"?>
<svg 
 viewBox="0 0 1280 720"
 xmlns="http://www.w3.org/2000/svg"
 xmlns:xlink="http://www.w3.org/1999/xlink"
>

<title>Gnuplot</title>
<desc>Produced by GNUPLOT 5.2 patchlevel 8 </desc>

<g id="gnuplot_canvas">

<rect x="0" y="0" width="1280" height="720" fill="none"/>
<defs>

	<circle id='gpDot' r='0.5' stroke-width='0.5' stroke='currentColor'/>
	<path id='gpPt0' stroke-width='0.222' stroke='currentColor' d='M-1,0 h2 M0,-1 v2'/>
	<path id='gpPt1' stroke-width='0.222' stroke='currentColor' d='M-1,-1 L1,1 M1,-1 L-1,1'/>
	<path id='gpPt2' stroke-width='0.222' stroke='currentColor' d='M-1,0 L1,0 M0,-1 L0,1 M-1,-1 L1,1 M-1,1 L1,-1'/>
	<rect id='gpPt3' stroke-width='0.222' stroke='currentColor' x='-1' y='-1' width='2' height='2'/>
	<rect id='gpPt4' stroke-width='0.222' stroke='currentColor' fill='currentColor' x='-1' y='-1' width='2' height='2'/>
	<circle id='gpPt5' stroke-width='0.222' stroke='currentColor' cx='0' cy='0' r='1'/>
	<use xlink:href='#gpPt5' id='gpPt6' fill='currentColor' stroke='none'/>
	<path id='gpPt7' stroke-width='0.222' stroke='currentColor' d='M0,-1.33 L-1.33,0.67 L1.33,0.67 z'/>
	<use xlink:href='#gpPt7' id='gpPt8' fill='currentColor' stroke='none'/>
	<use xlink:href='#gpPt7' id='gpPt9' stroke='currentColor' transform='rotate(180)'/>
	<use xlink:href='#gpPt9' id='gpPt10' fill='currentColor' stroke='none'/>
	<use xlink:href='#gpPt3' id='gpPt11' stroke='currentColor' transform='rotate(45)'/>
	<use xlink:href='#gpPt11' id='gpPt12' fill='currentColor' stroke='none'/>
	<path id='gpPt13' stroke-width='0.222' stroke='currentColor' d='M0,1.330 L1.265,0.411 L0.782,-1.067 L-0.782,-1.076 L-1.265,0.411 z'/>
	<use xlink:href='#gpPt13' id='gpPt14' fill='currentColor' stroke='none'/>
	<filter id='textbox' filterUnits='objectBoundingBox' x='0' y='0' height='1' width='1'>
	  <feFlood flood-color='white' flood-opacity='1' result='bgnd'/>
	  <feComposite in='SourceGraphic' in2='bgnd' operator='atop'/>
	</filter>
	<filter id='greybox' filterUnits='objectBoundingBox' x='0' y='0' height='1' width='1'>
	  <feFlood flood-color='lightgrey' flood-opacity='1' result='grey'/>
	  <feComposite in='SourceGraphic' in2='grey' operator='atop'/>
	</filter>
</defs>
<g fill="none" color="white" stroke="currentColor" stroke-width="1.00" stroke-linecap="butt" stroke-linejoin="miter">
</g>
<g fill="none" color="black" stroke="currentColor" stroke-width="1.00" stroke-linecap="butt" stroke-linejoin="miter">
	<path stroke='black'  d='M71.9,662.4 L80.9,662.4  '/>	<g transform="translate(63.6,666.3)" stroke="none" fill="black" font-family="Helvetica" font-size="12.00"  text-anchor="end">
		<text><tspan font-family="Helvetica" > 0</tspan></text>
	</g>
</g>
<g fill="none" color="black" stroke="currentColor" stroke-width="1.00" stroke-linecap="butt" stroke-linejoin="miter">
	<path stroke='black'  d='M71.9,561.0 L80.9,561.0  '/>	<g transform="translate(63.6,564.9)" stroke="none" fill="black" font-family="Helvetica" font-size="12.00"  text-anchor="end">
		<text><tspan font-family="Helvetica" > 20</tspan></text>
	</g>
</g>
<g fill="none" color="black" stroke="currentColor" stroke-width="1.00" stroke-linecap="butt" stroke-linejoin="miter">
	<path stroke='black'  d='M71.9,459.6 L80.9,459.6  '/>	<g transform="translate(63.6,463.5)" stroke="none" fill="black" font-family="Helvetica" font-size="12.00"  text-anchor="end">
		<text><tspan font-family="Helvetica" > 40</tspan></text>
	</g>
</g>
<g fill="none" color="black" stroke="currentColor" stroke-width="1.00" stroke-linecap="butt" stroke-linejoin="miter">
	<path stroke='black'  d='M71.9,358.2 L80.9,358.2  '/>	<g transform="translate(63.6,362.1)" stroke="none" fill="black" font-family="Helvetica" font-size="12.00"  text-anchor="end">
		<text><tspan font-family="Helvetica" > 60</tspan></text>
	</g>
</g>
<g fill="none" color="black" stroke="currentColor" stroke-width="1.00" stroke-linecap="butt" stroke-linejoin="miter">
	<path stroke='black'  d='M71.9,256.9 L80.9,256.9  '/>	<g transform="translate(63.6,260.8)" stroke="none" fill="black" font-family="Helvetica" font-size="12.00"  text-anchor="end">
		<text><tspan font-family="Helvetica" > 80</tspan></text>
	</g>
</g>
<g fill="none" color="black" stroke="currentColor" stroke-width="1.00" stroke-linecap="butt" stroke-linejoin="miter">
	<path stroke='black'  d='M71.9,155.5 L80.9,155.5  '/>	<g transform="translate(63.6,159.4)" stroke="none" fill="black" font-family="Helvetica" font-size="12.00"  text-anchor="end">
		<text><tspan font-family="Helvetica" > 100</tspan></text>
	</g>
</g>
<g fill="none" color="black" stroke="currentColor" stroke-width="1.00" stroke-linecap="butt" stroke-linejoin="miter">
	<path stroke='black'  d='M71.9,54.1 L80.9,54.1  '/>	<g transform="translate(63.6,58.0)" stroke="none" fill="black" font-family="Helvetica" font-size="12.00"  text-anchor="end">
		<text><tspan font-family="Helvetica" > 120</tspan></text>
	</g>
</g>
<g fill="none" color="black" stroke="currentColor" stroke-width="1.00" stroke-linecap="butt" stroke-linejoin="miter">
	<path stroke='black'  d='M201.0,662.4 L201.0,653.4  '/>	<g transform="translate(201.0,684.3)" stroke="none" fill="black" font-family="Helvetica" font-size="12.00"  text-anchor="middle">
		<text><tspan font-family="Helvetica" > 6.715</tspan></text>
	</g>
</g>
<g fill="none" color="black" stroke="currentColor" stroke-width="1.00" stroke-linecap="butt" stroke-linejoin="miter">
	<path stroke='black'  d='M408.2,662.4 L408.2,653.4  '/>	<g transform="translate(408.2,684.3)" stroke="none" fill="black" font-family="Helvetica" font-size="12.00"  text-anchor="middle">
		<text><tspan font-family="Helvetica" > 6.72</tspan></text>
	</g>
</g>
<g fill="none" color="black" stroke="currentColor" stroke-width="1.00" stroke-linecap="butt" stroke-linejoin="miter">
	<path stroke='black'  d='M615.4,662.4 L615.4,653.4  '/>	<g transform="translate(615.4,684.3)" stroke="none" fill="black" font-family="Helvetica" font-size="12.00"  text-anchor="middle">
		<text><tspan font-family="Helvetica" > 6.725</tspan></text>
	</g>
</g>
<g fill="none" color="black" stroke="currentColor" stroke-width="1.00" stroke-linecap="butt" stroke-linejoin="miter">
	<path stroke='black'  d='M822.6,662.4 L822.6,653.4  '/>	<g transform="translate(822.6,684.3)" stroke="none" fill="black" font-family="Helvetica" font-size="12.00"  text-anchor="middle">
		<text><tspan font-family="Helvetica" > 6.73</tspan></text>
	</g>
</g>
<g fill="none" color="black" stroke="currentColor" stroke-width="1.00" stroke-linecap="butt" stroke-linejoin="miter">
</g>
<g fill="none" color="black" stroke="currentColor" stroke-width="1.00" stroke-linecap="butt" stroke-linejoin="miter">
	<path stroke='black'  d='M71.9,54.1 L71.9,662.4 L1013.6,662.4 L1013.6,54.1 L71.9,54.1 Z  '/></g>
<g fill="none" color="black" stroke="currentColor" stroke-width="1.00" stroke-linecap="butt" stroke-linejoin="miter">
	<g transform="translate(19.0,358.3) rotate(270)" stroke="none" fill="black" font-family="Helvetica" font-size="12.00"  text-anchor="middle">
		<text><tspan font-family="Helvetica" >Density (a.u.)</tspan></text>
	</g>
</g>
<g fill="none" color="black" stroke="currentColor" stroke-width="1.00" stroke-linecap="butt" stroke-linejoin="miter">
	<g transform="translate(542.7,711.3)" stroke="none" fill="black" font-family="Helvetica" font-size="12.00"  text-anchor="middle">
		<text><tspan font-family="Helvetica" >Average time (ns)</tspan></text>
	</g>
</g>
<g fill="none" color="black" stroke="currentColor" stroke-width="1.00" stroke-linecap="butt" stroke-linejoin="miter">
	<g transform="translate(542.7,31.0)" stroke="none" fill="black" font-family="Helvetica" font-size="12.00"  text-anchor="middle">
		<text><tspan font-family="Helvetica" >String trim/Standard trim/win: median</tspan></text>
	</g>
</g>
<g fill="none" color="black" stroke="currentColor" stroke-width="1.00" stroke-linecap="butt" stroke-linejoin="miter">
</g>
	<g id="gnuplot_plot_1" ><title>Bootstrap distribution</title>
<g fill="none" color="white" stroke="currentColor" stroke-width="2.00" stroke-linecap="butt" stroke-linejoin="miter">
</g>
<g fill="none" color="black" stroke="currentColor" stroke-width="2.00" stroke-linecap="butt" stroke-linejoin="miter">
	<g transform="translate(1089.0,67.0)" stroke="none" fill="black" font-family="Helvetica" font-size="12.00"  text-anchor="start">
		<text><tspan font-family="Helvetica" >Bootstrap distribution</tspan></text>
	</g>
</g>
<g fill="none" color="black" stroke="currentColor" stroke-width="2.00" stroke-linecap="butt" stroke-linejoin="miter">
	<path stroke='rgb( 31, 120, 180)'  d='M1038.5,63.1 L1080.7,63.1 M71.9,651.8 L73.8,650.9 L75.7,649.9 L77.6,648.8 L79.4,647.6 L81.3,646.3
		L83.2,644.8 L85.1,643.2 L87.0,641.5 L88.9,639.6 L90.8,637.6 L92.7,635.4 L94.5,633.1 L96.4,630.6
		L98.3,628.0 L100.2,625.2 L102.1,622.3 L104.0,619.2 L105.9,616.0 L107.8,612.6 L109.6,609.0 L111.5,605.3
		L113.4,601.5 L115.3,597.5 L117.2,593.3 L119.1,588.9 L121.0,584.3 L122.9,579.5 L124.7,574.5 L126.6,569.2
		L128.5,563.6 L130.4,557.7 L132.3,551.5 L134.2,544.8 L136.1,537.7 L138.0,530.2 L139.8,522.2 L141.7,513.6
		L143.6,504.5 L145.5,494.8 L147.4,484.5 L149.3,473.5 L151.2,462.0 L153.0,449.8 L154.9,437.0 L156.8,423.5
		L158.7,409.5 L160.6,395.0 L162.5,380.0 L164.4,364.7 L166.3,349.0 L168.1,333.1 L170.0,317.1 L171.9,301.1
		L173.8,285.3 L175.7,269.8 L177.6,254.8 L179.5,240.4 L181.4,226.8 L183.2,214.1 L185.1,202.6 L187.0,192.4
		L188.9,183.6 L190.8,176.3 L192.7,170.6 L194.6,166.7 L196.5,164.6 L198.3,164.2 L200.2,165.6 L202.1,168.7
		L204.0,173.5 L205.9,179.9 L207.8,187.6 L209.7,196.7 L211.6,206.8 L213.4,217.7 L215.3,229.4 L217.2,241.5
		L219.1,253.8 L221.0,266.2 L222.9,278.4 L224.8,290.3 L226.6,301.7 L228.5,312.5 L230.4,322.6 L232.3,331.9
		L234.2,340.2 L236.1,347.7 L238.0,354.2 L239.9,359.8 L241.7,364.4 L243.6,368.1 L245.5,370.9 L247.4,372.8
		L249.3,373.8 L251.2,374.0 L253.1,373.3 L255.0,371.7 L256.8,369.3 L258.7,366.0 L260.6,361.8 L262.5,356.6
		L264.4,350.5 L266.3,343.5 L268.2,335.5 L270.1,326.5 L271.9,316.6 L273.8,305.8 L275.7,294.3 L277.6,282.0
		L279.5,269.0 L281.4,255.6 L283.3,241.9 L285.2,228.0 L287.0,214.1 L288.9,200.5 L290.8,187.2 L292.7,174.5
		L294.6,162.6 L296.5,151.6 L298.4,141.8 L300.2,133.2 L302.1,126.1 L304.0,120.4 L305.9,116.2 L307.8,113.6
		L309.7,112.6 L311.6,113.2 L313.5,115.3 L315.3,118.9 L317.2,123.8 L319.1,130.0 L321.0,137.4 L322.9,145.7
		L324.8,154.9 L326.7,164.8 L328.6,175.4 L330.4,186.3 L332.3,197.5 L334.2,209.0 L336.1,220.4 L338.0,231.8
		L339.9,243.1 L341.8,254.1 L343.7,264.9 L345.5,275.2 L347.4,285.2 L349.3,294.7 L351.2,303.8 L353.1,312.4
		L355.0,320.4 L356.9,328.0 L358.8,335.1 L360.6,341.8 L362.5,347.9 L364.4,353.6 L366.3,358.9 L368.2,363.7
		L370.1,368.2 L372.0,372.2 L373.8,375.8 L375.7,379.1 L377.6,382.0 L379.5,384.5 L381.4,386.7 L383.3,388.5
		L385.2,390.0 L387.1,391.2 L388.9,392.1 L390.8,392.8 L392.7,393.1 L394.6,393.3 L396.5,393.3 L398.4,393.1
		L400.3,392.7 L402.2,392.3 L404.0,391.8 L405.9,391.3 L407.8,390.7 L409.7,390.1 L411.6,389.4 L413.5,388.8
		L415.4,388.0 L417.3,387.1 L419.1,386.0 L421.0,384.6 L422.9,382.9 L424.8,380.7 L426.7,377.9 L428.6,374.4
		L430.5,370.1 L432.4,364.9 L434.2,358.6 L436.1,351.2 L438.0,342.7 L439.9,332.9 L441.8,321.8 L443.7,309.6
		L445.6,296.3 L447.4,281.9 L449.3,266.6 L451.2,250.6 L453.1,234.2 L455.0,217.5 L456.9,200.8 L458.8,184.4
		L460.7,168.7 L462.5,153.8 L464.4,140.1 L466.3,127.8 L468.2,117.2 L470.1,108.5 L472.0,101.9 L473.9,97.6
		L475.8,95.5 L477.6,95.7 L479.5,98.3 L481.4,103.1 L483.3,110.1 L485.2,119.1 L487.1,129.9 L489.0,142.4
		L490.9,156.2 L492.7,171.2 L494.6,187.1 L496.5,203.6 L498.4,220.5 L500.3,237.6 L502.2,254.7 L504.1,271.5
		L506.0,287.9 L507.8,303.8 L509.7,319.0 L511.6,333.6 L513.5,347.4 L515.4,360.4 L517.3,372.7 L519.2,384.2
		L521.0,394.9 L522.9,404.9 L524.8,414.3 L526.7,423.1 L528.6,431.4 L530.5,439.1 L532.4,446.4 L534.3,453.3
		L536.1,459.8 L538.0,466.0 L539.9,471.9 L541.8,477.5 L543.7,482.8 L545.6,487.9 L547.5,492.7 L549.4,497.3
		L551.2,501.7 L553.1,505.9 L555.0,509.9 L556.9,513.7 L558.8,517.4 L560.7,521.0 L562.6,524.4 L564.5,527.6
		L566.3,530.8 L568.2,533.8 L570.1,536.7 L572.0,539.5 L573.9,542.2 L575.8,544.7 L577.7,547.2 L579.5,549.4
		L581.4,551.5 L583.3,553.4 L585.2,555.1 L587.1,556.6 L589.0,557.8 L590.9,558.8 L592.8,559.6 L594.6,560.1
		L596.5,560.4 L598.4,560.4 L600.3,560.2 L602.2,559.7 L604.1,558.9 L606.0,558.0 L607.9,556.8 L609.7,555.4
		L611.6,553.8 L613.5,552.1 L615.4,550.2 L617.3,548.1 L619.2,545.9 L621.1,543.7 L623.0,541.4 L624.8,539.0
		L626.7,536.6 L628.6,534.3 L630.5,532.0 L632.4,529.8 L634.3,527.8 L636.2,525.9 L638.1,524.3 L639.9,523.0
		L641.8,522.0 L643.7,521.3 L645.6,521.0 L647.5,521.1 L649.4,521.7 L651.3,522.7 L653.1,524.1 L655.0,526.0
		L656.9,528.4 L658.8,531.1 L660.7,534.3 L662.6,537.8 L664.5,541.6 L666.4,545.7 L668.2,549.9 L670.1,554.4
		L672.0,558.8 L673.9,563.4 L675.8,567.8 L677.7,572.1 L679.6,576.2 L681.5,580.1 L683.3,583.6 L685.2,586.7
		L687.1,589.4 L689.0,591.6 L690.9,593.2 L692.8,594.2 L694.7,594.6 L696.6,594.4 L698.4,593.5 L700.3,591.9
		L702.2,589.6 L704.1,586.6 L706.0,582.9 L707.9,578.6 L709.8,573.7 L711.7,568.2 L713.5,562.2 L715.4,555.6
		L717.3,548.6 L719.2,541.3 L721.1,533.6 L723.0,525.7 L724.9,517.6 L726.7,509.3 L728.6,501.0 L730.5,492.7
		L732.4,484.5 L734.3,476.4 L736.2,468.4 L738.1,460.7 L740.0,453.1 L741.8,445.9 L743.7,438.9 L745.6,432.3
		L747.5,426.0 L749.4,420.0 L751.3,414.4 L753.2,409.1 L755.1,404.1 L756.9,399.5 L758.8,395.2 L760.7,391.2
		L762.6,387.6 L764.5,384.3 L766.4,381.3 L768.3,378.7 L770.2,376.4 L772.0,374.5 L773.9,373.0 L775.8,371.9
		L777.7,371.2 L779.6,370.9 L781.5,371.1 L783.4,371.9 L785.3,373.1 L787.1,375.0 L789.0,377.4 L790.9,380.4
		L792.8,384.0 L794.7,388.3 L796.6,393.2 L798.5,398.7 L800.3,404.8 L802.2,411.5 L804.1,418.8 L806.0,426.5
		L807.9,434.8 L809.8,443.4 L811.7,452.4 L813.6,461.6 L815.4,471.0 L817.3,480.6 L819.2,490.2 L821.1,499.7
		L823.0,509.2 L824.9,518.4 L826.8,527.4 L828.7,536.1 L830.5,544.4 L832.4,552.3 L834.3,559.6 L836.2,566.5
		L838.1,572.9 L840.0,578.7 L841.9,583.9 L843.8,588.6 L845.6,592.8 L847.5,596.4 L849.4,599.5 L851.3,602.2
		L853.2,604.4 L855.1,606.3 L857.0,607.7 L858.9,608.9 L860.7,609.9 L862.6,610.6 L864.5,611.1 L866.4,611.6
		L868.3,611.9 L870.2,612.3 L872.1,612.6 L873.9,612.9 L875.8,613.2 L877.7,613.6 L879.6,614.1 L881.5,614.6
		L883.4,615.2 L885.3,615.9 L887.2,616.6 L889.0,617.4 L890.9,618.2 L892.8,619.0 L894.7,619.8 L896.6,620.6
		L898.5,621.4 L900.4,622.1 L902.3,622.8 L904.1,623.4 L906.0,623.9 L907.9,624.3 L909.8,624.7 L911.7,624.9
		L913.6,625.0 L915.5,625.1 L917.4,625.0 L919.2,624.9 L921.1,624.7 L923.0,624.5 L924.9,624.2 L926.8,623.9
		L928.7,623.5 L930.6,623.1 L932.5,622.8 L934.3,622.4 L936.2,622.0 L938.1,621.7 L940.0,621.4 L941.9,621.2
		L943.8,621.0 L945.7,620.9 L947.5,620.8 L949.4,620.8 L951.3,620.8 L953.2,620.9 L955.1,621.1 L957.0,621.3
		L958.9,621.6 L960.8,621.9 L962.6,622.2 L964.5,622.6 L966.4,623.1 L968.3,623.6 L970.2,624.1 L972.1,624.6
		L974.0,625.2 L975.9,625.7 L977.7,626.3 L979.6,626.9 L981.5,627.5 L983.4,628.0 L985.3,628.6 L987.2,629.2
		L989.1,629.7 L991.0,630.3 L992.8,630.8 L994.7,631.3 L996.6,631.9 L998.5,632.4 L1000.4,632.9 L1002.3,633.4
		L1004.2,633.9 L1006.1,634.4 L1007.9,634.8 L1009.8,635.3 L1011.7,635.8 L1013.6,636.4  '/></g>
	</g>
	<g id="gnuplot_plot_2" ><title>Confidence interval</title>
<g fill="none" color="white" stroke="rgb( 31, 120, 180)" stroke-width="1.00" stroke-linecap="butt" stroke-linejoin="miter">
</g>
<g fill="none" color="black" stroke="currentColor" stroke-width="1.00" stroke-linecap="butt" stroke-linejoin="miter">
	<g transform="translate(1089.0,85.0)" stroke="none" fill="black" font-family="Helvetica" font-size="12.00"  text-anchor="start">
		<text><tspan font-family="Helvetica" >Confidence interval</tspan></text>
	</g>
</g>
<g fill="none" color="black" stroke="currentColor" stroke-width="1.00" stroke-linecap="butt" stroke-linejoin="miter">
	<g stroke='none' shape-rendering='crispEdges'>
		<polygon fill = 'rgb( 31, 120, 180)' fill-opacity = '0.250000' points = '1038.5,85.6 1080.7,85.6 1080.7,76.6 1038.5,76.6 '/>
		<polygon fill = 'rgb( 31, 120, 180)' fill-opacity = '0.250000' points = '158.7,409.5 160.6,395.0 162.5,380.0 164.4,364.7 166.3,349.0 168.1,333.1 170.0,317.1 171.9,301.1 173.8,285.3 175.7,269.8 177.6,254.8 179.5,240.4 181.4,226.8 183.2,214.1 185.1,202.6 187.0,192.4
188.9,183.6 190.8,176.3 192.7,170.6 194.6,166.7 196.5,164.6 198.3,164.2 200.2,165.6 202.1,168.7 204.0,173.5 205.9,179.9 207.8,187.6 209.7,196.7 211.6,206.8 213.4,217.7 215.3,229.4 217.2,241.5
219.1,253.8 221.0,266.2 222.9,278.4 224.8,290.3 226.6,301.7 228.5,312.5 230.4,322.6 232.3,331.9 234.2,340.2 236.1,347.7 238.0,354.2 239.9,359.8 241.7,364.4 243.6,368.1 245.5,370.9 247.4,372.8
249.3,373.8 251.2,374.0 253.1,373.3 255.0,371.7 256.8,369.3 258.7,366.0 260.6,361.8 262.5,356.6 264.4,350.5 266.3,343.5 268.2,335.5 270.1,326.5 271.9,316.6 273.8,305.8 275.7,294.3 277.6,282.0
279.5,269.0 281.4,255.6 283.3,241.9 285.2,228.0 287.0,214.1 288.9,200.5 290.8,187.2 292.7,174.5 294.6,162.6 296.5,151.6 298.4,141.8 300.2,133.2 302.1,126.1 304.0,120.4 305.9,116.2 307.8,113.6
309.7,112.6 311.6,113.2 313.5,115.3 315.3,118.9 317.2,123.8 319.1,130.0 321.0,137.4 322.9,145.7 324.8,154.9 326.7,164.8 328.6,175.4 330.4,186.3 332.3,197.5 334.2,209.0 336.1,220.4 338.0,231.8
339.9,243.1 341.8,254.1 343.7,264.9 345.5,275.2 347.4,285.2 349.3,294.7 351.2,303.8 353.1,312.4 355.0,320.4 356.9,328.0 358.8,335.1 360.6,341.8 362.5,347.9 364.4,353.6 366.3,358.9 368.2,363.7
370.1,368.2 372.0,372.2 373.8,375.8 375.7,379.1 377.6,382.0 379.5,384.5 381.4,386.7 383.3,388.5 385.2,390.0 387.1,391.2 388.9,392.1 390.8,392.8 392.7,393.1 394.6,393.3 396.5,393.3 398.4,393.1
400.3,392.7 402.2,392.3 404.0,391.8 405.9,391.3 407.8,390.7 409.7,390.1 411.6,389.4 413.5,388.8 415.4,388.0 417.3,387.1 419.1,386.0 421.0,384.6 422.9,382.9 424.8,380.7 426.7,377.9 428.6,374.4
430.5,370.1 432.4,364.9 434.2,358.6 436.1,351.2 438.0,342.7 439.9,332.9 441.8,321.8 443.7,309.6 445.6,296.3 447.4,281.9 449.3,266.6 451.2,250.6 453.1,234.2 455.0,217.5 456.9,200.8 458.8,184.4
460.7,168.7 462.5,153.8 464.4,140.1 466.3,127.8 468.2,117.2 470.1,108.5 472.0,101.9 473.9,97.6 475.8,95.5 477.6,95.7 479.5,98.3 481.4,103.1 483.3,110.1 485.2,119.1 487.1,129.9 489.0,142.4
490.9,156.2 492.7,171.2 494.6,187.1 496.5,203.6 498.4,220.5 500.3,237.6 502.2,254.7 504.1,271.5 506.0,287.9 507.8,303.8 509.7,319.0 511.6,333.6 513.5,347.4 515.4,360.4 517.3,372.7 519.2,384.2
521.0,394.9 522.9,404.9 524.8,414.3 526.7,423.1 528.6,431.4 530.5,439.1 532.4,446.4 534.3,453.3 536.1,459.8 538.0,466.0 539.9,471.9 541.8,477.5 543.7,482.8 545.6,487.9 547.5,492.7 549.4,497.3
551.2,501.7 553.1,505.9 555.0,509.9 556.9,513.7 558.8,517.4 560.7,521.0 562.6,524.4 564.5,527.6 566.3,530.8 568.2,533.8 570.1,536.7 572.0,539.5 573.9,542.2 575.8,544.7 577.7,547.2 579.5,549.4
581.4,551.5 583.3,553.4 585.2,555.1 587.1,556.6 589.0,557.8 590.9,558.8 592.8,559.6 594.6,560.1 596.5,560.4 598.4,560.4 600.3,560.2 602.2,559.7 604.1,558.9 606.0,558.0 607.9,556.8 609.7,555.4
611.6,553.8 613.5,552.1 615.4,550.2 617.3,548.1 619.2,545.9 621.1,543.7 623.0,541.4 624.8,539.0 626.7,536.6 628.6,534.3 630.5,532.0 632.4,529.8 634.3,527.8 636.2,525.9 638.1,524.3 639.9,523.0
641.8,522.0 643.7,521.3 645.6,521.0 647.5,521.1 649.4,521.7 651.3,522.7 653.1,524.1 655.0,526.0 656.9,528.4 658.8,531.1 660.7,534.3 662.6,537.8 664.5,541.6 666.4,545.7 668.2,549.9 670.1,554.4
672.0,558.8 673.9,563.4 675.8,567.8 677.7,572.1 679.6,576.2 681.5,580.1 683.3,583.6 685.2,586.7 687.1,589.4 689.0,591.6 690.9,593.2 692.8,594.2 694.7,594.6 696.6,594.4 698.4,593.5 700.3,591.9
702.2,589.6 704.1,586.6 706.0,582.9 707.9,578.6 709.8,573.7 711.7,568.2 713.5,562.2 715.4,555.6 717.3,548.6 719.2,541.3 721.1,533.6 723.0,525.7 724.9,517.6 726.7,509.3 728.6,501.0 730.5,492.7
732.4,484.5 734.3,476.4 736.2,468.4 738.1,460.7 740.0,453.1 741.8,445.9 743.7,438.9 745.6,432.3 747.5,426.0 749.4,420.0 751.3,414.4 753.2,409.1 755.1,404.1 756.9,399.5 758.8,395.2 760.7,391.2
762.6,387.6 764.5,384.3 766.4,381.3 768.3,378.7 770.2,376.4 772.0,374.5 773.9,373.0 775.8,371.9 777.7,371.2 779.6,370.9 781.5,371.1 783.4,371.9 785.3,373.1 787.1,375.0 789.0,377.4 790.9,380.4
792.8,384.0 794.7,388.3 796.6,393.2 798.5,398.7 800.3,404.8 802.2,411.5 804.1,418.8 806.0,426.5 807.9,434.8 809.8,443.4 811.7,452.4 813.6,461.6 815.4,471.0 817.3,480.6 819.2,490.2 821.1,499.7
823.0,509.2 824.9,518.4 826.8,527.4 828.7,536.1 830.5,544.4 832.4,552.3 834.3,559.6 836.2,566.5 838.1,572.9 840.0,578.7 841.9,583.9 843.8,588.6 845.6,592.8 847.5,596.4 849.4,599.5 851.3,602.2
853.2,604.4 855.1,606.3 857.0,607.7 858.9,608.9 860.7,609.9 862.6,610.6 864.5,611.1 866.4,611.6 868.3,611.9 870.2,612.3 872.1,612.6 873.9,612.9 875.8,613.2 877.7,613.6 879.6,614.1 881.5,614.6
883.4,615.2 885.3,615.9 887.2,616.6 889.0,617.4 890.9,618.2 892.8,619.0 894.7,619.8 896.6,620.6 898.5,621.4 900.4,622.1 902.3,622.8 904.1,623.4 906.0,623.9 907.9,624.3 909.8,624.7 911.7,624.9
913.6,625.0 915.5,625.1 917.4,625.0 919.2,624.9 921.1,624.7 923.0,624.5 924.9,624.2 924.9,662.4 923.0,662.4 921.1,662.4 919.2,662.4 917.4,662.4 915.5,662.4 913.6,662.4 911.7,662.4 909.8,662.4
907.9,662.4 906.0,662.4 904.1,662.4 902.3,662.4 900.4,662.4 898.5,662.4 896.6,662.4 894.7,662.4 892.8,662.4 890.9,662.4 889.0,662.4 887.2,662.4 885.3,662.4 883.4,662.4 881.5,662.4 879.6,662.4
877.7,662.4 875.8,662.4 873.9,662.4 872.1,662.4 870.2,662.4 868.3,662.4 866.4,662.4 864.5,662.4 862.6,662.4 860.7,662.4 858.9,662.4 857.0,662.4 855.1,662.4 853.2,662.4 851.3,662.4 849.4,662.4
847.5,662.4 845.6,662.4 843.8,662.4 841.9,662.4 840.0,662.4 838.1,662.4 836.2,662.4 834.3,662.4 832.4,662.4 830.5,662.4 828.7,662.4 826.8,662.4 824.9,662.4 823.0,662.4 821.1,662.4 819.2,662.4
817.3,662.4 815.4,662.4 813.6,662.4 811.7,662.4 809.8,662.4 807.9,662.4 806.0,662.4 804.1,662.4 802.2,662.4 800.3,662.4 798.5,662.4 796.6,662.4 794.7,662.4 792.8,662.4 790.9,662.4 789.0,662.4
787.1,662.4 785.3,662.4 783.4,662.4 781.5,662.4 779.6,662.4 777.7,662.4 775.8,662.4 773.9,662.4 772.0,662.4 770.2,662.4 768.3,662.4 766.4,662.4 764.5,662.4 762.6,662.4 760.7,662.4 758.8,662.4
756.9,662.4 755.1,662.4 753.2,662.4 751.3,662.4 749.4,662.4 747.5,662.4 745.6,662.4 743.7,662.4 741.8,662.4 740.0,662.4 738.1,662.4 736.2,662.4 734.3,662.4 732.4,662.4 730.5,662.4 728.6,662.4
726.7,662.4 724.9,662.4 723.0,662.4 721.1,662.4 719.2,662.4 717.3,662.4 715.4,662.4 713.5,662.4 711.7,662.4 709.8,662.4 707.9,662.4 706.0,662.4 704.1,662.4 702.2,662.4 700.3,662.4 698.4,662.4
696.6,662.4 694.7,662.4 692.8,662.4 690.9,662.4 689.0,662.4 687.1,662.4 685.2,662.4 683.3,662.4 681.5,662.4 679.6,662.4 677.7,662.4 675.8,662.4 673.9,662.4 672.0,662.4 670.1,662.4 668.2,662.4
666.4,662.4 664.5,662.4 662.6,662.4 660.7,662.4 658.8,662.4 656.9,662.4 655.0,662.4 653.1,662.4 651.3,662.4 649.4,662.4 647.5,662.4 645.6,662.4 643.7,662.4 641.8,662.4 639.9,662.4 638.1,662.4
636.2,662.4 634.3,662.4 632.4,662.4 630.5,662.4 628.6,662.4 626.7,662.4 624.8,662.4 623.0,662.4 621.1,662.4 619.2,662.4 617.3,662.4 615.4,662.4 613.5,662.4 611.6,662.4 609.7,662.4 607.9,662.4
606.0,662.4 604.1,662.4 602.2,662.4 600.3,662.4 598.4,662.4 596.5,662.4 594.6,662.4 592.8,662.4 590.9,662.4 589.0,662.4 587.1,662.4 585.2,662.4 583.3,662.4 581.4,662.4 579.5,662.4 577.7,662.4
575.8,662.4 573.9,662.4 572.0,662.4 570.1,662.4 568.2,662.4 566.3,662.4 564.5,662.4 562.6,662.4 560.7,662.4 558.8,662.4 556.9,662.4 555.0,662.4 553.1,662.4 551.2,662.4 549.4,662.4 547.5,662.4
545.6,662.4 543.7,662.4 541.8,662.4 539.9,662.4 538.0,662.4 536.1,662.4 534.3,662.4 532.4,662.4 530.5,662.4 528.6,662.4 526.7,662.4 524.8,662.4 522.9,662.4 521.0,662.4 519.2,662.4 517.3,662.4
515.4,662.4 513.5,662.4 511.6,662.4 509.7,662.4 507.8,662.4 506.0,662.4 504.1,662.4 502.2,662.4 500.3,662.4 498.4,662.4 496.5,662.4 494.6,662.4 492.7,662.4 490.9,662.4 489.0,662.4 487.1,662.4
485.2,662.4 483.3,662.4 481.4,662.4 479.5,662.4 477.6,662.4 475.8,662.4 473.9,662.4 472.0,662.4 470.1,662.4 468.2,662.4 466.3,662.4 464.4,662.4 462.5,662.4 460.7,662.4 458.8,662.4 456.9,662.4
455.0,662.4 453.1,662.4 451.2,662.4 449.3,662.4 447.4,662.4 445.6,662.4 443.7,662.4 441.8,662.4 439.9,662.4 438.0,662.4 436.1,662.4 434.2,662.4 432.4,662.4 430.5,662.4 428.6,662.4 426.7,662.4
424.8,662.4 422.9,662.4 421.0,662.4 419.1,662.4 417.3,662.4 415.4,662.4 413.5,662.4 411.6,662.4 409.7,662.4 407.8,662.4 405.9,662.4 404.0,662.4 402.2,662.4 400.3,662.4 398.4,662.4 396.5,662.4
394.6,662.4 392.7,662.4 390.8,662.4 388.9,662.4 387.1,662.4 385.2,662.4 383.3,662.4 381.4,662.4 379.5,662.4 377.6,662.4 375.7,662.4 373.8,662.4 372.0,662.4 370.1,662.4 368.2,662.4 366.3,662.4
364.4,662.4 362.5,662.4 360.6,662.4 358.8,662.4 356.9,662.4 355.0,662.4 353.1,662.4 351.2,662.4 349.3,662.4 347.4,662.4 345.5,662.4 343.7,662.4 341.8,662.4 339.9,662.4 338.0,662.4 336.1,662.4
334.2,662.4 332.3,662.4 330.4,662.4 328.6,662.4 326.7,662.4 324.8,662.4 322.9,662.4 321.0,662.4 319.1,662.4 317.2,662.4 315.3,662.4 313.5,662.4 311.6,662.4 309.7,662.4 307.8,662.4 305.9,662.4
304.0,662.4 302.1,662.4 300.2,662.4 298.4,662.4 296.5,662.4 294.6,662.4 292.7,662.4 290.8,662.4 288.9,662.4 287.0,662.4 285.2,662.4 283.3,662.4 281.4,662.4 279.5,662.4 277.6,662.4 275.7,662.4
273.8,662.4 271.9,662.4 270.1,662.4 268.2,662.4 266.3,662.4 264.4,662.4 262.5,662.4 260.6,662.4 258.7,662.4 256.8,662.4 255.0,662.4 253.1,662.4 251.2,662.4 249.3,662.4 247.4,662.4 245.5,662.4
243.6,662.4 241.7,662.4 239.9,662.4 238.0,662.4 236.1,662.4 234.2,662.4 232.3,662.4 230.4,662.4 228.5,662.4 226.6,662.4 224.8,662.4 222.9,662.4 221.0,662.4 219.1,662.4 217.2,662.4 215.3,662.4
213.4,662.4 211.6,662.4 209.7,662.4 207.8,662.4 205.9,662.4 204.0,662.4 202.1,662.4 200.2,662.4 198.3,662.4 196.5,662.4 194.6,662.4 192.7,662.4 190.8,662.4 188.9,662.4 187.0,662.4 185.1,662.4
183.2,662.4 181.4,662.4 179.5,662.4 177.6,662.4 175.7,662.4 173.8,662.4 171.9,662.4 170.0,662.4 168.1,662.4 166.3,662.4 164.4,662.4 162.5,662.4 160.6,662.4 158.7,662.4 '/>
	</g>
</g>
	</g>
	<g id="gnuplot_plot_3" ><title>Point estimate</title>
<g fill="none" color="white" stroke="rgb( 31, 120, 180)" stroke-width="2.00" stroke-linecap="butt" stroke-linejoin="miter">
</g>
<g fill="none" color="black" stroke="currentColor" stroke-width="2.00" stroke-linecap="butt" stroke-linejoin="miter">
	<g transform="translate(1089.0,103.0)" stroke="none" fill="black" font-family="Helvetica" font-size="12.00"  text-anchor="start">
		<text><tspan font-family="Helvetica" >Point estimate</tspan></text>
	</g>
</g>
<g fill="none" color="black" stroke="currentColor" stroke-width="2.00" stroke-linecap="butt" stroke-linejoin="miter">
	<path stroke='rgb( 31, 120, 180)'  d='M1038.5,99.1 L1080.7,99.1 M418.7,662.4 L418.7,386.3  '/></g>
	</g>
<g fill="none" color="black" stroke="currentColor" stroke-width="2.00" stroke-linecap="butt" stroke-linejoin="miter">
</g>
<g fill="none" color="black" stroke="black" stroke-width="1.00" stroke-linecap="butt" stroke-linejoin="miter">
</g>
<g fill="none" color="black" stroke="currentColor" stroke-width="1.00" stroke-linecap="butt" stroke-linejoin="miter">
	<path stroke='black'  d='M71.9,54.1 L71.9,662.4 L1013.6,662.4 L1013.6,54.1 L71.9,54.1 Z  '/></g>
<g fill="none" color="black" stroke="currentColor" stroke-width="1.00" stroke-linecap="butt" stroke-linejoin="miter">
</g>
</g>
</svg>

