<?xml version="1.0" encoding="utf-8"  standalone="no"?>
<svg 
 viewBox="0 0 1280 720"
 xmlns="http://www.w3.org/2000/svg"
 xmlns:xlink="http://www.w3.org/1999/xlink"
>

<title>Gnuplot</title>
<desc>Produced by GNUPLOT 5.2 patchlevel 8 </desc>

<g id="gnuplot_canvas">

<rect x="0" y="0" width="1280" height="720" fill="none"/>
<defs>

	<circle id='gpDot' r='0.5' stroke-width='0.5' stroke='currentColor'/>
	<path id='gpPt0' stroke-width='0.222' stroke='currentColor' d='M-1,0 h2 M0,-1 v2'/>
	<path id='gpPt1' stroke-width='0.222' stroke='currentColor' d='M-1,-1 L1,1 M1,-1 L-1,1'/>
	<path id='gpPt2' stroke-width='0.222' stroke='currentColor' d='M-1,0 L1,0 M0,-1 L0,1 M-1,-1 L1,1 M-1,1 L1,-1'/>
	<rect id='gpPt3' stroke-width='0.222' stroke='currentColor' x='-1' y='-1' width='2' height='2'/>
	<rect id='gpPt4' stroke-width='0.222' stroke='currentColor' fill='currentColor' x='-1' y='-1' width='2' height='2'/>
	<circle id='gpPt5' stroke-width='0.222' stroke='currentColor' cx='0' cy='0' r='1'/>
	<use xlink:href='#gpPt5' id='gpPt6' fill='currentColor' stroke='none'/>
	<path id='gpPt7' stroke-width='0.222' stroke='currentColor' d='M0,-1.33 L-1.33,0.67 L1.33,0.67 z'/>
	<use xlink:href='#gpPt7' id='gpPt8' fill='currentColor' stroke='none'/>
	<use xlink:href='#gpPt7' id='gpPt9' stroke='currentColor' transform='rotate(180)'/>
	<use xlink:href='#gpPt9' id='gpPt10' fill='currentColor' stroke='none'/>
	<use xlink:href='#gpPt3' id='gpPt11' stroke='currentColor' transform='rotate(45)'/>
	<use xlink:href='#gpPt11' id='gpPt12' fill='currentColor' stroke='none'/>
	<path id='gpPt13' stroke-width='0.222' stroke='currentColor' d='M0,1.330 L1.265,0.411 L0.782,-1.067 L-0.782,-1.076 L-1.265,0.411 z'/>
	<use xlink:href='#gpPt13' id='gpPt14' fill='currentColor' stroke='none'/>
	<filter id='textbox' filterUnits='objectBoundingBox' x='0' y='0' height='1' width='1'>
	  <feFlood flood-color='white' flood-opacity='1' result='bgnd'/>
	  <feComposite in='SourceGraphic' in2='bgnd' operator='atop'/>
	</filter>
	<filter id='greybox' filterUnits='objectBoundingBox' x='0' y='0' height='1' width='1'>
	  <feFlood flood-color='lightgrey' flood-opacity='1' result='grey'/>
	  <feComposite in='SourceGraphic' in2='grey' operator='atop'/>
	</filter>
</defs>
<g fill="none" color="white" stroke="currentColor" stroke-width="1.00" stroke-linecap="butt" stroke-linejoin="miter">
</g>
<g fill="none" color="black" stroke="currentColor" stroke-width="1.00" stroke-linecap="butt" stroke-linejoin="miter">
	<path stroke='black'  d='M63.6,662.4 L72.6,662.4  '/>	<g transform="translate(55.3,666.3)" stroke="none" fill="black" font-family="Helvetica" font-size="12.00"  text-anchor="end">
		<text><tspan font-family="Helvetica" > 0</tspan></text>
	</g>
</g>
<g fill="none" color="black" stroke="currentColor" stroke-width="1.00" stroke-linecap="butt" stroke-linejoin="miter">
	<path stroke='black'  d='M63.6,594.8 L72.6,594.8  '/>	<g transform="translate(55.3,598.7)" stroke="none" fill="black" font-family="Helvetica" font-size="12.00"  text-anchor="end">
		<text><tspan font-family="Helvetica" > 10</tspan></text>
	</g>
</g>
<g fill="none" color="black" stroke="currentColor" stroke-width="1.00" stroke-linecap="butt" stroke-linejoin="miter">
	<path stroke='black'  d='M63.6,527.2 L72.6,527.2  '/>	<g transform="translate(55.3,531.1)" stroke="none" fill="black" font-family="Helvetica" font-size="12.00"  text-anchor="end">
		<text><tspan font-family="Helvetica" > 20</tspan></text>
	</g>
</g>
<g fill="none" color="black" stroke="currentColor" stroke-width="1.00" stroke-linecap="butt" stroke-linejoin="miter">
	<path stroke='black'  d='M63.6,459.6 L72.6,459.6  '/>	<g transform="translate(55.3,463.5)" stroke="none" fill="black" font-family="Helvetica" font-size="12.00"  text-anchor="end">
		<text><tspan font-family="Helvetica" > 30</tspan></text>
	</g>
</g>
<g fill="none" color="black" stroke="currentColor" stroke-width="1.00" stroke-linecap="butt" stroke-linejoin="miter">
	<path stroke='black'  d='M63.6,392.0 L72.6,392.0  '/>	<g transform="translate(55.3,395.9)" stroke="none" fill="black" font-family="Helvetica" font-size="12.00"  text-anchor="end">
		<text><tspan font-family="Helvetica" > 40</tspan></text>
	</g>
</g>
<g fill="none" color="black" stroke="currentColor" stroke-width="1.00" stroke-linecap="butt" stroke-linejoin="miter">
	<path stroke='black'  d='M63.6,324.5 L72.6,324.5  '/>	<g transform="translate(55.3,328.4)" stroke="none" fill="black" font-family="Helvetica" font-size="12.00"  text-anchor="end">
		<text><tspan font-family="Helvetica" > 50</tspan></text>
	</g>
</g>
<g fill="none" color="black" stroke="currentColor" stroke-width="1.00" stroke-linecap="butt" stroke-linejoin="miter">
	<path stroke='black'  d='M63.6,256.9 L72.6,256.9  '/>	<g transform="translate(55.3,260.8)" stroke="none" fill="black" font-family="Helvetica" font-size="12.00"  text-anchor="end">
		<text><tspan font-family="Helvetica" > 60</tspan></text>
	</g>
</g>
<g fill="none" color="black" stroke="currentColor" stroke-width="1.00" stroke-linecap="butt" stroke-linejoin="miter">
	<path stroke='black'  d='M63.6,189.3 L72.6,189.3  '/>	<g transform="translate(55.3,193.2)" stroke="none" fill="black" font-family="Helvetica" font-size="12.00"  text-anchor="end">
		<text><tspan font-family="Helvetica" > 70</tspan></text>
	</g>
</g>
<g fill="none" color="black" stroke="currentColor" stroke-width="1.00" stroke-linecap="butt" stroke-linejoin="miter">
	<path stroke='black'  d='M63.6,121.7 L72.6,121.7  '/>	<g transform="translate(55.3,125.6)" stroke="none" fill="black" font-family="Helvetica" font-size="12.00"  text-anchor="end">
		<text><tspan font-family="Helvetica" > 80</tspan></text>
	</g>
</g>
<g fill="none" color="black" stroke="currentColor" stroke-width="1.00" stroke-linecap="butt" stroke-linejoin="miter">
	<path stroke='black'  d='M63.6,54.1 L72.6,54.1  '/>	<g transform="translate(55.3,58.0)" stroke="none" fill="black" font-family="Helvetica" font-size="12.00"  text-anchor="end">
		<text><tspan font-family="Helvetica" > 90</tspan></text>
	</g>
</g>
<g fill="none" color="black" stroke="currentColor" stroke-width="1.00" stroke-linecap="butt" stroke-linejoin="miter">
	<path stroke='black'  d='M116.6,662.4 L116.6,653.4  '/>	<g transform="translate(116.6,684.3)" stroke="none" fill="black" font-family="Helvetica" font-size="12.00"  text-anchor="middle">
		<text><tspan font-family="Helvetica" > 0.985</tspan></text>
	</g>
</g>
<g fill="none" color="black" stroke="currentColor" stroke-width="1.00" stroke-linecap="butt" stroke-linejoin="miter">
	<path stroke='black'  d='M331.0,662.4 L331.0,653.4  '/>	<g transform="translate(331.0,684.3)" stroke="none" fill="black" font-family="Helvetica" font-size="12.00"  text-anchor="middle">
		<text><tspan font-family="Helvetica" > 0.99</tspan></text>
	</g>
</g>
<g fill="none" color="black" stroke="currentColor" stroke-width="1.00" stroke-linecap="butt" stroke-linejoin="miter">
	<path stroke='black'  d='M545.4,662.4 L545.4,653.4  '/>	<g transform="translate(545.4,684.3)" stroke="none" fill="black" font-family="Helvetica" font-size="12.00"  text-anchor="middle">
		<text><tspan font-family="Helvetica" > 0.995</tspan></text>
	</g>
</g>
<g fill="none" color="black" stroke="currentColor" stroke-width="1.00" stroke-linecap="butt" stroke-linejoin="miter">
	<path stroke='black'  d='M759.7,662.4 L759.7,653.4  '/>	<g transform="translate(759.7,684.3)" stroke="none" fill="black" font-family="Helvetica" font-size="12.00"  text-anchor="middle">
		<text><tspan font-family="Helvetica" > 1</tspan></text>
	</g>
</g>
<g fill="none" color="black" stroke="currentColor" stroke-width="1.00" stroke-linecap="butt" stroke-linejoin="miter">
	<path stroke='black'  d='M974.1,662.4 L974.1,653.4  '/>	<g transform="translate(974.1,684.3)" stroke="none" fill="black" font-family="Helvetica" font-size="12.00"  text-anchor="middle">
		<text><tspan font-family="Helvetica" > 1.005</tspan></text>
	</g>
</g>
<g fill="none" color="black" stroke="currentColor" stroke-width="1.00" stroke-linecap="butt" stroke-linejoin="miter">
</g>
<g fill="none" color="black" stroke="currentColor" stroke-width="1.00" stroke-linecap="butt" stroke-linejoin="miter">
	<path stroke='black'  d='M63.6,54.1 L63.6,662.4 L1013.6,662.4 L1013.6,54.1 L63.6,54.1 Z  '/></g>
<g fill="none" color="black" stroke="currentColor" stroke-width="1.00" stroke-linecap="butt" stroke-linejoin="miter">
	<g transform="translate(19.0,358.3) rotate(270)" stroke="none" fill="black" font-family="Helvetica" font-size="12.00"  text-anchor="middle">
		<text><tspan font-family="Helvetica" >Density (a.u.)</tspan></text>
	</g>
</g>
<g fill="none" color="black" stroke="currentColor" stroke-width="1.00" stroke-linecap="butt" stroke-linejoin="miter">
	<g transform="translate(538.6,711.3)" stroke="none" fill="black" font-family="Helvetica" font-size="12.00"  text-anchor="middle">
		<text><tspan font-family="Helvetica" >Average time (ns)</tspan></text>
	</g>
</g>
<g fill="none" color="black" stroke="currentColor" stroke-width="1.00" stroke-linecap="butt" stroke-linejoin="miter">
	<g transform="translate(538.6,31.0)" stroke="none" fill="black" font-family="Helvetica" font-size="12.00"  text-anchor="middle">
		<text><tspan font-family="Helvetica" >String trim/Hardcoded trim/unix: mean</tspan></text>
	</g>
</g>
<g fill="none" color="black" stroke="currentColor" stroke-width="1.00" stroke-linecap="butt" stroke-linejoin="miter">
</g>
	<g id="gnuplot_plot_1" ><title>Bootstrap distribution</title>
<g fill="none" color="white" stroke="currentColor" stroke-width="2.00" stroke-linecap="butt" stroke-linejoin="miter">
</g>
<g fill="none" color="black" stroke="currentColor" stroke-width="2.00" stroke-linecap="butt" stroke-linejoin="miter">
	<g transform="translate(1089.0,67.0)" stroke="none" fill="black" font-family="Helvetica" font-size="12.00"  text-anchor="start">
		<text><tspan font-family="Helvetica" >Bootstrap distribution</tspan></text>
	</g>
</g>
<g fill="none" color="black" stroke="currentColor" stroke-width="2.00" stroke-linecap="butt" stroke-linejoin="miter">
	<path stroke='rgb( 31, 120, 180)'  d='M1038.5,63.1 L1080.7,63.1 M63.6,630.9 L65.5,629.8 L67.4,628.6 L69.3,627.4 L71.2,626.2 L73.1,624.9
		L75.0,623.6 L76.9,622.2 L78.8,620.8 L80.7,619.3 L82.6,617.8 L84.5,616.3 L86.4,614.7 L88.3,613.0
		L90.3,611.4 L92.2,609.7 L94.1,607.9 L96.0,606.1 L97.9,604.3 L99.8,602.4 L101.7,600.5 L103.6,598.6
		L105.5,596.6 L107.4,594.6 L109.3,592.5 L111.2,590.4 L113.1,588.3 L115.0,586.1 L116.9,583.9 L118.8,581.7
		L120.7,579.4 L122.6,577.1 L124.5,574.8 L126.4,572.4 L128.3,570.1 L130.2,567.6 L132.1,565.2 L134.0,562.7
		L135.9,560.2 L137.8,557.7 L139.8,555.2 L141.7,552.7 L143.6,550.1 L145.5,547.6 L147.4,545.0 L149.3,542.4
		L151.2,539.9 L153.1,537.3 L155.0,534.7 L156.9,532.1 L158.8,529.5 L160.7,526.8 L162.6,524.2 L164.5,521.5
		L166.4,518.8 L168.3,516.1 L170.2,513.3 L172.1,510.5 L174.0,507.7 L175.9,504.8 L177.8,501.9 L179.7,498.8
		L181.6,495.8 L183.5,492.6 L185.4,489.4 L187.3,486.1 L189.3,482.7 L191.2,479.2 L193.1,475.7 L195.0,472.1
		L196.9,468.4 L198.8,464.6 L200.7,460.8 L202.6,457.0 L204.5,453.1 L206.4,449.1 L208.3,445.1 L210.2,441.1
		L212.1,437.1 L214.0,433.1 L215.9,429.0 L217.8,424.9 L219.7,420.9 L221.6,416.8 L223.5,412.7 L225.4,408.7
		L227.3,404.6 L229.2,400.5 L231.1,396.4 L233.0,392.4 L234.9,388.3 L236.8,384.2 L238.8,380.1 L240.7,376.0
		L242.6,371.9 L244.5,367.9 L246.4,363.8 L248.3,359.7 L250.2,355.7 L252.1,351.7 L254.0,347.7 L255.9,343.7
		L257.8,339.8 L259.7,335.9 L261.6,332.0 L263.5,328.2 L265.4,324.4 L267.3,320.6 L269.2,316.8 L271.1,313.1
		L273.0,309.4 L274.9,305.8 L276.8,302.1 L278.7,298.5 L280.6,294.9 L282.5,291.3 L284.4,287.8 L286.3,284.3
		L288.2,280.8 L290.2,277.3 L292.1,273.9 L294.0,270.5 L295.9,267.2 L297.8,263.9 L299.7,260.6 L301.6,257.5
		L303.5,254.3 L305.4,251.3 L307.3,248.2 L309.2,245.3 L311.1,242.3 L313.0,239.4 L314.9,236.5 L316.8,233.7
		L318.7,230.8 L320.6,227.9 L322.5,225.0 L324.4,222.1 L326.3,219.2 L328.2,216.1 L330.1,213.1 L332.0,210.0
		L333.9,206.9 L335.8,203.7 L337.7,200.4 L339.7,197.2 L341.6,193.9 L343.5,190.6 L345.4,187.3 L347.3,184.0
		L349.2,180.7 L351.1,177.5 L353.0,174.3 L354.9,171.2 L356.8,168.0 L358.7,165.0 L360.6,162.0 L362.5,159.1
		L364.4,156.2 L366.3,153.4 L368.2,150.7 L370.1,148.0 L372.0,145.3 L373.9,142.7 L375.8,140.2 L377.7,137.7
		L379.6,135.2 L381.5,132.7 L383.4,130.2 L385.3,127.8 L387.2,125.4 L389.2,123.1 L391.1,120.7 L393.0,118.4
		L394.9,116.2 L396.8,113.9 L398.7,111.7 L400.6,109.5 L402.5,107.4 L404.4,105.3 L406.3,103.3 L408.2,101.3
		L410.1,99.3 L412.0,97.4 L413.9,95.5 L415.8,93.7 L417.7,92.0 L419.6,90.3 L421.5,88.6 L423.4,87.1
		L425.3,85.6 L427.2,84.2 L429.1,82.9 L431.0,81.6 L432.9,80.5 L434.8,79.4 L436.7,78.4 L438.7,77.5
		L440.6,76.7 L442.5,76.0 L444.4,75.3 L446.3,74.8 L448.2,74.3 L450.1,73.8 L452.0,73.5 L453.9,73.1
		L455.8,72.8 L457.7,72.6 L459.6,72.4 L461.5,72.2 L463.4,72.0 L465.3,71.9 L467.2,71.8 L469.1,71.7
		L471.0,71.7 L472.9,71.7 L474.8,71.7 L476.7,71.8 L478.6,72.0 L480.5,72.2 L482.4,72.5 L484.3,72.9
		L486.2,73.4 L488.1,73.9 L490.1,74.6 L492.0,75.4 L493.9,76.3 L495.8,77.3 L497.7,78.4 L499.6,79.6
		L501.5,80.9 L503.4,82.3 L505.3,83.8 L507.2,85.4 L509.1,87.1 L511.0,88.8 L512.9,90.6 L514.8,92.4
		L516.7,94.3 L518.6,96.3 L520.5,98.2 L522.4,100.2 L524.3,102.3 L526.2,104.3 L528.1,106.4 L530.0,108.5
		L531.9,110.6 L533.8,112.7 L535.7,114.8 L537.6,116.9 L539.6,119.1 L541.5,121.2 L543.4,123.3 L545.3,125.5
		L547.2,127.6 L549.1,129.8 L551.0,131.9 L552.9,134.0 L554.8,136.2 L556.7,138.3 L558.6,140.5 L560.5,142.6
		L562.4,144.8 L564.3,146.9 L566.2,149.1 L568.1,151.3 L570.0,153.5 L571.9,155.7 L573.8,157.9 L575.7,160.1
		L577.6,162.4 L579.5,164.6 L581.4,167.0 L583.3,169.3 L585.2,171.7 L587.1,174.1 L589.1,176.6 L591.0,179.1
		L592.9,181.7 L594.8,184.3 L596.7,187.0 L598.6,189.7 L600.5,192.5 L602.4,195.4 L604.3,198.3 L606.2,201.3
		L608.1,204.4 L610.0,207.6 L611.9,210.8 L613.8,214.1 L615.7,217.4 L617.6,220.8 L619.5,224.3 L621.4,227.8
		L623.3,231.3 L625.2,234.9 L627.1,238.5 L629.0,242.1 L630.9,245.7 L632.8,249.3 L634.7,252.9 L636.6,256.5
		L638.5,260.1 L640.5,263.6 L642.4,267.1 L644.3,270.5 L646.2,273.9 L648.1,277.2 L650.0,280.4 L651.9,283.6
		L653.8,286.7 L655.7,289.8 L657.6,292.8 L659.5,295.7 L661.4,298.5 L663.3,301.3 L665.2,304.1 L667.1,306.8
		L669.0,309.5 L670.9,312.1 L672.8,314.7 L674.7,317.2 L676.6,319.8 L678.5,322.3 L680.4,324.8 L682.3,327.4
		L684.2,329.9 L686.1,332.4 L688.0,334.9 L690.0,337.5 L691.9,340.1 L693.8,342.7 L695.7,345.3 L697.6,347.9
		L699.5,350.6 L701.4,353.4 L703.3,356.1 L705.2,358.9 L707.1,361.8 L709.0,364.6 L710.9,367.5 L712.8,370.5
		L714.7,373.4 L716.6,376.4 L718.5,379.4 L720.4,382.4 L722.3,385.4 L724.2,388.4 L726.1,391.4 L728.0,394.4
		L729.9,397.4 L731.8,400.4 L733.7,403.4 L735.6,406.3 L737.5,409.2 L739.5,412.0 L741.4,414.9 L743.3,417.7
		L745.2,420.4 L747.1,423.1 L749.0,425.8 L750.9,428.4 L752.8,431.1 L754.7,433.6 L756.6,436.2 L758.5,438.7
		L760.4,441.2 L762.3,443.6 L764.2,446.0 L766.1,448.4 L768.0,450.8 L769.9,453.2 L771.8,455.6 L773.7,457.9
		L775.6,460.2 L777.5,462.6 L779.4,464.9 L781.3,467.2 L783.2,469.5 L785.1,471.8 L787.0,474.0 L789.0,476.3
		L790.9,478.6 L792.8,480.8 L794.7,483.1 L796.6,485.3 L798.5,487.5 L800.4,489.6 L802.3,491.8 L804.2,493.9
		L806.1,496.0 L808.0,498.1 L809.9,500.1 L811.8,502.1 L813.7,504.0 L815.6,505.9 L817.5,507.8 L819.4,509.6
		L821.3,511.4 L823.2,513.2 L825.1,514.9 L827.0,516.6 L828.9,518.3 L830.8,519.9 L832.7,521.6 L834.6,523.2
		L836.5,524.7 L838.4,526.3 L840.4,527.9 L842.3,529.4 L844.2,531.0 L846.1,532.5 L848.0,534.0 L849.9,535.6
		L851.8,537.1 L853.7,538.7 L855.6,540.2 L857.5,541.8 L859.4,543.4 L861.3,544.9 L863.2,546.5 L865.1,548.1
		L867.0,549.7 L868.9,551.3 L870.8,552.9 L872.7,554.5 L874.6,556.1 L876.5,557.8 L878.4,559.4 L880.3,561.0
		L882.2,562.6 L884.1,564.2 L886.0,565.8 L887.9,567.4 L889.9,569.0 L891.8,570.6 L893.7,572.1 L895.6,573.7
		L897.5,575.2 L899.4,576.7 L901.3,578.2 L903.2,579.7 L905.1,581.2 L907.0,582.6 L908.9,584.0 L910.8,585.4
		L912.7,586.7 L914.6,588.0 L916.5,589.3 L918.4,590.6 L920.3,591.8 L922.2,593.0 L924.1,594.1 L926.0,595.3
		L927.9,596.4 L929.8,597.4 L931.7,598.5 L933.6,599.5 L935.5,600.5 L937.4,601.4 L939.4,602.4 L941.3,603.3
		L943.2,604.2 L945.1,605.0 L947.0,605.9 L948.9,606.7 L950.8,607.5 L952.7,608.3 L954.6,609.1 L956.5,609.8
		L958.4,610.6 L960.3,611.3 L962.2,612.0 L964.1,612.8 L966.0,613.5 L967.9,614.2 L969.8,614.9 L971.7,615.6
		L973.6,616.3 L975.5,617.0 L977.4,617.6 L979.3,618.3 L981.2,619.0 L983.1,619.7 L985.0,620.4 L986.9,621.0
		L988.9,621.7 L990.8,622.3 L992.7,623.0 L994.6,623.7 L996.5,624.3 L998.4,624.9 L1000.3,625.6 L1002.2,626.2
		L1004.1,626.8 L1006.0,627.4 L1007.9,628.0 L1009.8,628.5 L1011.7,629.1 L1013.6,629.7  '/></g>
	</g>
	<g id="gnuplot_plot_2" ><title>Confidence interval</title>
<g fill="none" color="white" stroke="rgb( 31, 120, 180)" stroke-width="1.00" stroke-linecap="butt" stroke-linejoin="miter">
</g>
<g fill="none" color="black" stroke="currentColor" stroke-width="1.00" stroke-linecap="butt" stroke-linejoin="miter">
	<g transform="translate(1089.0,85.0)" stroke="none" fill="black" font-family="Helvetica" font-size="12.00"  text-anchor="start">
		<text><tspan font-family="Helvetica" >Confidence interval</tspan></text>
	</g>
</g>
<g fill="none" color="black" stroke="currentColor" stroke-width="1.00" stroke-linecap="butt" stroke-linejoin="miter">
	<g stroke='none' shape-rendering='crispEdges'>
		<polygon fill = 'rgb( 31, 120, 180)' fill-opacity = '0.250000' points = '1038.5,85.6 1080.7,85.6 1080.7,76.6 1038.5,76.6 '/>
		<polygon fill = 'rgb( 31, 120, 180)' fill-opacity = '0.250000' points = '151.2,539.9 153.1,537.3 155.0,534.7 156.9,532.1 158.8,529.5 160.7,526.8 162.6,524.2 164.5,521.5 166.4,518.8 168.3,516.1 170.2,513.3 172.1,510.5 174.0,507.7 175.9,504.8 177.8,501.9 179.7,498.8
181.6,495.8 183.5,492.6 185.4,489.4 187.3,486.1 189.3,482.7 191.2,479.2 193.1,475.7 195.0,472.1 196.9,468.4 198.8,464.6 200.7,460.8 202.6,457.0 204.5,453.1 206.4,449.1 208.3,445.1 210.2,441.1
212.1,437.1 214.0,433.1 215.9,429.0 217.8,424.9 219.7,420.9 221.6,416.8 223.5,412.7 225.4,408.7 227.3,404.6 229.2,400.5 231.1,396.4 233.0,392.4 234.9,388.3 236.8,384.2 238.8,380.1 240.7,376.0
242.6,371.9 244.5,367.9 246.4,363.8 248.3,359.7 250.2,355.7 252.1,351.7 254.0,347.7 255.9,343.7 257.8,339.8 259.7,335.9 261.6,332.0 263.5,328.2 265.4,324.4 267.3,320.6 269.2,316.8 271.1,313.1
273.0,309.4 274.9,305.8 276.8,302.1 278.7,298.5 280.6,294.9 282.5,291.3 284.4,287.8 286.3,284.3 288.2,280.8 290.2,277.3 292.1,273.9 294.0,270.5 295.9,267.2 297.8,263.9 299.7,260.6 301.6,257.5
303.5,254.3 305.4,251.3 307.3,248.2 309.2,245.3 311.1,242.3 313.0,239.4 314.9,236.5 316.8,233.7 318.7,230.8 320.6,227.9 322.5,225.0 324.4,222.1 326.3,219.2 328.2,216.1 330.1,213.1 332.0,210.0
333.9,206.9 335.8,203.7 337.7,200.4 339.7,197.2 341.6,193.9 343.5,190.6 345.4,187.3 347.3,184.0 349.2,180.7 351.1,177.5 353.0,174.3 354.9,171.2 356.8,168.0 358.7,165.0 360.6,162.0 362.5,159.1
364.4,156.2 366.3,153.4 368.2,150.7 370.1,148.0 372.0,145.3 373.9,142.7 375.8,140.2 377.7,137.7 379.6,135.2 381.5,132.7 383.4,130.2 385.3,127.8 387.2,125.4 389.2,123.1 391.1,120.7 393.0,118.4
394.9,116.2 396.8,113.9 398.7,111.7 400.6,109.5 402.5,107.4 404.4,105.3 406.3,103.3 408.2,101.3 410.1,99.3 412.0,97.4 413.9,95.5 415.8,93.7 417.7,92.0 419.6,90.3 421.5,88.6 423.4,87.1
425.3,85.6 427.2,84.2 429.1,82.9 431.0,81.6 432.9,80.5 434.8,79.4 436.7,78.4 438.7,77.5 440.6,76.7 442.5,76.0 444.4,75.3 446.3,74.8 448.2,74.3 450.1,73.8 452.0,73.5 453.9,73.1
455.8,72.8 457.7,72.6 459.6,72.4 461.5,72.2 463.4,72.0 465.3,71.9 467.2,71.8 469.1,71.7 471.0,71.7 472.9,71.7 474.8,71.7 476.7,71.8 478.6,72.0 480.5,72.2 482.4,72.5 484.3,72.9
486.2,73.4 488.1,73.9 490.1,74.6 492.0,75.4 493.9,76.3 495.8,77.3 497.7,78.4 499.6,79.6 501.5,80.9 503.4,82.3 505.3,83.8 507.2,85.4 509.1,87.1 511.0,88.8 512.9,90.6 514.8,92.4
516.7,94.3 518.6,96.3 520.5,98.2 522.4,100.2 524.3,102.3 526.2,104.3 528.1,106.4 530.0,108.5 531.9,110.6 533.8,112.7 535.7,114.8 537.6,116.9 539.6,119.1 541.5,121.2 543.4,123.3 545.3,125.5
547.2,127.6 549.1,129.8 551.0,131.9 552.9,134.0 554.8,136.2 556.7,138.3 558.6,140.5 560.5,142.6 562.4,144.8 564.3,146.9 566.2,149.1 568.1,151.3 570.0,153.5 571.9,155.7 573.8,157.9 575.7,160.1
577.6,162.4 579.5,164.6 581.4,167.0 583.3,169.3 585.2,171.7 587.1,174.1 589.1,176.6 591.0,179.1 592.9,181.7 594.8,184.3 596.7,187.0 598.6,189.7 600.5,192.5 602.4,195.4 604.3,198.3 606.2,201.3
608.1,204.4 610.0,207.6 611.9,210.8 613.8,214.1 615.7,217.4 617.6,220.8 619.5,224.3 621.4,227.8 623.3,231.3 625.2,234.9 627.1,238.5 629.0,242.1 630.9,245.7 632.8,249.3 634.7,252.9 636.6,256.5
638.5,260.1 640.5,263.6 642.4,267.1 644.3,270.5 646.2,273.9 648.1,277.2 650.0,280.4 651.9,283.6 653.8,286.7 655.7,289.8 657.6,292.8 659.5,295.7 661.4,298.5 663.3,301.3 665.2,304.1 667.1,306.8
669.0,309.5 670.9,312.1 672.8,314.7 674.7,317.2 676.6,319.8 678.5,322.3 680.4,324.8 682.3,327.4 684.2,329.9 686.1,332.4 688.0,334.9 690.0,337.5 691.9,340.1 693.8,342.7 695.7,345.3 697.6,347.9
699.5,350.6 701.4,353.4 703.3,356.1 705.2,358.9 707.1,361.8 709.0,364.6 710.9,367.5 712.8,370.5 714.7,373.4 716.6,376.4 718.5,379.4 720.4,382.4 722.3,385.4 724.2,388.4 726.1,391.4 728.0,394.4
729.9,397.4 731.8,400.4 733.7,403.4 735.6,406.3 737.5,409.2 739.5,412.0 741.4,414.9 743.3,417.7 745.2,420.4 747.1,423.1 749.0,425.8 750.9,428.4 752.8,431.1 754.7,433.6 756.6,436.2 758.5,438.7
760.4,441.2 762.3,443.6 764.2,446.0 766.1,448.4 768.0,450.8 769.9,453.2 771.8,455.6 773.7,457.9 775.6,460.2 777.5,462.6 779.4,464.9 781.3,467.2 783.2,469.5 785.1,471.8 787.0,474.0 789.0,476.3
790.9,478.6 792.8,480.8 794.7,483.1 796.6,485.3 798.5,487.5 800.4,489.6 802.3,491.8 804.2,493.9 806.1,496.0 808.0,498.1 809.9,500.1 811.8,502.1 813.7,504.0 815.6,505.9 817.5,507.8 819.4,509.6
821.3,511.4 823.2,513.2 825.1,514.9 827.0,516.6 828.9,518.3 830.8,519.9 832.7,521.6 834.6,523.2 836.5,524.7 838.4,526.3 840.4,527.9 842.3,529.4 844.2,531.0 846.1,532.5 848.0,534.0 849.9,535.6
851.8,537.1 853.7,538.7 855.6,540.2 857.5,541.8 859.4,543.4 861.3,544.9 863.2,546.5 865.1,548.1 867.0,549.7 868.9,551.3 870.8,552.9 872.7,554.5 874.6,556.1 876.5,557.8 878.4,559.4 880.3,561.0
882.2,562.6 884.1,564.2 886.0,565.8 887.9,567.4 889.9,569.0 891.8,570.6 893.7,572.1 895.6,573.7 897.5,575.2 899.4,576.7 901.3,578.2 903.2,579.7 905.1,581.2 907.0,582.6 908.9,584.0 910.8,585.4
912.7,586.7 914.6,588.0 916.5,589.3 918.4,590.6 920.3,591.8 922.2,593.0 924.1,594.1 924.1,662.4 922.2,662.4 920.3,662.4 918.4,662.4 916.5,662.4 914.6,662.4 912.7,662.4 910.8,662.4 908.9,662.4
907.0,662.4 905.1,662.4 903.2,662.4 901.3,662.4 899.4,662.4 897.5,662.4 895.6,662.4 893.7,662.4 891.8,662.4 889.9,662.4 887.9,662.4 886.0,662.4 884.1,662.4 882.2,662.4 880.3,662.4 878.4,662.4
876.5,662.4 874.6,662.4 872.7,662.4 870.8,662.4 868.9,662.4 867.0,662.4 865.1,662.4 863.2,662.4 861.3,662.4 859.4,662.4 857.5,662.4 855.6,662.4 853.7,662.4 851.8,662.4 849.9,662.4 848.0,662.4
846.1,662.4 844.2,662.4 842.3,662.4 840.4,662.4 838.4,662.4 836.5,662.4 834.6,662.4 832.7,662.4 830.8,662.4 828.9,662.4 827.0,662.4 825.1,662.4 823.2,662.4 821.3,662.4 819.4,662.4 817.5,662.4
815.6,662.4 813.7,662.4 811.8,662.4 809.9,662.4 808.0,662.4 806.1,662.4 804.2,662.4 802.3,662.4 800.4,662.4 798.5,662.4 796.6,662.4 794.7,662.4 792.8,662.4 790.9,662.4 789.0,662.4 787.0,662.4
785.1,662.4 783.2,662.4 781.3,662.4 779.4,662.4 777.5,662.4 775.6,662.4 773.7,662.4 771.8,662.4 769.9,662.4 768.0,662.4 766.1,662.4 764.2,662.4 762.3,662.4 760.4,662.4 758.5,662.4 756.6,662.4
754.7,662.4 752.8,662.4 750.9,662.4 749.0,662.4 747.1,662.4 745.2,662.4 743.3,662.4 741.4,662.4 739.5,662.4 737.5,662.4 735.6,662.4 733.7,662.4 731.8,662.4 729.9,662.4 728.0,662.4 726.1,662.4
724.2,662.4 722.3,662.4 720.4,662.4 718.5,662.4 716.6,662.4 714.7,662.4 712.8,662.4 710.9,662.4 709.0,662.4 707.1,662.4 705.2,662.4 703.3,662.4 701.4,662.4 699.5,662.4 697.6,662.4 695.7,662.4
693.8,662.4 691.9,662.4 690.0,662.4 688.0,662.4 686.1,662.4 684.2,662.4 682.3,662.4 680.4,662.4 678.5,662.4 676.6,662.4 674.7,662.4 672.8,662.4 670.9,662.4 669.0,662.4 667.1,662.4 665.2,662.4
663.3,662.4 661.4,662.4 659.5,662.4 657.6,662.4 655.7,662.4 653.8,662.4 651.9,662.4 650.0,662.4 648.1,662.4 646.2,662.4 644.3,662.4 642.4,662.4 640.5,662.4 638.5,662.4 636.6,662.4 634.7,662.4
632.8,662.4 630.9,662.4 629.0,662.4 627.1,662.4 625.2,662.4 623.3,662.4 621.4,662.4 619.5,662.4 617.6,662.4 615.7,662.4 613.8,662.4 611.9,662.4 610.0,662.4 608.1,662.4 606.2,662.4 604.3,662.4
602.4,662.4 600.5,662.4 598.6,662.4 596.7,662.4 594.8,662.4 592.9,662.4 591.0,662.4 589.1,662.4 587.1,662.4 585.2,662.4 583.3,662.4 581.4,662.4 579.5,662.4 577.6,662.4 575.7,662.4 573.8,662.4
571.9,662.4 570.0,662.4 568.1,662.4 566.2,662.4 564.3,662.4 562.4,662.4 560.5,662.4 558.6,662.4 556.7,662.4 554.8,662.4 552.9,662.4 551.0,662.4 549.1,662.4 547.2,662.4 545.3,662.4 543.4,662.4
541.5,662.4 539.6,662.4 537.6,662.4 535.7,662.4 533.8,662.4 531.9,662.4 530.0,662.4 528.1,662.4 526.2,662.4 524.3,662.4 522.4,662.4 520.5,662.4 518.6,662.4 516.7,662.4 514.8,662.4 512.9,662.4
511.0,662.4 509.1,662.4 507.2,662.4 505.3,662.4 503.4,662.4 501.5,662.4 499.6,662.4 497.7,662.4 495.8,662.4 493.9,662.4 492.0,662.4 490.1,662.4 488.1,662.4 486.2,662.4 484.3,662.4 482.4,662.4
480.5,662.4 478.6,662.4 476.7,662.4 474.8,662.4 472.9,662.4 471.0,662.4 469.1,662.4 467.2,662.4 465.3,662.4 463.4,662.4 461.5,662.4 459.6,662.4 457.7,662.4 455.8,662.4 453.9,662.4 452.0,662.4
450.1,662.4 448.2,662.4 446.3,662.4 444.4,662.4 442.5,662.4 440.6,662.4 438.7,662.4 436.7,662.4 434.8,662.4 432.9,662.4 431.0,662.4 429.1,662.4 427.2,662.4 425.3,662.4 423.4,662.4 421.5,662.4
419.6,662.4 417.7,662.4 415.8,662.4 413.9,662.4 412.0,662.4 410.1,662.4 408.2,662.4 406.3,662.4 404.4,662.4 402.5,662.4 400.6,662.4 398.7,662.4 396.8,662.4 394.9,662.4 393.0,662.4 391.1,662.4
389.2,662.4 387.2,662.4 385.3,662.4 383.4,662.4 381.5,662.4 379.6,662.4 377.7,662.4 375.8,662.4 373.9,662.4 372.0,662.4 370.1,662.4 368.2,662.4 366.3,662.4 364.4,662.4 362.5,662.4 360.6,662.4
358.7,662.4 356.8,662.4 354.9,662.4 353.0,662.4 351.1,662.4 349.2,662.4 347.3,662.4 345.4,662.4 343.5,662.4 341.6,662.4 339.7,662.4 337.7,662.4 335.8,662.4 333.9,662.4 332.0,662.4 330.1,662.4
328.2,662.4 326.3,662.4 324.4,662.4 322.5,662.4 320.6,662.4 318.7,662.4 316.8,662.4 314.9,662.4 313.0,662.4 311.1,662.4 309.2,662.4 307.3,662.4 305.4,662.4 303.5,662.4 301.6,662.4 299.7,662.4
297.8,662.4 295.9,662.4 294.0,662.4 292.1,662.4 290.2,662.4 288.2,662.4 286.3,662.4 284.4,662.4 282.5,662.4 280.6,662.4 278.7,662.4 276.8,662.4 274.9,662.4 273.0,662.4 271.1,662.4 269.2,662.4
267.3,662.4 265.4,662.4 263.5,662.4 261.6,662.4 259.7,662.4 257.8,662.4 255.9,662.4 254.0,662.4 252.1,662.4 250.2,662.4 248.3,662.4 246.4,662.4 244.5,662.4 242.6,662.4 240.7,662.4 238.8,662.4
236.8,662.4 234.9,662.4 233.0,662.4 231.1,662.4 229.2,662.4 227.3,662.4 225.4,662.4 223.5,662.4 221.6,662.4 219.7,662.4 217.8,662.4 215.9,662.4 214.0,662.4 212.1,662.4 210.2,662.4 208.3,662.4
206.4,662.4 204.5,662.4 202.6,662.4 200.7,662.4 198.8,662.4 196.9,662.4 195.0,662.4 193.1,662.4 191.2,662.4 189.3,662.4 187.3,662.4 185.4,662.4 183.5,662.4 181.6,662.4 179.7,662.4 177.8,662.4
175.9,662.4 174.0,662.4 172.1,662.4 170.2,662.4 168.3,662.4 166.4,662.4 164.5,662.4 162.6,662.4 160.7,662.4 158.8,662.4 156.9,662.4 155.0,662.4 153.1,662.4 151.2,662.4 '/>
	</g>
</g>
	</g>
	<g id="gnuplot_plot_3" ><title>Point estimate</title>
<g fill="none" color="white" stroke="rgb( 31, 120, 180)" stroke-width="2.00" stroke-linecap="butt" stroke-linejoin="miter">
</g>
<g fill="none" color="black" stroke="currentColor" stroke-width="2.00" stroke-linecap="butt" stroke-linejoin="miter">
	<g transform="translate(1089.0,103.0)" stroke="none" fill="black" font-family="Helvetica" font-size="12.00"  text-anchor="start">
		<text><tspan font-family="Helvetica" >Point estimate</tspan></text>
	</g>
</g>
<g fill="none" color="black" stroke="currentColor" stroke-width="2.00" stroke-linecap="butt" stroke-linejoin="miter">
	<path stroke='rgb( 31, 120, 180)'  d='M1038.5,99.1 L1080.7,99.1 M501.9,662.4 L501.9,81.3  '/></g>
	</g>
<g fill="none" color="black" stroke="currentColor" stroke-width="2.00" stroke-linecap="butt" stroke-linejoin="miter">
</g>
<g fill="none" color="black" stroke="black" stroke-width="1.00" stroke-linecap="butt" stroke-linejoin="miter">
</g>
<g fill="none" color="black" stroke="currentColor" stroke-width="1.00" stroke-linecap="butt" stroke-linejoin="miter">
	<path stroke='black'  d='M63.6,54.1 L63.6,662.4 L1013.6,662.4 L1013.6,54.1 L63.6,54.1 Z  '/></g>
<g fill="none" color="black" stroke="currentColor" stroke-width="1.00" stroke-linecap="butt" stroke-linejoin="miter">
</g>
</g>
</svg>

