<?xml version="1.0" encoding="utf-8"  standalone="no"?>
<svg 
 viewBox="0 0 1280 720"
 xmlns="http://www.w3.org/2000/svg"
 xmlns:xlink="http://www.w3.org/1999/xlink"
>

<title>Gnuplot</title>
<desc>Produced by GNUPLOT 5.2 patchlevel 8 </desc>

<g id="gnuplot_canvas">

<rect x="0" y="0" width="1280" height="720" fill="none"/>
<defs>

	<circle id='gpDot' r='0.5' stroke-width='0.5' stroke='currentColor'/>
	<path id='gpPt0' stroke-width='0.222' stroke='currentColor' d='M-1,0 h2 M0,-1 v2'/>
	<path id='gpPt1' stroke-width='0.222' stroke='currentColor' d='M-1,-1 L1,1 M1,-1 L-1,1'/>
	<path id='gpPt2' stroke-width='0.222' stroke='currentColor' d='M-1,0 L1,0 M0,-1 L0,1 M-1,-1 L1,1 M-1,1 L1,-1'/>
	<rect id='gpPt3' stroke-width='0.222' stroke='currentColor' x='-1' y='-1' width='2' height='2'/>
	<rect id='gpPt4' stroke-width='0.222' stroke='currentColor' fill='currentColor' x='-1' y='-1' width='2' height='2'/>
	<circle id='gpPt5' stroke-width='0.222' stroke='currentColor' cx='0' cy='0' r='1'/>
	<use xlink:href='#gpPt5' id='gpPt6' fill='currentColor' stroke='none'/>
	<path id='gpPt7' stroke-width='0.222' stroke='currentColor' d='M0,-1.33 L-1.33,0.67 L1.33,0.67 z'/>
	<use xlink:href='#gpPt7' id='gpPt8' fill='currentColor' stroke='none'/>
	<use xlink:href='#gpPt7' id='gpPt9' stroke='currentColor' transform='rotate(180)'/>
	<use xlink:href='#gpPt9' id='gpPt10' fill='currentColor' stroke='none'/>
	<use xlink:href='#gpPt3' id='gpPt11' stroke='currentColor' transform='rotate(45)'/>
	<use xlink:href='#gpPt11' id='gpPt12' fill='currentColor' stroke='none'/>
	<path id='gpPt13' stroke-width='0.222' stroke='currentColor' d='M0,1.330 L1.265,0.411 L0.782,-1.067 L-0.782,-1.076 L-1.265,0.411 z'/>
	<use xlink:href='#gpPt13' id='gpPt14' fill='currentColor' stroke='none'/>
	<filter id='textbox' filterUnits='objectBoundingBox' x='0' y='0' height='1' width='1'>
	  <feFlood flood-color='white' flood-opacity='1' result='bgnd'/>
	  <feComposite in='SourceGraphic' in2='bgnd' operator='atop'/>
	</filter>
	<filter id='greybox' filterUnits='objectBoundingBox' x='0' y='0' height='1' width='1'>
	  <feFlood flood-color='lightgrey' flood-opacity='1' result='grey'/>
	  <feComposite in='SourceGraphic' in2='grey' operator='atop'/>
	</filter>
</defs>
<g fill="none" color="white" stroke="currentColor" stroke-width="1.00" stroke-linecap="butt" stroke-linejoin="miter">
</g>
<g fill="none" color="black" stroke="currentColor" stroke-width="1.00" stroke-linecap="butt" stroke-linejoin="miter">
	<path stroke='black'  d='M88.5,662.4 L97.5,662.4  '/>	<g transform="translate(80.2,666.3)" stroke="none" fill="black" font-family="Helvetica" font-size="12.00"  text-anchor="end">
		<text><tspan font-family="Helvetica" > 0</tspan></text>
	</g>
</g>
<g fill="none" color="black" stroke="currentColor" stroke-width="1.00" stroke-linecap="butt" stroke-linejoin="miter">
	<path stroke='black'  d='M88.5,575.5 L97.5,575.5  '/>	<g transform="translate(80.2,579.4)" stroke="none" fill="black" font-family="Helvetica" font-size="12.00"  text-anchor="end">
		<text><tspan font-family="Helvetica" > 0.001</tspan></text>
	</g>
</g>
<g fill="none" color="black" stroke="currentColor" stroke-width="1.00" stroke-linecap="butt" stroke-linejoin="miter">
	<path stroke='black'  d='M88.5,488.6 L97.5,488.6  '/>	<g transform="translate(80.2,492.5)" stroke="none" fill="black" font-family="Helvetica" font-size="12.00"  text-anchor="end">
		<text><tspan font-family="Helvetica" > 0.002</tspan></text>
	</g>
</g>
<g fill="none" color="black" stroke="currentColor" stroke-width="1.00" stroke-linecap="butt" stroke-linejoin="miter">
	<path stroke='black'  d='M88.5,401.7 L97.5,401.7  '/>	<g transform="translate(80.2,405.6)" stroke="none" fill="black" font-family="Helvetica" font-size="12.00"  text-anchor="end">
		<text><tspan font-family="Helvetica" > 0.003</tspan></text>
	</g>
</g>
<g fill="none" color="black" stroke="currentColor" stroke-width="1.00" stroke-linecap="butt" stroke-linejoin="miter">
	<path stroke='black'  d='M88.5,314.8 L97.5,314.8  '/>	<g transform="translate(80.2,318.7)" stroke="none" fill="black" font-family="Helvetica" font-size="12.00"  text-anchor="end">
		<text><tspan font-family="Helvetica" > 0.004</tspan></text>
	</g>
</g>
<g fill="none" color="black" stroke="currentColor" stroke-width="1.00" stroke-linecap="butt" stroke-linejoin="miter">
	<path stroke='black'  d='M88.5,227.9 L97.5,227.9  '/>	<g transform="translate(80.2,231.8)" stroke="none" fill="black" font-family="Helvetica" font-size="12.00"  text-anchor="end">
		<text><tspan font-family="Helvetica" > 0.005</tspan></text>
	</g>
</g>
<g fill="none" color="black" stroke="currentColor" stroke-width="1.00" stroke-linecap="butt" stroke-linejoin="miter">
	<path stroke='black'  d='M88.5,141.0 L97.5,141.0  '/>	<g transform="translate(80.2,144.9)" stroke="none" fill="black" font-family="Helvetica" font-size="12.00"  text-anchor="end">
		<text><tspan font-family="Helvetica" > 0.006</tspan></text>
	</g>
</g>
<g fill="none" color="black" stroke="currentColor" stroke-width="1.00" stroke-linecap="butt" stroke-linejoin="miter">
	<path stroke='black'  d='M88.5,54.1 L97.5,54.1  '/>	<g transform="translate(80.2,58.0)" stroke="none" fill="black" font-family="Helvetica" font-size="12.00"  text-anchor="end">
		<text><tspan font-family="Helvetica" > 0.007</tspan></text>
	</g>
</g>
<g fill="none" color="black" stroke="currentColor" stroke-width="1.00" stroke-linecap="butt" stroke-linejoin="miter">
	<path stroke='black'  d='M148.2,662.4 L148.2,653.4  '/>	<g transform="translate(148.2,684.3)" stroke="none" fill="black" font-family="Helvetica" font-size="12.00"  text-anchor="middle">
		<text><tspan font-family="Helvetica" > 350</tspan></text>
	</g>
</g>
<g fill="none" color="black" stroke="currentColor" stroke-width="1.00" stroke-linecap="butt" stroke-linejoin="miter">
	<path stroke='black'  d='M278.8,662.4 L278.8,653.4  '/>	<g transform="translate(278.8,684.3)" stroke="none" fill="black" font-family="Helvetica" font-size="12.00"  text-anchor="middle">
		<text><tspan font-family="Helvetica" > 400</tspan></text>
	</g>
</g>
<g fill="none" color="black" stroke="currentColor" stroke-width="1.00" stroke-linecap="butt" stroke-linejoin="miter">
	<path stroke='black'  d='M409.3,662.4 L409.3,653.4  '/>	<g transform="translate(409.3,684.3)" stroke="none" fill="black" font-family="Helvetica" font-size="12.00"  text-anchor="middle">
		<text><tspan font-family="Helvetica" > 450</tspan></text>
	</g>
</g>
<g fill="none" color="black" stroke="currentColor" stroke-width="1.00" stroke-linecap="butt" stroke-linejoin="miter">
	<path stroke='black'  d='M539.9,662.4 L539.9,653.4  '/>	<g transform="translate(539.9,684.3)" stroke="none" fill="black" font-family="Helvetica" font-size="12.00"  text-anchor="middle">
		<text><tspan font-family="Helvetica" > 500</tspan></text>
	</g>
</g>
<g fill="none" color="black" stroke="currentColor" stroke-width="1.00" stroke-linecap="butt" stroke-linejoin="miter">
	<path stroke='black'  d='M670.4,662.4 L670.4,653.4  '/>	<g transform="translate(670.4,684.3)" stroke="none" fill="black" font-family="Helvetica" font-size="12.00"  text-anchor="middle">
		<text><tspan font-family="Helvetica" > 550</tspan></text>
	</g>
</g>
<g fill="none" color="black" stroke="currentColor" stroke-width="1.00" stroke-linecap="butt" stroke-linejoin="miter">
	<path stroke='black'  d='M801.0,662.4 L801.0,653.4  '/>	<g transform="translate(801.0,684.3)" stroke="none" fill="black" font-family="Helvetica" font-size="12.00"  text-anchor="middle">
		<text><tspan font-family="Helvetica" > 600</tspan></text>
	</g>
</g>
<g fill="none" color="black" stroke="currentColor" stroke-width="1.00" stroke-linecap="butt" stroke-linejoin="miter">
	<path stroke='black'  d='M931.5,662.4 L931.5,653.4  '/>	<g transform="translate(931.5,684.3)" stroke="none" fill="black" font-family="Helvetica" font-size="12.00"  text-anchor="middle">
		<text><tspan font-family="Helvetica" > 650</tspan></text>
	</g>
</g>
<g fill="none" color="black" stroke="currentColor" stroke-width="1.00" stroke-linecap="butt" stroke-linejoin="miter">
</g>
<g fill="none" color="black" stroke="currentColor" stroke-width="1.00" stroke-linecap="butt" stroke-linejoin="miter">
	<path stroke='black'  d='M88.5,54.1 L88.5,662.4 L1013.6,662.4 L1013.6,54.1 L88.5,54.1 Z  '/></g>
<g fill="none" color="black" stroke="currentColor" stroke-width="1.00" stroke-linecap="butt" stroke-linejoin="miter">
	<g transform="translate(19.0,358.3) rotate(270)" stroke="none" fill="black" font-family="Helvetica" font-size="12.00"  text-anchor="middle">
		<text><tspan font-family="Helvetica" >Density (a.u.)</tspan></text>
	</g>
</g>
<g fill="none" color="black" stroke="currentColor" stroke-width="1.00" stroke-linecap="butt" stroke-linejoin="miter">
	<g transform="translate(551.0,711.3)" stroke="none" fill="black" font-family="Helvetica" font-size="12.00"  text-anchor="middle">
		<text><tspan font-family="Helvetica" >Average time (ps)</tspan></text>
	</g>
</g>
<g fill="none" color="black" stroke="currentColor" stroke-width="1.00" stroke-linecap="butt" stroke-linejoin="miter">
	<g transform="translate(551.0,31.0)" stroke="none" fill="black" font-family="Helvetica" font-size="12.00"  text-anchor="middle">
		<text><tspan font-family="Helvetica" >Parse/Standard parse/9999999999: MAD</tspan></text>
	</g>
</g>
<g fill="none" color="black" stroke="currentColor" stroke-width="1.00" stroke-linecap="butt" stroke-linejoin="miter">
</g>
	<g id="gnuplot_plot_1" ><title>Bootstrap distribution</title>
<g fill="none" color="white" stroke="currentColor" stroke-width="2.00" stroke-linecap="butt" stroke-linejoin="miter">
</g>
<g fill="none" color="black" stroke="currentColor" stroke-width="2.00" stroke-linecap="butt" stroke-linejoin="miter">
	<g transform="translate(1089.0,67.0)" stroke="none" fill="black" font-family="Helvetica" font-size="12.00"  text-anchor="start">
		<text><tspan font-family="Helvetica" >Bootstrap distribution</tspan></text>
	</g>
</g>
<g fill="none" color="black" stroke="currentColor" stroke-width="2.00" stroke-linecap="butt" stroke-linejoin="miter">
	<path stroke='rgb( 31, 120, 180)'  d='M1038.5,63.1 L1080.7,63.1 M88.5,636.3 L90.4,635.9 L92.2,635.4 L94.1,634.9 L95.9,634.5 L97.8,634.0
		L99.6,633.5 L101.5,633.0 L103.3,632.5 L105.2,632.0 L107.0,631.4 L108.9,630.9 L110.7,630.3 L112.6,629.8
		L114.5,629.2 L116.3,628.6 L118.2,627.9 L120.0,627.3 L121.9,626.7 L123.7,626.0 L125.6,625.4 L127.4,624.7
		L129.3,624.0 L131.1,623.4 L133.0,622.7 L134.8,622.0 L136.7,621.4 L138.6,620.7 L140.4,620.0 L142.3,619.3
		L144.1,618.7 L146.0,618.0 L147.8,617.3 L149.7,616.6 L151.5,615.9 L153.4,615.2 L155.2,614.5 L157.1,613.9
		L158.9,613.1 L160.8,612.4 L162.7,611.7 L164.5,611.0 L166.4,610.3 L168.2,609.5 L170.1,608.8 L171.9,608.1
		L173.8,607.3 L175.6,606.5 L177.5,605.7 L179.3,604.9 L181.2,604.1 L183.0,603.3 L184.9,602.4 L186.8,601.6
		L188.6,600.7 L190.5,599.8 L192.3,598.8 L194.2,597.9 L196.0,597.0 L197.9,596.0 L199.7,595.1 L201.6,594.1
		L203.4,593.1 L205.3,592.2 L207.2,591.2 L209.0,590.3 L210.9,589.4 L212.7,588.4 L214.6,587.5 L216.4,586.6
		L218.3,585.7 L220.1,584.8 L222.0,583.8 L223.8,582.8 L225.7,581.8 L227.5,580.7 L229.4,579.6 L231.3,578.3
		L233.1,577.0 L235.0,575.5 L236.8,573.9 L238.7,572.1 L240.5,570.2 L242.4,568.1 L244.2,565.9 L246.1,563.4
		L247.9,560.7 L249.8,557.8 L251.6,554.7 L253.5,551.3 L255.4,547.8 L257.2,543.9 L259.1,539.9 L260.9,535.6
		L262.8,531.1 L264.6,526.4 L266.5,521.4 L268.3,516.1 L270.2,510.6 L272.0,504.9 L273.9,498.9 L275.7,492.7
		L277.6,486.2 L279.5,479.5 L281.3,472.5 L283.2,465.4 L285.0,458.0 L286.9,450.5 L288.7,442.8 L290.6,435.0
		L292.4,427.2 L294.3,419.2 L296.1,411.3 L298.0,403.4 L299.8,395.6 L301.7,388.0 L303.6,380.5 L305.4,373.4
		L307.3,366.5 L309.1,360.0 L311.0,353.8 L312.8,348.2 L314.7,343.0 L316.5,338.2 L318.4,334.0 L320.2,330.4
		L322.1,327.2 L323.9,324.6 L325.8,322.5 L327.7,320.9 L329.5,319.7 L331.4,318.9 L333.2,318.4 L335.1,318.3
		L336.9,318.5 L338.8,318.8 L340.6,319.3 L342.5,319.8 L344.3,320.4 L346.2,320.9 L348.0,321.3 L349.9,321.6
		L351.8,321.7 L353.6,321.6 L355.5,321.2 L357.3,320.6 L359.2,319.6 L361.0,318.4 L362.9,316.9 L364.7,315.0
		L366.6,313.0 L368.4,310.6 L370.3,308.0 L372.1,305.2 L374.0,302.3 L375.9,299.2 L377.7,296.0 L379.6,292.7
		L381.4,289.4 L383.3,286.1 L385.1,282.7 L387.0,279.4 L388.8,276.2 L390.7,273.0 L392.5,269.9 L394.4,266.9
		L396.2,263.9 L398.1,261.0 L400.0,258.1 L401.8,255.3 L403.7,252.6 L405.5,249.8 L407.4,247.1 L409.2,244.4
		L411.1,241.6 L412.9,238.9 L414.8,236.0 L416.6,233.2 L418.5,230.2 L420.3,227.2 L422.2,224.1 L424.1,220.9
		L425.9,217.6 L427.8,214.3 L429.6,210.9 L431.5,207.4 L433.3,203.8 L435.2,200.2 L437.0,196.5 L438.9,192.8
		L440.7,189.1 L442.6,185.4 L444.5,181.7 L446.3,178.1 L448.2,174.5 L450.0,171.0 L451.9,167.7 L453.7,164.4
		L455.6,161.3 L457.4,158.4 L459.3,155.6 L461.1,153.0 L463.0,150.6 L464.8,148.3 L466.7,146.3 L468.6,144.5
		L470.4,142.9 L472.3,141.4 L474.1,140.2 L476.0,139.2 L477.8,138.3 L479.7,137.6 L481.5,137.1 L483.4,136.8
		L485.2,136.7 L487.1,136.7 L488.9,137.0 L490.8,137.4 L492.7,138.0 L494.5,138.9 L496.4,139.9 L498.2,141.2
		L500.1,142.7 L501.9,144.4 L503.8,146.3 L505.6,148.5 L507.5,150.9 L509.3,153.6 L511.2,156.5 L513.0,159.6
		L514.9,162.9 L516.8,166.5 L518.6,170.2 L520.5,174.1 L522.3,178.2 L524.2,182.4 L526.0,186.8 L527.9,191.3
		L529.7,196.0 L531.6,200.7 L533.4,205.6 L535.3,210.5 L537.1,215.4 L539.0,220.5 L540.9,225.5 L542.7,230.6
		L544.6,235.6 L546.4,240.6 L548.3,245.6 L550.1,250.5 L552.0,255.3 L553.8,260.0 L555.7,264.6 L557.5,269.0
		L559.4,273.3 L561.2,277.5 L563.1,281.5 L565.0,285.4 L566.8,289.1 L568.7,292.8 L570.5,296.3 L572.4,299.8
		L574.2,303.1 L576.1,306.4 L577.9,309.7 L579.8,312.9 L581.6,316.1 L583.5,319.2 L585.3,322.4 L587.2,325.5
		L589.1,328.6 L590.9,331.7 L592.8,334.8 L594.6,337.8 L596.5,340.9 L598.3,343.9 L600.2,346.9 L602.0,349.8
		L603.9,352.7 L605.7,355.6 L607.6,358.4 L609.4,361.2 L611.3,363.9 L613.2,366.6 L615.0,369.2 L616.9,371.8
		L618.7,374.2 L620.6,376.6 L622.4,378.9 L624.3,381.1 L626.1,383.2 L628.0,385.2 L629.8,387.2 L631.7,389.0
		L633.5,390.7 L635.4,392.2 L637.3,393.7 L639.1,395.0 L641.0,396.3 L642.8,397.4 L644.7,398.4 L646.5,399.2
		L648.4,399.9 L650.2,400.6 L652.1,401.0 L653.9,401.4 L655.8,401.6 L657.6,401.8 L659.5,401.7 L661.4,401.6
		L663.2,401.3 L665.1,401.0 L666.9,400.5 L668.8,399.8 L670.6,399.1 L672.5,398.3 L674.3,397.4 L676.2,396.4
		L678.0,395.4 L679.9,394.3 L681.8,393.2 L683.6,392.1 L685.5,391.0 L687.3,389.9 L689.2,388.8 L691.0,387.9
		L692.9,387.0 L694.7,386.2 L696.6,385.5 L698.4,384.9 L700.3,384.4 L702.1,384.1 L704.0,383.9 L705.9,383.8
		L707.7,383.8 L709.6,383.9 L711.4,384.2 L713.3,384.5 L715.1,385.0 L717.0,385.4 L718.8,386.0 L720.7,386.6
		L722.5,387.2 L724.4,387.9 L726.2,388.5 L728.1,389.2 L730.0,389.8 L731.8,390.4 L733.7,391.1 L735.5,391.7
		L737.4,392.2 L739.2,392.8 L741.1,393.4 L742.9,394.0 L744.8,394.6 L746.6,395.2 L748.5,395.9 L750.3,396.6
		L752.2,397.4 L754.1,398.3 L755.9,399.2 L757.8,400.2 L759.6,401.4 L761.5,402.6 L763.3,403.9 L765.2,405.3
		L767.0,406.9 L768.9,408.5 L770.7,410.2 L772.6,411.9 L774.4,413.7 L776.3,415.5 L778.2,417.3 L780.0,419.1
		L781.9,420.9 L783.7,422.6 L785.6,424.3 L787.4,426.0 L789.3,427.5 L791.1,429.0 L793.0,430.3 L794.8,431.6
		L796.7,432.8 L798.5,433.9 L800.4,434.9 L802.3,435.9 L804.1,436.8 L806.0,437.6 L807.8,438.4 L809.7,439.2
		L811.5,440.0 L813.4,440.8 L815.2,441.5 L817.1,442.3 L818.9,443.2 L820.8,444.0 L822.6,445.0 L824.5,445.9
		L826.4,447.0 L828.2,448.1 L830.1,449.3 L831.9,450.5 L833.8,451.8 L835.6,453.2 L837.5,454.7 L839.3,456.2
		L841.2,457.7 L843.0,459.3 L844.9,461.0 L846.7,462.7 L848.6,464.4 L850.5,466.2 L852.3,467.9 L854.2,469.7
		L856.0,471.5 L857.9,473.2 L859.7,475.0 L861.6,476.8 L863.4,478.6 L865.3,480.4 L867.1,482.2 L869.0,484.1
		L870.8,486.0 L872.7,487.9 L874.6,489.8 L876.4,491.9 L878.3,494.0 L880.1,496.1 L882.0,498.4 L883.8,500.7
		L885.7,503.1 L887.5,505.5 L889.4,508.1 L891.2,510.7 L893.1,513.3 L894.9,516.0 L896.8,518.8 L898.7,521.6
		L900.5,524.4 L902.4,527.2 L904.2,529.9 L906.1,532.7 L907.9,535.4 L909.8,538.1 L911.6,540.7 L913.5,543.3
		L915.3,545.8 L917.2,548.2 L919.1,550.5 L920.9,552.8 L922.8,555.0 L924.6,557.2 L926.5,559.3 L928.3,561.3
		L930.2,563.3 L932.0,565.2 L933.9,567.1 L935.7,569.0 L937.6,570.8 L939.4,572.7 L941.3,574.5 L943.2,576.3
		L945.0,578.2 L946.9,580.0 L948.7,581.9 L950.6,583.8 L952.4,585.7 L954.3,587.6 L956.1,589.6 L958.0,591.5
		L959.8,593.5 L961.7,595.5 L963.5,597.5 L965.4,599.4 L967.3,601.4 L969.1,603.3 L971.0,605.3 L972.8,607.2
		L974.7,609.0 L976.5,610.8 L978.4,612.6 L980.2,614.2 L982.1,615.9 L983.9,617.5 L985.8,619.0 L987.6,620.4
		L989.5,621.8 L991.4,623.1 L993.2,624.4 L995.1,625.6 L996.9,626.7 L998.8,627.8 L1000.6,628.9 L1002.5,629.9
		L1004.3,630.9 L1006.2,631.9 L1008.0,632.8 L1009.9,633.7 L1011.7,634.7 L1013.6,635.6  '/></g>
	</g>
	<g id="gnuplot_plot_2" ><title>Confidence interval</title>
<g fill="none" color="white" stroke="rgb( 31, 120, 180)" stroke-width="1.00" stroke-linecap="butt" stroke-linejoin="miter">
</g>
<g fill="none" color="black" stroke="currentColor" stroke-width="1.00" stroke-linecap="butt" stroke-linejoin="miter">
	<g transform="translate(1089.0,85.0)" stroke="none" fill="black" font-family="Helvetica" font-size="12.00"  text-anchor="start">
		<text><tspan font-family="Helvetica" >Confidence interval</tspan></text>
	</g>
</g>
<g fill="none" color="black" stroke="currentColor" stroke-width="1.00" stroke-linecap="butt" stroke-linejoin="miter">
	<g stroke='none' shape-rendering='crispEdges'>
		<polygon fill = 'rgb( 31, 120, 180)' fill-opacity = '0.250000' points = '1038.5,85.6 1080.7,85.6 1080.7,76.6 1038.5,76.6 '/>
		<polygon fill = 'rgb( 31, 120, 180)' fill-opacity = '0.250000' points = '173.8,607.3 175.6,606.5 177.5,605.7 179.3,604.9 181.2,604.1 183.0,603.3 184.9,602.4 186.8,601.6 188.6,600.7 190.5,599.8 192.3,598.8 194.2,597.9 196.0,597.0 197.9,596.0 199.7,595.1 201.6,594.1
203.4,593.1 205.3,592.2 207.2,591.2 209.0,590.3 210.9,589.4 212.7,588.4 214.6,587.5 216.4,586.6 218.3,585.7 220.1,584.8 222.0,583.8 223.8,582.8 225.7,581.8 227.5,580.7 229.4,579.6 231.3,578.3
233.1,577.0 235.0,575.5 236.8,573.9 238.7,572.1 240.5,570.2 242.4,568.1 244.2,565.9 246.1,563.4 247.9,560.7 249.8,557.8 251.6,554.7 253.5,551.3 255.4,547.8 257.2,543.9 259.1,539.9 260.9,535.6
262.8,531.1 264.6,526.4 266.5,521.4 268.3,516.1 270.2,510.6 272.0,504.9 273.9,498.9 275.7,492.7 277.6,486.2 279.5,479.5 281.3,472.5 283.2,465.4 285.0,458.0 286.9,450.5 288.7,442.8 290.6,435.0
292.4,427.2 294.3,419.2 296.1,411.3 298.0,403.4 299.8,395.6 301.7,388.0 303.6,380.5 305.4,373.4 307.3,366.5 309.1,360.0 311.0,353.8 312.8,348.2 314.7,343.0 316.5,338.2 318.4,334.0 320.2,330.4
322.1,327.2 323.9,324.6 325.8,322.5 327.7,320.9 329.5,319.7 331.4,318.9 333.2,318.4 335.1,318.3 336.9,318.5 338.8,318.8 340.6,319.3 342.5,319.8 344.3,320.4 346.2,320.9 348.0,321.3 349.9,321.6
351.8,321.7 353.6,321.6 355.5,321.2 357.3,320.6 359.2,319.6 361.0,318.4 362.9,316.9 364.7,315.0 366.6,313.0 368.4,310.6 370.3,308.0 372.1,305.2 374.0,302.3 375.9,299.2 377.7,296.0 379.6,292.7
381.4,289.4 383.3,286.1 385.1,282.7 387.0,279.4 388.8,276.2 390.7,273.0 392.5,269.9 394.4,266.9 396.2,263.9 398.1,261.0 400.0,258.1 401.8,255.3 403.7,252.6 405.5,249.8 407.4,247.1 409.2,244.4
411.1,241.6 412.9,238.9 414.8,236.0 416.6,233.2 418.5,230.2 420.3,227.2 422.2,224.1 424.1,220.9 425.9,217.6 427.8,214.3 429.6,210.9 431.5,207.4 433.3,203.8 435.2,200.2 437.0,196.5 438.9,192.8
440.7,189.1 442.6,185.4 444.5,181.7 446.3,178.1 448.2,174.5 450.0,171.0 451.9,167.7 453.7,164.4 455.6,161.3 457.4,158.4 459.3,155.6 461.1,153.0 463.0,150.6 464.8,148.3 466.7,146.3 468.6,144.5
470.4,142.9 472.3,141.4 474.1,140.2 476.0,139.2 477.8,138.3 479.7,137.6 481.5,137.1 483.4,136.8 485.2,136.7 487.1,136.7 488.9,137.0 490.8,137.4 492.7,138.0 494.5,138.9 496.4,139.9 498.2,141.2
500.1,142.7 501.9,144.4 503.8,146.3 505.6,148.5 507.5,150.9 509.3,153.6 511.2,156.5 513.0,159.6 514.9,162.9 516.8,166.5 518.6,170.2 520.5,174.1 522.3,178.2 524.2,182.4 526.0,186.8 527.9,191.3
529.7,196.0 531.6,200.7 533.4,205.6 535.3,210.5 537.1,215.4 539.0,220.5 540.9,225.5 542.7,230.6 544.6,235.6 546.4,240.6 548.3,245.6 550.1,250.5 552.0,255.3 553.8,260.0 555.7,264.6 557.5,269.0
559.4,273.3 561.2,277.5 563.1,281.5 565.0,285.4 566.8,289.1 568.7,292.8 570.5,296.3 572.4,299.8 574.2,303.1 576.1,306.4 577.9,309.7 579.8,312.9 581.6,316.1 583.5,319.2 585.3,322.4 587.2,325.5
589.1,328.6 590.9,331.7 592.8,334.8 594.6,337.8 596.5,340.9 598.3,343.9 600.2,346.9 602.0,349.8 603.9,352.7 605.7,355.6 607.6,358.4 609.4,361.2 611.3,363.9 613.2,366.6 615.0,369.2 616.9,371.8
618.7,374.2 620.6,376.6 622.4,378.9 624.3,381.1 626.1,383.2 628.0,385.2 629.8,387.2 631.7,389.0 633.5,390.7 635.4,392.2 637.3,393.7 639.1,395.0 641.0,396.3 642.8,397.4 644.7,398.4 646.5,399.2
648.4,399.9 650.2,400.6 652.1,401.0 653.9,401.4 655.8,401.6 657.6,401.8 659.5,401.7 661.4,401.6 663.2,401.3 665.1,401.0 666.9,400.5 668.8,399.8 670.6,399.1 672.5,398.3 674.3,397.4 676.2,396.4
678.0,395.4 679.9,394.3 681.8,393.2 683.6,392.1 685.5,391.0 687.3,389.9 689.2,388.8 691.0,387.9 692.9,387.0 694.7,386.2 696.6,385.5 698.4,384.9 700.3,384.4 702.1,384.1 704.0,383.9 705.9,383.8
707.7,383.8 709.6,383.9 711.4,384.2 713.3,384.5 715.1,385.0 717.0,385.4 718.8,386.0 720.7,386.6 722.5,387.2 724.4,387.9 726.2,388.5 728.1,389.2 730.0,389.8 731.8,390.4 733.7,391.1 735.5,391.7
737.4,392.2 739.2,392.8 741.1,393.4 742.9,394.0 744.8,394.6 746.6,395.2 748.5,395.9 750.3,396.6 752.2,397.4 754.1,398.3 755.9,399.2 757.8,400.2 759.6,401.4 761.5,402.6 763.3,403.9 765.2,405.3
767.0,406.9 768.9,408.5 770.7,410.2 772.6,411.9 774.4,413.7 776.3,415.5 778.2,417.3 780.0,419.1 781.9,420.9 783.7,422.6 785.6,424.3 787.4,426.0 789.3,427.5 791.1,429.0 793.0,430.3 794.8,431.6
796.7,432.8 798.5,433.9 800.4,434.9 802.3,435.9 804.1,436.8 806.0,437.6 807.8,438.4 809.7,439.2 811.5,440.0 813.4,440.8 815.2,441.5 817.1,442.3 818.9,443.2 820.8,444.0 822.6,445.0 824.5,445.9
826.4,447.0 828.2,448.1 830.1,449.3 831.9,450.5 833.8,451.8 835.6,453.2 837.5,454.7 839.3,456.2 841.2,457.7 843.0,459.3 844.9,461.0 846.7,462.7 848.6,464.4 850.5,466.2 852.3,467.9 854.2,469.7
856.0,471.5 857.9,473.2 859.7,475.0 861.6,476.8 863.4,478.6 865.3,480.4 867.1,482.2 869.0,484.1 870.8,486.0 872.7,487.9 874.6,489.8 876.4,491.9 878.3,494.0 880.1,496.1 882.0,498.4 883.8,500.7
885.7,503.1 887.5,505.5 889.4,508.1 891.2,510.7 893.1,513.3 894.9,516.0 896.8,518.8 898.7,521.6 900.5,524.4 902.4,527.2 904.2,529.9 906.1,532.7 907.9,535.4 909.8,538.1 911.6,540.7 913.5,543.3
915.3,545.8 917.2,548.2 919.1,550.5 920.9,552.8 922.8,555.0 924.6,557.2 926.5,559.3 926.5,662.4 924.6,662.4 922.8,662.4 920.9,662.4 919.1,662.4 917.2,662.4 915.3,662.4 913.5,662.4 911.6,662.4
909.8,662.4 907.9,662.4 906.1,662.4 904.2,662.4 902.4,662.4 900.5,662.4 898.7,662.4 896.8,662.4 894.9,662.4 893.1,662.4 891.2,662.4 889.4,662.4 887.5,662.4 885.7,662.4 883.8,662.4 882.0,662.4
880.1,662.4 878.3,662.4 876.4,662.4 874.6,662.4 872.7,662.4 870.8,662.4 869.0,662.4 867.1,662.4 865.3,662.4 863.4,662.4 861.6,662.4 859.7,662.4 857.9,662.4 856.0,662.4 854.2,662.4 852.3,662.4
850.5,662.4 848.6,662.4 846.7,662.4 844.9,662.4 843.0,662.4 841.2,662.4 839.3,662.4 837.5,662.4 835.6,662.4 833.8,662.4 831.9,662.4 830.1,662.4 828.2,662.4 826.4,662.4 824.5,662.4 822.6,662.4
820.8,662.4 818.9,662.4 817.1,662.4 815.2,662.4 813.4,662.4 811.5,662.4 809.7,662.4 807.8,662.4 806.0,662.4 804.1,662.4 802.3,662.4 800.4,662.4 798.5,662.4 796.7,662.4 794.8,662.4 793.0,662.4
791.1,662.4 789.3,662.4 787.4,662.4 785.6,662.4 783.7,662.4 781.9,662.4 780.0,662.4 778.2,662.4 776.3,662.4 774.4,662.4 772.6,662.4 770.7,662.4 768.9,662.4 767.0,662.4 765.2,662.4 763.3,662.4
761.5,662.4 759.6,662.4 757.8,662.4 755.9,662.4 754.1,662.4 752.2,662.4 750.3,662.4 748.5,662.4 746.6,662.4 744.8,662.4 742.9,662.4 741.1,662.4 739.2,662.4 737.4,662.4 735.5,662.4 733.7,662.4
731.8,662.4 730.0,662.4 728.1,662.4 726.2,662.4 724.4,662.4 722.5,662.4 720.7,662.4 718.8,662.4 717.0,662.4 715.1,662.4 713.3,662.4 711.4,662.4 709.6,662.4 707.7,662.4 705.9,662.4 704.0,662.4
702.1,662.4 700.3,662.4 698.4,662.4 696.6,662.4 694.7,662.4 692.9,662.4 691.0,662.4 689.2,662.4 687.3,662.4 685.5,662.4 683.6,662.4 681.8,662.4 679.9,662.4 678.0,662.4 676.2,662.4 674.3,662.4
672.5,662.4 670.6,662.4 668.8,662.4 666.9,662.4 665.1,662.4 663.2,662.4 661.4,662.4 659.5,662.4 657.6,662.4 655.8,662.4 653.9,662.4 652.1,662.4 650.2,662.4 648.4,662.4 646.5,662.4 644.7,662.4
642.8,662.4 641.0,662.4 639.1,662.4 637.3,662.4 635.4,662.4 633.5,662.4 631.7,662.4 629.8,662.4 628.0,662.4 626.1,662.4 624.3,662.4 622.4,662.4 620.6,662.4 618.7,662.4 616.9,662.4 615.0,662.4
613.2,662.4 611.3,662.4 609.4,662.4 607.6,662.4 605.7,662.4 603.9,662.4 602.0,662.4 600.2,662.4 598.3,662.4 596.5,662.4 594.6,662.4 592.8,662.4 590.9,662.4 589.1,662.4 587.2,662.4 585.3,662.4
583.5,662.4 581.6,662.4 579.8,662.4 577.9,662.4 576.1,662.4 574.2,662.4 572.4,662.4 570.5,662.4 568.7,662.4 566.8,662.4 565.0,662.4 563.1,662.4 561.2,662.4 559.4,662.4 557.5,662.4 555.7,662.4
553.8,662.4 552.0,662.4 550.1,662.4 548.3,662.4 546.4,662.4 544.6,662.4 542.7,662.4 540.9,662.4 539.0,662.4 537.1,662.4 535.3,662.4 533.4,662.4 531.6,662.4 529.7,662.4 527.9,662.4 526.0,662.4
524.2,662.4 522.3,662.4 520.5,662.4 518.6,662.4 516.8,662.4 514.9,662.4 513.0,662.4 511.2,662.4 509.3,662.4 507.5,662.4 505.6,662.4 503.8,662.4 501.9,662.4 500.1,662.4 498.2,662.4 496.4,662.4
494.5,662.4 492.7,662.4 490.8,662.4 488.9,662.4 487.1,662.4 485.2,662.4 483.4,662.4 481.5,662.4 479.7,662.4 477.8,662.4 476.0,662.4 474.1,662.4 472.3,662.4 470.4,662.4 468.6,662.4 466.7,662.4
464.8,662.4 463.0,662.4 461.1,662.4 459.3,662.4 457.4,662.4 455.6,662.4 453.7,662.4 451.9,662.4 450.0,662.4 448.2,662.4 446.3,662.4 444.5,662.4 442.6,662.4 440.7,662.4 438.9,662.4 437.0,662.4
435.2,662.4 433.3,662.4 431.5,662.4 429.6,662.4 427.8,662.4 425.9,662.4 424.1,662.4 422.2,662.4 420.3,662.4 418.5,662.4 416.6,662.4 414.8,662.4 412.9,662.4 411.1,662.4 409.2,662.4 407.4,662.4
405.5,662.4 403.7,662.4 401.8,662.4 400.0,662.4 398.1,662.4 396.2,662.4 394.4,662.4 392.5,662.4 390.7,662.4 388.8,662.4 387.0,662.4 385.1,662.4 383.3,662.4 381.4,662.4 379.6,662.4 377.7,662.4
375.9,662.4 374.0,662.4 372.1,662.4 370.3,662.4 368.4,662.4 366.6,662.4 364.7,662.4 362.9,662.4 361.0,662.4 359.2,662.4 357.3,662.4 355.5,662.4 353.6,662.4 351.8,662.4 349.9,662.4 348.0,662.4
346.2,662.4 344.3,662.4 342.5,662.4 340.6,662.4 338.8,662.4 336.9,662.4 335.1,662.4 333.2,662.4 331.4,662.4 329.5,662.4 327.7,662.4 325.8,662.4 323.9,662.4 322.1,662.4 320.2,662.4 318.4,662.4
316.5,662.4 314.7,662.4 312.8,662.4 311.0,662.4 309.1,662.4 307.3,662.4 305.4,662.4 303.6,662.4 301.7,662.4 299.8,662.4 298.0,662.4 296.1,662.4 294.3,662.4 292.4,662.4 290.6,662.4 288.7,662.4
286.9,662.4 285.0,662.4 283.2,662.4 281.3,662.4 279.5,662.4 277.6,662.4 275.7,662.4 273.9,662.4 272.0,662.4 270.2,662.4 268.3,662.4 266.5,662.4 264.6,662.4 262.8,662.4 260.9,662.4 259.1,662.4
257.2,662.4 255.4,662.4 253.5,662.4 251.6,662.4 249.8,662.4 247.9,662.4 246.1,662.4 244.2,662.4 242.4,662.4 240.5,662.4 238.7,662.4 236.8,662.4 235.0,662.4 233.1,662.4 231.3,662.4 229.4,662.4
227.5,662.4 225.7,662.4 223.8,662.4 222.0,662.4 220.1,662.4 218.3,662.4 216.4,662.4 214.6,662.4 212.7,662.4 210.9,662.4 209.0,662.4 207.2,662.4 205.3,662.4 203.4,662.4 201.6,662.4 199.7,662.4
197.9,662.4 196.0,662.4 194.2,662.4 192.3,662.4 190.5,662.4 188.6,662.4 186.8,662.4 184.9,662.4 183.0,662.4 181.2,662.4 179.3,662.4 177.5,662.4 175.6,662.4 173.8,662.4 '/>
	</g>
</g>
	</g>
	<g id="gnuplot_plot_3" ><title>Point estimate</title>
<g fill="none" color="white" stroke="rgb( 31, 120, 180)" stroke-width="2.00" stroke-linecap="butt" stroke-linejoin="miter">
</g>
<g fill="none" color="black" stroke="currentColor" stroke-width="2.00" stroke-linecap="butt" stroke-linejoin="miter">
	<g transform="translate(1089.0,103.0)" stroke="none" fill="black" font-family="Helvetica" font-size="12.00"  text-anchor="start">
		<text><tspan font-family="Helvetica" >Point estimate</tspan></text>
	</g>
</g>
<g fill="none" color="black" stroke="currentColor" stroke-width="2.00" stroke-linecap="butt" stroke-linejoin="miter">
	<path stroke='rgb( 31, 120, 180)'  d='M1038.5,99.1 L1080.7,99.1 M507.9,662.4 L507.9,151.5  '/></g>
	</g>
<g fill="none" color="black" stroke="currentColor" stroke-width="2.00" stroke-linecap="butt" stroke-linejoin="miter">
</g>
<g fill="none" color="black" stroke="black" stroke-width="1.00" stroke-linecap="butt" stroke-linejoin="miter">
</g>
<g fill="none" color="black" stroke="currentColor" stroke-width="1.00" stroke-linecap="butt" stroke-linejoin="miter">
	<path stroke='black'  d='M88.5,54.1 L88.5,662.4 L1013.6,662.4 L1013.6,54.1 L88.5,54.1 Z  '/></g>
<g fill="none" color="black" stroke="currentColor" stroke-width="1.00" stroke-linecap="butt" stroke-linejoin="miter">
</g>
</g>
</svg>

