<?xml version="1.0" encoding="utf-8"  standalone="no"?>
<svg 
 viewBox="0 0 1280 720"
 xmlns="http://www.w3.org/2000/svg"
 xmlns:xlink="http://www.w3.org/1999/xlink"
>

<title>Gnuplot</title>
<desc>Produced by GNUPLOT 5.2 patchlevel 8 </desc>

<g id="gnuplot_canvas">

<rect x="0" y="0" width="1280" height="720" fill="none"/>
<defs>

	<circle id='gpDot' r='0.5' stroke-width='0.5' stroke='currentColor'/>
	<path id='gpPt0' stroke-width='0.222' stroke='currentColor' d='M-1,0 h2 M0,-1 v2'/>
	<path id='gpPt1' stroke-width='0.222' stroke='currentColor' d='M-1,-1 L1,1 M1,-1 L-1,1'/>
	<path id='gpPt2' stroke-width='0.222' stroke='currentColor' d='M-1,0 L1,0 M0,-1 L0,1 M-1,-1 L1,1 M-1,1 L1,-1'/>
	<rect id='gpPt3' stroke-width='0.222' stroke='currentColor' x='-1' y='-1' width='2' height='2'/>
	<rect id='gpPt4' stroke-width='0.222' stroke='currentColor' fill='currentColor' x='-1' y='-1' width='2' height='2'/>
	<circle id='gpPt5' stroke-width='0.222' stroke='currentColor' cx='0' cy='0' r='1'/>
	<use xlink:href='#gpPt5' id='gpPt6' fill='currentColor' stroke='none'/>
	<path id='gpPt7' stroke-width='0.222' stroke='currentColor' d='M0,-1.33 L-1.33,0.67 L1.33,0.67 z'/>
	<use xlink:href='#gpPt7' id='gpPt8' fill='currentColor' stroke='none'/>
	<use xlink:href='#gpPt7' id='gpPt9' stroke='currentColor' transform='rotate(180)'/>
	<use xlink:href='#gpPt9' id='gpPt10' fill='currentColor' stroke='none'/>
	<use xlink:href='#gpPt3' id='gpPt11' stroke='currentColor' transform='rotate(45)'/>
	<use xlink:href='#gpPt11' id='gpPt12' fill='currentColor' stroke='none'/>
	<path id='gpPt13' stroke-width='0.222' stroke='currentColor' d='M0,1.330 L1.265,0.411 L0.782,-1.067 L-0.782,-1.076 L-1.265,0.411 z'/>
	<use xlink:href='#gpPt13' id='gpPt14' fill='currentColor' stroke='none'/>
	<filter id='textbox' filterUnits='objectBoundingBox' x='0' y='0' height='1' width='1'>
	  <feFlood flood-color='white' flood-opacity='1' result='bgnd'/>
	  <feComposite in='SourceGraphic' in2='bgnd' operator='atop'/>
	</filter>
	<filter id='greybox' filterUnits='objectBoundingBox' x='0' y='0' height='1' width='1'>
	  <feFlood flood-color='lightgrey' flood-opacity='1' result='grey'/>
	  <feComposite in='SourceGraphic' in2='grey' operator='atop'/>
	</filter>
</defs>
<g fill="none" color="white" stroke="currentColor" stroke-width="1.00" stroke-linecap="butt" stroke-linejoin="miter">
</g>
<g fill="none" color="black" stroke="currentColor" stroke-width="1.00" stroke-linecap="butt" stroke-linejoin="miter">
	<path stroke='black'  d='M63.6,662.4 L72.6,662.4  '/>	<g transform="translate(55.3,666.3)" stroke="none" fill="black" font-family="Helvetica" font-size="12.00"  text-anchor="end">
		<text><tspan font-family="Helvetica" > 0</tspan></text>
	</g>
</g>
<g fill="none" color="black" stroke="currentColor" stroke-width="1.00" stroke-linecap="butt" stroke-linejoin="miter">
	<path stroke='black'  d='M63.6,594.8 L72.6,594.8  '/>	<g transform="translate(55.3,598.7)" stroke="none" fill="black" font-family="Helvetica" font-size="12.00"  text-anchor="end">
		<text><tspan font-family="Helvetica" > 2</tspan></text>
	</g>
</g>
<g fill="none" color="black" stroke="currentColor" stroke-width="1.00" stroke-linecap="butt" stroke-linejoin="miter">
	<path stroke='black'  d='M63.6,527.2 L72.6,527.2  '/>	<g transform="translate(55.3,531.1)" stroke="none" fill="black" font-family="Helvetica" font-size="12.00"  text-anchor="end">
		<text><tspan font-family="Helvetica" > 4</tspan></text>
	</g>
</g>
<g fill="none" color="black" stroke="currentColor" stroke-width="1.00" stroke-linecap="butt" stroke-linejoin="miter">
	<path stroke='black'  d='M63.6,459.6 L72.6,459.6  '/>	<g transform="translate(55.3,463.5)" stroke="none" fill="black" font-family="Helvetica" font-size="12.00"  text-anchor="end">
		<text><tspan font-family="Helvetica" > 6</tspan></text>
	</g>
</g>
<g fill="none" color="black" stroke="currentColor" stroke-width="1.00" stroke-linecap="butt" stroke-linejoin="miter">
	<path stroke='black'  d='M63.6,392.0 L72.6,392.0  '/>	<g transform="translate(55.3,395.9)" stroke="none" fill="black" font-family="Helvetica" font-size="12.00"  text-anchor="end">
		<text><tspan font-family="Helvetica" > 8</tspan></text>
	</g>
</g>
<g fill="none" color="black" stroke="currentColor" stroke-width="1.00" stroke-linecap="butt" stroke-linejoin="miter">
	<path stroke='black'  d='M63.6,324.5 L72.6,324.5  '/>	<g transform="translate(55.3,328.4)" stroke="none" fill="black" font-family="Helvetica" font-size="12.00"  text-anchor="end">
		<text><tspan font-family="Helvetica" > 10</tspan></text>
	</g>
</g>
<g fill="none" color="black" stroke="currentColor" stroke-width="1.00" stroke-linecap="butt" stroke-linejoin="miter">
	<path stroke='black'  d='M63.6,256.9 L72.6,256.9  '/>	<g transform="translate(55.3,260.8)" stroke="none" fill="black" font-family="Helvetica" font-size="12.00"  text-anchor="end">
		<text><tspan font-family="Helvetica" > 12</tspan></text>
	</g>
</g>
<g fill="none" color="black" stroke="currentColor" stroke-width="1.00" stroke-linecap="butt" stroke-linejoin="miter">
	<path stroke='black'  d='M63.6,189.3 L72.6,189.3  '/>	<g transform="translate(55.3,193.2)" stroke="none" fill="black" font-family="Helvetica" font-size="12.00"  text-anchor="end">
		<text><tspan font-family="Helvetica" > 14</tspan></text>
	</g>
</g>
<g fill="none" color="black" stroke="currentColor" stroke-width="1.00" stroke-linecap="butt" stroke-linejoin="miter">
	<path stroke='black'  d='M63.6,121.7 L72.6,121.7  '/>	<g transform="translate(55.3,125.6)" stroke="none" fill="black" font-family="Helvetica" font-size="12.00"  text-anchor="end">
		<text><tspan font-family="Helvetica" > 16</tspan></text>
	</g>
</g>
<g fill="none" color="black" stroke="currentColor" stroke-width="1.00" stroke-linecap="butt" stroke-linejoin="miter">
	<path stroke='black'  d='M63.6,54.1 L72.6,54.1  '/>	<g transform="translate(55.3,58.0)" stroke="none" fill="black" font-family="Helvetica" font-size="12.00"  text-anchor="end">
		<text><tspan font-family="Helvetica" > 18</tspan></text>
	</g>
</g>
<g fill="none" color="black" stroke="currentColor" stroke-width="1.00" stroke-linecap="butt" stroke-linejoin="miter">
	<path stroke='black'  d='M171.1,662.4 L171.1,653.4  '/>	<g transform="translate(171.1,684.3)" stroke="none" fill="black" font-family="Helvetica" font-size="12.00"  text-anchor="middle">
		<text><tspan font-family="Helvetica" > 10.85</tspan></text>
	</g>
</g>
<g fill="none" color="black" stroke="currentColor" stroke-width="1.00" stroke-linecap="butt" stroke-linejoin="miter">
	<path stroke='black'  d='M333.9,662.4 L333.9,653.4  '/>	<g transform="translate(333.9,684.3)" stroke="none" fill="black" font-family="Helvetica" font-size="12.00"  text-anchor="middle">
		<text><tspan font-family="Helvetica" > 10.9</tspan></text>
	</g>
</g>
<g fill="none" color="black" stroke="currentColor" stroke-width="1.00" stroke-linecap="butt" stroke-linejoin="miter">
	<path stroke='black'  d='M496.8,662.4 L496.8,653.4  '/>	<g transform="translate(496.8,684.3)" stroke="none" fill="black" font-family="Helvetica" font-size="12.00"  text-anchor="middle">
		<text><tspan font-family="Helvetica" > 10.95</tspan></text>
	</g>
</g>
<g fill="none" color="black" stroke="currentColor" stroke-width="1.00" stroke-linecap="butt" stroke-linejoin="miter">
	<path stroke='black'  d='M659.6,662.4 L659.6,653.4  '/>	<g transform="translate(659.6,684.3)" stroke="none" fill="black" font-family="Helvetica" font-size="12.00"  text-anchor="middle">
		<text><tspan font-family="Helvetica" > 11</tspan></text>
	</g>
</g>
<g fill="none" color="black" stroke="currentColor" stroke-width="1.00" stroke-linecap="butt" stroke-linejoin="miter">
	<path stroke='black'  d='M822.5,662.4 L822.5,653.4  '/>	<g transform="translate(822.5,684.3)" stroke="none" fill="black" font-family="Helvetica" font-size="12.00"  text-anchor="middle">
		<text><tspan font-family="Helvetica" > 11.05</tspan></text>
	</g>
</g>
<g fill="none" color="black" stroke="currentColor" stroke-width="1.00" stroke-linecap="butt" stroke-linejoin="miter">
	<path stroke='black'  d='M985.3,662.4 L985.3,653.4  '/>	<g transform="translate(985.3,684.3)" stroke="none" fill="black" font-family="Helvetica" font-size="12.00"  text-anchor="middle">
		<text><tspan font-family="Helvetica" > 11.1</tspan></text>
	</g>
</g>
<g fill="none" color="black" stroke="currentColor" stroke-width="1.00" stroke-linecap="butt" stroke-linejoin="miter">
</g>
<g fill="none" color="black" stroke="currentColor" stroke-width="1.00" stroke-linecap="butt" stroke-linejoin="miter">
	<path stroke='black'  d='M63.6,54.1 L63.6,662.4 L1013.6,662.4 L1013.6,54.1 L63.6,54.1 Z  '/></g>
<g fill="none" color="black" stroke="currentColor" stroke-width="1.00" stroke-linecap="butt" stroke-linejoin="miter">
	<g transform="translate(19.0,358.3) rotate(270)" stroke="none" fill="black" font-family="Helvetica" font-size="12.00"  text-anchor="middle">
		<text><tspan font-family="Helvetica" >Density (a.u.)</tspan></text>
	</g>
</g>
<g fill="none" color="black" stroke="currentColor" stroke-width="1.00" stroke-linecap="butt" stroke-linejoin="miter">
	<g transform="translate(538.6,711.3)" stroke="none" fill="black" font-family="Helvetica" font-size="12.00"  text-anchor="middle">
		<text><tspan font-family="Helvetica" >Average time (ns)</tspan></text>
	</g>
</g>
<g fill="none" color="black" stroke="currentColor" stroke-width="1.00" stroke-linecap="butt" stroke-linejoin="miter">
	<g transform="translate(538.6,31.0)" stroke="none" fill="black" font-family="Helvetica" font-size="12.00"  text-anchor="middle">
		<text><tspan font-family="Helvetica" >Parse/Standard parse/9999999999: median</tspan></text>
	</g>
</g>
<g fill="none" color="black" stroke="currentColor" stroke-width="1.00" stroke-linecap="butt" stroke-linejoin="miter">
</g>
	<g id="gnuplot_plot_1" ><title>Bootstrap distribution</title>
<g fill="none" color="white" stroke="currentColor" stroke-width="2.00" stroke-linecap="butt" stroke-linejoin="miter">
</g>
<g fill="none" color="black" stroke="currentColor" stroke-width="2.00" stroke-linecap="butt" stroke-linejoin="miter">
	<g transform="translate(1089.0,67.0)" stroke="none" fill="black" font-family="Helvetica" font-size="12.00"  text-anchor="start">
		<text><tspan font-family="Helvetica" >Bootstrap distribution</tspan></text>
	</g>
</g>
<g fill="none" color="black" stroke="currentColor" stroke-width="2.00" stroke-linecap="butt" stroke-linejoin="miter">
	<path stroke='rgb( 31, 120, 180)'  d='M1038.5,63.1 L1080.7,63.1 M63.6,653.2 L65.5,652.9 L67.4,652.5 L69.3,652.0 L71.2,651.6 L73.1,651.0
		L75.0,650.5 L76.9,649.8 L78.8,649.2 L80.7,648.5 L82.6,647.7 L84.5,647.0 L86.4,646.2 L88.3,645.4
		L90.3,644.7 L92.2,643.9 L94.1,643.2 L96.0,642.5 L97.9,641.8 L99.8,641.2 L101.7,640.6 L103.6,640.1
		L105.5,639.6 L107.4,639.2 L109.3,638.9 L111.2,638.6 L113.1,638.3 L115.0,638.0 L116.9,637.7 L118.8,637.4
		L120.7,637.1 L122.6,636.8 L124.5,636.4 L126.4,635.9 L128.3,635.4 L130.2,634.8 L132.1,634.0 L134.0,633.2
		L135.9,632.2 L137.8,631.0 L139.8,629.7 L141.7,628.2 L143.6,626.4 L145.5,624.4 L147.4,622.1 L149.3,619.5
		L151.2,616.5 L153.1,613.2 L155.0,609.6 L156.9,605.5 L158.8,601.1 L160.7,596.4 L162.6,591.3 L164.5,585.8
		L166.4,580.2 L168.3,574.3 L170.2,568.2 L172.1,562.1 L174.0,556.1 L175.9,550.2 L177.8,544.4 L179.7,539.0
		L181.6,534.0 L183.5,529.5 L185.4,525.5 L187.3,522.2 L189.3,519.5 L191.2,517.5 L193.1,516.3 L195.0,515.7
		L196.9,515.7 L198.8,516.4 L200.7,517.6 L202.6,519.3 L204.5,521.4 L206.4,523.8 L208.3,526.3 L210.2,529.0
		L212.1,531.6 L214.0,534.2 L215.9,536.6 L217.8,538.8 L219.7,540.8 L221.6,542.4 L223.5,543.7 L225.4,544.6
		L227.3,545.1 L229.2,545.2 L231.1,545.0 L233.0,544.3 L234.9,543.2 L236.8,541.7 L238.8,539.9 L240.7,537.6
		L242.6,535.0 L244.5,532.0 L246.4,528.6 L248.3,524.8 L250.2,520.8 L252.1,516.4 L254.0,511.8 L255.9,507.1
		L257.8,502.1 L259.7,497.2 L261.6,492.2 L263.5,487.4 L265.4,482.8 L267.3,478.4 L269.2,474.4 L271.1,470.8
		L273.0,467.8 L274.9,465.3 L276.8,463.4 L278.7,462.2 L280.6,461.6 L282.5,461.8 L284.4,462.6 L286.3,464.0
		L288.2,466.1 L290.2,468.8 L292.1,472.0 L294.0,475.6 L295.9,479.7 L297.8,484.0 L299.7,488.6 L301.6,493.4
		L303.5,498.2 L305.4,502.9 L307.3,507.6 L309.2,512.0 L311.1,516.2 L313.0,520.0 L314.9,523.3 L316.8,526.2
		L318.7,528.6 L320.6,530.5 L322.5,531.8 L324.4,532.6 L326.3,532.9 L328.2,532.8 L330.1,532.2 L332.0,531.3
		L333.9,530.1 L335.8,528.8 L337.7,527.4 L339.7,525.9 L341.6,524.5 L343.5,523.3 L345.4,522.2 L347.3,521.4
		L349.2,520.8 L351.1,520.4 L353.0,520.1 L354.9,520.1 L356.8,520.1 L358.7,520.0 L360.6,519.8 L362.5,519.4
		L364.4,518.5 L366.3,517.1 L368.2,515.0 L370.1,512.1 L372.0,508.3 L373.9,503.5 L375.8,497.4 L377.7,490.2
		L379.6,481.7 L381.5,471.9 L383.4,460.7 L385.3,448.3 L387.2,434.5 L389.2,419.6 L391.1,403.5 L393.0,386.4
		L394.9,368.5 L396.8,349.7 L398.7,330.4 L400.6,310.7 L402.5,290.9 L404.4,271.0 L406.3,251.4 L408.2,232.2
		L410.1,213.8 L412.0,196.3 L413.9,180.0 L415.8,165.1 L417.7,151.8 L419.6,140.4 L421.5,130.9 L423.4,123.5
		L425.3,118.3 L427.2,115.5 L429.1,114.9 L431.0,116.7 L432.9,120.8 L434.8,127.1 L436.7,135.4 L438.7,145.6
		L440.6,157.6 L442.5,171.1 L444.4,185.9 L446.3,201.7 L448.2,218.3 L450.1,235.4 L452.0,252.9 L453.9,270.5
		L455.8,288.0 L457.7,305.2 L459.6,321.9 L461.5,338.0 L463.4,353.5 L465.3,368.2 L467.2,382.0 L469.1,395.0
		L471.0,407.1 L472.9,418.3 L474.8,428.7 L476.7,438.2 L478.6,447.0 L480.5,455.0 L482.4,462.3 L484.3,469.0
		L486.2,475.0 L488.1,480.6 L490.1,485.6 L492.0,490.2 L493.9,494.4 L495.8,498.2 L497.7,501.6 L499.6,504.8
		L501.5,507.6 L503.4,510.1 L505.3,512.4 L507.2,514.5 L509.1,516.3 L511.0,518.0 L512.9,519.4 L514.8,520.7
		L516.7,521.7 L518.6,522.7 L520.5,523.4 L522.4,524.1 L524.3,524.6 L526.2,525.0 L528.1,525.3 L530.0,525.5
		L531.9,525.6 L533.8,525.7 L535.7,525.7 L537.6,525.7 L539.6,525.7 L541.5,525.7 L543.4,525.7 L545.3,525.7
		L547.2,525.8 L549.1,525.9 L551.0,526.1 L552.9,526.2 L554.8,526.4 L556.7,526.6 L558.6,526.7 L560.5,526.8
		L562.4,526.7 L564.3,526.6 L566.2,526.3 L568.1,525.8 L570.0,525.1 L571.9,524.2 L573.8,523.0 L575.7,521.6
		L577.6,519.8 L579.5,517.7 L581.4,515.3 L583.3,512.6 L585.2,509.6 L587.1,506.3 L589.1,502.7 L591.0,498.9
		L592.9,494.9 L594.8,490.9 L596.7,486.7 L598.6,482.7 L600.5,478.7 L602.4,474.9 L604.3,471.5 L606.2,468.4
		L608.1,465.9 L610.0,463.9 L611.9,462.5 L613.8,461.9 L615.7,462.0 L617.6,462.9 L619.5,464.5 L621.4,466.9
		L623.3,470.0 L625.2,473.8 L627.1,478.3 L629.0,483.2 L630.9,488.6 L632.8,494.4 L634.7,500.4 L636.6,506.6
		L638.5,512.9 L640.5,519.1 L642.4,525.2 L644.3,531.2 L646.2,537.0 L648.1,542.5 L650.0,547.7 L651.9,552.6
		L653.8,557.2 L655.7,561.4 L657.6,565.3 L659.5,568.9 L661.4,572.3 L663.3,575.4 L665.2,578.2 L667.1,580.8
		L669.0,583.3 L670.9,585.6 L672.8,587.8 L674.7,589.9 L676.6,592.0 L678.5,593.9 L680.4,595.8 L682.3,597.6
		L684.2,599.5 L686.1,601.2 L688.0,602.9 L690.0,604.6 L691.9,606.3 L693.8,607.9 L695.7,609.4 L697.6,610.9
		L699.5,612.3 L701.4,613.6 L703.3,614.9 L705.2,616.1 L707.1,617.3 L709.0,618.4 L710.9,619.4 L712.8,620.4
		L714.7,621.4 L716.6,622.3 L718.5,623.2 L720.4,624.1 L722.3,624.9 L724.2,625.8 L726.1,626.6 L728.0,627.4
		L729.9,628.3 L731.8,629.1 L733.7,630.0 L735.6,630.8 L737.5,631.6 L739.5,632.4 L741.4,633.2 L743.3,633.9
		L745.2,634.7 L747.1,635.4 L749.0,636.0 L750.9,636.7 L752.8,637.2 L754.7,637.8 L756.6,638.3 L758.5,638.8
		L760.4,639.3 L762.3,639.8 L764.2,640.3 L766.1,640.7 L768.0,641.2 L769.9,641.7 L771.8,642.2 L773.7,642.8
		L775.6,643.3 L777.5,643.9 L779.4,644.4 L781.3,645.0 L783.2,645.5 L785.1,646.0 L787.0,646.5 L789.0,647.0
		L790.9,647.4 L792.8,647.8 L794.7,648.1 L796.6,648.4 L798.5,648.6 L800.4,648.8 L802.3,649.0 L804.2,649.1
		L806.1,649.3 L808.0,649.5 L809.9,649.6 L811.8,649.9 L813.7,650.1 L815.6,650.4 L817.5,650.8 L819.4,651.2
		L821.3,651.6 L823.2,652.1 L825.1,652.7 L827.0,653.2 L828.9,653.9 L830.8,654.5 L832.7,655.1 L834.6,655.8
		L836.5,656.4 L838.4,657.0 L840.4,657.6 L842.3,658.2 L844.2,658.7 L846.1,659.2 L848.0,659.6 L849.9,660.0
		L851.8,660.3 L853.7,660.6 L855.6,660.9 L857.5,661.1 L859.4,661.2 L861.3,661.4 L863.2,661.5 L865.1,661.5
		L867.0,661.6 L868.9,661.6 L870.8,661.6 L872.7,661.6 L874.6,661.5 L876.5,661.5 L878.4,661.4 L880.3,661.3
		L882.2,661.3 L884.1,661.2 L886.0,661.1 L887.9,660.9 L889.9,660.8 L891.8,660.7 L893.7,660.6 L895.6,660.4
		L897.5,660.3 L899.4,660.2 L901.3,660.0 L903.2,659.9 L905.1,659.7 L907.0,659.5 L908.9,659.4 L910.8,659.2
		L912.7,659.0 L914.6,658.9 L916.5,658.7 L918.4,658.5 L920.3,658.3 L922.2,658.1 L924.1,657.9 L926.0,657.7
		L927.9,657.5 L929.8,657.2 L931.7,657.0 L933.6,656.8 L935.5,656.6 L937.4,656.4 L939.4,656.2 L941.3,656.1
		L943.2,655.9 L945.1,655.8 L947.0,655.6 L948.9,655.5 L950.8,655.4 L952.7,655.3 L954.6,655.2 L956.5,655.0
		L958.4,654.9 L960.3,654.8 L962.2,654.6 L964.1,654.5 L966.0,654.3 L967.9,654.0 L969.8,653.8 L971.7,653.5
		L973.6,653.2 L975.5,652.8 L977.4,652.5 L979.3,652.1 L981.2,651.8 L983.1,651.4 L985.0,651.1 L986.9,650.8
		L988.9,650.6 L990.8,650.4 L992.7,650.3 L994.6,650.2 L996.5,650.3 L998.4,650.4 L1000.3,650.6 L1002.2,650.9
		L1004.1,651.3 L1006.0,651.7 L1007.9,652.2 L1009.8,652.8 L1011.7,653.4 L1013.6,654.0  '/></g>
	</g>
	<g id="gnuplot_plot_2" ><title>Confidence interval</title>
<g fill="none" color="white" stroke="rgb( 31, 120, 180)" stroke-width="1.00" stroke-linecap="butt" stroke-linejoin="miter">
</g>
<g fill="none" color="black" stroke="currentColor" stroke-width="1.00" stroke-linecap="butt" stroke-linejoin="miter">
	<g transform="translate(1089.0,85.0)" stroke="none" fill="black" font-family="Helvetica" font-size="12.00"  text-anchor="start">
		<text><tspan font-family="Helvetica" >Confidence interval</tspan></text>
	</g>
</g>
<g fill="none" color="black" stroke="currentColor" stroke-width="1.00" stroke-linecap="butt" stroke-linejoin="miter">
	<g stroke='none' shape-rendering='crispEdges'>
		<polygon fill = 'rgb( 31, 120, 180)' fill-opacity = '0.250000' points = '1038.5,85.6 1080.7,85.6 1080.7,76.6 1038.5,76.6 '/>
		<polygon fill = 'rgb( 31, 120, 180)' fill-opacity = '0.250000' points = '151.2,616.5 153.1,613.2 155.0,609.6 156.9,605.5 158.8,601.1 160.7,596.4 162.6,591.3 164.5,585.8 166.4,580.2 168.3,574.3 170.2,568.2 172.1,562.1 174.0,556.1 175.9,550.2 177.8,544.4 179.7,539.0
181.6,534.0 183.5,529.5 185.4,525.5 187.3,522.2 189.3,519.5 191.2,517.5 193.1,516.3 195.0,515.7 196.9,515.7 198.8,516.4 200.7,517.6 202.6,519.3 204.5,521.4 206.4,523.8 208.3,526.3 210.2,529.0
212.1,531.6 214.0,534.2 215.9,536.6 217.8,538.8 219.7,540.8 221.6,542.4 223.5,543.7 225.4,544.6 227.3,545.1 229.2,545.2 231.1,545.0 233.0,544.3 234.9,543.2 236.8,541.7 238.8,539.9 240.7,537.6
242.6,535.0 244.5,532.0 246.4,528.6 248.3,524.8 250.2,520.8 252.1,516.4 254.0,511.8 255.9,507.1 257.8,502.1 259.7,497.2 261.6,492.2 263.5,487.4 265.4,482.8 267.3,478.4 269.2,474.4 271.1,470.8
273.0,467.8 274.9,465.3 276.8,463.4 278.7,462.2 280.6,461.6 282.5,461.8 284.4,462.6 286.3,464.0 288.2,466.1 290.2,468.8 292.1,472.0 294.0,475.6 295.9,479.7 297.8,484.0 299.7,488.6 301.6,493.4
303.5,498.2 305.4,502.9 307.3,507.6 309.2,512.0 311.1,516.2 313.0,520.0 314.9,523.3 316.8,526.2 318.7,528.6 320.6,530.5 322.5,531.8 324.4,532.6 326.3,532.9 328.2,532.8 330.1,532.2 332.0,531.3
333.9,530.1 335.8,528.8 337.7,527.4 339.7,525.9 341.6,524.5 343.5,523.3 345.4,522.2 347.3,521.4 349.2,520.8 351.1,520.4 353.0,520.1 354.9,520.1 356.8,520.1 358.7,520.0 360.6,519.8 362.5,519.4
364.4,518.5 366.3,517.1 368.2,515.0 370.1,512.1 372.0,508.3 373.9,503.5 375.8,497.4 377.7,490.2 379.6,481.7 381.5,471.9 383.4,460.7 385.3,448.3 387.2,434.5 389.2,419.6 391.1,403.5 393.0,386.4
394.9,368.5 396.8,349.7 398.7,330.4 400.6,310.7 402.5,290.9 404.4,271.0 406.3,251.4 408.2,232.2 410.1,213.8 412.0,196.3 413.9,180.0 415.8,165.1 417.7,151.8 419.6,140.4 421.5,130.9 423.4,123.5
425.3,118.3 427.2,115.5 429.1,114.9 431.0,116.7 432.9,120.8 434.8,127.1 436.7,135.4 438.7,145.6 440.6,157.6 442.5,171.1 444.4,185.9 446.3,201.7 448.2,218.3 450.1,235.4 452.0,252.9 453.9,270.5
455.8,288.0 457.7,305.2 459.6,321.9 461.5,338.0 463.4,353.5 465.3,368.2 467.2,382.0 469.1,395.0 471.0,407.1 472.9,418.3 474.8,428.7 476.7,438.2 478.6,447.0 480.5,455.0 482.4,462.3 484.3,469.0
486.2,475.0 488.1,480.6 490.1,485.6 492.0,490.2 493.9,494.4 495.8,498.2 497.7,501.6 499.6,504.8 501.5,507.6 503.4,510.1 505.3,512.4 507.2,514.5 509.1,516.3 511.0,518.0 512.9,519.4 514.8,520.7
516.7,521.7 518.6,522.7 520.5,523.4 522.4,524.1 524.3,524.6 526.2,525.0 528.1,525.3 530.0,525.5 531.9,525.6 533.8,525.7 535.7,525.7 537.6,525.7 539.6,525.7 541.5,525.7 543.4,525.7 545.3,525.7
547.2,525.8 549.1,525.9 551.0,526.1 552.9,526.2 554.8,526.4 556.7,526.6 558.6,526.7 560.5,526.8 562.4,526.7 564.3,526.6 566.2,526.3 568.1,525.8 570.0,525.1 571.9,524.2 573.8,523.0 575.7,521.6
577.6,519.8 579.5,517.7 581.4,515.3 583.3,512.6 585.2,509.6 587.1,506.3 589.1,502.7 591.0,498.9 592.9,494.9 594.8,490.9 596.7,486.7 598.6,482.7 600.5,478.7 602.4,474.9 604.3,471.5 606.2,468.4
608.1,465.9 610.0,463.9 611.9,462.5 613.8,461.9 615.7,462.0 617.6,462.9 619.5,464.5 621.4,466.9 623.3,470.0 625.2,473.8 627.1,478.3 629.0,483.2 630.9,488.6 632.8,494.4 634.7,500.4 636.6,506.6
638.5,512.9 640.5,519.1 642.4,525.2 644.3,531.2 646.2,537.0 648.1,542.5 650.0,547.7 651.9,552.6 653.8,557.2 655.7,561.4 657.6,565.3 659.5,568.9 661.4,572.3 663.3,575.4 665.2,578.2 667.1,580.8
669.0,583.3 670.9,585.6 672.8,587.8 674.7,589.9 676.6,592.0 678.5,593.9 680.4,595.8 682.3,597.6 684.2,599.5 686.1,601.2 688.0,602.9 690.0,604.6 691.9,606.3 693.8,607.9 695.7,609.4 697.6,610.9
699.5,612.3 701.4,613.6 703.3,614.9 705.2,616.1 707.1,617.3 709.0,618.4 710.9,619.4 712.8,620.4 714.7,621.4 716.6,622.3 718.5,623.2 720.4,624.1 722.3,624.9 724.2,625.8 726.1,626.6 728.0,627.4
729.9,628.3 731.8,629.1 733.7,630.0 735.6,630.8 737.5,631.6 739.5,632.4 741.4,633.2 743.3,633.9 745.2,634.7 747.1,635.4 749.0,636.0 750.9,636.7 752.8,637.2 754.7,637.8 756.6,638.3 758.5,638.8
760.4,639.3 762.3,639.8 764.2,640.3 766.1,640.7 768.0,641.2 769.9,641.7 771.8,642.2 773.7,642.8 775.6,643.3 777.5,643.9 779.4,644.4 781.3,645.0 783.2,645.5 785.1,646.0 787.0,646.5 789.0,647.0
790.9,647.4 792.8,647.8 794.7,648.1 796.6,648.4 798.5,648.6 800.4,648.8 802.3,649.0 804.2,649.1 806.1,649.3 808.0,649.5 809.9,649.6 811.8,649.9 813.7,650.1 815.6,650.4 817.5,650.8 819.4,651.2
821.3,651.6 823.2,652.1 825.1,652.7 827.0,653.2 828.9,653.9 830.8,654.5 832.7,655.1 834.6,655.8 836.5,656.4 838.4,657.0 840.4,657.6 842.3,658.2 844.2,658.7 846.1,659.2 848.0,659.6 849.9,660.0
851.8,660.3 853.7,660.6 855.6,660.9 857.5,661.1 859.4,661.2 861.3,661.4 863.2,661.5 865.1,661.5 867.0,661.6 868.9,661.6 870.8,661.6 872.7,661.6 874.6,661.5 876.5,661.5 878.4,661.4 880.3,661.3
882.2,661.3 884.1,661.2 886.0,661.1 887.9,660.9 889.9,660.8 891.8,660.7 893.7,660.6 895.6,660.4 897.5,660.3 899.4,660.2 901.3,660.0 903.2,659.9 905.1,659.7 907.0,659.5 908.9,659.4 910.8,659.2
912.7,659.0 914.6,658.9 916.5,658.7 918.4,658.5 920.3,658.3 922.2,658.1 924.1,657.9 924.1,662.4 922.2,662.4 920.3,662.4 918.4,662.4 916.5,662.4 914.6,662.4 912.7,662.4 910.8,662.4 908.9,662.4
907.0,662.4 905.1,662.4 903.2,662.4 901.3,662.4 899.4,662.4 897.5,662.4 895.6,662.4 893.7,662.4 891.8,662.4 889.9,662.4 887.9,662.4 886.0,662.4 884.1,662.4 882.2,662.4 880.3,662.4 878.4,662.4
876.5,662.4 874.6,662.4 872.7,662.4 870.8,662.4 868.9,662.4 867.0,662.4 865.1,662.4 863.2,662.4 861.3,662.4 859.4,662.4 857.5,662.4 855.6,662.4 853.7,662.4 851.8,662.4 849.9,662.4 848.0,662.4
846.1,662.4 844.2,662.4 842.3,662.4 840.4,662.4 838.4,662.4 836.5,662.4 834.6,662.4 832.7,662.4 830.8,662.4 828.9,662.4 827.0,662.4 825.1,662.4 823.2,662.4 821.3,662.4 819.4,662.4 817.5,662.4
815.6,662.4 813.7,662.4 811.8,662.4 809.9,662.4 808.0,662.4 806.1,662.4 804.2,662.4 802.3,662.4 800.4,662.4 798.5,662.4 796.6,662.4 794.7,662.4 792.8,662.4 790.9,662.4 789.0,662.4 787.0,662.4
785.1,662.4 783.2,662.4 781.3,662.4 779.4,662.4 777.5,662.4 775.6,662.4 773.7,662.4 771.8,662.4 769.9,662.4 768.0,662.4 766.1,662.4 764.2,662.4 762.3,662.4 760.4,662.4 758.5,662.4 756.6,662.4
754.7,662.4 752.8,662.4 750.9,662.4 749.0,662.4 747.1,662.4 745.2,662.4 743.3,662.4 741.4,662.4 739.5,662.4 737.5,662.4 735.6,662.4 733.7,662.4 731.8,662.4 729.9,662.4 728.0,662.4 726.1,662.4
724.2,662.4 722.3,662.4 720.4,662.4 718.5,662.4 716.6,662.4 714.7,662.4 712.8,662.4 710.9,662.4 709.0,662.4 707.1,662.4 705.2,662.4 703.3,662.4 701.4,662.4 699.5,662.4 697.6,662.4 695.7,662.4
693.8,662.4 691.9,662.4 690.0,662.4 688.0,662.4 686.1,662.4 684.2,662.4 682.3,662.4 680.4,662.4 678.5,662.4 676.6,662.4 674.7,662.4 672.8,662.4 670.9,662.4 669.0,662.4 667.1,662.4 665.2,662.4
663.3,662.4 661.4,662.4 659.5,662.4 657.6,662.4 655.7,662.4 653.8,662.4 651.9,662.4 650.0,662.4 648.1,662.4 646.2,662.4 644.3,662.4 642.4,662.4 640.5,662.4 638.5,662.4 636.6,662.4 634.7,662.4
632.8,662.4 630.9,662.4 629.0,662.4 627.1,662.4 625.2,662.4 623.3,662.4 621.4,662.4 619.5,662.4 617.6,662.4 615.7,662.4 613.8,662.4 611.9,662.4 610.0,662.4 608.1,662.4 606.2,662.4 604.3,662.4
602.4,662.4 600.5,662.4 598.6,662.4 596.7,662.4 594.8,662.4 592.9,662.4 591.0,662.4 589.1,662.4 587.1,662.4 585.2,662.4 583.3,662.4 581.4,662.4 579.5,662.4 577.6,662.4 575.7,662.4 573.8,662.4
571.9,662.4 570.0,662.4 568.1,662.4 566.2,662.4 564.3,662.4 562.4,662.4 560.5,662.4 558.6,662.4 556.7,662.4 554.8,662.4 552.9,662.4 551.0,662.4 549.1,662.4 547.2,662.4 545.3,662.4 543.4,662.4
541.5,662.4 539.6,662.4 537.6,662.4 535.7,662.4 533.8,662.4 531.9,662.4 530.0,662.4 528.1,662.4 526.2,662.4 524.3,662.4 522.4,662.4 520.5,662.4 518.6,662.4 516.7,662.4 514.8,662.4 512.9,662.4
511.0,662.4 509.1,662.4 507.2,662.4 505.3,662.4 503.4,662.4 501.5,662.4 499.6,662.4 497.7,662.4 495.8,662.4 493.9,662.4 492.0,662.4 490.1,662.4 488.1,662.4 486.2,662.4 484.3,662.4 482.4,662.4
480.5,662.4 478.6,662.4 476.7,662.4 474.8,662.4 472.9,662.4 471.0,662.4 469.1,662.4 467.2,662.4 465.3,662.4 463.4,662.4 461.5,662.4 459.6,662.4 457.7,662.4 455.8,662.4 453.9,662.4 452.0,662.4
450.1,662.4 448.2,662.4 446.3,662.4 444.4,662.4 442.5,662.4 440.6,662.4 438.7,662.4 436.7,662.4 434.8,662.4 432.9,662.4 431.0,662.4 429.1,662.4 427.2,662.4 425.3,662.4 423.4,662.4 421.5,662.4
419.6,662.4 417.7,662.4 415.8,662.4 413.9,662.4 412.0,662.4 410.1,662.4 408.2,662.4 406.3,662.4 404.4,662.4 402.5,662.4 400.6,662.4 398.7,662.4 396.8,662.4 394.9,662.4 393.0,662.4 391.1,662.4
389.2,662.4 387.2,662.4 385.3,662.4 383.4,662.4 381.5,662.4 379.6,662.4 377.7,662.4 375.8,662.4 373.9,662.4 372.0,662.4 370.1,662.4 368.2,662.4 366.3,662.4 364.4,662.4 362.5,662.4 360.6,662.4
358.7,662.4 356.8,662.4 354.9,662.4 353.0,662.4 351.1,662.4 349.2,662.4 347.3,662.4 345.4,662.4 343.5,662.4 341.6,662.4 339.7,662.4 337.7,662.4 335.8,662.4 333.9,662.4 332.0,662.4 330.1,662.4
328.2,662.4 326.3,662.4 324.4,662.4 322.5,662.4 320.6,662.4 318.7,662.4 316.8,662.4 314.9,662.4 313.0,662.4 311.1,662.4 309.2,662.4 307.3,662.4 305.4,662.4 303.5,662.4 301.6,662.4 299.7,662.4
297.8,662.4 295.9,662.4 294.0,662.4 292.1,662.4 290.2,662.4 288.2,662.4 286.3,662.4 284.4,662.4 282.5,662.4 280.6,662.4 278.7,662.4 276.8,662.4 274.9,662.4 273.0,662.4 271.1,662.4 269.2,662.4
267.3,662.4 265.4,662.4 263.5,662.4 261.6,662.4 259.7,662.4 257.8,662.4 255.9,662.4 254.0,662.4 252.1,662.4 250.2,662.4 248.3,662.4 246.4,662.4 244.5,662.4 242.6,662.4 240.7,662.4 238.8,662.4
236.8,662.4 234.9,662.4 233.0,662.4 231.1,662.4 229.2,662.4 227.3,662.4 225.4,662.4 223.5,662.4 221.6,662.4 219.7,662.4 217.8,662.4 215.9,662.4 214.0,662.4 212.1,662.4 210.2,662.4 208.3,662.4
206.4,662.4 204.5,662.4 202.6,662.4 200.7,662.4 198.8,662.4 196.9,662.4 195.0,662.4 193.1,662.4 191.2,662.4 189.3,662.4 187.3,662.4 185.4,662.4 183.5,662.4 181.6,662.4 179.7,662.4 177.8,662.4
175.9,662.4 174.0,662.4 172.1,662.4 170.2,662.4 168.3,662.4 166.4,662.4 164.5,662.4 162.6,662.4 160.7,662.4 158.8,662.4 156.9,662.4 155.0,662.4 153.1,662.4 151.2,662.4 '/>
	</g>
</g>
	</g>
	<g id="gnuplot_plot_3" ><title>Point estimate</title>
<g fill="none" color="white" stroke="rgb( 31, 120, 180)" stroke-width="2.00" stroke-linecap="butt" stroke-linejoin="miter">
</g>
<g fill="none" color="black" stroke="currentColor" stroke-width="2.00" stroke-linecap="butt" stroke-linejoin="miter">
	<g transform="translate(1089.0,103.0)" stroke="none" fill="black" font-family="Helvetica" font-size="12.00"  text-anchor="start">
		<text><tspan font-family="Helvetica" >Point estimate</tspan></text>
	</g>
</g>
<g fill="none" color="black" stroke="currentColor" stroke-width="2.00" stroke-linecap="butt" stroke-linejoin="miter">
	<path stroke='rgb( 31, 120, 180)'  d='M1038.5,99.1 L1080.7,99.1 M430.4,662.4 L430.4,116.2  '/></g>
	</g>
<g fill="none" color="black" stroke="currentColor" stroke-width="2.00" stroke-linecap="butt" stroke-linejoin="miter">
</g>
<g fill="none" color="black" stroke="black" stroke-width="1.00" stroke-linecap="butt" stroke-linejoin="miter">
</g>
<g fill="none" color="black" stroke="currentColor" stroke-width="1.00" stroke-linecap="butt" stroke-linejoin="miter">
	<path stroke='black'  d='M63.6,54.1 L63.6,662.4 L1013.6,662.4 L1013.6,54.1 L63.6,54.1 Z  '/></g>
<g fill="none" color="black" stroke="currentColor" stroke-width="1.00" stroke-linecap="butt" stroke-linejoin="miter">
</g>
</g>
</svg>

