<?xml version="1.0" encoding="utf-8"  standalone="no"?>
<svg 
 viewBox="0 0 1280 350"
 xmlns="http://www.w3.org/2000/svg"
 xmlns:xlink="http://www.w3.org/1999/xlink"
>

<title>Gnuplot</title>
<desc>Produced by GNUPLOT 5.2 patchlevel 8 </desc>

<g id="gnuplot_canvas">

<rect x="0" y="0" width="1280" height="350" fill="none"/>
<defs>

	<circle id='gpDot' r='0.5' stroke-width='0.5' stroke='currentColor'/>
	<path id='gpPt0' stroke-width='0.222' stroke='currentColor' d='M-1,0 h2 M0,-1 v2'/>
	<path id='gpPt1' stroke-width='0.222' stroke='currentColor' d='M-1,-1 L1,1 M1,-1 L-1,1'/>
	<path id='gpPt2' stroke-width='0.222' stroke='currentColor' d='M-1,0 L1,0 M0,-1 L0,1 M-1,-1 L1,1 M-1,1 L1,-1'/>
	<rect id='gpPt3' stroke-width='0.222' stroke='currentColor' x='-1' y='-1' width='2' height='2'/>
	<rect id='gpPt4' stroke-width='0.222' stroke='currentColor' fill='currentColor' x='-1' y='-1' width='2' height='2'/>
	<circle id='gpPt5' stroke-width='0.222' stroke='currentColor' cx='0' cy='0' r='1'/>
	<use xlink:href='#gpPt5' id='gpPt6' fill='currentColor' stroke='none'/>
	<path id='gpPt7' stroke-width='0.222' stroke='currentColor' d='M0,-1.33 L-1.33,0.67 L1.33,0.67 z'/>
	<use xlink:href='#gpPt7' id='gpPt8' fill='currentColor' stroke='none'/>
	<use xlink:href='#gpPt7' id='gpPt9' stroke='currentColor' transform='rotate(180)'/>
	<use xlink:href='#gpPt9' id='gpPt10' fill='currentColor' stroke='none'/>
	<use xlink:href='#gpPt3' id='gpPt11' stroke='currentColor' transform='rotate(45)'/>
	<use xlink:href='#gpPt11' id='gpPt12' fill='currentColor' stroke='none'/>
	<path id='gpPt13' stroke-width='0.222' stroke='currentColor' d='M0,1.330 L1.265,0.411 L0.782,-1.067 L-0.782,-1.076 L-1.265,0.411 z'/>
	<use xlink:href='#gpPt13' id='gpPt14' fill='currentColor' stroke='none'/>
	<filter id='textbox' filterUnits='objectBoundingBox' x='0' y='0' height='1' width='1'>
	  <feFlood flood-color='white' flood-opacity='1' result='bgnd'/>
	  <feComposite in='SourceGraphic' in2='bgnd' operator='atop'/>
	</filter>
	<filter id='greybox' filterUnits='objectBoundingBox' x='0' y='0' height='1' width='1'>
	  <feFlood flood-color='lightgrey' flood-opacity='1' result='grey'/>
	  <feComposite in='SourceGraphic' in2='grey' operator='atop'/>
	</filter>
</defs>
<g fill="none" color="white" stroke="currentColor" stroke-width="1.00" stroke-linecap="butt" stroke-linejoin="miter">
</g>
<g fill="none" color="black" stroke="currentColor" stroke-width="1.00" stroke-linecap="butt" stroke-linejoin="miter">
	<path stroke='black'  d='M437.1,272.5 L446.1,272.5  '/>	<g transform="translate(428.8,276.4)" stroke="none" fill="black" font-family="Helvetica" font-size="12.00"  text-anchor="end">
		<text><tspan font-family="Helvetica" >String trim/Hardcoded trim/unix</tspan></text>
	</g>
</g>
<g fill="none" color="black" stroke="currentColor" stroke-width="1.00" stroke-linecap="butt" stroke-linejoin="miter">
	<path stroke='black'  d='M437.1,232.8 L446.1,232.8  '/>	<g transform="translate(428.8,236.7)" stroke="none" fill="black" font-family="Helvetica" font-size="12.00"  text-anchor="end">
		<text><tspan font-family="Helvetica" >String trim/std::io::Lines algo/unix</tspan></text>
	</g>
</g>
<g fill="none" color="black" stroke="currentColor" stroke-width="1.00" stroke-linecap="butt" stroke-linejoin="miter">
	<path stroke='black'  d='M437.1,193.1 L446.1,193.1  '/>	<g transform="translate(428.8,197.0)" stroke="none" fill="black" font-family="Helvetica" font-size="12.00"  text-anchor="end">
		<text><tspan font-family="Helvetica" >String trim/Standard strip suffix/unix</tspan></text>
	</g>
</g>
<g fill="none" color="black" stroke="currentColor" stroke-width="1.00" stroke-linecap="butt" stroke-linejoin="miter">
	<path stroke='black'  d='M437.1,153.4 L446.1,153.4  '/>	<g transform="translate(428.8,157.3)" stroke="none" fill="black" font-family="Helvetica" font-size="12.00"  text-anchor="end">
		<text><tspan font-family="Helvetica" >String trim/Standard strip suffix incorrect/unix</tspan></text>
	</g>
</g>
<g fill="none" color="black" stroke="currentColor" stroke-width="1.00" stroke-linecap="butt" stroke-linejoin="miter">
	<path stroke='black'  d='M437.1,113.7 L446.1,113.7  '/>	<g transform="translate(428.8,117.6)" stroke="none" fill="black" font-family="Helvetica" font-size="12.00"  text-anchor="end">
		<text><tspan font-family="Helvetica" >String trim/Standard trim end/unix</tspan></text>
	</g>
</g>
<g fill="none" color="black" stroke="currentColor" stroke-width="1.00" stroke-linecap="butt" stroke-linejoin="miter">
	<path stroke='black'  d='M437.1,74.0 L446.1,74.0  '/>	<g transform="translate(428.8,77.9)" stroke="none" fill="black" font-family="Helvetica" font-size="12.00"  text-anchor="end">
		<text><tspan font-family="Helvetica" >String trim/Standard trim/unix</tspan></text>
	</g>
</g>
<g fill="none" color="black" stroke="currentColor" stroke-width="1.00" stroke-linecap="butt" stroke-linejoin="miter">
</g>
<g fill="none" color="black" stroke="black" stroke-width="0.50" stroke-linecap="butt" stroke-linejoin="miter">
</g>
<g fill="none" color="gray" stroke="currentColor" stroke-width="0.50" stroke-linecap="butt" stroke-linejoin="miter">
	<path stroke='gray' stroke-dasharray='2,4' class="gridline"  d='M437.1,292.4 L437.1,54.1  '/></g>
<g fill="none" color="gray" stroke="gray" stroke-width="1.00" stroke-linecap="butt" stroke-linejoin="miter">
</g>
<g fill="none" color="black" stroke="currentColor" stroke-width="1.00" stroke-linecap="butt" stroke-linejoin="miter">
	<path stroke='black'  d='M437.1,292.4 L437.1,283.4  '/>	<g transform="translate(437.1,314.3)" stroke="none" fill="black" font-family="Helvetica" font-size="12.00"  text-anchor="middle">
		<text><tspan font-family="Helvetica" > 0</tspan></text>
	</g>
</g>
<g fill="none" color="black" stroke="currentColor" stroke-width="1.00" stroke-linecap="butt" stroke-linejoin="miter">
</g>
<g fill="none" color="black" stroke="black" stroke-width="0.50" stroke-linecap="butt" stroke-linejoin="miter">
</g>
<g fill="none" color="gray" stroke="currentColor" stroke-width="0.50" stroke-linecap="butt" stroke-linejoin="miter">
	<path stroke='gray' stroke-dasharray='2,4' class="gridline"  d='M553.9,292.4 L553.9,54.1  '/></g>
<g fill="none" color="gray" stroke="gray" stroke-width="1.00" stroke-linecap="butt" stroke-linejoin="miter">
</g>
<g fill="none" color="black" stroke="currentColor" stroke-width="1.00" stroke-linecap="butt" stroke-linejoin="miter">
	<path stroke='black'  d='M553.9,292.4 L553.9,283.4  '/>	<g transform="translate(553.9,314.3)" stroke="none" fill="black" font-family="Helvetica" font-size="12.00"  text-anchor="middle">
		<text><tspan font-family="Helvetica" > 1</tspan></text>
	</g>
</g>
<g fill="none" color="black" stroke="currentColor" stroke-width="1.00" stroke-linecap="butt" stroke-linejoin="miter">
</g>
<g fill="none" color="black" stroke="black" stroke-width="0.50" stroke-linecap="butt" stroke-linejoin="miter">
</g>
<g fill="none" color="gray" stroke="currentColor" stroke-width="0.50" stroke-linecap="butt" stroke-linejoin="miter">
	<path stroke='gray' stroke-dasharray='2,4' class="gridline"  d='M670.8,292.4 L670.8,54.1  '/></g>
<g fill="none" color="gray" stroke="gray" stroke-width="1.00" stroke-linecap="butt" stroke-linejoin="miter">
</g>
<g fill="none" color="black" stroke="currentColor" stroke-width="1.00" stroke-linecap="butt" stroke-linejoin="miter">
	<path stroke='black'  d='M670.8,292.4 L670.8,283.4  '/>	<g transform="translate(670.8,314.3)" stroke="none" fill="black" font-family="Helvetica" font-size="12.00"  text-anchor="middle">
		<text><tspan font-family="Helvetica" > 2</tspan></text>
	</g>
</g>
<g fill="none" color="black" stroke="currentColor" stroke-width="1.00" stroke-linecap="butt" stroke-linejoin="miter">
</g>
<g fill="none" color="black" stroke="black" stroke-width="0.50" stroke-linecap="butt" stroke-linejoin="miter">
</g>
<g fill="none" color="gray" stroke="currentColor" stroke-width="0.50" stroke-linecap="butt" stroke-linejoin="miter">
	<path stroke='gray' stroke-dasharray='2,4' class="gridline"  d='M787.6,292.4 L787.6,54.1  '/></g>
<g fill="none" color="gray" stroke="gray" stroke-width="1.00" stroke-linecap="butt" stroke-linejoin="miter">
</g>
<g fill="none" color="black" stroke="currentColor" stroke-width="1.00" stroke-linecap="butt" stroke-linejoin="miter">
	<path stroke='black'  d='M787.6,292.4 L787.6,283.4  '/>	<g transform="translate(787.6,314.3)" stroke="none" fill="black" font-family="Helvetica" font-size="12.00"  text-anchor="middle">
		<text><tspan font-family="Helvetica" > 3</tspan></text>
	</g>
</g>
<g fill="none" color="black" stroke="currentColor" stroke-width="1.00" stroke-linecap="butt" stroke-linejoin="miter">
</g>
<g fill="none" color="black" stroke="black" stroke-width="0.50" stroke-linecap="butt" stroke-linejoin="miter">
</g>
<g fill="none" color="gray" stroke="currentColor" stroke-width="0.50" stroke-linecap="butt" stroke-linejoin="miter">
	<path stroke='gray' stroke-dasharray='2,4' class="gridline"  d='M904.5,292.4 L904.5,54.1  '/></g>
<g fill="none" color="gray" stroke="gray" stroke-width="1.00" stroke-linecap="butt" stroke-linejoin="miter">
</g>
<g fill="none" color="black" stroke="currentColor" stroke-width="1.00" stroke-linecap="butt" stroke-linejoin="miter">
	<path stroke='black'  d='M904.5,292.4 L904.5,283.4  '/>	<g transform="translate(904.5,314.3)" stroke="none" fill="black" font-family="Helvetica" font-size="12.00"  text-anchor="middle">
		<text><tspan font-family="Helvetica" > 4</tspan></text>
	</g>
</g>
<g fill="none" color="black" stroke="currentColor" stroke-width="1.00" stroke-linecap="butt" stroke-linejoin="miter">
</g>
<g fill="none" color="black" stroke="black" stroke-width="0.50" stroke-linecap="butt" stroke-linejoin="miter">
</g>
<g fill="none" color="gray" stroke="currentColor" stroke-width="0.50" stroke-linecap="butt" stroke-linejoin="miter">
	<path stroke='gray' stroke-dasharray='2,4' class="gridline"  d='M1021.3,292.4 L1021.3,54.1  '/></g>
<g fill="none" color="gray" stroke="gray" stroke-width="1.00" stroke-linecap="butt" stroke-linejoin="miter">
</g>
<g fill="none" color="black" stroke="currentColor" stroke-width="1.00" stroke-linecap="butt" stroke-linejoin="miter">
	<path stroke='black'  d='M1021.3,292.4 L1021.3,283.4  '/>	<g transform="translate(1021.3,314.3)" stroke="none" fill="black" font-family="Helvetica" font-size="12.00"  text-anchor="middle">
		<text><tspan font-family="Helvetica" > 5</tspan></text>
	</g>
</g>
<g fill="none" color="black" stroke="currentColor" stroke-width="1.00" stroke-linecap="butt" stroke-linejoin="miter">
</g>
<g fill="none" color="black" stroke="black" stroke-width="0.50" stroke-linecap="butt" stroke-linejoin="miter">
</g>
<g fill="none" color="gray" stroke="currentColor" stroke-width="0.50" stroke-linecap="butt" stroke-linejoin="miter">
	<path stroke='gray' stroke-dasharray='2,4' class="gridline"  d='M1138.2,292.4 L1138.2,54.1  '/></g>
<g fill="none" color="gray" stroke="gray" stroke-width="1.00" stroke-linecap="butt" stroke-linejoin="miter">
</g>
<g fill="none" color="black" stroke="currentColor" stroke-width="1.00" stroke-linecap="butt" stroke-linejoin="miter">
	<path stroke='black'  d='M1138.2,292.4 L1138.2,283.4  '/>	<g transform="translate(1138.2,314.3)" stroke="none" fill="black" font-family="Helvetica" font-size="12.00"  text-anchor="middle">
		<text><tspan font-family="Helvetica" > 6</tspan></text>
	</g>
</g>
<g fill="none" color="black" stroke="currentColor" stroke-width="1.00" stroke-linecap="butt" stroke-linejoin="miter">
</g>
<g fill="none" color="black" stroke="black" stroke-width="0.50" stroke-linecap="butt" stroke-linejoin="miter">
</g>
<g fill="none" color="gray" stroke="currentColor" stroke-width="0.50" stroke-linecap="butt" stroke-linejoin="miter">
	<path stroke='gray' stroke-dasharray='2,4' class="gridline"  d='M1255.0,292.4 L1255.0,54.1  '/></g>
<g fill="none" color="gray" stroke="gray" stroke-width="1.00" stroke-linecap="butt" stroke-linejoin="miter">
</g>
<g fill="none" color="black" stroke="currentColor" stroke-width="1.00" stroke-linecap="butt" stroke-linejoin="miter">
	<path stroke='black'  d='M1255.0,292.4 L1255.0,283.4  '/>	<g transform="translate(1255.0,314.3)" stroke="none" fill="black" font-family="Helvetica" font-size="12.00"  text-anchor="middle">
		<text><tspan font-family="Helvetica" > 7</tspan></text>
	</g>
</g>
<g fill="none" color="black" stroke="currentColor" stroke-width="1.00" stroke-linecap="butt" stroke-linejoin="miter">
</g>
<g fill="none" color="black" stroke="currentColor" stroke-width="1.00" stroke-linecap="butt" stroke-linejoin="miter">
	<path stroke='black'  d='M437.1,54.1 L437.1,292.4 L1255.0,292.4 L1255.0,54.1 L437.1,54.1 Z  '/></g>
<g fill="none" color="black" stroke="currentColor" stroke-width="1.00" stroke-linecap="butt" stroke-linejoin="miter">
	<g transform="translate(19.0,173.3) rotate(270)" stroke="none" fill="black" font-family="Helvetica" font-size="12.00"  text-anchor="middle">
		<text><tspan font-family="Helvetica" >Input</tspan></text>
	</g>
</g>
<g fill="none" color="black" stroke="currentColor" stroke-width="1.00" stroke-linecap="butt" stroke-linejoin="miter">
	<g transform="translate(846.0,341.3)" stroke="none" fill="black" font-family="Helvetica" font-size="12.00"  text-anchor="middle">
		<text><tspan font-family="Helvetica" >Average time (ns)</tspan></text>
	</g>
</g>
<g fill="none" color="black" stroke="currentColor" stroke-width="1.00" stroke-linecap="butt" stroke-linejoin="miter">
	<g transform="translate(846.0,31.0)" stroke="none" fill="black" font-family="Helvetica" font-size="12.00"  text-anchor="middle">
		<text><tspan font-family="Helvetica" >String trim/unix: Violin plot</tspan></text>
	</g>
</g>
<g fill="none" color="black" stroke="currentColor" stroke-width="1.00" stroke-linecap="butt" stroke-linejoin="miter">
</g>
	<g id="gnuplot_plot_1" ><title>PDF</title>
<g fill="none" color="black" stroke="currentColor" stroke-width="1.00" stroke-linecap="butt" stroke-linejoin="miter">
	<g transform="translate(1187.9,76.0)" stroke="none" fill="black" font-family="Helvetica" font-size="12.00"  text-anchor="end">
		<text><tspan font-family="Helvetica" >PDF</tspan></text>
	</g>
</g>
<g fill="none" color="black" stroke="currentColor" stroke-width="1.00" stroke-linecap="butt" stroke-linejoin="miter">
	<g stroke='none' shape-rendering='crispEdges'>
		<polygon fill = 'rgb( 31, 120, 180)' fill-opacity = '0.250000' points = '1196.2,76.6 1238.4,76.6 1238.4,67.6 1196.2,67.6 '/>
		<polygon fill = 'rgb( 31, 120, 180)' fill-opacity = '0.250000' points = '543.2,272.5 543.2,272.5 543.3,272.5 543.4,272.4 543.5,272.4 543.6,272.4 543.7,272.4 543.8,272.4 543.9,272.4 544.0,272.3 544.1,272.3 544.2,272.3 544.3,272.3 544.4,272.2 544.5,272.2 544.6,272.2
544.7,272.1 544.8,272.1 544.9,272.0 545.0,271.9 545.1,271.9 545.2,271.8 545.3,271.7 545.4,271.7 545.5,271.6 545.6,271.5 545.7,271.4 545.8,271.2 545.9,271.1 545.9,271.0 546.0,270.9 546.1,270.7
546.2,270.5 546.3,270.4 546.4,270.2 546.5,270.0 546.6,269.8 546.7,269.6 546.8,269.4 546.9,269.1 547.0,268.9 547.1,268.6 547.2,268.3 547.3,268.0 547.4,267.8 547.5,267.4 547.6,267.1 547.7,266.8
547.8,266.4 547.9,266.1 548.0,265.7 548.1,265.3 548.2,265.0 548.3,264.6 548.4,264.2 548.5,263.8 548.6,263.4 548.6,263.0 548.7,262.5 548.8,262.1 548.9,261.7 549.0,261.3 549.1,260.9 549.2,260.4
549.3,260.0 549.4,259.6 549.5,259.2 549.6,258.8 549.7,258.5 549.8,258.1 549.9,257.7 550.0,257.4 550.1,257.1 550.2,256.8 550.3,256.5 550.4,256.2 550.5,255.9 550.6,255.7 550.7,255.5 550.8,255.3
550.9,255.1 551.0,255.0 551.1,254.9 551.2,254.8 551.3,254.7 551.3,254.7 551.4,254.7 551.5,254.7 551.6,254.7 551.7,254.8 551.8,254.8 551.9,255.0 552.0,255.1 552.1,255.2 552.2,255.4 552.3,255.6
552.4,255.8 552.5,256.0 552.6,256.3 552.7,256.6 552.8,256.8 552.9,257.1 553.0,257.5 553.1,257.8 553.2,258.1 553.3,258.5 553.4,258.8 553.5,259.2 553.6,259.5 553.7,259.9 553.8,260.3 553.9,260.6
554.0,261.0 554.1,261.4 554.1,261.7 554.2,262.1 554.3,262.5 554.4,262.8 554.5,263.2 554.6,263.5 554.7,263.9 554.8,264.2 554.9,264.5 555.0,264.8 555.1,265.1 555.2,265.4 555.3,265.7 555.4,266.0
555.5,266.3 555.6,266.5 555.7,266.8 555.8,267.0 555.9,267.2 556.0,267.4 556.1,267.7 556.2,267.8 556.3,268.0 556.4,268.2 556.5,268.4 556.6,268.5 556.7,268.7 556.8,268.8 556.8,269.0 556.9,269.1
557.0,269.2 557.1,269.3 557.2,269.4 557.3,269.5 557.4,269.6 557.5,269.7 557.6,269.8 557.7,269.8 557.8,269.9 557.9,270.0 558.0,270.0 558.1,270.1 558.2,270.1 558.3,270.2 558.4,270.2 558.5,270.3
558.6,270.3 558.7,270.4 558.8,270.4 558.9,270.4 559.0,270.5 559.1,270.5 559.2,270.6 559.3,270.6 559.4,270.6 559.5,270.7 559.5,270.7 559.6,270.7 559.7,270.8 559.8,270.8 559.9,270.8 560.0,270.9
560.1,270.9 560.2,270.9 560.3,271.0 560.4,271.0 560.5,271.0 560.6,271.1 560.7,271.1 560.8,271.1 560.9,271.2 561.0,271.2 561.1,271.2 561.2,271.3 561.3,271.3 561.4,271.4 561.5,271.4 561.6,271.4
561.7,271.5 561.8,271.5 561.9,271.5 562.0,271.6 562.1,271.6 562.2,271.6 562.3,271.7 562.3,271.7 562.4,271.7 562.5,271.8 562.6,271.8 562.7,271.8 562.8,271.8 562.9,271.9 563.0,271.9 563.1,271.9
563.2,272.0 563.3,272.0 563.4,272.0 563.5,272.0 563.6,272.0 563.7,272.1 563.8,272.1 563.9,272.1 564.0,272.1 564.1,272.1 564.2,272.2 564.3,272.2 564.4,272.2 564.5,272.2 564.6,272.2 564.7,272.2
564.8,272.2 564.9,272.2 565.0,272.2 565.0,272.3 565.1,272.3 565.2,272.3 565.3,272.3 565.4,272.3 565.5,272.3 565.6,272.3 565.7,272.3 565.8,272.3 565.9,272.3 566.0,272.3 566.1,272.3 566.2,272.3
566.3,272.3 566.4,272.3 566.5,272.3 566.6,272.2 566.7,272.2 566.8,272.2 566.9,272.2 567.0,272.2 567.1,272.2 567.2,272.2 567.3,272.2 567.4,272.2 567.5,272.2 567.6,272.2 567.7,272.2 567.7,272.2
567.8,272.1 567.9,272.1 568.0,272.1 568.1,272.1 568.2,272.1 568.3,272.1 568.4,272.1 568.5,272.1 568.6,272.1 568.7,272.1 568.8,272.1 568.9,272.1 569.0,272.1 569.1,272.1 569.2,272.1 569.3,272.1
569.4,272.1 569.5,272.1 569.6,272.1 569.7,272.1 569.8,272.1 569.9,272.1 570.0,272.1 570.1,272.1 570.2,272.1 570.3,272.1 570.4,272.1 570.5,272.2 570.5,272.2 570.6,272.2 570.7,272.2 570.8,272.2
570.9,272.2 571.0,272.2 571.1,272.2 571.2,272.2 571.3,272.2 571.4,272.3 571.5,272.3 571.6,272.3 571.7,272.3 571.8,272.3 571.9,272.3 572.0,272.3 572.1,272.3 572.2,272.3 572.3,272.4 572.4,272.4
572.5,272.4 572.6,272.4 572.7,272.4 572.8,272.4 572.9,272.4 573.0,272.4 573.1,272.4 573.2,272.4 573.2,272.4 573.3,272.4 573.4,272.5 573.5,272.5 573.6,272.5 573.7,272.5 573.8,272.5 573.9,272.5
574.0,272.5 574.1,272.5 574.2,272.5 574.3,272.5 574.4,272.5 574.5,272.5 574.6,272.5 574.7,272.5 574.8,272.5 574.9,272.5 575.0,272.5 575.1,272.5 575.2,272.5 575.3,272.5 575.4,272.5 575.5,272.5
575.6,272.5 575.7,272.5 575.8,272.5 575.9,272.5 575.9,272.5 576.0,272.5 576.1,272.5 576.2,272.5 576.3,272.5 576.4,272.5 576.5,272.5 576.6,272.5 576.7,272.5 576.8,272.5 576.9,272.5 577.0,272.5
577.1,272.5 577.2,272.5 577.3,272.5 577.4,272.5 577.5,272.5 577.6,272.5 577.7,272.5 577.8,272.5 577.9,272.5 578.0,272.5 578.1,272.5 578.2,272.5 578.3,272.5 578.4,272.5 578.5,272.5 578.6,272.5
578.6,272.5 578.7,272.5 578.8,272.5 578.9,272.4 579.0,272.4 579.1,272.4 579.2,272.4 579.3,272.4 579.4,272.4 579.5,272.4 579.6,272.4 579.7,272.4 579.8,272.4 579.9,272.4 580.0,272.4 580.1,272.4
580.2,272.3 580.3,272.3 580.4,272.3 580.5,272.3 580.6,272.3 580.7,272.3 580.8,272.3 580.9,272.3 581.0,272.3 581.1,272.3 581.2,272.3 581.3,272.2 581.4,272.2 581.4,272.2 581.5,272.2 581.6,272.2
581.7,272.2 581.8,272.2 581.9,272.2 582.0,272.2 582.1,272.2 582.2,272.2 582.3,272.2 582.4,272.2 582.5,272.1 582.6,272.1 582.7,272.1 582.8,272.1 582.9,272.1 583.0,272.1 583.1,272.1 583.2,272.1
583.3,272.1 583.4,272.1 583.5,272.1 583.6,272.1 583.7,272.1 583.8,272.1 583.9,272.1 584.0,272.1 584.1,272.1 584.1,272.2 584.2,272.2 584.3,272.2 584.4,272.2 584.5,272.2 584.6,272.2 584.7,272.2
584.8,272.2 584.9,272.2 585.0,272.2 585.1,272.2 585.2,272.2 585.3,272.2 585.4,272.2 585.5,272.3 585.6,272.3 585.7,272.3 585.8,272.3 585.9,272.3 586.0,272.3 586.1,272.3 586.2,272.3 586.3,272.3
586.4,272.3 586.5,272.3 586.6,272.4 586.7,272.4 586.8,272.4 586.8,272.4 586.9,272.4 587.0,272.4 587.1,272.4 587.2,272.4 587.3,272.4 587.4,272.4 587.5,272.4 587.6,272.4 587.7,272.4 587.8,272.5
587.9,272.5 588.0,272.5 588.1,272.5 588.2,272.5 588.3,272.5 588.4,272.5 588.5,272.5 588.6,272.5 588.7,272.5 588.8,272.5 588.9,272.5 589.0,272.5 589.1,272.5 589.2,272.5 589.3,272.5 589.4,272.5
589.5,272.5 589.6,272.5 589.6,272.5 589.7,272.5 589.8,272.5 589.9,272.5 590.0,272.5 590.1,272.5 590.2,272.5 590.3,272.5 590.4,272.5 590.5,272.5 590.6,272.5 590.7,272.5 590.8,272.5 590.9,272.5
591.0,272.5 591.1,272.5 591.2,272.5 591.3,272.5 591.3,272.5 591.2,272.5 591.1,272.5 591.0,272.5 590.9,272.5 590.8,272.5 590.7,272.5 590.6,272.5 590.5,272.5 590.4,272.5 590.3,272.6 590.2,272.6
590.1,272.6 590.0,272.6 589.9,272.6 589.8,272.6 589.7,272.6 589.6,272.6 589.6,272.6 589.5,272.6 589.4,272.6 589.3,272.6 589.2,272.6 589.1,272.6 589.0,272.6 588.9,272.6 588.8,272.6 588.7,272.6
588.6,272.6 588.5,272.6 588.4,272.6 588.3,272.6 588.2,272.6 588.1,272.6 588.0,272.6 587.9,272.6 587.8,272.6 587.7,272.6 587.6,272.6 587.5,272.6 587.4,272.7 587.3,272.7 587.2,272.7 587.1,272.7
587.0,272.7 586.9,272.7 586.8,272.7 586.8,272.7 586.7,272.7 586.6,272.7 586.5,272.7 586.4,272.7 586.3,272.8 586.2,272.8 586.1,272.8 586.0,272.8 585.9,272.8 585.8,272.8 585.7,272.8 585.6,272.8
585.5,272.8 585.4,272.8 585.3,272.8 585.2,272.9 585.1,272.9 585.0,272.9 584.9,272.9 584.8,272.9 584.7,272.9 584.6,272.9 584.5,272.9 584.4,272.9 584.3,272.9 584.2,272.9 584.1,272.9 584.1,272.9
584.0,272.9 583.9,272.9 583.8,272.9 583.7,273.0 583.6,273.0 583.5,273.0 583.4,273.0 583.3,273.0 583.2,273.0 583.1,273.0 583.0,273.0 582.9,272.9 582.8,272.9 582.7,272.9 582.6,272.9 582.5,272.9
582.4,272.9 582.3,272.9 582.2,272.9 582.1,272.9 582.0,272.9 581.9,272.9 581.8,272.9 581.7,272.9 581.6,272.9 581.5,272.9 581.4,272.9 581.4,272.9 581.3,272.8 581.2,272.8 581.1,272.8 581.0,272.8
580.9,272.8 580.8,272.8 580.7,272.8 580.6,272.8 580.5,272.8 580.4,272.8 580.3,272.7 580.2,272.7 580.1,272.7 580.0,272.7 579.9,272.7 579.8,272.7 579.7,272.7 579.6,272.7 579.5,272.7 579.4,272.7
579.3,272.7 579.2,272.7 579.1,272.7 579.0,272.6 578.9,272.6 578.8,272.6 578.7,272.6 578.6,272.6 578.6,272.6 578.5,272.6 578.4,272.6 578.3,272.6 578.2,272.6 578.1,272.6 578.0,272.6 577.9,272.6
577.8,272.6 577.7,272.6 577.6,272.6 577.5,272.6 577.4,272.6 577.3,272.6 577.2,272.6 577.1,272.6 577.0,272.6 576.9,272.6 576.8,272.6 576.7,272.6 576.6,272.6 576.5,272.6 576.4,272.6 576.3,272.6
576.2,272.6 576.1,272.6 576.0,272.6 575.9,272.6 575.9,272.6 575.8,272.6 575.7,272.6 575.6,272.6 575.5,272.6 575.4,272.6 575.3,272.6 575.2,272.6 575.1,272.6 575.0,272.6 574.9,272.6 574.8,272.6
574.7,272.6 574.6,272.6 574.5,272.6 574.4,272.6 574.3,272.6 574.2,272.6 574.1,272.6 574.0,272.6 573.9,272.6 573.8,272.6 573.7,272.6 573.6,272.6 573.5,272.6 573.4,272.6 573.3,272.6 573.2,272.6
573.2,272.7 573.1,272.7 573.0,272.7 572.9,272.7 572.8,272.7 572.7,272.7 572.6,272.7 572.5,272.7 572.4,272.7 572.3,272.7 572.2,272.7 572.1,272.8 572.0,272.8 571.9,272.8 571.8,272.8 571.7,272.8
571.6,272.8 571.5,272.8 571.4,272.8 571.3,272.8 571.2,272.9 571.1,272.9 571.0,272.9 570.9,272.9 570.8,272.9 570.7,272.9 570.6,272.9 570.5,272.9 570.5,272.9 570.4,272.9 570.3,272.9 570.2,273.0
570.1,273.0 570.0,273.0 569.9,273.0 569.8,273.0 569.7,273.0 569.6,273.0 569.5,273.0 569.4,273.0 569.3,273.0 569.2,273.0 569.1,273.0 569.0,273.0 568.9,273.0 568.8,273.0 568.7,273.0 568.6,273.0
568.5,273.0 568.4,273.0 568.3,273.0 568.2,273.0 568.1,273.0 568.0,272.9 567.9,272.9 567.8,272.9 567.7,272.9 567.7,272.9 567.6,272.9 567.5,272.9 567.4,272.9 567.3,272.9 567.2,272.9 567.1,272.9
567.0,272.9 566.9,272.9 566.8,272.9 566.7,272.8 566.6,272.8 566.5,272.8 566.4,272.8 566.3,272.8 566.2,272.8 566.1,272.8 566.0,272.8 565.9,272.8 565.8,272.8 565.7,272.8 565.6,272.8 565.5,272.8
565.4,272.8 565.3,272.8 565.2,272.8 565.1,272.8 565.0,272.8 565.0,272.8 564.9,272.8 564.8,272.9 564.7,272.9 564.6,272.9 564.5,272.9 564.4,272.9 564.3,272.9 564.2,272.9 564.1,272.9 564.0,273.0
563.9,273.0 563.8,273.0 563.7,273.0 563.6,273.0 563.5,273.1 563.4,273.1 563.3,273.1 563.2,273.1 563.1,273.2 563.0,273.2 562.9,273.2 562.8,273.2 562.7,273.3 562.6,273.3 562.5,273.3 562.4,273.4
562.3,273.4 562.3,273.4 562.2,273.5 562.1,273.5 562.0,273.5 561.9,273.6 561.8,273.6 561.7,273.6 561.6,273.7 561.5,273.7 561.4,273.7 561.3,273.8 561.2,273.8 561.1,273.8 561.0,273.9 560.9,273.9
560.8,273.9 560.7,274.0 560.6,274.0 560.5,274.0 560.4,274.1 560.3,274.1 560.2,274.1 560.1,274.2 560.0,274.2 559.9,274.2 559.8,274.3 559.7,274.3 559.6,274.4 559.5,274.4 559.5,274.4 559.4,274.5
559.3,274.5 559.2,274.5 559.1,274.6 559.0,274.6 558.9,274.6 558.8,274.7 558.7,274.7 558.6,274.8 558.5,274.8 558.4,274.8 558.3,274.9 558.2,274.9 558.1,275.0 558.0,275.1 557.9,275.1 557.8,275.2
557.7,275.3 557.6,275.3 557.5,275.4 557.4,275.5 557.3,275.6 557.2,275.7 557.1,275.8 557.0,275.9 556.9,276.0 556.8,276.1 556.8,276.3 556.7,276.4 556.6,276.6 556.5,276.7 556.4,276.9 556.3,277.0
556.2,277.2 556.1,277.4 556.0,277.6 555.9,277.9 555.8,278.1 555.7,278.3 555.6,278.6 555.5,278.8 555.4,279.1 555.3,279.4 555.2,279.7 555.1,279.9 555.0,280.3 554.9,280.6 554.8,280.9 554.7,281.2
554.6,281.6 554.5,281.9 554.4,282.3 554.3,282.6 554.2,283.0 554.1,283.3 554.1,283.7 554.0,284.1 553.9,284.5 553.8,284.8 553.7,285.2 553.6,285.6 553.5,285.9 553.4,286.3 553.3,286.6 553.2,287.0
553.1,287.3 553.0,287.6 552.9,287.9 552.8,288.2 552.7,288.5 552.6,288.8 552.5,289.0 552.4,289.3 552.3,289.5 552.2,289.7 552.1,289.8 552.0,290.0 551.9,290.1 551.8,290.2 551.7,290.3 551.6,290.4
551.5,290.4 551.4,290.4 551.3,290.4 551.3,290.4 551.2,290.3 551.1,290.2 551.0,290.1 550.9,289.9 550.8,289.8 550.7,289.6 550.6,289.4 550.5,289.1 550.4,288.9 550.3,288.6 550.2,288.3 550.1,288.0
550.0,287.7 549.9,287.3 549.8,287.0 549.7,286.6 549.6,286.2 549.5,285.9 549.4,285.5 549.3,285.0 549.2,284.6 549.1,284.2 549.0,283.8 548.9,283.4 548.8,283.0 548.7,282.5 548.6,282.1 548.6,281.7
548.5,281.3 548.4,280.9 548.3,280.5 548.2,280.1 548.1,279.7 548.0,279.4 547.9,279.0 547.8,278.6 547.7,278.3 547.6,278.0 547.5,277.6 547.4,277.3 547.3,277.0 547.2,276.7 547.1,276.5 547.0,276.2
546.9,276.0 546.8,275.7 546.7,275.5 546.6,275.3 546.5,275.1 546.4,274.9 546.3,274.7 546.2,274.5 546.1,274.4 546.0,274.2 545.9,274.1 545.9,274.0 545.8,273.8 545.7,273.7 545.6,273.6 545.5,273.5
545.4,273.4 545.3,273.3 545.2,273.3 545.1,273.2 545.0,273.1 544.9,273.1 544.8,273.0 544.7,273.0 544.6,272.9 544.5,272.9 544.4,272.9 544.3,272.8 544.2,272.8 544.1,272.8 544.0,272.7 543.9,272.7
543.8,272.7 543.7,272.7 543.6,272.7 543.5,272.6 543.4,272.6 543.3,272.6 543.2,272.6 543.2,272.6 '/>
	</g>
</g>
	</g>
	<g id="gnuplot_plot_2" ><title>gnuplot_plot_2</title>
<g fill="none" color="black" stroke="currentColor" stroke-width="1.00" stroke-linecap="butt" stroke-linejoin="miter">
	<g stroke='none' shape-rendering='crispEdges'>
		<polygon fill = 'rgb( 31, 120, 180)' fill-opacity = '0.250000' points = '756.5,232.8 757.1,232.8 757.6,232.8 758.2,232.8 758.8,232.8 759.3,232.8 759.9,232.8 760.4,232.8 761.0,232.8 761.6,232.8 762.1,232.8 762.7,232.8 763.3,232.8 763.8,232.7 764.4,232.7 764.9,232.7
765.5,232.7 766.1,232.7 766.6,232.7 767.2,232.7 767.7,232.7 768.3,232.7 768.9,232.6 769.4,232.6 770.0,232.6 770.6,232.6 771.1,232.6 771.7,232.6 772.2,232.5 772.8,232.5 773.4,232.5 773.9,232.5
774.5,232.4 775.1,232.4 775.6,232.4 776.2,232.3 776.7,232.3 777.3,232.2 777.9,232.2 778.4,232.2 779.0,232.1 779.6,232.1 780.1,232.0 780.7,232.0 781.2,231.9 781.8,231.8 782.4,231.8 782.9,231.7
783.5,231.6 784.0,231.6 784.6,231.5 785.2,231.4 785.7,231.3 786.3,231.3 786.9,231.2 787.4,231.1 788.0,231.0 788.5,230.9 789.1,230.8 789.7,230.7 790.2,230.6 790.8,230.5 791.4,230.3 791.9,230.2
792.5,230.1 793.0,230.0 793.6,229.9 794.2,229.7 794.7,229.6 795.3,229.5 795.9,229.3 796.4,229.2 797.0,229.0 797.5,228.9 798.1,228.7 798.7,228.6 799.2,228.4 799.8,228.3 800.4,228.1 800.9,227.9
801.5,227.8 802.0,227.6 802.6,227.5 803.2,227.3 803.7,227.1 804.3,227.0 804.8,226.8 805.4,226.6 806.0,226.4 806.5,226.3 807.1,226.1 807.7,225.9 808.2,225.8 808.8,225.6 809.3,225.4 809.9,225.3
810.5,225.1 811.0,224.9 811.6,224.8 812.2,224.6 812.7,224.4 813.3,224.3 813.8,224.1 814.4,224.0 815.0,223.8 815.5,223.7 816.1,223.5 816.7,223.4 817.2,223.2 817.8,223.1 818.3,223.0 818.9,222.8
819.5,222.7 820.0,222.6 820.6,222.5 821.1,222.3 821.7,222.2 822.3,222.1 822.8,222.0 823.4,221.9 824.0,221.8 824.5,221.7 825.1,221.6 825.6,221.5 826.2,221.4 826.8,221.3 827.3,221.3 827.9,221.2
828.5,221.1 829.0,221.0 829.6,221.0 830.1,220.9 830.7,220.9 831.3,220.8 831.8,220.7 832.4,220.7 833.0,220.6 833.5,220.6 834.1,220.6 834.6,220.5 835.2,220.5 835.8,220.5 836.3,220.4 836.9,220.4
837.5,220.4 838.0,220.3 838.6,220.3 839.1,220.3 839.7,220.3 840.3,220.3 840.8,220.2 841.4,220.2 841.9,220.2 842.5,220.2 843.1,220.2 843.6,220.2 844.2,220.2 844.8,220.2 845.3,220.1 845.9,220.1
846.4,220.1 847.0,220.1 847.6,220.1 848.1,220.1 848.7,220.1 849.3,220.1 849.8,220.0 850.4,220.0 850.9,220.0 851.5,220.0 852.1,220.0 852.6,219.9 853.2,219.9 853.8,219.9 854.3,219.9 854.9,219.8
855.4,219.8 856.0,219.8 856.6,219.7 857.1,219.7 857.7,219.7 858.2,219.6 858.8,219.6 859.4,219.5 859.9,219.5 860.5,219.4 861.1,219.4 861.6,219.3 862.2,219.3 862.7,219.2 863.3,219.2 863.9,219.1
864.4,219.0 865.0,219.0 865.6,218.9 866.1,218.8 866.7,218.7 867.2,218.7 867.8,218.6 868.4,218.5 868.9,218.4 869.5,218.4 870.1,218.3 870.6,218.2 871.2,218.1 871.7,218.0 872.3,217.9 872.9,217.8
873.4,217.7 874.0,217.7 874.6,217.6 875.1,217.5 875.7,217.4 876.2,217.3 876.8,217.2 877.4,217.1 877.9,217.0 878.5,216.9 879.0,216.8 879.6,216.7 880.2,216.6 880.7,216.6 881.3,216.5 881.9,216.4
882.4,216.3 883.0,216.2 883.5,216.1 884.1,216.1 884.7,216.0 885.2,215.9 885.8,215.8 886.4,215.7 886.9,215.7 887.5,215.6 888.0,215.5 888.6,215.5 889.2,215.4 889.7,215.4 890.3,215.3 890.9,215.2
891.4,215.2 892.0,215.2 892.5,215.1 893.1,215.1 893.7,215.0 894.2,215.0 894.8,215.0 895.3,215.0 895.9,215.0 896.5,215.0 897.0,215.0 897.6,215.0 898.2,215.0 898.7,215.0 899.3,215.0 899.8,215.0
900.4,215.1 901.0,215.1 901.5,215.1 902.1,215.2 902.7,215.2 903.2,215.3 903.8,215.4 904.3,215.5 904.9,215.6 905.5,215.6 906.0,215.7 906.6,215.9 907.2,216.0 907.7,216.1 908.3,216.2 908.8,216.4
909.4,216.5 910.0,216.7 910.5,216.8 911.1,217.0 911.6,217.2 912.2,217.3 912.8,217.5 913.3,217.7 913.9,217.9 914.5,218.1 915.0,218.3 915.6,218.5 916.1,218.7 916.7,219.0 917.3,219.2 917.8,219.4
918.4,219.6 919.0,219.9 919.5,220.1 920.1,220.4 920.6,220.6 921.2,220.9 921.8,221.1 922.3,221.3 922.9,221.6 923.5,221.9 924.0,222.1 924.6,222.4 925.1,222.6 925.7,222.9 926.3,223.1 926.8,223.4
927.4,223.6 928.0,223.8 928.5,224.1 929.1,224.3 929.6,224.6 930.2,224.8 930.8,225.0 931.3,225.3 931.9,225.5 932.4,225.7 933.0,225.9 933.6,226.1 934.1,226.4 934.7,226.6 935.3,226.8 935.8,227.0
936.4,227.1 936.9,227.3 937.5,227.5 938.1,227.7 938.6,227.9 939.2,228.0 939.8,228.2 940.3,228.3 940.9,228.5 941.4,228.6 942.0,228.8 942.6,228.9 943.1,229.0 943.7,229.2 944.3,229.3 944.8,229.4
945.4,229.5 945.9,229.6 946.5,229.7 947.1,229.8 947.6,229.9 948.2,230.0 948.7,230.0 949.3,230.1 949.9,230.2 950.4,230.3 951.0,230.3 951.6,230.4 952.1,230.4 952.7,230.5 953.2,230.5 953.8,230.6
954.4,230.6 954.9,230.7 955.5,230.7 956.1,230.7 956.6,230.7 957.2,230.8 957.7,230.8 958.3,230.8 958.9,230.8 959.4,230.9 960.0,230.9 960.6,230.9 961.1,230.9 961.7,230.9 962.2,230.9 962.8,230.9
963.4,230.9 963.9,230.9 964.5,230.9 965.1,230.9 965.6,231.0 966.2,231.0 966.7,231.0 967.3,231.0 967.9,231.0 968.4,231.0 969.0,231.0 969.5,231.0 970.1,231.0 970.7,231.0 971.2,231.0 971.8,231.0
972.4,231.0 972.9,231.0 973.5,231.0 974.0,231.0 974.6,231.0 975.2,231.1 975.7,231.1 976.3,231.1 976.9,231.1 977.4,231.1 978.0,231.1 978.5,231.1 979.1,231.2 979.7,231.2 980.2,231.2 980.8,231.2
981.4,231.2 981.9,231.3 982.5,231.3 983.0,231.3 983.6,231.3 984.2,231.4 984.7,231.4 985.3,231.4 985.8,231.4 986.4,231.5 987.0,231.5 987.5,231.5 988.1,231.6 988.7,231.6 989.2,231.6 989.8,231.6
990.3,231.7 990.9,231.7 991.5,231.7 992.0,231.8 992.6,231.8 993.2,231.8 993.7,231.9 994.3,231.9 994.8,231.9 995.4,231.9 996.0,232.0 996.5,232.0 997.1,232.0 997.7,232.1 998.2,232.1 998.8,232.1
999.3,232.1 999.9,232.2 1000.5,232.2 1001.0,232.2 1001.6,232.3 1002.2,232.3 1002.7,232.3 1003.3,232.3 1003.8,232.3 1004.4,232.4 1005.0,232.4 1005.5,232.4 1006.1,232.4 1006.6,232.5 1007.2,232.5 1007.8,232.5
1008.3,232.5 1008.9,232.5 1009.5,232.5 1010.0,232.6 1010.6,232.6 1011.1,232.6 1011.7,232.6 1012.3,232.6 1012.8,232.6 1013.4,232.6 1014.0,232.6 1014.5,232.7 1015.1,232.7 1015.6,232.7 1016.2,232.7 1016.8,232.7
1017.3,232.7 1017.9,232.7 1018.5,232.7 1019.0,232.7 1019.6,232.7 1020.1,232.7 1020.7,232.7 1021.3,232.8 1021.8,232.8 1022.4,232.8 1022.9,232.8 1023.5,232.8 1024.1,232.8 1024.6,232.8 1025.2,232.8 1025.8,232.8
1026.3,232.8 1026.9,232.8 1027.4,232.8 1028.0,232.8 1028.6,232.8 1029.1,232.8 1029.7,232.8 1030.3,232.8 1030.8,232.8 1031.4,232.8 1031.9,232.8 1032.5,232.8 1033.1,232.8 1033.6,232.8 1034.2,232.8 1034.8,232.8
1035.3,232.8 1035.9,232.8 1036.4,232.8 1037.0,232.8 1037.0,232.8 1036.4,232.8 1035.9,232.8 1035.3,232.8 1034.8,232.8 1034.2,232.8 1033.6,232.8 1033.1,232.8 1032.5,232.8 1031.9,232.8 1031.4,232.8 1030.8,232.8
1030.3,232.8 1029.7,232.8 1029.1,232.8 1028.6,232.8 1028.0,232.9 1027.4,232.9 1026.9,232.9 1026.3,232.9 1025.8,232.9 1025.2,232.9 1024.6,232.9 1024.1,232.9 1023.5,232.9 1022.9,232.9 1022.4,232.9 1021.8,232.9
1021.3,232.9 1020.7,232.9 1020.1,232.9 1019.6,232.9 1019.0,232.9 1018.5,232.9 1017.9,232.9 1017.3,232.9 1016.8,233.0 1016.2,233.0 1015.6,233.0 1015.1,233.0 1014.5,233.0 1014.0,233.0 1013.4,233.0 1012.8,233.0
1012.3,233.0 1011.7,233.1 1011.1,233.1 1010.6,233.1 1010.0,233.1 1009.5,233.1 1008.9,233.1 1008.3,233.1 1007.8,233.2 1007.2,233.2 1006.6,233.2 1006.1,233.2 1005.5,233.2 1005.0,233.3 1004.4,233.3 1003.8,233.3
1003.3,233.3 1002.7,233.4 1002.2,233.4 1001.6,233.4 1001.0,233.4 1000.5,233.4 999.9,233.5 999.3,233.5 998.8,233.5 998.2,233.6 997.7,233.6 997.1,233.6 996.5,233.6 996.0,233.7 995.4,233.7 994.8,233.7
994.3,233.8 993.7,233.8 993.2,233.8 992.6,233.9 992.0,233.9 991.5,233.9 990.9,233.9 990.3,234.0 989.8,234.0 989.2,234.0 988.7,234.1 988.1,234.1 987.5,234.1 987.0,234.2 986.4,234.2 985.8,234.2
985.3,234.2 984.7,234.3 984.2,234.3 983.6,234.3 983.0,234.3 982.5,234.4 981.9,234.4 981.4,234.4 980.8,234.4 980.2,234.4 979.7,234.5 979.1,234.5 978.5,234.5 978.0,234.5 977.4,234.5 976.9,234.6
976.3,234.6 975.7,234.6 975.2,234.6 974.6,234.6 974.0,234.6 973.5,234.6 972.9,234.6 972.4,234.6 971.8,234.6 971.2,234.6 970.7,234.7 970.1,234.7 969.5,234.7 969.0,234.7 968.4,234.7 967.9,234.7
967.3,234.7 966.7,234.7 966.2,234.7 965.6,234.7 965.1,234.7 964.5,234.7 963.9,234.7 963.4,234.7 962.8,234.7 962.2,234.7 961.7,234.7 961.1,234.8 960.6,234.8 960.0,234.8 959.4,234.8 958.9,234.8
958.3,234.8 957.7,234.9 957.2,234.9 956.6,234.9 956.1,234.9 955.5,235.0 954.9,235.0 954.4,235.0 953.8,235.1 953.2,235.1 952.7,235.2 952.1,235.2 951.6,235.3 951.0,235.3 950.4,235.4 949.9,235.5
949.3,235.5 948.7,235.6 948.2,235.7 947.6,235.8 947.1,235.9 946.5,236.0 945.9,236.0 945.4,236.2 944.8,236.3 944.3,236.4 943.7,236.5 943.1,236.6 942.6,236.7 942.0,236.9 941.4,237.0 940.9,237.2
940.3,237.3 939.8,237.5 939.2,237.6 938.6,237.8 938.1,238.0 937.5,238.1 936.9,238.3 936.4,238.5 935.8,238.7 935.3,238.9 934.7,239.1 934.1,239.3 933.6,239.5 933.0,239.7 932.4,239.9 931.9,240.2
931.3,240.4 930.8,240.6 930.2,240.8 929.6,241.1 929.1,241.3 928.5,241.6 928.0,241.8 927.4,242.0 926.8,242.3 926.3,242.5 925.7,242.8 925.1,243.0 924.6,243.3 924.0,243.5 923.5,243.8 922.9,244.1
922.3,244.3 921.8,244.6 921.2,244.8 920.6,245.0 920.1,245.3 919.5,245.5 919.0,245.8 918.4,246.0 917.8,246.2 917.3,246.5 916.7,246.7 916.1,246.9 915.6,247.1 915.0,247.3 914.5,247.6 913.9,247.8
913.3,247.9 912.8,248.1 912.2,248.3 911.6,248.5 911.1,248.7 910.5,248.8 910.0,249.0 909.4,249.1 908.8,249.3 908.3,249.4 907.7,249.6 907.2,249.7 906.6,249.8 906.0,249.9 905.5,250.0 904.9,250.1
904.3,250.2 903.8,250.3 903.2,250.3 902.7,250.4 902.1,250.5 901.5,250.5 901.0,250.6 900.4,250.6 899.8,250.6 899.3,250.7 898.7,250.7 898.2,250.7 897.6,250.7 897.0,250.7 896.5,250.7 895.9,250.7
895.3,250.7 894.8,250.7 894.2,250.6 893.7,250.6 893.1,250.6 892.5,250.5 892.0,250.5 891.4,250.5 890.9,250.4 890.3,250.4 889.7,250.3 889.2,250.2 888.6,250.2 888.0,250.1 887.5,250.0 886.9,250.0
886.4,249.9 885.8,249.8 885.2,249.8 884.7,249.7 884.1,249.6 883.5,249.5 883.0,249.4 882.4,249.4 881.9,249.3 881.3,249.2 880.7,249.1 880.2,249.0 879.6,248.9 879.0,248.8 878.5,248.7 877.9,248.6
877.4,248.5 876.8,248.5 876.2,248.4 875.7,248.3 875.1,248.2 874.6,248.1 874.0,248.0 873.4,247.9 872.9,247.8 872.3,247.7 871.7,247.6 871.2,247.6 870.6,247.5 870.1,247.4 869.5,247.3 868.9,247.2
868.4,247.1 867.8,247.1 867.2,247.0 866.7,246.9 866.1,246.8 865.6,246.8 865.0,246.7 864.4,246.6 863.9,246.6 863.3,246.5 862.7,246.4 862.2,246.4 861.6,246.3 861.1,246.3 860.5,246.2 859.9,246.2
859.4,246.1 858.8,246.1 858.2,246.0 857.7,246.0 857.1,245.9 856.6,245.9 856.0,245.9 855.4,245.8 854.9,245.8 854.3,245.8 853.8,245.7 853.2,245.7 852.6,245.7 852.1,245.7 851.5,245.7 850.9,245.6
850.4,245.6 849.8,245.6 849.3,245.6 848.7,245.6 848.1,245.6 847.6,245.6 847.0,245.5 846.4,245.5 845.9,245.5 845.3,245.5 844.8,245.5 844.2,245.5 843.6,245.5 843.1,245.5 842.5,245.5 841.9,245.4
841.4,245.4 840.8,245.4 840.3,245.4 839.7,245.4 839.1,245.4 838.6,245.3 838.0,245.3 837.5,245.3 836.9,245.3 836.3,245.2 835.8,245.2 835.2,245.2 834.6,245.1 834.1,245.1 833.5,245.0 833.0,245.0
832.4,245.0 831.8,244.9 831.3,244.9 830.7,244.8 830.1,244.7 829.6,244.7 829.0,244.6 828.5,244.5 827.9,244.5 827.3,244.4 826.8,244.3 826.2,244.2 825.6,244.1 825.1,244.0 824.5,244.0 824.0,243.9
823.4,243.8 822.8,243.6 822.3,243.5 821.7,243.4 821.1,243.3 820.6,243.2 820.0,243.1 819.5,242.9 818.9,242.8 818.3,242.7 817.8,242.5 817.2,242.4 816.7,242.3 816.1,242.1 815.5,242.0 815.0,241.8
814.4,241.7 813.8,241.5 813.3,241.4 812.7,241.2 812.2,241.0 811.6,240.9 811.0,240.7 810.5,240.6 809.9,240.4 809.3,240.2 808.8,240.1 808.2,239.9 807.7,239.7 807.1,239.5 806.5,239.4 806.0,239.2
805.4,239.0 804.8,238.9 804.3,238.7 803.7,238.5 803.2,238.4 802.6,238.2 802.0,238.0 801.5,237.9 800.9,237.7 800.4,237.5 799.8,237.4 799.2,237.2 798.7,237.1 798.1,236.9 797.5,236.8 797.0,236.6
796.4,236.5 795.9,236.3 795.3,236.2 794.7,236.1 794.2,235.9 793.6,235.8 793.0,235.7 792.5,235.5 791.9,235.4 791.4,235.3 790.8,235.2 790.2,235.1 789.7,235.0 789.1,234.9 788.5,234.8 788.0,234.7
787.4,234.6 786.9,234.5 786.3,234.4 785.7,234.3 785.2,234.2 784.6,234.1 784.0,234.1 783.5,234.0 782.9,233.9 782.4,233.9 781.8,233.8 781.2,233.7 780.7,233.7 780.1,233.6 779.6,233.6 779.0,233.5
778.4,233.5 777.9,233.4 777.3,233.4 776.7,233.4 776.2,233.3 775.6,233.3 775.1,233.3 774.5,233.2 773.9,233.2 773.4,233.2 772.8,233.1 772.2,233.1 771.7,233.1 771.1,233.1 770.6,233.1 770.0,233.0
769.4,233.0 768.9,233.0 768.3,233.0 767.7,233.0 767.2,233.0 766.6,233.0 766.1,232.9 765.5,232.9 764.9,232.9 764.4,232.9 763.8,232.9 763.3,232.9 762.7,232.9 762.1,232.9 761.6,232.9 761.0,232.9
760.4,232.9 759.9,232.9 759.3,232.9 758.8,232.9 758.2,232.9 757.6,232.9 757.1,232.8 756.5,232.8 '/>
	</g>
</g>
	</g>
	<g id="gnuplot_plot_3" ><title>gnuplot_plot_3</title>
<g fill="none" color="black" stroke="currentColor" stroke-width="1.00" stroke-linecap="butt" stroke-linejoin="miter">
	<g stroke='none' shape-rendering='crispEdges'>
		<polygon fill = 'rgb( 31, 120, 180)' fill-opacity = '0.250000' points = '661.6,193.1 661.8,193.1 661.9,193.1 662.0,193.1 662.2,193.0 662.3,193.0 662.4,193.0 662.5,193.0 662.7,193.0 662.8,193.0 662.9,193.0 663.0,193.0 663.2,193.0 663.3,193.0 663.4,193.0 663.5,192.9
663.7,192.9 663.8,192.9 663.9,192.9 664.0,192.9 664.2,192.9 664.3,192.8 664.4,192.8 664.6,192.8 664.7,192.8 664.8,192.8 664.9,192.7 665.1,192.7 665.2,192.7 665.3,192.6 665.4,192.6 665.6,192.6
665.7,192.5 665.8,192.5 665.9,192.4 666.1,192.4 666.2,192.3 666.3,192.3 666.4,192.2 666.6,192.2 666.7,192.1 666.8,192.1 667.0,192.0 667.1,191.9 667.2,191.8 667.3,191.8 667.5,191.7 667.6,191.6
667.7,191.5 667.8,191.4 668.0,191.3 668.1,191.2 668.2,191.1 668.3,191.0 668.5,190.9 668.6,190.8 668.7,190.7 668.9,190.5 669.0,190.4 669.1,190.3 669.2,190.1 669.4,190.0 669.5,189.8 669.6,189.7
669.7,189.5 669.9,189.4 670.0,189.2 670.1,189.0 670.2,188.8 670.4,188.7 670.5,188.5 670.6,188.3 670.7,188.1 670.9,187.9 671.0,187.7 671.1,187.5 671.3,187.3 671.4,187.1 671.5,186.9 671.6,186.7
671.8,186.4 671.9,186.2 672.0,186.0 672.1,185.8 672.3,185.5 672.4,185.3 672.5,185.1 672.6,184.9 672.8,184.6 672.9,184.4 673.0,184.2 673.2,183.9 673.3,183.7 673.4,183.4 673.5,183.2 673.7,183.0
673.8,182.7 673.9,182.5 674.0,182.3 674.2,182.0 674.3,181.8 674.4,181.6 674.5,181.4 674.7,181.1 674.8,180.9 674.9,180.7 675.0,180.5 675.2,180.3 675.3,180.1 675.4,179.9 675.6,179.7 675.7,179.5
675.8,179.3 675.9,179.1 676.1,178.9 676.2,178.7 676.3,178.6 676.4,178.4 676.6,178.2 676.7,178.1 676.8,177.9 676.9,177.8 677.1,177.6 677.2,177.5 677.3,177.4 677.5,177.2 677.6,177.1 677.7,177.0
677.8,176.9 678.0,176.7 678.1,176.6 678.2,176.5 678.3,176.4 678.5,176.3 678.6,176.3 678.7,176.2 678.8,176.1 679.0,176.0 679.1,176.0 679.2,175.9 679.3,175.8 679.5,175.8 679.6,175.7 679.7,175.7
679.9,175.6 680.0,175.6 680.1,175.5 680.2,175.5 680.4,175.4 680.5,175.4 680.6,175.4 680.7,175.4 680.9,175.3 681.0,175.3 681.1,175.3 681.2,175.3 681.4,175.3 681.5,175.3 681.6,175.2 681.7,175.2
681.9,175.2 682.0,175.2 682.1,175.2 682.3,175.2 682.4,175.2 682.5,175.3 682.6,175.3 682.8,175.3 682.9,175.3 683.0,175.3 683.1,175.3 683.3,175.4 683.4,175.4 683.5,175.4 683.6,175.4 683.8,175.5
683.9,175.5 684.0,175.5 684.2,175.6 684.3,175.6 684.4,175.6 684.5,175.7 684.7,175.7 684.8,175.8 684.9,175.8 685.0,175.9 685.2,175.9 685.3,176.0 685.4,176.0 685.5,176.1 685.7,176.2 685.8,176.2
685.9,176.3 686.0,176.4 686.2,176.4 686.3,176.5 686.4,176.6 686.6,176.7 686.7,176.7 686.8,176.8 686.9,176.9 687.1,177.0 687.2,177.1 687.3,177.2 687.4,177.2 687.6,177.3 687.7,177.4 687.8,177.5
687.9,177.6 688.1,177.7 688.2,177.8 688.3,177.9 688.5,178.0 688.6,178.1 688.7,178.2 688.8,178.3 689.0,178.4 689.1,178.5 689.2,178.7 689.3,178.8 689.5,178.9 689.6,179.0 689.7,179.1 689.8,179.2
690.0,179.3 690.1,179.4 690.2,179.6 690.3,179.7 690.5,179.8 690.6,179.9 690.7,180.0 690.9,180.1 691.0,180.3 691.1,180.4 691.2,180.5 691.4,180.6 691.5,180.7 691.6,180.9 691.7,181.0 691.9,181.1
692.0,181.2 692.1,181.3 692.2,181.4 692.4,181.5 692.5,181.7 692.6,181.8 692.7,181.9 692.9,182.0 693.0,182.1 693.1,182.2 693.3,182.3 693.4,182.4 693.5,182.5 693.6,182.6 693.8,182.7 693.9,182.8
694.0,182.9 694.1,183.0 694.3,183.1 694.4,183.2 694.5,183.3 694.6,183.4 694.8,183.5 694.9,183.6 695.0,183.7 695.2,183.7 695.3,183.8 695.4,183.9 695.5,184.0 695.7,184.0 695.8,184.1 695.9,184.2
696.0,184.3 696.2,184.3 696.3,184.4 696.4,184.5 696.5,184.5 696.7,184.6 696.8,184.6 696.9,184.7 697.0,184.7 697.2,184.8 697.3,184.8 697.4,184.9 697.6,184.9 697.7,185.0 697.8,185.0 697.9,185.1
698.1,185.1 698.2,185.2 698.3,185.2 698.4,185.2 698.6,185.3 698.7,185.3 698.8,185.3 698.9,185.4 699.1,185.4 699.2,185.4 699.3,185.5 699.5,185.5 699.6,185.5 699.7,185.5 699.8,185.6 700.0,185.6
700.1,185.6 700.2,185.6 700.3,185.7 700.5,185.7 700.6,185.7 700.7,185.7 700.8,185.7 701.0,185.8 701.1,185.8 701.2,185.8 701.3,185.8 701.5,185.9 701.6,185.9 701.7,185.9 701.9,185.9 702.0,185.9
702.1,186.0 702.2,186.0 702.4,186.0 702.5,186.0 702.6,186.0 702.7,186.1 702.9,186.1 703.0,186.1 703.1,186.1 703.2,186.2 703.4,186.2 703.5,186.2 703.6,186.2 703.8,186.3 703.9,186.3 704.0,186.3
704.1,186.3 704.3,186.4 704.4,186.4 704.5,186.4 704.6,186.4 704.8,186.5 704.9,186.5 705.0,186.5 705.1,186.6 705.3,186.6 705.4,186.6 705.5,186.7 705.6,186.7 705.8,186.7 705.9,186.8 706.0,186.8
706.2,186.9 706.3,186.9 706.4,186.9 706.5,187.0 706.7,187.0 706.8,187.1 706.9,187.1 707.0,187.2 707.2,187.2 707.3,187.3 707.4,187.3 707.5,187.4 707.7,187.4 707.8,187.5 707.9,187.5 708.0,187.6
708.2,187.6 708.3,187.7 708.4,187.8 708.6,187.8 708.7,187.9 708.8,188.0 708.9,188.0 709.1,188.1 709.2,188.2 709.3,188.2 709.4,188.3 709.6,188.4 709.7,188.4 709.8,188.5 709.9,188.6 710.1,188.7
710.2,188.7 710.3,188.8 710.5,188.9 710.6,189.0 710.7,189.0 710.8,189.1 711.0,189.2 711.1,189.3 711.2,189.4 711.3,189.4 711.5,189.5 711.6,189.6 711.7,189.7 711.8,189.8 712.0,189.8 712.1,189.9
712.2,190.0 712.3,190.1 712.5,190.2 712.6,190.2 712.7,190.3 712.9,190.4 713.0,190.5 713.1,190.5 713.2,190.6 713.4,190.7 713.5,190.8 713.6,190.8 713.7,190.9 713.9,191.0 714.0,191.1 714.1,191.1
714.2,191.2 714.4,191.3 714.5,191.3 714.6,191.4 714.8,191.5 714.9,191.5 715.0,191.6 715.1,191.6 715.3,191.7 715.4,191.8 715.5,191.8 715.6,191.9 715.8,191.9 715.9,192.0 716.0,192.0 716.1,192.1
716.3,192.1 716.4,192.2 716.5,192.2 716.6,192.2 716.8,192.3 716.9,192.3 717.0,192.4 717.2,192.4 717.3,192.4 717.4,192.5 717.5,192.5 717.7,192.5 717.8,192.6 717.9,192.6 718.0,192.6 718.2,192.6
718.3,192.7 718.4,192.7 718.5,192.7 718.7,192.7 718.8,192.8 718.9,192.8 719.0,192.8 719.2,192.8 719.3,192.8 719.4,192.9 719.6,192.9 719.7,192.9 719.8,192.9 719.9,192.9 720.1,192.9 720.2,192.9
720.3,192.9 720.4,193.0 720.6,193.0 720.7,193.0 720.8,193.0 720.9,193.0 721.1,193.0 721.2,193.0 721.3,193.0 721.5,193.0 721.6,193.0 721.7,193.0 721.8,193.0 722.0,193.0 722.1,193.1 722.2,193.1
722.3,193.1 722.5,193.1 722.6,193.1 722.7,193.1 722.8,193.1 723.0,193.1 723.1,193.1 723.2,193.1 723.3,193.1 723.5,193.1 723.6,193.1 723.7,193.1 723.9,193.1 724.0,193.1 724.1,193.1 724.2,193.1
724.4,193.1 724.5,193.1 724.6,193.1 724.7,193.1 724.7,193.1 724.6,193.1 724.5,193.1 724.4,193.1 724.2,193.1 724.1,193.1 724.0,193.1 723.9,193.1 723.7,193.1 723.6,193.1 723.5,193.1 723.3,193.1
723.2,193.1 723.1,193.1 723.0,193.1 722.8,193.1 722.7,193.1 722.6,193.1 722.5,193.2 722.3,193.2 722.2,193.2 722.1,193.2 722.0,193.2 721.8,193.2 721.7,193.2 721.6,193.2 721.5,193.2 721.3,193.2
721.2,193.2 721.1,193.2 720.9,193.2 720.8,193.2 720.7,193.2 720.6,193.2 720.4,193.3 720.3,193.3 720.2,193.3 720.1,193.3 719.9,193.3 719.8,193.3 719.7,193.3 719.6,193.3 719.4,193.4 719.3,193.4
719.2,193.4 719.0,193.4 718.9,193.4 718.8,193.5 718.7,193.5 718.5,193.5 718.4,193.5 718.3,193.5 718.2,193.6 718.0,193.6 717.9,193.6 717.8,193.7 717.7,193.7 717.5,193.7 717.4,193.7 717.3,193.8
717.2,193.8 717.0,193.9 716.9,193.9 716.8,193.9 716.6,194.0 716.5,194.0 716.4,194.1 716.3,194.1 716.1,194.2 716.0,194.2 715.9,194.2 715.8,194.3 715.6,194.4 715.5,194.4 715.4,194.5 715.3,194.5
715.1,194.6 715.0,194.6 714.9,194.7 714.8,194.8 714.6,194.8 714.5,194.9 714.4,195.0 714.2,195.0 714.1,195.1 714.0,195.2 713.9,195.2 713.7,195.3 713.6,195.4 713.5,195.4 713.4,195.5 713.2,195.6
713.1,195.7 713.0,195.7 712.9,195.8 712.7,195.9 712.6,196.0 712.5,196.1 712.3,196.1 712.2,196.2 712.1,196.3 712.0,196.4 711.8,196.5 711.7,196.5 711.6,196.6 711.5,196.7 711.3,196.8 711.2,196.9
711.1,196.9 711.0,197.0 710.8,197.1 710.7,197.2 710.6,197.3 710.5,197.3 710.3,197.4 710.2,197.5 710.1,197.6 709.9,197.6 709.8,197.7 709.7,197.8 709.6,197.8 709.4,197.9 709.3,198.0 709.2,198.1
709.1,198.1 708.9,198.2 708.8,198.3 708.7,198.3 708.6,198.4 708.4,198.4 708.3,198.5 708.2,198.6 708.0,198.6 707.9,198.7 707.8,198.7 707.7,198.8 707.5,198.8 707.4,198.9 707.3,198.9 707.2,199.0
707.0,199.0 706.9,199.1 706.8,199.1 706.7,199.2 706.5,199.2 706.4,199.3 706.3,199.3 706.2,199.4 706.0,199.4 705.9,199.4 705.8,199.5 705.6,199.5 705.5,199.5 705.4,199.6 705.3,199.6 705.1,199.6
705.0,199.7 704.9,199.7 704.8,199.7 704.6,199.8 704.5,199.8 704.4,199.8 704.3,199.9 704.1,199.9 704.0,199.9 703.9,199.9 703.8,200.0 703.6,200.0 703.5,200.0 703.4,200.0 703.2,200.1 703.1,200.1
703.0,200.1 702.9,200.1 702.7,200.2 702.6,200.2 702.5,200.2 702.4,200.2 702.2,200.2 702.1,200.3 702.0,200.3 701.9,200.3 701.7,200.3 701.6,200.3 701.5,200.4 701.3,200.4 701.2,200.4 701.1,200.4
701.0,200.5 700.8,200.5 700.7,200.5 700.6,200.5 700.5,200.5 700.3,200.6 700.2,200.6 700.1,200.6 700.0,200.6 699.8,200.7 699.7,200.7 699.6,200.7 699.5,200.7 699.3,200.8 699.2,200.8 699.1,200.8
698.9,200.9 698.8,200.9 698.7,200.9 698.6,201.0 698.4,201.0 698.3,201.0 698.2,201.1 698.1,201.1 697.9,201.1 697.8,201.2 697.7,201.2 697.6,201.3 697.4,201.3 697.3,201.4 697.2,201.4 697.0,201.5
696.9,201.5 696.8,201.6 696.7,201.6 696.5,201.7 696.4,201.8 696.3,201.8 696.2,201.9 696.0,202.0 695.9,202.0 695.8,202.1 695.7,202.2 695.5,202.2 695.4,202.3 695.3,202.4 695.2,202.5 695.0,202.6
694.9,202.6 694.8,202.7 694.6,202.8 694.5,202.9 694.4,203.0 694.3,203.1 694.1,203.2 694.0,203.3 693.9,203.4 693.8,203.5 693.6,203.6 693.5,203.7 693.4,203.8 693.3,203.9 693.1,204.0 693.0,204.1
692.9,204.2 692.7,204.3 692.6,204.4 692.5,204.6 692.4,204.7 692.2,204.8 692.1,204.9 692.0,205.0 691.9,205.1 691.7,205.2 691.6,205.4 691.5,205.5 691.4,205.6 691.2,205.7 691.1,205.8 691.0,206.0
690.9,206.1 690.7,206.2 690.6,206.3 690.5,206.4 690.3,206.5 690.2,206.7 690.1,206.8 690.0,206.9 689.8,207.0 689.7,207.1 689.6,207.2 689.5,207.3 689.3,207.4 689.2,207.6 689.1,207.7 689.0,207.8
688.8,207.9 688.7,208.0 688.6,208.1 688.5,208.2 688.3,208.3 688.2,208.4 688.1,208.5 687.9,208.6 687.8,208.7 687.7,208.8 687.6,208.9 687.4,209.0 687.3,209.1 687.2,209.2 687.1,209.2 686.9,209.3
686.8,209.4 686.7,209.5 686.6,209.6 686.4,209.6 686.3,209.7 686.2,209.8 686.0,209.9 685.9,209.9 685.8,210.0 685.7,210.1 685.5,210.1 685.4,210.2 685.3,210.2 685.2,210.3 685.0,210.3 684.9,210.4
684.8,210.4 684.7,210.5 684.5,210.5 684.4,210.6 684.3,210.6 684.2,210.7 684.0,210.7 683.9,210.7 683.8,210.8 683.6,210.8 683.5,210.8 683.4,210.8 683.3,210.9 683.1,210.9 683.0,210.9 682.9,210.9
682.8,210.9 682.6,211.0 682.5,211.0 682.4,211.0 682.3,211.0 682.1,211.0 682.0,211.0 681.9,211.0 681.7,211.0 681.6,211.0 681.5,211.0 681.4,211.0 681.2,210.9 681.1,210.9 681.0,210.9 680.9,210.9
680.7,210.9 680.6,210.8 680.5,210.8 680.4,210.8 680.2,210.7 680.1,210.7 680.0,210.7 679.9,210.6 679.7,210.6 679.6,210.5 679.5,210.5 679.3,210.4 679.2,210.3 679.1,210.3 679.0,210.2 678.8,210.1
678.7,210.0 678.6,210.0 678.5,209.9 678.3,209.8 678.2,209.7 678.1,209.6 678.0,209.5 677.8,209.4 677.7,209.2 677.6,209.1 677.5,209.0 677.3,208.9 677.2,208.7 677.1,208.6 676.9,208.4 676.8,208.3
676.7,208.1 676.6,208.0 676.4,207.8 676.3,207.6 676.2,207.5 676.1,207.3 675.9,207.1 675.8,206.9 675.7,206.7 675.6,206.5 675.4,206.3 675.3,206.1 675.2,205.9 675.0,205.7 674.9,205.5 674.8,205.3
674.7,205.1 674.5,204.9 674.4,204.6 674.3,204.4 674.2,204.2 674.0,203.9 673.9,203.7 673.8,203.5 673.7,203.2 673.5,203.0 673.4,202.8 673.3,202.5 673.2,202.3 673.0,202.1 672.9,201.8 672.8,201.6
672.6,201.4 672.5,201.1 672.4,200.9 672.3,200.7 672.1,200.4 672.0,200.2 671.9,200.0 671.8,199.8 671.6,199.6 671.5,199.3 671.4,199.1 671.3,198.9 671.1,198.7 671.0,198.5 670.9,198.3 670.7,198.1
670.6,197.9 670.5,197.7 670.4,197.6 670.2,197.4 670.1,197.2 670.0,197.0 669.9,196.9 669.7,196.7 669.6,196.5 669.5,196.4 669.4,196.2 669.2,196.1 669.1,196.0 669.0,195.8 668.9,195.7 668.7,195.6
668.6,195.4 668.5,195.3 668.3,195.2 668.2,195.1 668.1,195.0 668.0,194.9 667.8,194.8 667.7,194.7 667.6,194.6 667.5,194.5 667.3,194.5 667.2,194.4 667.1,194.3 667.0,194.2 666.8,194.2 666.7,194.1
666.6,194.0 666.4,194.0 666.3,193.9 666.2,193.9 666.1,193.8 665.9,193.8 665.8,193.7 665.7,193.7 665.6,193.7 665.4,193.6 665.3,193.6 665.2,193.6 665.1,193.5 664.9,193.5 664.8,193.5 664.7,193.4
664.6,193.4 664.4,193.4 664.3,193.4 664.2,193.4 664.0,193.3 663.9,193.3 663.8,193.3 663.7,193.3 663.5,193.3 663.4,193.3 663.3,193.2 663.2,193.2 663.0,193.2 662.9,193.2 662.8,193.2 662.7,193.2
662.5,193.2 662.4,193.2 662.3,193.2 662.2,193.2 662.0,193.2 661.9,193.2 661.8,193.2 661.6,193.2 '/>
	</g>
</g>
	</g>
	<g id="gnuplot_plot_4" ><title>gnuplot_plot_4</title>
<g fill="none" color="black" stroke="currentColor" stroke-width="1.00" stroke-linecap="butt" stroke-linejoin="miter">
	<g stroke='none' shape-rendering='crispEdges'>
		<polygon fill = 'rgb( 31, 120, 180)' fill-opacity = '0.250000' points = '649.2,153.4 649.4,153.4 649.5,153.4 649.6,153.4 649.8,153.4 649.9,153.4 650.1,153.4 650.2,153.3 650.4,153.3 650.5,153.3 650.6,153.3 650.8,153.3 650.9,153.3 651.1,153.3 651.2,153.3 651.4,153.3
651.5,153.3 651.6,153.3 651.8,153.3 651.9,153.3 652.1,153.3 652.2,153.2 652.4,153.2 652.5,153.2 652.6,153.2 652.8,153.2 652.9,153.2 653.1,153.2 653.2,153.1 653.4,153.1 653.5,153.1 653.7,153.1
653.8,153.0 653.9,153.0 654.1,153.0 654.2,153.0 654.4,152.9 654.5,152.9 654.7,152.9 654.8,152.8 654.9,152.8 655.1,152.8 655.2,152.7 655.4,152.7 655.5,152.6 655.7,152.6 655.8,152.5 655.9,152.4
656.1,152.4 656.2,152.3 656.4,152.3 656.5,152.2 656.7,152.1 656.8,152.0 656.9,152.0 657.1,151.9 657.2,151.8 657.4,151.7 657.5,151.6 657.7,151.5 657.8,151.4 657.9,151.3 658.1,151.2 658.2,151.0
658.4,150.9 658.5,150.8 658.7,150.7 658.8,150.5 658.9,150.4 659.1,150.2 659.2,150.1 659.4,149.9 659.5,149.7 659.7,149.6 659.8,149.4 659.9,149.2 660.1,149.0 660.2,148.9 660.4,148.7 660.5,148.5
660.7,148.3 660.8,148.1 660.9,147.8 661.1,147.6 661.2,147.4 661.4,147.2 661.5,146.9 661.7,146.7 661.8,146.5 661.9,146.2 662.1,146.0 662.2,145.7 662.4,145.5 662.5,145.2 662.7,145.0 662.8,144.7
662.9,144.4 663.1,144.2 663.2,143.9 663.4,143.6 663.5,143.4 663.7,143.1 663.8,142.8 663.9,142.6 664.1,142.3 664.2,142.0 664.4,141.7 664.5,141.5 664.7,141.2 664.8,140.9 664.9,140.7 665.1,140.4
665.2,140.2 665.4,139.9 665.5,139.7 665.7,139.4 665.8,139.2 665.9,139.0 666.1,138.7 666.2,138.5 666.4,138.3 666.5,138.1 666.7,137.9 666.8,137.7 667.0,137.5 667.1,137.3 667.2,137.1 667.4,137.0
667.5,136.8 667.7,136.7 667.8,136.5 668.0,136.4 668.1,136.3 668.2,136.2 668.4,136.0 668.5,136.0 668.7,135.9 668.8,135.8 669.0,135.7 669.1,135.7 669.2,135.6 669.4,135.6 669.5,135.5 669.7,135.5
669.8,135.5 670.0,135.5 670.1,135.5 670.2,135.5 670.4,135.6 670.5,135.6 670.7,135.7 670.8,135.7 671.0,135.8 671.1,135.8 671.2,135.9 671.4,136.0 671.5,136.1 671.7,136.2 671.8,136.3 672.0,136.4
672.1,136.5 672.2,136.6 672.4,136.8 672.5,136.9 672.7,137.0 672.8,137.2 673.0,137.3 673.1,137.5 673.2,137.6 673.4,137.8 673.5,137.9 673.7,138.1 673.8,138.3 674.0,138.4 674.1,138.6 674.2,138.8
674.4,138.9 674.5,139.1 674.7,139.3 674.8,139.4 675.0,139.6 675.1,139.8 675.2,139.9 675.4,140.1 675.5,140.3 675.7,140.4 675.8,140.6 676.0,140.8 676.1,140.9 676.2,141.1 676.4,141.2 676.5,141.4
676.7,141.5 676.8,141.7 677.0,141.8 677.1,142.0 677.2,142.1 677.4,142.2 677.5,142.4 677.7,142.5 677.8,142.6 678.0,142.7 678.1,142.8 678.2,143.0 678.4,143.1 678.5,143.2 678.7,143.3 678.8,143.4
679.0,143.5 679.1,143.6 679.2,143.6 679.4,143.7 679.5,143.8 679.7,143.9 679.8,144.0 680.0,144.0 680.1,144.1 680.3,144.2 680.4,144.2 680.5,144.3 680.7,144.4 680.8,144.4 681.0,144.5 681.1,144.5
681.3,144.6 681.4,144.6 681.5,144.7 681.7,144.7 681.8,144.8 682.0,144.8 682.1,144.8 682.3,144.9 682.4,144.9 682.5,144.9 682.7,145.0 682.8,145.0 683.0,145.0 683.1,145.1 683.3,145.1 683.4,145.1
683.5,145.1 683.7,145.2 683.8,145.2 684.0,145.2 684.1,145.2 684.3,145.3 684.4,145.3 684.5,145.3 684.7,145.3 684.8,145.4 685.0,145.4 685.1,145.4 685.3,145.4 685.4,145.4 685.5,145.4 685.7,145.5
685.8,145.5 686.0,145.5 686.1,145.5 686.3,145.5 686.4,145.5 686.5,145.6 686.7,145.6 686.8,145.6 687.0,145.6 687.1,145.6 687.3,145.6 687.4,145.6 687.5,145.6 687.7,145.7 687.8,145.7 688.0,145.7
688.1,145.7 688.3,145.7 688.4,145.7 688.5,145.7 688.7,145.7 688.8,145.7 689.0,145.7 689.1,145.7 689.3,145.7 689.4,145.7 689.5,145.7 689.7,145.7 689.8,145.8 690.0,145.8 690.1,145.8 690.3,145.8
690.4,145.8 690.5,145.8 690.7,145.8 690.8,145.8 691.0,145.8 691.1,145.8 691.3,145.8 691.4,145.8 691.5,145.8 691.7,145.8 691.8,145.8 692.0,145.8 692.1,145.8 692.3,145.8 692.4,145.8 692.5,145.8
692.7,145.8 692.8,145.8 693.0,145.8 693.1,145.8 693.3,145.8 693.4,145.8 693.6,145.8 693.7,145.8 693.8,145.8 694.0,145.9 694.1,145.9 694.3,145.9 694.4,145.9 694.6,145.9 694.7,145.9 694.8,146.0
695.0,146.0 695.1,146.0 695.3,146.0 695.4,146.1 695.6,146.1 695.7,146.1 695.8,146.2 696.0,146.2 696.1,146.2 696.3,146.3 696.4,146.3 696.6,146.4 696.7,146.4 696.8,146.5 697.0,146.5 697.1,146.6
697.3,146.6 697.4,146.7 697.6,146.7 697.7,146.8 697.8,146.8 698.0,146.9 698.1,147.0 698.3,147.0 698.4,147.1 698.6,147.2 698.7,147.2 698.8,147.3 699.0,147.4 699.1,147.4 699.3,147.5 699.4,147.6
699.6,147.7 699.7,147.7 699.8,147.8 700.0,147.9 700.1,148.0 700.3,148.1 700.4,148.1 700.6,148.2 700.7,148.3 700.8,148.4 701.0,148.5 701.1,148.6 701.3,148.6 701.4,148.7 701.6,148.8 701.7,148.9
701.8,149.0 702.0,149.0 702.1,149.1 702.3,149.2 702.4,149.3 702.6,149.4 702.7,149.5 702.8,149.5 703.0,149.6 703.1,149.7 703.3,149.8 703.4,149.9 703.6,149.9 703.7,150.0 703.8,150.1 704.0,150.2
704.1,150.2 704.3,150.3 704.4,150.4 704.6,150.5 704.7,150.5 704.8,150.6 705.0,150.7 705.1,150.7 705.3,150.8 705.4,150.9 705.6,150.9 705.7,151.0 705.8,151.1 706.0,151.1 706.1,151.2 706.3,151.2
706.4,151.3 706.6,151.4 706.7,151.4 706.9,151.5 707.0,151.5 707.1,151.6 707.3,151.7 707.4,151.7 707.6,151.8 707.7,151.8 707.9,151.9 708.0,151.9 708.1,152.0 708.3,152.0 708.4,152.1 708.6,152.1
708.7,152.1 708.9,152.2 709.0,152.2 709.1,152.3 709.3,152.3 709.4,152.4 709.6,152.4 709.7,152.4 709.9,152.5 710.0,152.5 710.1,152.5 710.3,152.6 710.4,152.6 710.6,152.6 710.7,152.7 710.9,152.7
711.0,152.7 711.1,152.8 711.3,152.8 711.4,152.8 711.6,152.8 711.7,152.9 711.9,152.9 712.0,152.9 712.1,152.9 712.3,153.0 712.4,153.0 712.6,153.0 712.7,153.0 712.9,153.0 713.0,153.1 713.1,153.1
713.3,153.1 713.4,153.1 713.6,153.1 713.7,153.1 713.9,153.2 714.0,153.2 714.1,153.2 714.3,153.2 714.4,153.2 714.6,153.2 714.7,153.2 714.9,153.2 715.0,153.2 715.1,153.3 715.3,153.3 715.4,153.3
715.6,153.3 715.7,153.3 715.9,153.3 716.0,153.3 716.1,153.3 716.3,153.3 716.4,153.3 716.6,153.3 716.7,153.3 716.9,153.3 717.0,153.3 717.1,153.3 717.3,153.3 717.4,153.3 717.6,153.3 717.7,153.4
717.9,153.4 718.0,153.4 718.1,153.4 718.3,153.4 718.4,153.4 718.6,153.4 718.7,153.4 718.9,153.4 719.0,153.4 719.1,153.4 719.3,153.4 719.4,153.4 719.6,153.4 719.7,153.4 719.9,153.4 720.0,153.4
720.2,153.4 720.3,153.4 720.4,153.4 720.6,153.4 720.6,153.4 720.4,153.4 720.3,153.4 720.2,153.4 720.0,153.4 719.9,153.4 719.7,153.4 719.6,153.4 719.4,153.4 719.3,153.4 719.1,153.4 719.0,153.4
718.9,153.4 718.7,153.4 718.6,153.4 718.4,153.4 718.3,153.4 718.1,153.4 718.0,153.4 717.9,153.4 717.7,153.4 717.6,153.4 717.4,153.4 717.3,153.4 717.1,153.4 717.0,153.4 716.9,153.5 716.7,153.5
716.6,153.5 716.4,153.5 716.3,153.5 716.1,153.5 716.0,153.5 715.9,153.5 715.7,153.5 715.6,153.5 715.4,153.5 715.3,153.5 715.1,153.5 715.0,153.5 714.9,153.6 714.7,153.6 714.6,153.6 714.4,153.6
714.3,153.6 714.1,153.6 714.0,153.6 713.9,153.6 713.7,153.6 713.6,153.7 713.4,153.7 713.3,153.7 713.1,153.7 713.0,153.7 712.9,153.7 712.7,153.8 712.6,153.8 712.4,153.8 712.3,153.8 712.1,153.8
712.0,153.9 711.9,153.9 711.7,153.9 711.6,153.9 711.4,154.0 711.3,154.0 711.1,154.0 711.0,154.1 710.9,154.1 710.7,154.1 710.6,154.1 710.4,154.2 710.3,154.2 710.1,154.2 710.0,154.3 709.9,154.3
709.7,154.4 709.6,154.4 709.4,154.4 709.3,154.5 709.1,154.5 709.0,154.6 708.9,154.6 708.7,154.6 708.6,154.7 708.4,154.7 708.3,154.8 708.1,154.8 708.0,154.9 707.9,154.9 707.7,155.0 707.6,155.0
707.4,155.1 707.3,155.1 707.1,155.2 707.0,155.2 706.9,155.3 706.7,155.4 706.6,155.4 706.4,155.5 706.3,155.5 706.1,155.6 706.0,155.7 705.8,155.7 705.7,155.8 705.6,155.9 705.4,155.9 705.3,156.0
705.1,156.1 705.0,156.1 704.8,156.2 704.7,156.3 704.6,156.3 704.4,156.4 704.3,156.5 704.1,156.6 704.0,156.6 703.8,156.7 703.7,156.8 703.6,156.9 703.4,156.9 703.3,157.0 703.1,157.1 703.0,157.2
702.8,157.2 702.7,157.3 702.6,157.4 702.4,157.5 702.3,157.6 702.1,157.7 702.0,157.7 701.8,157.8 701.7,157.9 701.6,158.0 701.4,158.1 701.3,158.1 701.1,158.2 701.0,158.3 700.8,158.4 700.7,158.5
700.6,158.6 700.4,158.6 700.3,158.7 700.1,158.8 700.0,158.9 699.8,159.0 699.7,159.0 699.6,159.1 699.4,159.2 699.3,159.3 699.1,159.3 699.0,159.4 698.8,159.5 698.7,159.5 698.6,159.6 698.4,159.7
698.3,159.8 698.1,159.8 698.0,159.9 697.8,159.9 697.7,160.0 697.6,160.1 697.4,160.1 697.3,160.2 697.1,160.2 697.0,160.3 696.8,160.3 696.7,160.4 696.6,160.4 696.4,160.5 696.3,160.5 696.1,160.5
696.0,160.6 695.8,160.6 695.7,160.6 695.6,160.7 695.4,160.7 695.3,160.7 695.1,160.8 695.0,160.8 694.8,160.8 694.7,160.8 694.6,160.9 694.4,160.9 694.3,160.9 694.1,160.9 694.0,160.9 693.8,160.9
693.7,160.9 693.6,161.0 693.4,161.0 693.3,161.0 693.1,161.0 693.0,161.0 692.8,161.0 692.7,161.0 692.5,161.0 692.4,161.0 692.3,161.0 692.1,161.0 692.0,161.0 691.8,161.0 691.7,161.0 691.5,161.0
691.4,161.0 691.3,161.0 691.1,161.0 691.0,161.0 690.8,161.0 690.7,161.0 690.5,161.0 690.4,161.0 690.3,161.0 690.1,161.0 690.0,161.0 689.8,161.0 689.7,161.0 689.5,161.0 689.4,161.0 689.3,161.0
689.1,161.1 689.0,161.1 688.8,161.1 688.7,161.1 688.5,161.1 688.4,161.1 688.3,161.1 688.1,161.1 688.0,161.1 687.8,161.1 687.7,161.1 687.5,161.1 687.4,161.1 687.3,161.2 687.1,161.2 687.0,161.2
686.8,161.2 686.7,161.2 686.5,161.2 686.4,161.2 686.3,161.3 686.1,161.3 686.0,161.3 685.8,161.3 685.7,161.3 685.5,161.3 685.4,161.4 685.3,161.4 685.1,161.4 685.0,161.4 684.8,161.4 684.7,161.5
684.5,161.5 684.4,161.5 684.3,161.5 684.1,161.5 684.0,161.6 683.8,161.6 683.7,161.6 683.5,161.6 683.4,161.7 683.3,161.7 683.1,161.7 683.0,161.7 682.8,161.8 682.7,161.8 682.5,161.8 682.4,161.9
682.3,161.9 682.1,161.9 682.0,162.0 681.8,162.0 681.7,162.1 681.5,162.1 681.4,162.2 681.3,162.2 681.1,162.3 681.0,162.3 680.8,162.4 680.7,162.4 680.5,162.5 680.4,162.5 680.3,162.6 680.1,162.7
680.0,162.7 679.8,162.8 679.7,162.9 679.5,163.0 679.4,163.1 679.2,163.1 679.1,163.2 679.0,163.3 678.8,163.4 678.7,163.5 678.5,163.6 678.4,163.7 678.2,163.8 678.1,163.9 678.0,164.1 677.8,164.2
677.7,164.3 677.5,164.4 677.4,164.6 677.2,164.7 677.1,164.8 677.0,165.0 676.8,165.1 676.7,165.3 676.5,165.4 676.4,165.6 676.2,165.7 676.1,165.9 676.0,166.0 675.8,166.2 675.7,166.3 675.5,166.5
675.4,166.7 675.2,166.8 675.1,167.0 675.0,167.2 674.8,167.4 674.7,167.5 674.5,167.7 674.4,167.9 674.2,168.0 674.1,168.2 674.0,168.4 673.8,168.5 673.7,168.7 673.5,168.9 673.4,169.0 673.2,169.2
673.1,169.3 673.0,169.5 672.8,169.6 672.7,169.8 672.5,169.9 672.4,170.0 672.2,170.2 672.1,170.3 672.0,170.4 671.8,170.5 671.7,170.6 671.5,170.7 671.4,170.8 671.2,170.9 671.1,171.0 671.0,171.0
670.8,171.1 670.7,171.1 670.5,171.2 670.4,171.2 670.2,171.2 670.1,171.3 670.0,171.3 669.8,171.3 669.7,171.3 669.5,171.2 669.4,171.2 669.2,171.2 669.1,171.1 669.0,171.1 668.8,171.0 668.7,170.9
668.5,170.8 668.4,170.7 668.2,170.6 668.1,170.5 668.0,170.4 667.8,170.3 667.7,170.1 667.5,170.0 667.4,169.8 667.2,169.6 667.1,169.5 667.0,169.3 666.8,169.1 666.7,168.9 666.5,168.7 666.4,168.5
666.2,168.3 666.1,168.1 665.9,167.8 665.8,167.6 665.7,167.3 665.5,167.1 665.4,166.9 665.2,166.6 665.1,166.4 664.9,166.1 664.8,165.8 664.7,165.6 664.5,165.3 664.4,165.0 664.2,164.8 664.1,164.5
663.9,164.2 663.8,164.0 663.7,163.7 663.5,163.4 663.4,163.1 663.2,162.9 663.1,162.6 662.9,162.3 662.8,162.1 662.7,161.8 662.5,161.6 662.4,161.3 662.2,161.1 662.1,160.8 661.9,160.6 661.8,160.3
661.7,160.1 661.5,159.8 661.4,159.6 661.2,159.4 661.1,159.2 660.9,158.9 660.8,158.7 660.7,158.5 660.5,158.3 660.4,158.1 660.2,157.9 660.1,157.7 659.9,157.6 659.8,157.4 659.7,157.2 659.5,157.0
659.4,156.9 659.2,156.7 659.1,156.6 658.9,156.4 658.8,156.3 658.7,156.1 658.5,156.0 658.4,155.9 658.2,155.7 658.1,155.6 657.9,155.5 657.8,155.4 657.7,155.3 657.5,155.2 657.4,155.1 657.2,155.0
657.1,154.9 656.9,154.8 656.8,154.7 656.7,154.7 656.5,154.6 656.4,154.5 656.2,154.5 656.1,154.4 655.9,154.3 655.8,154.3 655.7,154.2 655.5,154.2 655.4,154.1 655.2,154.1 655.1,154.0 654.9,154.0
654.8,154.0 654.7,153.9 654.5,153.9 654.4,153.8 654.2,153.8 654.1,153.8 653.9,153.8 653.8,153.7 653.7,153.7 653.5,153.7 653.4,153.7 653.2,153.6 653.1,153.6 652.9,153.6 652.8,153.6 652.6,153.6
652.5,153.6 652.4,153.6 652.2,153.5 652.1,153.5 651.9,153.5 651.8,153.5 651.6,153.5 651.5,153.5 651.4,153.5 651.2,153.5 651.1,153.5 650.9,153.5 650.8,153.5 650.6,153.4 650.5,153.4 650.4,153.4
650.2,153.4 650.1,153.4 649.9,153.4 649.8,153.4 649.6,153.4 649.5,153.4 649.4,153.4 649.2,153.4 '/>
	</g>
</g>
	</g>
	<g id="gnuplot_plot_5" ><title>gnuplot_plot_5</title>
<g fill="none" color="black" stroke="currentColor" stroke-width="1.00" stroke-linecap="butt" stroke-linejoin="miter">
	<g stroke='none' shape-rendering='crispEdges'>
		<polygon fill = 'rgb( 31, 120, 180)' fill-opacity = '0.250000' points = '868.1,113.7 868.5,113.7 868.9,113.7 869.3,113.7 869.7,113.7 870.1,113.6 870.5,113.6 870.9,113.6 871.3,113.6 871.7,113.6 872.1,113.6 872.5,113.6 872.9,113.6 873.3,113.6 873.7,113.6 874.1,113.6
874.5,113.5 874.9,113.5 875.3,113.5 875.7,113.5 876.1,113.5 876.5,113.4 876.9,113.4 877.3,113.4 877.7,113.4 878.1,113.3 878.5,113.3 878.9,113.2 879.3,113.2 879.6,113.2 880.0,113.1 880.4,113.0
880.8,113.0 881.2,112.9 881.6,112.9 882.0,112.8 882.4,112.7 882.8,112.6 883.2,112.6 883.6,112.5 884.0,112.4 884.4,112.3 884.8,112.2 885.2,112.1 885.6,112.0 886.0,111.9 886.4,111.8 886.8,111.6
887.2,111.5 887.6,111.4 888.0,111.3 888.4,111.1 888.8,111.0 889.2,110.9 889.6,110.7 890.0,110.6 890.4,110.5 890.8,110.3 891.2,110.2 891.5,110.0 891.9,109.9 892.3,109.7 892.7,109.5 893.1,109.4
893.5,109.2 893.9,109.1 894.3,108.9 894.7,108.7 895.1,108.6 895.5,108.4 895.9,108.2 896.3,108.0 896.7,107.9 897.1,107.7 897.5,107.5 897.9,107.3 898.3,107.1 898.7,106.9 899.1,106.7 899.5,106.5
899.9,106.3 900.3,106.1 900.7,105.9 901.1,105.7 901.5,105.4 901.9,105.2 902.3,105.0 902.7,104.8 903.1,104.5 903.4,104.3 903.8,104.0 904.2,103.8 904.6,103.5 905.0,103.3 905.4,103.0 905.8,102.7
906.2,102.5 906.6,102.2 907.0,101.9 907.4,101.6 907.8,101.4 908.2,101.1 908.6,100.8 909.0,100.6 909.4,100.3 909.8,100.0 910.2,99.8 910.6,99.5 911.0,99.2 911.4,99.0 911.8,98.7 912.2,98.5
912.6,98.3 913.0,98.0 913.4,97.8 913.8,97.6 914.2,97.4 914.6,97.2 915.0,97.0 915.3,96.9 915.7,96.7 916.1,96.6 916.5,96.4 916.9,96.3 917.3,96.2 917.7,96.1 918.1,96.0 918.5,96.0
918.9,95.9 919.3,95.9 919.7,95.8 920.1,95.8 920.5,95.8 920.9,95.8 921.3,95.8 921.7,95.9 922.1,95.9 922.5,96.0 922.9,96.0 923.3,96.1 923.7,96.2 924.1,96.3 924.5,96.4 924.9,96.6
925.3,96.7 925.7,96.9 926.1,97.0 926.5,97.2 926.9,97.3 927.2,97.5 927.6,97.7 928.0,97.9 928.4,98.1 928.8,98.3 929.2,98.6 929.6,98.8 930.0,99.0 930.4,99.3 930.8,99.5 931.2,99.8
931.6,100.0 932.0,100.3 932.4,100.5 932.8,100.8 933.2,101.1 933.6,101.4 934.0,101.6 934.4,101.9 934.8,102.2 935.2,102.5 935.6,102.8 936.0,103.1 936.4,103.4 936.8,103.7 937.2,104.0 937.6,104.3
938.0,104.5 938.4,104.8 938.8,105.1 939.1,105.4 939.5,105.7 939.9,106.0 940.3,106.3 940.7,106.6 941.1,106.8 941.5,107.1 941.9,107.4 942.3,107.7 942.7,107.9 943.1,108.2 943.5,108.4 943.9,108.7
944.3,108.9 944.7,109.1 945.1,109.4 945.5,109.6 945.9,109.8 946.3,110.0 946.7,110.2 947.1,110.4 947.5,110.6 947.9,110.8 948.3,111.0 948.7,111.1 949.1,111.3 949.5,111.4 949.9,111.6 950.3,111.7
950.7,111.9 951.0,112.0 951.4,112.1 951.8,112.2 952.2,112.3 952.6,112.4 953.0,112.5 953.4,112.6 953.8,112.7 954.2,112.7 954.6,112.8 955.0,112.9 955.4,112.9 955.8,113.0 956.2,113.0 956.6,113.1
957.0,113.1 957.4,113.1 957.8,113.1 958.2,113.2 958.6,113.2 959.0,113.2 959.4,113.2 959.8,113.2 960.2,113.3 960.6,113.3 961.0,113.3 961.4,113.3 961.8,113.3 962.2,113.3 962.6,113.3 962.9,113.3
963.3,113.3 963.7,113.3 964.1,113.3 964.5,113.3 964.9,113.3 965.3,113.3 965.7,113.3 966.1,113.3 966.5,113.3 966.9,113.3 967.3,113.3 967.7,113.3 968.1,113.3 968.5,113.3 968.9,113.3 969.3,113.3
969.7,113.3 970.1,113.3 970.5,113.4 970.9,113.4 971.3,113.4 971.7,113.4 972.1,113.4 972.5,113.4 972.9,113.4 973.3,113.4 973.7,113.4 974.1,113.4 974.5,113.5 974.8,113.5 975.2,113.5 975.6,113.5
976.0,113.5 976.4,113.5 976.8,113.5 977.2,113.5 977.6,113.5 978.0,113.5 978.4,113.6 978.8,113.6 979.2,113.6 979.6,113.6 980.0,113.6 980.4,113.6 980.8,113.6 981.2,113.6 981.6,113.6 982.0,113.6
982.4,113.6 982.8,113.6 983.2,113.6 983.6,113.6 984.0,113.6 984.4,113.6 984.8,113.7 985.2,113.7 985.6,113.7 986.0,113.7 986.4,113.7 986.7,113.7 987.1,113.7 987.5,113.7 987.9,113.7 988.3,113.7
988.7,113.7 989.1,113.7 989.5,113.7 989.9,113.7 990.3,113.7 990.7,113.7 991.1,113.7 991.5,113.7 991.9,113.7 992.3,113.7 992.7,113.7 993.1,113.7 993.5,113.7 993.9,113.7 994.3,113.7 994.7,113.7
995.1,113.7 995.5,113.7 995.9,113.7 996.3,113.7 996.7,113.7 997.1,113.7 997.5,113.7 997.9,113.7 998.2,113.7 998.6,113.7 999.0,113.7 999.4,113.7 999.8,113.7 1000.2,113.7 1000.6,113.7 1001.0,113.7
1001.4,113.7 1001.8,113.7 1002.2,113.7 1002.6,113.7 1003.0,113.7 1003.4,113.7 1003.8,113.7 1004.2,113.7 1004.6,113.7 1005.0,113.7 1005.4,113.7 1005.8,113.7 1006.2,113.7 1006.6,113.7 1007.0,113.7 1007.4,113.7
1007.8,113.7 1008.2,113.7 1008.6,113.7 1009.0,113.7 1009.4,113.7 1009.8,113.7 1010.1,113.7 1010.5,113.7 1010.9,113.7 1011.3,113.7 1011.7,113.7 1012.1,113.7 1012.5,113.7 1012.9,113.7 1013.3,113.7 1013.7,113.7
1014.1,113.7 1014.5,113.7 1014.9,113.7 1015.3,113.7 1015.7,113.7 1016.1,113.7 1016.5,113.7 1016.9,113.7 1017.3,113.7 1017.7,113.7 1018.1,113.7 1018.5,113.7 1018.9,113.7 1019.3,113.7 1019.7,113.7 1020.1,113.7
1020.5,113.7 1020.9,113.7 1021.3,113.7 1021.7,113.7 1022.0,113.7 1022.4,113.7 1022.8,113.7 1023.2,113.7 1023.6,113.7 1024.0,113.7 1024.4,113.7 1024.8,113.7 1025.2,113.7 1025.6,113.6 1026.0,113.6 1026.4,113.6
1026.8,113.6 1027.2,113.6 1027.6,113.6 1028.0,113.6 1028.4,113.6 1028.8,113.6 1029.2,113.6 1029.6,113.6 1030.0,113.6 1030.4,113.6 1030.8,113.6 1031.2,113.6 1031.6,113.6 1032.0,113.5 1032.4,113.5 1032.8,113.5
1033.2,113.5 1033.6,113.5 1033.9,113.5 1034.3,113.5 1034.7,113.5 1035.1,113.5 1035.5,113.5 1035.9,113.4 1036.3,113.4 1036.7,113.4 1037.1,113.4 1037.5,113.4 1037.9,113.4 1038.3,113.4 1038.7,113.4 1039.1,113.4
1039.5,113.4 1039.9,113.3 1040.3,113.3 1040.7,113.3 1041.1,113.3 1041.5,113.3 1041.9,113.3 1042.3,113.3 1042.7,113.3 1043.1,113.3 1043.5,113.3 1043.9,113.3 1044.3,113.3 1044.7,113.3 1045.1,113.3 1045.5,113.3
1045.8,113.3 1046.2,113.3 1046.6,113.4 1047.0,113.4 1047.4,113.4 1047.8,113.4 1048.2,113.4 1048.6,113.4 1049.0,113.4 1049.4,113.4 1049.8,113.4 1050.2,113.4 1050.6,113.5 1051.0,113.5 1051.4,113.5 1051.8,113.5
1052.2,113.5 1052.6,113.5 1053.0,113.5 1053.4,113.5 1053.8,113.5 1054.2,113.6 1054.6,113.6 1055.0,113.6 1055.4,113.6 1055.8,113.6 1056.2,113.6 1056.6,113.6 1057.0,113.6 1057.4,113.6 1057.7,113.6 1058.1,113.6
1058.5,113.6 1058.9,113.6 1059.3,113.6 1059.7,113.6 1060.1,113.6 1060.5,113.6 1060.9,113.7 1061.3,113.7 1061.7,113.7 1062.1,113.7 1062.5,113.7 1062.9,113.7 1063.3,113.7 1063.7,113.7 1064.1,113.7 1064.5,113.7
1064.9,113.7 1065.3,113.7 1065.7,113.7 1066.1,113.7 1066.1,113.7 1065.7,113.7 1065.3,113.7 1064.9,113.7 1064.5,113.7 1064.1,113.7 1063.7,113.7 1063.3,113.7 1062.9,113.7 1062.5,113.7 1062.1,113.7 1061.7,113.7
1061.3,113.7 1060.9,113.7 1060.5,113.7 1060.1,113.7 1059.7,113.7 1059.3,113.7 1058.9,113.7 1058.5,113.7 1058.1,113.7 1057.7,113.7 1057.4,113.7 1057.0,113.7 1056.6,113.8 1056.2,113.8 1055.8,113.8 1055.4,113.8
1055.0,113.8 1054.6,113.8 1054.2,113.8 1053.8,113.8 1053.4,113.8 1053.0,113.8 1052.6,113.8 1052.2,113.8 1051.8,113.9 1051.4,113.9 1051.0,113.9 1050.6,113.9 1050.2,113.9 1049.8,113.9 1049.4,113.9 1049.0,113.9
1048.6,113.9 1048.2,114.0 1047.8,114.0 1047.4,114.0 1047.0,114.0 1046.6,114.0 1046.2,114.0 1045.8,114.0 1045.5,114.0 1045.1,114.0 1044.7,114.0 1044.3,114.0 1043.9,114.0 1043.5,114.0 1043.1,114.0 1042.7,114.0
1042.3,114.0 1041.9,114.0 1041.5,114.0 1041.1,114.0 1040.7,114.0 1040.3,114.0 1039.9,114.0 1039.5,114.0 1039.1,114.0 1038.7,114.0 1038.3,114.0 1037.9,114.0 1037.5,114.0 1037.1,113.9 1036.7,113.9 1036.3,113.9
1035.9,113.9 1035.5,113.9 1035.1,113.9 1034.7,113.9 1034.3,113.9 1033.9,113.9 1033.6,113.8 1033.2,113.8 1032.8,113.8 1032.4,113.8 1032.0,113.8 1031.6,113.8 1031.2,113.8 1030.8,113.8 1030.4,113.8 1030.0,113.8
1029.6,113.8 1029.2,113.7 1028.8,113.7 1028.4,113.7 1028.0,113.7 1027.6,113.7 1027.2,113.7 1026.8,113.7 1026.4,113.7 1026.0,113.7 1025.6,113.7 1025.2,113.7 1024.8,113.7 1024.4,113.7 1024.0,113.7 1023.6,113.7
1023.2,113.7 1022.8,113.7 1022.4,113.7 1022.0,113.7 1021.7,113.7 1021.3,113.7 1020.9,113.7 1020.5,113.7 1020.1,113.7 1019.7,113.7 1019.3,113.7 1018.9,113.7 1018.5,113.7 1018.1,113.7 1017.7,113.7 1017.3,113.7
1016.9,113.7 1016.5,113.7 1016.1,113.7 1015.7,113.7 1015.3,113.7 1014.9,113.7 1014.5,113.7 1014.1,113.7 1013.7,113.7 1013.3,113.7 1012.9,113.7 1012.5,113.7 1012.1,113.7 1011.7,113.7 1011.3,113.7 1010.9,113.7
1010.5,113.7 1010.1,113.7 1009.8,113.7 1009.4,113.7 1009.0,113.7 1008.6,113.7 1008.2,113.7 1007.8,113.7 1007.4,113.7 1007.0,113.7 1006.6,113.7 1006.2,113.7 1005.8,113.7 1005.4,113.7 1005.0,113.7 1004.6,113.7
1004.2,113.7 1003.8,113.7 1003.4,113.7 1003.0,113.7 1002.6,113.7 1002.2,113.7 1001.8,113.7 1001.4,113.7 1001.0,113.7 1000.6,113.7 1000.2,113.7 999.8,113.7 999.4,113.7 999.0,113.7 998.6,113.7 998.2,113.7
997.9,113.7 997.5,113.7 997.1,113.7 996.7,113.7 996.3,113.7 995.9,113.7 995.5,113.7 995.1,113.7 994.7,113.7 994.3,113.7 993.9,113.7 993.5,113.7 993.1,113.7 992.7,113.7 992.3,113.7 991.9,113.7
991.5,113.7 991.1,113.7 990.7,113.7 990.3,113.7 989.9,113.7 989.5,113.7 989.1,113.7 988.7,113.7 988.3,113.7 987.9,113.7 987.5,113.7 987.1,113.7 986.7,113.7 986.4,113.7 986.0,113.7 985.6,113.7
985.2,113.7 984.8,113.7 984.4,113.7 984.0,113.7 983.6,113.7 983.2,113.7 982.8,113.7 982.4,113.7 982.0,113.7 981.6,113.7 981.2,113.7 980.8,113.7 980.4,113.8 980.0,113.8 979.6,113.8 979.2,113.8
978.8,113.8 978.4,113.8 978.0,113.8 977.6,113.8 977.2,113.8 976.8,113.8 976.4,113.8 976.0,113.9 975.6,113.9 975.2,113.9 974.8,113.9 974.5,113.9 974.1,113.9 973.7,113.9 973.3,113.9 972.9,113.9
972.5,114.0 972.1,114.0 971.7,114.0 971.3,114.0 970.9,114.0 970.5,114.0 970.1,114.0 969.7,114.0 969.3,114.0 968.9,114.0 968.5,114.0 968.1,114.0 967.7,114.0 967.3,114.0 966.9,114.0 966.5,114.1
966.1,114.1 965.7,114.1 965.3,114.1 964.9,114.1 964.5,114.1 964.1,114.1 963.7,114.1 963.3,114.1 962.9,114.1 962.6,114.1 962.2,114.1 961.8,114.1 961.4,114.1 961.0,114.1 960.6,114.1 960.2,114.1
959.8,114.1 959.4,114.1 959.0,114.1 958.6,114.2 958.2,114.2 957.8,114.2 957.4,114.2 957.0,114.3 956.6,114.3 956.2,114.3 955.8,114.4 955.4,114.4 955.0,114.5 954.6,114.6 954.2,114.6 953.8,114.7
953.4,114.8 953.0,114.8 952.6,114.9 952.2,115.0 951.8,115.1 951.4,115.2 951.0,115.4 950.7,115.5 950.3,115.6 949.9,115.8 949.5,115.9 949.1,116.1 948.7,116.2 948.3,116.4 947.9,116.6 947.5,116.7
947.1,116.9 946.7,117.1 946.3,117.3 945.9,117.5 945.5,117.8 945.1,118.0 944.7,118.2 944.3,118.4 943.9,118.7 943.5,118.9 943.1,119.2 942.7,119.4 942.3,119.7 941.9,120.0 941.5,120.2 941.1,120.5
940.7,120.8 940.3,121.1 939.9,121.4 939.5,121.6 939.1,121.9 938.8,122.2 938.4,122.5 938.0,122.8 937.6,123.1 937.2,123.4 936.8,123.7 936.4,124.0 936.0,124.3 935.6,124.6 935.2,124.9 934.8,125.1
934.4,125.4 934.0,125.7 933.6,126.0 933.2,126.3 932.8,126.5 932.4,126.8 932.0,127.1 931.6,127.3 931.2,127.6 930.8,127.8 930.4,128.1 930.0,128.3 929.6,128.6 929.2,128.8 928.8,129.0 928.4,129.2
928.0,129.4 927.6,129.6 927.2,129.8 926.9,130.0 926.5,130.2 926.1,130.3 925.7,130.5 925.3,130.6 924.9,130.8 924.5,130.9 924.1,131.0 923.7,131.1 923.3,131.2 922.9,131.3 922.5,131.4 922.1,131.4
921.7,131.5 921.3,131.5 920.9,131.5 920.5,131.5 920.1,131.5 919.7,131.5 919.3,131.5 918.9,131.5 918.5,131.4 918.1,131.3 917.7,131.2 917.3,131.1 916.9,131.0 916.5,130.9 916.1,130.8 915.7,130.6
915.3,130.5 915.0,130.3 914.6,130.1 914.2,129.9 913.8,129.7 913.4,129.5 913.0,129.3 912.6,129.1 912.2,128.9 911.8,128.6 911.4,128.4 911.0,128.1 910.6,127.9 910.2,127.6 909.8,127.3 909.4,127.1
909.0,126.8 908.6,126.5 908.2,126.2 907.8,126.0 907.4,125.7 907.0,125.4 906.6,125.2 906.2,124.9 905.8,124.6 905.4,124.4 905.0,124.1 904.6,123.8 904.2,123.6 903.8,123.3 903.4,123.1 903.1,122.8
902.7,122.6 902.3,122.4 901.9,122.1 901.5,121.9 901.1,121.7 900.7,121.5 900.3,121.2 899.9,121.0 899.5,120.8 899.1,120.6 898.7,120.4 898.3,120.2 897.9,120.0 897.5,119.9 897.1,119.7 896.7,119.5
896.3,119.3 895.9,119.1 895.5,119.0 895.1,118.8 894.7,118.6 894.3,118.4 893.9,118.3 893.5,118.1 893.1,118.0 892.7,117.8 892.3,117.6 891.9,117.5 891.5,117.3 891.2,117.2 890.8,117.0 890.4,116.9
890.0,116.8 889.6,116.6 889.2,116.5 888.8,116.3 888.4,116.2 888.0,116.1 887.6,115.9 887.2,115.8 886.8,115.7 886.4,115.6 886.0,115.5 885.6,115.4 885.2,115.3 884.8,115.2 884.4,115.1 884.0,115.0
883.6,114.9 883.2,114.8 882.8,114.7 882.4,114.6 882.0,114.6 881.6,114.5 881.2,114.4 880.8,114.4 880.4,114.3 880.0,114.2 879.6,114.2 879.3,114.2 878.9,114.1 878.5,114.1 878.1,114.0 877.7,114.0
877.3,114.0 876.9,113.9 876.5,113.9 876.1,113.9 875.7,113.9 875.3,113.8 874.9,113.8 874.5,113.8 874.1,113.8 873.7,113.8 873.3,113.8 872.9,113.8 872.5,113.7 872.1,113.7 871.7,113.7 871.3,113.7
870.9,113.7 870.5,113.7 870.1,113.7 869.7,113.7 869.3,113.7 868.9,113.7 868.5,113.7 868.1,113.7 '/>
	</g>
</g>
	</g>
	<g id="gnuplot_plot_6" ><title>gnuplot_plot_6</title>
<g fill="none" color="black" stroke="currentColor" stroke-width="1.00" stroke-linecap="butt" stroke-linejoin="miter">
	<g stroke='none' shape-rendering='crispEdges'>
		<polygon fill = 'rgb( 31, 120, 180)' fill-opacity = '0.250000' points = '1160.4,73.9 1160.6,73.9 1160.8,73.9 1160.9,73.9 1161.1,73.9 1161.3,73.9 1161.4,73.9 1161.6,73.9 1161.8,73.8 1161.9,73.8 1162.1,73.8 1162.3,73.8 1162.4,73.8 1162.6,73.8 1162.8,73.7 1163.0,73.7
1163.1,73.7 1163.3,73.7 1163.5,73.6 1163.6,73.6 1163.8,73.6 1164.0,73.5 1164.1,73.5 1164.3,73.4 1164.5,73.4 1164.6,73.3 1164.8,73.3 1165.0,73.2 1165.1,73.1 1165.3,73.0 1165.5,73.0 1165.7,72.9
1165.8,72.8 1166.0,72.7 1166.2,72.6 1166.3,72.5 1166.5,72.3 1166.7,72.2 1166.8,72.1 1167.0,71.9 1167.2,71.8 1167.3,71.6 1167.5,71.4 1167.7,71.3 1167.8,71.1 1168.0,70.9 1168.2,70.7 1168.4,70.5
1168.5,70.2 1168.7,70.0 1168.9,69.7 1169.0,69.5 1169.2,69.2 1169.4,69.0 1169.5,68.7 1169.7,68.4 1169.9,68.1 1170.0,67.8 1170.2,67.5 1170.4,67.1 1170.5,66.8 1170.7,66.5 1170.9,66.1 1171.1,65.8
1171.2,65.4 1171.4,65.1 1171.6,64.7 1171.7,64.3 1171.9,64.0 1172.1,63.6 1172.2,63.2 1172.4,62.9 1172.6,62.5 1172.7,62.1 1172.9,61.8 1173.1,61.4 1173.2,61.1 1173.4,60.7 1173.6,60.4 1173.8,60.0
1173.9,59.7 1174.1,59.4 1174.3,59.1 1174.4,58.8 1174.6,58.5 1174.8,58.3 1174.9,58.0 1175.1,57.8 1175.3,57.5 1175.4,57.3 1175.6,57.1 1175.8,57.0 1175.9,56.8 1176.1,56.6 1176.3,56.5 1176.4,56.4
1176.6,56.3 1176.8,56.2 1177.0,56.2 1177.1,56.1 1177.3,56.1 1177.5,56.1 1177.6,56.1 1177.8,56.1 1178.0,56.2 1178.1,56.2 1178.3,56.3 1178.5,56.4 1178.6,56.5 1178.8,56.6 1179.0,56.7 1179.1,56.8
1179.3,57.0 1179.5,57.2 1179.7,57.3 1179.8,57.5 1180.0,57.7 1180.2,57.9 1180.3,58.1 1180.5,58.3 1180.7,58.5 1180.8,58.8 1181.0,59.0 1181.2,59.2 1181.3,59.5 1181.5,59.7 1181.7,60.0 1181.8,60.2
1182.0,60.5 1182.2,60.7 1182.4,61.0 1182.5,61.2 1182.7,61.5 1182.9,61.7 1183.0,61.9 1183.2,62.2 1183.4,62.4 1183.5,62.7 1183.7,62.9 1183.9,63.1 1184.0,63.4 1184.2,63.6 1184.4,63.8 1184.5,64.0
1184.7,64.2 1184.9,64.5 1185.1,64.7 1185.2,64.9 1185.4,65.1 1185.6,65.2 1185.7,65.4 1185.9,65.6 1186.1,65.8 1186.2,66.0 1186.4,66.1 1186.6,66.3 1186.7,66.4 1186.9,66.6 1187.1,66.7 1187.2,66.9
1187.4,67.0 1187.6,67.2 1187.8,67.3 1187.9,67.4 1188.1,67.5 1188.3,67.7 1188.4,67.8 1188.6,67.9 1188.8,68.0 1188.9,68.1 1189.1,68.2 1189.3,68.3 1189.4,68.4 1189.6,68.5 1189.8,68.6 1189.9,68.7
1190.1,68.8 1190.3,68.8 1190.4,68.9 1190.6,69.0 1190.8,69.1 1191.0,69.2 1191.1,69.2 1191.3,69.3 1191.5,69.4 1191.6,69.4 1191.8,69.5 1192.0,69.6 1192.1,69.7 1192.3,69.7 1192.5,69.8 1192.6,69.8
1192.8,69.9 1193.0,70.0 1193.1,70.0 1193.3,70.1 1193.5,70.2 1193.7,70.2 1193.8,70.3 1194.0,70.3 1194.2,70.4 1194.3,70.5 1194.5,70.5 1194.7,70.6 1194.8,70.6 1195.0,70.7 1195.2,70.7 1195.3,70.8
1195.5,70.9 1195.7,70.9 1195.8,71.0 1196.0,71.0 1196.2,71.1 1196.4,71.1 1196.5,71.2 1196.7,71.2 1196.9,71.3 1197.0,71.4 1197.2,71.4 1197.4,71.5 1197.5,71.5 1197.7,71.6 1197.9,71.6 1198.0,71.7
1198.2,71.7 1198.4,71.8 1198.5,71.8 1198.7,71.9 1198.9,71.9 1199.1,71.9 1199.2,72.0 1199.4,72.0 1199.6,72.1 1199.7,72.1 1199.9,72.2 1200.1,72.2 1200.2,72.2 1200.4,72.3 1200.6,72.3 1200.7,72.3
1200.9,72.4 1201.1,72.4 1201.2,72.4 1201.4,72.5 1201.6,72.5 1201.8,72.5 1201.9,72.6 1202.1,72.6 1202.3,72.6 1202.4,72.7 1202.6,72.7 1202.8,72.7 1202.9,72.7 1203.1,72.8 1203.3,72.8 1203.4,72.8
1203.6,72.8 1203.8,72.8 1203.9,72.9 1204.1,72.9 1204.3,72.9 1204.4,72.9 1204.6,72.9 1204.8,72.9 1205.0,72.9 1205.1,73.0 1205.3,73.0 1205.5,73.0 1205.6,73.0 1205.8,73.0 1206.0,73.0 1206.1,73.0
1206.3,73.0 1206.5,73.0 1206.6,73.0 1206.8,73.0 1207.0,73.0 1207.1,73.0 1207.3,73.0 1207.5,73.0 1207.7,73.0 1207.8,73.0 1208.0,73.0 1208.2,73.0 1208.3,73.0 1208.5,73.0 1208.7,73.0 1208.8,73.0
1209.0,73.0 1209.2,73.0 1209.3,73.0 1209.5,73.0 1209.7,73.0 1209.8,73.0 1210.0,73.0 1210.2,73.0 1210.4,73.0 1210.5,73.0 1210.7,73.0 1210.9,73.0 1211.0,73.0 1211.2,73.0 1211.4,73.1 1211.5,73.1
1211.7,73.1 1211.9,73.1 1212.0,73.1 1212.2,73.1 1212.4,73.1 1212.5,73.1 1212.7,73.1 1212.9,73.1 1213.1,73.1 1213.2,73.2 1213.4,73.2 1213.6,73.2 1213.7,73.2 1213.9,73.2 1214.1,73.2 1214.2,73.2
1214.4,73.3 1214.6,73.3 1214.7,73.3 1214.9,73.3 1215.1,73.3 1215.2,73.3 1215.4,73.4 1215.6,73.4 1215.8,73.4 1215.9,73.4 1216.1,73.4 1216.3,73.4 1216.4,73.4 1216.6,73.4 1216.8,73.5 1216.9,73.5
1217.1,73.5 1217.3,73.5 1217.4,73.5 1217.6,73.5 1217.8,73.5 1217.9,73.5 1218.1,73.5 1218.3,73.5 1218.4,73.6 1218.6,73.6 1218.8,73.6 1219.0,73.6 1219.1,73.6 1219.3,73.6 1219.5,73.6 1219.6,73.6
1219.8,73.6 1220.0,73.6 1220.1,73.6 1220.3,73.6 1220.5,73.6 1220.6,73.6 1220.8,73.6 1221.0,73.6 1221.1,73.6 1221.3,73.6 1221.5,73.6 1221.7,73.6 1221.8,73.6 1222.0,73.6 1222.2,73.6 1222.3,73.6
1222.5,73.6 1222.7,73.6 1222.8,73.6 1223.0,73.6 1223.2,73.6 1223.3,73.6 1223.5,73.6 1223.7,73.6 1223.8,73.6 1224.0,73.6 1224.2,73.6 1224.4,73.6 1224.5,73.6 1224.7,73.6 1224.9,73.6 1225.0,73.6
1225.2,73.6 1225.4,73.6 1225.5,73.6 1225.7,73.6 1225.9,73.6 1226.0,73.6 1226.2,73.6 1226.4,73.6 1226.5,73.6 1226.7,73.6 1226.9,73.6 1227.1,73.6 1227.2,73.6 1227.4,73.6 1227.6,73.6 1227.7,73.6
1227.9,73.6 1228.1,73.6 1228.2,73.6 1228.4,73.6 1228.6,73.6 1228.7,73.6 1228.9,73.6 1229.1,73.6 1229.2,73.6 1229.4,73.6 1229.6,73.6 1229.8,73.6 1229.9,73.6 1230.1,73.6 1230.3,73.6 1230.4,73.6
1230.6,73.6 1230.8,73.6 1230.9,73.6 1231.1,73.6 1231.3,73.6 1231.4,73.6 1231.6,73.6 1231.8,73.6 1231.9,73.6 1232.1,73.7 1232.3,73.7 1232.4,73.7 1232.6,73.7 1232.8,73.7 1233.0,73.7 1233.1,73.7
1233.3,73.7 1233.5,73.7 1233.6,73.7 1233.8,73.7 1234.0,73.7 1234.1,73.7 1234.3,73.7 1234.5,73.7 1234.6,73.7 1234.8,73.7 1235.0,73.8 1235.1,73.8 1235.3,73.8 1235.5,73.8 1235.7,73.8 1235.8,73.8
1236.0,73.8 1236.2,73.8 1236.3,73.8 1236.5,73.8 1236.7,73.8 1236.8,73.8 1237.0,73.8 1237.2,73.8 1237.3,73.8 1237.5,73.9 1237.7,73.9 1237.8,73.9 1238.0,73.9 1238.2,73.9 1238.4,73.9 1238.5,73.9
1238.7,73.9 1238.9,73.9 1239.0,73.9 1239.2,73.9 1239.4,73.9 1239.5,73.9 1239.7,73.9 1239.9,73.9 1240.0,73.9 1240.2,73.9 1240.4,73.9 1240.5,73.9 1240.7,73.9 1240.9,73.9 1241.1,73.9 1241.2,73.9
1241.4,73.9 1241.6,73.9 1241.7,73.9 1241.9,73.9 1242.1,73.9 1242.2,73.9 1242.4,73.9 1242.6,73.9 1242.7,73.9 1242.9,73.9 1243.1,74.0 1243.2,74.0 1243.4,74.0 1243.6,74.0 1243.8,74.0 1243.9,74.0
1244.1,74.0 1244.3,74.0 1244.4,74.0 1244.6,74.0 1244.6,74.0 1244.4,74.0 1244.3,74.0 1244.1,74.0 1243.9,74.0 1243.8,74.0 1243.6,74.0 1243.4,74.0 1243.2,74.0 1243.1,74.0 1242.9,74.0 1242.7,74.0
1242.6,74.0 1242.4,74.0 1242.2,74.0 1242.1,74.0 1241.9,74.0 1241.7,74.0 1241.6,74.0 1241.4,74.0 1241.2,74.0 1241.1,74.0 1240.9,74.0 1240.7,74.0 1240.5,74.0 1240.4,74.0 1240.2,74.0 1240.0,74.0
1239.9,74.0 1239.7,74.0 1239.5,74.0 1239.4,74.0 1239.2,74.0 1239.0,74.0 1238.9,74.0 1238.7,74.0 1238.5,74.0 1238.4,74.0 1238.2,74.0 1238.0,74.0 1237.8,74.1 1237.7,74.1 1237.5,74.1 1237.3,74.1
1237.2,74.1 1237.0,74.1 1236.8,74.1 1236.7,74.1 1236.5,74.1 1236.3,74.1 1236.2,74.1 1236.0,74.1 1235.8,74.1 1235.7,74.1 1235.5,74.1 1235.3,74.1 1235.1,74.2 1235.0,74.2 1234.8,74.2 1234.6,74.2
1234.5,74.2 1234.3,74.2 1234.1,74.2 1234.0,74.2 1233.8,74.2 1233.6,74.2 1233.5,74.2 1233.3,74.2 1233.1,74.2 1233.0,74.2 1232.8,74.2 1232.6,74.3 1232.4,74.3 1232.3,74.3 1232.1,74.3 1231.9,74.3
1231.8,74.3 1231.6,74.3 1231.4,74.3 1231.3,74.3 1231.1,74.3 1230.9,74.3 1230.8,74.3 1230.6,74.3 1230.4,74.3 1230.3,74.3 1230.1,74.3 1229.9,74.3 1229.8,74.3 1229.6,74.3 1229.4,74.3 1229.2,74.3
1229.1,74.3 1228.9,74.3 1228.7,74.3 1228.6,74.3 1228.4,74.3 1228.2,74.3 1228.1,74.3 1227.9,74.3 1227.7,74.3 1227.6,74.3 1227.4,74.3 1227.2,74.3 1227.1,74.3 1226.9,74.3 1226.7,74.3 1226.5,74.3
1226.4,74.3 1226.2,74.3 1226.0,74.3 1225.9,74.3 1225.7,74.3 1225.5,74.3 1225.4,74.3 1225.2,74.3 1225.0,74.3 1224.9,74.3 1224.7,74.3 1224.5,74.3 1224.4,74.3 1224.2,74.3 1224.0,74.3 1223.8,74.3
1223.7,74.3 1223.5,74.3 1223.3,74.3 1223.2,74.3 1223.0,74.3 1222.8,74.3 1222.7,74.3 1222.5,74.3 1222.3,74.3 1222.2,74.3 1222.0,74.3 1221.8,74.3 1221.7,74.3 1221.5,74.3 1221.3,74.3 1221.1,74.3
1221.0,74.3 1220.8,74.3 1220.6,74.3 1220.5,74.3 1220.3,74.3 1220.1,74.3 1220.0,74.3 1219.8,74.3 1219.6,74.3 1219.5,74.3 1219.3,74.3 1219.1,74.3 1219.0,74.3 1218.8,74.3 1218.6,74.4 1218.4,74.4
1218.3,74.4 1218.1,74.4 1217.9,74.4 1217.8,74.4 1217.6,74.4 1217.4,74.4 1217.3,74.4 1217.1,74.4 1216.9,74.4 1216.8,74.5 1216.6,74.5 1216.4,74.5 1216.3,74.5 1216.1,74.5 1215.9,74.5 1215.8,74.5
1215.6,74.6 1215.4,74.6 1215.2,74.6 1215.1,74.6 1214.9,74.6 1214.7,74.6 1214.6,74.6 1214.4,74.7 1214.2,74.7 1214.1,74.7 1213.9,74.7 1213.7,74.7 1213.6,74.7 1213.4,74.7 1213.2,74.8 1213.1,74.8
1212.9,74.8 1212.7,74.8 1212.5,74.8 1212.4,74.8 1212.2,74.8 1212.0,74.8 1211.9,74.8 1211.7,74.9 1211.5,74.9 1211.4,74.9 1211.2,74.9 1211.0,74.9 1210.9,74.9 1210.7,74.9 1210.5,74.9 1210.4,74.9
1210.2,74.9 1210.0,74.9 1209.8,74.9 1209.7,74.9 1209.5,74.9 1209.3,74.9 1209.2,74.9 1209.0,74.9 1208.8,74.9 1208.7,74.9 1208.5,74.9 1208.3,74.9 1208.2,74.9 1208.0,74.9 1207.8,74.9 1207.7,74.9
1207.5,74.9 1207.3,74.9 1207.1,74.9 1207.0,74.9 1206.8,74.9 1206.6,74.9 1206.5,74.9 1206.3,74.9 1206.1,74.9 1206.0,74.9 1205.8,74.9 1205.6,74.9 1205.5,74.9 1205.3,75.0 1205.1,75.0 1205.0,75.0
1204.8,75.0 1204.6,75.0 1204.4,75.0 1204.3,75.0 1204.1,75.0 1203.9,75.1 1203.8,75.1 1203.6,75.1 1203.4,75.1 1203.3,75.1 1203.1,75.2 1202.9,75.2 1202.8,75.2 1202.6,75.2 1202.4,75.3 1202.3,75.3
1202.1,75.3 1201.9,75.3 1201.8,75.4 1201.6,75.4 1201.4,75.4 1201.2,75.5 1201.1,75.5 1200.9,75.5 1200.7,75.6 1200.6,75.6 1200.4,75.6 1200.2,75.7 1200.1,75.7 1199.9,75.8 1199.7,75.8 1199.6,75.8
1199.4,75.9 1199.2,75.9 1199.1,76.0 1198.9,76.0 1198.7,76.1 1198.5,76.1 1198.4,76.2 1198.2,76.2 1198.0,76.3 1197.9,76.3 1197.7,76.4 1197.5,76.4 1197.4,76.5 1197.2,76.5 1197.0,76.6 1196.9,76.6
1196.7,76.7 1196.5,76.7 1196.4,76.8 1196.2,76.8 1196.0,76.9 1195.8,76.9 1195.7,77.0 1195.5,77.1 1195.3,77.1 1195.2,77.2 1195.0,77.2 1194.8,77.3 1194.7,77.3 1194.5,77.4 1194.3,77.5 1194.2,77.5
1194.0,77.6 1193.8,77.6 1193.7,77.7 1193.5,77.8 1193.3,77.8 1193.1,77.9 1193.0,77.9 1192.8,78.0 1192.6,78.1 1192.5,78.1 1192.3,78.2 1192.1,78.3 1192.0,78.3 1191.8,78.4 1191.6,78.5 1191.5,78.5
1191.3,78.6 1191.1,78.7 1191.0,78.8 1190.8,78.8 1190.6,78.9 1190.4,79.0 1190.3,79.1 1190.1,79.2 1189.9,79.2 1189.8,79.3 1189.6,79.4 1189.4,79.5 1189.3,79.6 1189.1,79.7 1188.9,79.8 1188.8,79.9
1188.6,80.0 1188.4,80.1 1188.3,80.3 1188.1,80.4 1187.9,80.5 1187.8,80.6 1187.6,80.8 1187.4,80.9 1187.2,81.0 1187.1,81.2 1186.9,81.3 1186.7,81.5 1186.6,81.6 1186.4,81.8 1186.2,82.0 1186.1,82.1
1185.9,82.3 1185.7,82.5 1185.6,82.7 1185.4,82.9 1185.2,83.1 1185.1,83.3 1184.9,83.5 1184.7,83.7 1184.5,83.9 1184.4,84.1 1184.2,84.3 1184.0,84.5 1183.9,84.8 1183.7,85.0 1183.5,85.2 1183.4,85.5
1183.2,85.7 1183.0,86.0 1182.9,86.2 1182.7,86.5 1182.5,86.7 1182.4,87.0 1182.2,87.2 1182.0,87.5 1181.8,87.7 1181.7,88.0 1181.5,88.2 1181.3,88.4 1181.2,88.7 1181.0,88.9 1180.8,89.1 1180.7,89.4
1180.5,89.6 1180.3,89.8 1180.2,90.0 1180.0,90.2 1179.8,90.4 1179.7,90.6 1179.5,90.8 1179.3,90.9 1179.1,91.1 1179.0,91.2 1178.8,91.3 1178.6,91.5 1178.5,91.6 1178.3,91.6 1178.1,91.7 1178.0,91.8
1177.8,91.8 1177.6,91.8 1177.5,91.8 1177.3,91.8 1177.1,91.8 1177.0,91.7 1176.8,91.7 1176.6,91.6 1176.4,91.5 1176.3,91.4 1176.1,91.3 1175.9,91.1 1175.8,91.0 1175.6,90.8 1175.4,90.6 1175.3,90.4
1175.1,90.1 1174.9,89.9 1174.8,89.7 1174.6,89.4 1174.4,89.1 1174.3,88.8 1174.1,88.5 1173.9,88.2 1173.8,87.9 1173.6,87.5 1173.4,87.2 1173.2,86.9 1173.1,86.5 1172.9,86.1 1172.7,85.8 1172.6,85.4
1172.4,85.1 1172.2,84.7 1172.1,84.3 1171.9,84.0 1171.7,83.6 1171.6,83.2 1171.4,82.9 1171.2,82.5 1171.1,82.2 1170.9,81.8 1170.7,81.5 1170.5,81.1 1170.4,80.8 1170.2,80.5 1170.0,80.1 1169.9,79.8
1169.7,79.5 1169.5,79.2 1169.4,79.0 1169.2,78.7 1169.0,78.4 1168.9,78.2 1168.7,77.9 1168.5,77.7 1168.4,77.5 1168.2,77.2 1168.0,77.0 1167.8,76.8 1167.7,76.7 1167.5,76.5 1167.3,76.3 1167.2,76.1
1167.0,76.0 1166.8,75.8 1166.7,75.7 1166.5,75.6 1166.3,75.5 1166.2,75.3 1166.0,75.2 1165.8,75.1 1165.7,75.0 1165.5,74.9 1165.3,74.9 1165.1,74.8 1165.0,74.7 1164.8,74.7 1164.6,74.6 1164.5,74.5
1164.3,74.5 1164.1,74.4 1164.0,74.4 1163.8,74.4 1163.6,74.3 1163.5,74.3 1163.3,74.2 1163.1,74.2 1163.0,74.2 1162.8,74.2 1162.6,74.1 1162.4,74.1 1162.3,74.1 1162.1,74.1 1161.9,74.1 1161.8,74.1
1161.6,74.1 1161.4,74.0 1161.3,74.0 1161.1,74.0 1160.9,74.0 1160.8,74.0 1160.6,74.0 1160.4,74.0 '/>
	</g>
</g>
	</g>
<g fill="none" color="white" stroke="rgb( 31, 120, 180)" stroke-width="2.00" stroke-linecap="butt" stroke-linejoin="miter">
</g>
<g fill="none" color="black" stroke="currentColor" stroke-width="2.00" stroke-linecap="butt" stroke-linejoin="miter">
</g>
<g fill="none" color="black" stroke="black" stroke-width="1.00" stroke-linecap="butt" stroke-linejoin="miter">
</g>
<g fill="none" color="black" stroke="currentColor" stroke-width="1.00" stroke-linecap="butt" stroke-linejoin="miter">
	<path stroke='black'  d='M437.1,54.1 L437.1,292.4 L1255.0,292.4 L1255.0,54.1 L437.1,54.1 Z  '/></g>
<g fill="none" color="black" stroke="currentColor" stroke-width="1.00" stroke-linecap="butt" stroke-linejoin="miter">
</g>
</g>
</svg>

