<?xml version="1.0" encoding="utf-8"  standalone="no"?>
<svg 
 viewBox="0 0 450 300"
 xmlns="http://www.w3.org/2000/svg"
 xmlns:xlink="http://www.w3.org/1999/xlink"
>

<title>Gnuplot</title>
<desc>Produced by GNUPLOT 5.2 patchlevel 8 </desc>

<g id="gnuplot_canvas">

<rect x="0" y="0" width="450" height="300" fill="none"/>
<defs>

	<circle id='gpDot' r='0.5' stroke-width='0.5' stroke='currentColor'/>
	<path id='gpPt0' stroke-width='0.222' stroke='currentColor' d='M-1,0 h2 M0,-1 v2'/>
	<path id='gpPt1' stroke-width='0.222' stroke='currentColor' d='M-1,-1 L1,1 M1,-1 L-1,1'/>
	<path id='gpPt2' stroke-width='0.222' stroke='currentColor' d='M-1,0 L1,0 M0,-1 L0,1 M-1,-1 L1,1 M-1,1 L1,-1'/>
	<rect id='gpPt3' stroke-width='0.222' stroke='currentColor' x='-1' y='-1' width='2' height='2'/>
	<rect id='gpPt4' stroke-width='0.222' stroke='currentColor' fill='currentColor' x='-1' y='-1' width='2' height='2'/>
	<circle id='gpPt5' stroke-width='0.222' stroke='currentColor' cx='0' cy='0' r='1'/>
	<use xlink:href='#gpPt5' id='gpPt6' fill='currentColor' stroke='none'/>
	<path id='gpPt7' stroke-width='0.222' stroke='currentColor' d='M0,-1.33 L-1.33,0.67 L1.33,0.67 z'/>
	<use xlink:href='#gpPt7' id='gpPt8' fill='currentColor' stroke='none'/>
	<use xlink:href='#gpPt7' id='gpPt9' stroke='currentColor' transform='rotate(180)'/>
	<use xlink:href='#gpPt9' id='gpPt10' fill='currentColor' stroke='none'/>
	<use xlink:href='#gpPt3' id='gpPt11' stroke='currentColor' transform='rotate(45)'/>
	<use xlink:href='#gpPt11' id='gpPt12' fill='currentColor' stroke='none'/>
	<path id='gpPt13' stroke-width='0.222' stroke='currentColor' d='M0,1.330 L1.265,0.411 L0.782,-1.067 L-0.782,-1.076 L-1.265,0.411 z'/>
	<use xlink:href='#gpPt13' id='gpPt14' fill='currentColor' stroke='none'/>
	<filter id='textbox' filterUnits='objectBoundingBox' x='0' y='0' height='1' width='1'>
	  <feFlood flood-color='white' flood-opacity='1' result='bgnd'/>
	  <feComposite in='SourceGraphic' in2='bgnd' operator='atop'/>
	</filter>
	<filter id='greybox' filterUnits='objectBoundingBox' x='0' y='0' height='1' width='1'>
	  <feFlood flood-color='lightgrey' flood-opacity='1' result='grey'/>
	  <feComposite in='SourceGraphic' in2='grey' operator='atop'/>
	</filter>
</defs>
<g fill="none" color="white" stroke="currentColor" stroke-width="1.00" stroke-linecap="butt" stroke-linejoin="miter">
</g>
<g fill="none" color="black" stroke="currentColor" stroke-width="1.00" stroke-linecap="butt" stroke-linejoin="miter">
	<path stroke='black'  d='M71.9,242.4 L80.9,242.4  '/>	<g transform="translate(63.6,246.3)" stroke="none" fill="black" font-family="Helvetica" font-size="12.00"  text-anchor="end">
		<text><tspan font-family="Helvetica" > 0</tspan></text>
	</g>
</g>
<g fill="none" color="black" stroke="currentColor" stroke-width="1.00" stroke-linecap="butt" stroke-linejoin="miter">
	<path stroke='black'  d='M71.9,219.1 L80.9,219.1  '/>	<g transform="translate(63.6,223.0)" stroke="none" fill="black" font-family="Helvetica" font-size="12.00"  text-anchor="end">
		<text><tspan font-family="Helvetica" > 0.5</tspan></text>
	</g>
</g>
<g fill="none" color="black" stroke="currentColor" stroke-width="1.00" stroke-linecap="butt" stroke-linejoin="miter">
	<path stroke='black'  d='M71.9,195.8 L80.9,195.8  '/>	<g transform="translate(63.6,199.7)" stroke="none" fill="black" font-family="Helvetica" font-size="12.00"  text-anchor="end">
		<text><tspan font-family="Helvetica" > 1</tspan></text>
	</g>
</g>
<g fill="none" color="black" stroke="currentColor" stroke-width="1.00" stroke-linecap="butt" stroke-linejoin="miter">
	<path stroke='black'  d='M71.9,172.5 L80.9,172.5  '/>	<g transform="translate(63.6,176.4)" stroke="none" fill="black" font-family="Helvetica" font-size="12.00"  text-anchor="end">
		<text><tspan font-family="Helvetica" > 1.5</tspan></text>
	</g>
</g>
<g fill="none" color="black" stroke="currentColor" stroke-width="1.00" stroke-linecap="butt" stroke-linejoin="miter">
	<path stroke='black'  d='M71.9,149.2 L80.9,149.2  '/>	<g transform="translate(63.6,153.1)" stroke="none" fill="black" font-family="Helvetica" font-size="12.00"  text-anchor="end">
		<text><tspan font-family="Helvetica" > 2</tspan></text>
	</g>
</g>
<g fill="none" color="black" stroke="currentColor" stroke-width="1.00" stroke-linecap="butt" stroke-linejoin="miter">
	<path stroke='black'  d='M71.9,125.9 L80.9,125.9  '/>	<g transform="translate(63.6,129.8)" stroke="none" fill="black" font-family="Helvetica" font-size="12.00"  text-anchor="end">
		<text><tspan font-family="Helvetica" > 2.5</tspan></text>
	</g>
</g>
<g fill="none" color="black" stroke="currentColor" stroke-width="1.00" stroke-linecap="butt" stroke-linejoin="miter">
	<path stroke='black'  d='M71.9,102.6 L80.9,102.6  '/>	<g transform="translate(63.6,106.5)" stroke="none" fill="black" font-family="Helvetica" font-size="12.00"  text-anchor="end">
		<text><tspan font-family="Helvetica" > 3</tspan></text>
	</g>
</g>
<g fill="none" color="black" stroke="currentColor" stroke-width="1.00" stroke-linecap="butt" stroke-linejoin="miter">
	<path stroke='black'  d='M71.9,79.3 L80.9,79.3  '/>	<g transform="translate(63.6,83.2)" stroke="none" fill="black" font-family="Helvetica" font-size="12.00"  text-anchor="end">
		<text><tspan font-family="Helvetica" > 3.5</tspan></text>
	</g>
</g>
<g fill="none" color="black" stroke="currentColor" stroke-width="1.00" stroke-linecap="butt" stroke-linejoin="miter">
	<path stroke='black'  d='M71.9,56.0 L80.9,56.0  '/>	<g transform="translate(63.6,59.9)" stroke="none" fill="black" font-family="Helvetica" font-size="12.00"  text-anchor="end">
		<text><tspan font-family="Helvetica" > 4</tspan></text>
	</g>
</g>
<g fill="none" color="black" stroke="currentColor" stroke-width="1.00" stroke-linecap="butt" stroke-linejoin="miter">
	<path stroke='black'  d='M71.9,32.7 L80.9,32.7  '/>	<g transform="translate(63.6,36.6)" stroke="none" fill="black" font-family="Helvetica" font-size="12.00"  text-anchor="end">
		<text><tspan font-family="Helvetica" > 4.5</tspan></text>
	</g>
</g>
<g fill="none" color="black" stroke="currentColor" stroke-width="1.00" stroke-linecap="butt" stroke-linejoin="miter">
	<path stroke='black'  d='M93.3,242.4 L93.3,233.4  '/>	<g transform="translate(93.3,264.3)" stroke="none" fill="black" font-family="Helvetica" font-size="12.00"  text-anchor="middle">
		<text><tspan font-family="Helvetica" > 4.5</tspan></text>
	</g>
</g>
<g fill="none" color="black" stroke="currentColor" stroke-width="1.00" stroke-linecap="butt" stroke-linejoin="miter">
	<path stroke='black'  d='M166.6,242.4 L166.6,233.4  '/>	<g transform="translate(166.6,264.3)" stroke="none" fill="black" font-family="Helvetica" font-size="12.00"  text-anchor="middle">
		<text><tspan font-family="Helvetica" > 5</tspan></text>
	</g>
</g>
<g fill="none" color="black" stroke="currentColor" stroke-width="1.00" stroke-linecap="butt" stroke-linejoin="miter">
	<path stroke='black'  d='M239.9,242.4 L239.9,233.4  '/>	<g transform="translate(239.9,264.3)" stroke="none" fill="black" font-family="Helvetica" font-size="12.00"  text-anchor="middle">
		<text><tspan font-family="Helvetica" > 5.5</tspan></text>
	</g>
</g>
<g fill="none" color="black" stroke="currentColor" stroke-width="1.00" stroke-linecap="butt" stroke-linejoin="miter">
	<path stroke='black'  d='M313.2,242.4 L313.2,233.4  '/>	<g transform="translate(313.2,264.3)" stroke="none" fill="black" font-family="Helvetica" font-size="12.00"  text-anchor="middle">
		<text><tspan font-family="Helvetica" > 6</tspan></text>
	</g>
</g>
<g fill="none" color="black" stroke="currentColor" stroke-width="1.00" stroke-linecap="butt" stroke-linejoin="miter">
	<path stroke='black'  d='M386.4,242.4 L386.4,233.4  '/>	<g transform="translate(386.4,264.3)" stroke="none" fill="black" font-family="Helvetica" font-size="12.00"  text-anchor="middle">
		<text><tspan font-family="Helvetica" > 6.5</tspan></text>
	</g>
</g>
<g fill="none" color="black" stroke="currentColor" stroke-width="1.00" stroke-linecap="butt" stroke-linejoin="miter">
</g>
<g fill="none" color="black" stroke="currentColor" stroke-width="1.00" stroke-linecap="butt" stroke-linejoin="miter">
	<path stroke='black'  d='M71.9,18.1 L71.9,242.4 L425.0,242.4 L425.0,18.1 L71.9,18.1 Z  '/></g>
<g fill="none" color="black" stroke="currentColor" stroke-width="1.00" stroke-linecap="butt" stroke-linejoin="miter">
	<g transform="translate(19.0,130.3) rotate(270)" stroke="none" fill="black" font-family="Helvetica" font-size="12.00"  text-anchor="middle">
		<text><tspan font-family="Helvetica" >Density (a.u.)</tspan></text>
	</g>
</g>
<g fill="none" color="black" stroke="currentColor" stroke-width="1.00" stroke-linecap="butt" stroke-linejoin="miter">
	<g transform="translate(248.4,291.3)" stroke="none" fill="black" font-family="Helvetica" font-size="12.00"  text-anchor="middle">
		<text><tspan font-family="Helvetica" >Average time (ns)</tspan></text>
	</g>
</g>
<g fill="none" color="black" stroke="currentColor" stroke-width="1.00" stroke-linecap="butt" stroke-linejoin="miter">
</g>
	<g id="gnuplot_plot_1" ><title>PDF</title>
<g fill="none" color="black" stroke="currentColor" stroke-width="1.00" stroke-linecap="butt" stroke-linejoin="miter">
	<g stroke='none' shape-rendering='crispEdges'>
		<polygon fill = 'rgb( 31, 120, 180)' fill-opacity = '0.250000' points = '71.9,242.4 72.6,242.3 73.3,242.3 74.0,242.3 74.7,242.3 75.4,242.3 76.1,242.3 76.9,242.2 77.6,242.2 78.3,242.2 79.0,242.1 79.7,242.1 80.4,242.0 81.1,241.9 81.8,241.8 82.5,241.7
83.2,241.6 83.9,241.5 84.6,241.4 85.3,241.2 86.1,241.0 86.8,240.8 87.5,240.5 88.2,240.2 88.9,239.9 89.6,239.5 90.3,239.1 91.0,238.7 91.7,238.1 92.4,237.6 93.1,236.9 93.8,236.2
94.5,235.3 95.3,234.4 96.0,233.4 96.7,232.2 97.4,231.0 98.1,229.6 98.8,228.1 99.5,226.4 100.2,224.5 100.9,222.5 101.6,220.2 102.3,217.8 103.0,215.1 103.7,212.2 104.5,209.1 105.2,205.8
105.9,202.1 106.6,198.2 107.3,194.1 108.0,189.6 108.7,184.9 109.4,179.9 110.1,174.6 110.8,169.1 111.5,163.3 112.2,157.2 112.9,150.9 113.6,144.4 114.4,137.7 115.1,130.8 115.8,123.8 116.5,116.6
117.2,109.4 117.9,102.2 118.6,95.0 119.3,87.8 120.0,80.7 120.7,73.8 121.4,67.1 122.1,60.6 122.8,54.4 123.6,48.6 124.3,43.1 125.0,38.1 125.7,33.6 126.4,29.6 127.1,26.1 127.8,23.3
128.5,21.0 129.2,19.4 129.9,18.4 130.6,18.1 131.3,18.4 132.0,19.5 132.8,21.1 133.5,23.4 134.2,26.3 134.9,29.8 135.6,33.8 136.3,38.4 137.0,43.5 137.7,49.0 138.4,54.9 139.1,61.1
139.8,67.7 140.5,74.5 141.2,81.5 142.0,88.7 142.7,95.9 143.4,103.3 144.1,110.6 144.8,117.9 145.5,125.1 146.2,132.2 146.9,139.2 147.6,146.0 148.3,152.6 149.0,159.0 149.7,165.2 150.4,171.0
151.2,176.7 151.9,182.0 152.6,187.0 153.3,191.8 154.0,196.3 154.7,200.4 155.4,204.3 156.1,208.0 156.8,211.3 157.5,214.4 158.2,217.2 158.9,219.9 159.6,222.2 160.4,224.4 161.1,226.4 161.8,228.2
162.5,229.8 163.2,231.3 163.9,232.6 164.6,233.7 165.3,234.8 166.0,235.7 166.7,236.6 167.4,237.3 168.1,237.9 168.8,238.5 169.6,239.0 170.3,239.5 171.0,239.9 171.7,240.2 172.4,240.5 173.1,240.8
173.8,241.0 174.5,241.2 175.2,241.4 175.9,241.5 176.6,241.7 177.3,241.8 178.0,241.9 178.7,241.9 179.5,242.0 180.2,242.1 180.9,242.1 181.6,242.2 182.3,242.2 183.0,242.2 183.7,242.3 184.4,242.3
185.1,242.3 185.8,242.3 186.5,242.3 187.2,242.3 187.9,242.4 188.7,242.4 189.4,242.4 190.1,242.4 190.8,242.4 191.5,242.4 192.2,242.4 192.9,242.4 193.6,242.4 194.3,242.4 195.0,242.4 195.7,242.4
196.4,242.4 197.1,242.4 197.9,242.4 198.6,242.4 199.3,242.4 200.0,242.4 200.7,242.4 201.4,242.4 202.1,242.4 202.8,242.4 203.5,242.4 204.2,242.4 204.9,242.4 205.6,242.4 206.3,242.4 207.1,242.4
207.8,242.4 208.5,242.4 209.2,242.4 209.9,242.4 210.6,242.4 211.3,242.4 212.0,242.4 212.7,242.4 213.4,242.4 214.1,242.4 214.8,242.4 215.5,242.4 216.3,242.4 217.0,242.4 217.7,242.4 218.4,242.4
219.1,242.4 219.8,242.4 220.5,242.4 221.2,242.4 221.9,242.4 222.6,242.4 223.3,242.4 224.0,242.4 224.7,242.4 225.5,242.4 226.2,242.4 226.9,242.4 227.6,242.4 228.3,242.4 229.0,242.4 229.7,242.4
230.4,242.4 231.1,242.4 231.8,242.4 232.5,242.4 233.2,242.4 233.9,242.4 234.7,242.4 235.4,242.4 236.1,242.4 236.8,242.4 237.5,242.4 238.2,242.4 238.9,242.4 239.6,242.4 240.3,242.4 241.0,242.4
241.7,242.4 242.4,242.4 243.1,242.4 243.9,242.4 244.6,242.4 245.3,242.4 246.0,242.4 246.7,242.4 247.4,242.4 248.1,242.4 248.8,242.4 249.5,242.4 250.2,242.4 250.9,242.4 251.6,242.4 252.3,242.4
253.0,242.4 253.8,242.4 254.5,242.4 255.2,242.4 255.9,242.4 256.6,242.4 257.3,242.4 258.0,242.4 258.7,242.4 259.4,242.4 260.1,242.4 260.8,242.4 261.5,242.4 262.2,242.4 263.0,242.4 263.7,242.4
264.4,242.4 265.1,242.4 265.8,242.4 266.5,242.4 267.2,242.4 267.9,242.4 268.6,242.4 269.3,242.4 270.0,242.4 270.7,242.4 271.4,242.4 272.2,242.4 272.9,242.4 273.6,242.4 274.3,242.4 275.0,242.4
275.7,242.4 276.4,242.4 277.1,242.4 277.8,242.4 278.5,242.4 279.2,242.4 279.9,242.4 280.6,242.4 281.4,242.4 282.1,242.4 282.8,242.4 283.5,242.4 284.2,242.4 284.9,242.4 285.6,242.4 286.3,242.4
287.0,242.4 287.7,242.4 288.4,242.4 289.1,242.4 289.8,242.4 290.6,242.4 291.3,242.4 292.0,242.4 292.7,242.4 293.4,242.4 294.1,242.4 294.8,242.4 295.5,242.4 296.2,242.4 296.9,242.4 297.6,242.4
298.3,242.4 299.0,242.4 299.8,242.4 300.5,242.4 301.2,242.4 301.9,242.4 302.6,242.4 303.3,242.4 304.0,242.4 304.7,242.4 305.4,242.4 306.1,242.4 306.8,242.4 307.5,242.4 308.2,242.4 309.0,242.4
309.7,242.4 310.4,242.4 311.1,242.4 311.8,242.4 312.5,242.4 313.2,242.4 313.9,242.4 314.6,242.4 315.3,242.4 316.0,242.4 316.7,242.4 317.4,242.4 318.2,242.4 318.9,242.4 319.6,242.4 320.3,242.4
321.0,242.4 321.7,242.4 322.4,242.4 323.1,242.4 323.8,242.4 324.5,242.4 325.2,242.4 325.9,242.4 326.6,242.4 327.3,242.4 328.1,242.4 328.8,242.4 329.5,242.4 330.2,242.4 330.9,242.4 331.6,242.4
332.3,242.4 333.0,242.4 333.7,242.4 334.4,242.4 335.1,242.4 335.8,242.4 336.5,242.4 337.3,242.4 338.0,242.4 338.7,242.4 339.4,242.4 340.1,242.4 340.8,242.4 341.5,242.4 342.2,242.4 342.9,242.4
343.6,242.4 344.3,242.4 345.0,242.4 345.7,242.4 346.5,242.4 347.2,242.4 347.9,242.4 348.6,242.4 349.3,242.4 350.0,242.4 350.7,242.4 351.4,242.4 352.1,242.4 352.8,242.4 353.5,242.4 354.2,242.4
354.9,242.4 355.7,242.4 356.4,242.4 357.1,242.4 357.8,242.4 358.5,242.4 359.2,242.3 359.9,242.3 360.6,242.3 361.3,242.3 362.0,242.3 362.7,242.3 363.4,242.3 364.1,242.2 364.9,242.2 365.6,242.2
366.3,242.1 367.0,242.1 367.7,242.1 368.4,242.0 369.1,242.0 369.8,241.9 370.5,241.9 371.2,241.8 371.9,241.7 372.6,241.7 373.3,241.6 374.1,241.5 374.8,241.4 375.5,241.3 376.2,241.3 376.9,241.2
377.6,241.1 378.3,241.0 379.0,240.9 379.7,240.8 380.4,240.7 381.1,240.6 381.8,240.5 382.5,240.4 383.3,240.3 384.0,240.2 384.7,240.1 385.4,240.1 386.1,240.0 386.8,239.9 387.5,239.9 388.2,239.8
388.9,239.8 389.6,239.8 390.3,239.8 391.0,239.8 391.7,239.8 392.4,239.8 393.2,239.8 393.9,239.9 394.6,239.9 395.3,240.0 396.0,240.0 396.7,240.1 397.4,240.2 398.1,240.3 398.8,240.3 399.5,240.4
400.2,240.5 400.9,240.6 401.6,240.7 402.4,240.8 403.1,240.9 403.8,241.0 404.5,241.1 405.2,241.2 405.9,241.3 406.6,241.4 407.3,241.5 408.0,241.6 408.7,241.6 409.4,241.7 410.1,241.8 410.8,241.8
411.6,241.9 412.3,242.0 413.0,242.0 413.7,242.0 414.4,242.1 415.1,242.1 415.8,242.2 416.5,242.2 417.2,242.2 417.9,242.2 418.6,242.3 419.3,242.3 420.0,242.3 420.8,242.3 421.5,242.3 422.2,242.3
422.9,242.3 423.6,242.4 424.3,242.4 425.0,242.4 425.0,242.4 424.3,242.4 423.6,242.4 422.9,242.4 422.2,242.4 421.5,242.4 420.8,242.4 420.0,242.4 419.3,242.4 418.6,242.4 417.9,242.4 417.2,242.4
416.5,242.4 415.8,242.4 415.1,242.4 414.4,242.4 413.7,242.4 413.0,242.4 412.3,242.4 411.6,242.4 410.8,242.4 410.1,242.4 409.4,242.4 408.7,242.4 408.0,242.4 407.3,242.4 406.6,242.4 405.9,242.4
405.2,242.4 404.5,242.4 403.8,242.4 403.1,242.4 402.4,242.4 401.6,242.4 400.9,242.4 400.2,242.4 399.5,242.4 398.8,242.4 398.1,242.4 397.4,242.4 396.7,242.4 396.0,242.4 395.3,242.4 394.6,242.4
393.9,242.4 393.2,242.4 392.4,242.4 391.7,242.4 391.0,242.4 390.3,242.4 389.6,242.4 388.9,242.4 388.2,242.4 387.5,242.4 386.8,242.4 386.1,242.4 385.4,242.4 384.7,242.4 384.0,242.4 383.3,242.4
382.5,242.4 381.8,242.4 381.1,242.4 380.4,242.4 379.7,242.4 379.0,242.4 378.3,242.4 377.6,242.4 376.9,242.4 376.2,242.4 375.5,242.4 374.8,242.4 374.1,242.4 373.3,242.4 372.6,242.4 371.9,242.4
371.2,242.4 370.5,242.4 369.8,242.4 369.1,242.4 368.4,242.4 367.7,242.4 367.0,242.4 366.3,242.4 365.6,242.4 364.9,242.4 364.1,242.4 363.4,242.4 362.7,242.4 362.0,242.4 361.3,242.4 360.6,242.4
359.9,242.4 359.2,242.4 358.5,242.4 357.8,242.4 357.1,242.4 356.4,242.4 355.7,242.4 354.9,242.4 354.2,242.4 353.5,242.4 352.8,242.4 352.1,242.4 351.4,242.4 350.7,242.4 350.0,242.4 349.3,242.4
348.6,242.4 347.9,242.4 347.2,242.4 346.5,242.4 345.7,242.4 345.0,242.4 344.3,242.4 343.6,242.4 342.9,242.4 342.2,242.4 341.5,242.4 340.8,242.4 340.1,242.4 339.4,242.4 338.7,242.4 338.0,242.4
337.3,242.4 336.5,242.4 335.8,242.4 335.1,242.4 334.4,242.4 333.7,242.4 333.0,242.4 332.3,242.4 331.6,242.4 330.9,242.4 330.2,242.4 329.5,242.4 328.8,242.4 328.1,242.4 327.3,242.4 326.6,242.4
325.9,242.4 325.2,242.4 324.5,242.4 323.8,242.4 323.1,242.4 322.4,242.4 321.7,242.4 321.0,242.4 320.3,242.4 319.6,242.4 318.9,242.4 318.2,242.4 317.4,242.4 316.7,242.4 316.0,242.4 315.3,242.4
314.6,242.4 313.9,242.4 313.2,242.4 312.5,242.4 311.8,242.4 311.1,242.4 310.4,242.4 309.7,242.4 309.0,242.4 308.2,242.4 307.5,242.4 306.8,242.4 306.1,242.4 305.4,242.4 304.7,242.4 304.0,242.4
303.3,242.4 302.6,242.4 301.9,242.4 301.2,242.4 300.5,242.4 299.8,242.4 299.0,242.4 298.3,242.4 297.6,242.4 296.9,242.4 296.2,242.4 295.5,242.4 294.8,242.4 294.1,242.4 293.4,242.4 292.7,242.4
292.0,242.4 291.3,242.4 290.6,242.4 289.8,242.4 289.1,242.4 288.4,242.4 287.7,242.4 287.0,242.4 286.3,242.4 285.6,242.4 284.9,242.4 284.2,242.4 283.5,242.4 282.8,242.4 282.1,242.4 281.4,242.4
280.6,242.4 279.9,242.4 279.2,242.4 278.5,242.4 277.8,242.4 277.1,242.4 276.4,242.4 275.7,242.4 275.0,242.4 274.3,242.4 273.6,242.4 272.9,242.4 272.2,242.4 271.4,242.4 270.7,242.4 270.0,242.4
269.3,242.4 268.6,242.4 267.9,242.4 267.2,242.4 266.5,242.4 265.8,242.4 265.1,242.4 264.4,242.4 263.7,242.4 263.0,242.4 262.2,242.4 261.5,242.4 260.8,242.4 260.1,242.4 259.4,242.4 258.7,242.4
258.0,242.4 257.3,242.4 256.6,242.4 255.9,242.4 255.2,242.4 254.5,242.4 253.8,242.4 253.0,242.4 252.3,242.4 251.6,242.4 250.9,242.4 250.2,242.4 249.5,242.4 248.8,242.4 248.1,242.4 247.4,242.4
246.7,242.4 246.0,242.4 245.3,242.4 244.6,242.4 243.9,242.4 243.1,242.4 242.4,242.4 241.7,242.4 241.0,242.4 240.3,242.4 239.6,242.4 238.9,242.4 238.2,242.4 237.5,242.4 236.8,242.4 236.1,242.4
235.4,242.4 234.7,242.4 233.9,242.4 233.2,242.4 232.5,242.4 231.8,242.4 231.1,242.4 230.4,242.4 229.7,242.4 229.0,242.4 228.3,242.4 227.6,242.4 226.9,242.4 226.2,242.4 225.5,242.4 224.7,242.4
224.0,242.4 223.3,242.4 222.6,242.4 221.9,242.4 221.2,242.4 220.5,242.4 219.8,242.4 219.1,242.4 218.4,242.4 217.7,242.4 217.0,242.4 216.3,242.4 215.5,242.4 214.8,242.4 214.1,242.4 213.4,242.4
212.7,242.4 212.0,242.4 211.3,242.4 210.6,242.4 209.9,242.4 209.2,242.4 208.5,242.4 207.8,242.4 207.1,242.4 206.3,242.4 205.6,242.4 204.9,242.4 204.2,242.4 203.5,242.4 202.8,242.4 202.1,242.4
201.4,242.4 200.7,242.4 200.0,242.4 199.3,242.4 198.6,242.4 197.9,242.4 197.1,242.4 196.4,242.4 195.7,242.4 195.0,242.4 194.3,242.4 193.6,242.4 192.9,242.4 192.2,242.4 191.5,242.4 190.8,242.4
190.1,242.4 189.4,242.4 188.7,242.4 187.9,242.4 187.2,242.4 186.5,242.4 185.8,242.4 185.1,242.4 184.4,242.4 183.7,242.4 183.0,242.4 182.3,242.4 181.6,242.4 180.9,242.4 180.2,242.4 179.5,242.4
178.7,242.4 178.0,242.4 177.3,242.4 176.6,242.4 175.9,242.4 175.2,242.4 174.5,242.4 173.8,242.4 173.1,242.4 172.4,242.4 171.7,242.4 171.0,242.4 170.3,242.4 169.6,242.4 168.8,242.4 168.1,242.4
167.4,242.4 166.7,242.4 166.0,242.4 165.3,242.4 164.6,242.4 163.9,242.4 163.2,242.4 162.5,242.4 161.8,242.4 161.1,242.4 160.4,242.4 159.6,242.4 158.9,242.4 158.2,242.4 157.5,242.4 156.8,242.4
156.1,242.4 155.4,242.4 154.7,242.4 154.0,242.4 153.3,242.4 152.6,242.4 151.9,242.4 151.2,242.4 150.4,242.4 149.7,242.4 149.0,242.4 148.3,242.4 147.6,242.4 146.9,242.4 146.2,242.4 145.5,242.4
144.8,242.4 144.1,242.4 143.4,242.4 142.7,242.4 142.0,242.4 141.2,242.4 140.5,242.4 139.8,242.4 139.1,242.4 138.4,242.4 137.7,242.4 137.0,242.4 136.3,242.4 135.6,242.4 134.9,242.4 134.2,242.4
133.5,242.4 132.8,242.4 132.0,242.4 131.3,242.4 130.6,242.4 129.9,242.4 129.2,242.4 128.5,242.4 127.8,242.4 127.1,242.4 126.4,242.4 125.7,242.4 125.0,242.4 124.3,242.4 123.6,242.4 122.8,242.4
122.1,242.4 121.4,242.4 120.7,242.4 120.0,242.4 119.3,242.4 118.6,242.4 117.9,242.4 117.2,242.4 116.5,242.4 115.8,242.4 115.1,242.4 114.4,242.4 113.6,242.4 112.9,242.4 112.2,242.4 111.5,242.4
110.8,242.4 110.1,242.4 109.4,242.4 108.7,242.4 108.0,242.4 107.3,242.4 106.6,242.4 105.9,242.4 105.2,242.4 104.5,242.4 103.7,242.4 103.0,242.4 102.3,242.4 101.6,242.4 100.9,242.4 100.2,242.4
99.5,242.4 98.8,242.4 98.1,242.4 97.4,242.4 96.7,242.4 96.0,242.4 95.3,242.4 94.5,242.4 93.8,242.4 93.1,242.4 92.4,242.4 91.7,242.4 91.0,242.4 90.3,242.4 89.6,242.4 88.9,242.4
88.2,242.4 87.5,242.4 86.8,242.4 86.1,242.4 85.3,242.4 84.6,242.4 83.9,242.4 83.2,242.4 82.5,242.4 81.8,242.4 81.1,242.4 80.4,242.4 79.7,242.4 79.0,242.4 78.3,242.4 77.6,242.4
76.9,242.4 76.1,242.4 75.4,242.4 74.7,242.4 74.0,242.4 73.3,242.4 72.6,242.4 71.9,242.4 '/>
	</g>
</g>
	</g>
	<g id="gnuplot_plot_2" ><title>Mean</title>
<g fill="none" color="white" stroke="rgb( 31, 120, 180)" stroke-width="2.00" stroke-linecap="butt" stroke-linejoin="miter">
</g>
<g fill="none" color="black" stroke="currentColor" stroke-width="2.00" stroke-linecap="butt" stroke-linejoin="miter">
	<path stroke='rgb( 31, 120, 180)'  d='M133.0,242.4 L133.0,42.0  '/></g>
	</g>
<g fill="none" color="black" stroke="currentColor" stroke-width="2.00" stroke-linecap="butt" stroke-linejoin="miter">
</g>
<g fill="none" color="black" stroke="black" stroke-width="1.00" stroke-linecap="butt" stroke-linejoin="miter">
</g>
<g fill="none" color="black" stroke="currentColor" stroke-width="1.00" stroke-linecap="butt" stroke-linejoin="miter">
	<path stroke='black'  d='M71.9,18.1 L71.9,242.4 L425.0,242.4 L425.0,18.1 L71.9,18.1 Z  '/></g>
<g fill="none" color="black" stroke="currentColor" stroke-width="1.00" stroke-linecap="butt" stroke-linejoin="miter">
</g>
</g>
</svg>

