<?xml version="1.0" encoding="utf-8"  standalone="no"?>
<svg 
 viewBox="0 0 1280 720"
 xmlns="http://www.w3.org/2000/svg"
 xmlns:xlink="http://www.w3.org/1999/xlink"
>

<title>Gnuplot</title>
<desc>Produced by GNUPLOT 5.2 patchlevel 8 </desc>

<g id="gnuplot_canvas">

<rect x="0" y="0" width="1280" height="720" fill="none"/>
<defs>

	<circle id='gpDot' r='0.5' stroke-width='0.5' stroke='currentColor'/>
	<path id='gpPt0' stroke-width='0.222' stroke='currentColor' d='M-1,0 h2 M0,-1 v2'/>
	<path id='gpPt1' stroke-width='0.222' stroke='currentColor' d='M-1,-1 L1,1 M1,-1 L-1,1'/>
	<path id='gpPt2' stroke-width='0.222' stroke='currentColor' d='M-1,0 L1,0 M0,-1 L0,1 M-1,-1 L1,1 M-1,1 L1,-1'/>
	<rect id='gpPt3' stroke-width='0.222' stroke='currentColor' x='-1' y='-1' width='2' height='2'/>
	<rect id='gpPt4' stroke-width='0.222' stroke='currentColor' fill='currentColor' x='-1' y='-1' width='2' height='2'/>
	<circle id='gpPt5' stroke-width='0.222' stroke='currentColor' cx='0' cy='0' r='1'/>
	<use xlink:href='#gpPt5' id='gpPt6' fill='currentColor' stroke='none'/>
	<path id='gpPt7' stroke-width='0.222' stroke='currentColor' d='M0,-1.33 L-1.33,0.67 L1.33,0.67 z'/>
	<use xlink:href='#gpPt7' id='gpPt8' fill='currentColor' stroke='none'/>
	<use xlink:href='#gpPt7' id='gpPt9' stroke='currentColor' transform='rotate(180)'/>
	<use xlink:href='#gpPt9' id='gpPt10' fill='currentColor' stroke='none'/>
	<use xlink:href='#gpPt3' id='gpPt11' stroke='currentColor' transform='rotate(45)'/>
	<use xlink:href='#gpPt11' id='gpPt12' fill='currentColor' stroke='none'/>
	<path id='gpPt13' stroke-width='0.222' stroke='currentColor' d='M0,1.330 L1.265,0.411 L0.782,-1.067 L-0.782,-1.076 L-1.265,0.411 z'/>
	<use xlink:href='#gpPt13' id='gpPt14' fill='currentColor' stroke='none'/>
	<filter id='textbox' filterUnits='objectBoundingBox' x='0' y='0' height='1' width='1'>
	  <feFlood flood-color='white' flood-opacity='1' result='bgnd'/>
	  <feComposite in='SourceGraphic' in2='bgnd' operator='atop'/>
	</filter>
	<filter id='greybox' filterUnits='objectBoundingBox' x='0' y='0' height='1' width='1'>
	  <feFlood flood-color='lightgrey' flood-opacity='1' result='grey'/>
	  <feComposite in='SourceGraphic' in2='grey' operator='atop'/>
	</filter>
</defs>
<g fill="none" color="white" stroke="currentColor" stroke-width="1.00" stroke-linecap="butt" stroke-linejoin="miter">
</g>
<g fill="none" color="black" stroke="currentColor" stroke-width="1.00" stroke-linecap="butt" stroke-linejoin="miter">
	<path stroke='black'  d='M63.6,662.4 L72.6,662.4  '/>	<g transform="translate(55.3,666.3)" stroke="none" fill="black" font-family="Helvetica" font-size="12.00"  text-anchor="end">
		<text><tspan font-family="Helvetica" > 0</tspan></text>
	</g>
</g>
<g fill="none" color="black" stroke="currentColor" stroke-width="1.00" stroke-linecap="butt" stroke-linejoin="miter">
	<path stroke='black'  d='M63.6,594.8 L72.6,594.8  '/>	<g transform="translate(55.3,598.7)" stroke="none" fill="black" font-family="Helvetica" font-size="12.00"  text-anchor="end">
		<text><tspan font-family="Helvetica" > 2</tspan></text>
	</g>
</g>
<g fill="none" color="black" stroke="currentColor" stroke-width="1.00" stroke-linecap="butt" stroke-linejoin="miter">
	<path stroke='black'  d='M63.6,527.2 L72.6,527.2  '/>	<g transform="translate(55.3,531.1)" stroke="none" fill="black" font-family="Helvetica" font-size="12.00"  text-anchor="end">
		<text><tspan font-family="Helvetica" > 4</tspan></text>
	</g>
</g>
<g fill="none" color="black" stroke="currentColor" stroke-width="1.00" stroke-linecap="butt" stroke-linejoin="miter">
	<path stroke='black'  d='M63.6,459.6 L72.6,459.6  '/>	<g transform="translate(55.3,463.5)" stroke="none" fill="black" font-family="Helvetica" font-size="12.00"  text-anchor="end">
		<text><tspan font-family="Helvetica" > 6</tspan></text>
	</g>
</g>
<g fill="none" color="black" stroke="currentColor" stroke-width="1.00" stroke-linecap="butt" stroke-linejoin="miter">
	<path stroke='black'  d='M63.6,392.0 L72.6,392.0  '/>	<g transform="translate(55.3,395.9)" stroke="none" fill="black" font-family="Helvetica" font-size="12.00"  text-anchor="end">
		<text><tspan font-family="Helvetica" > 8</tspan></text>
	</g>
</g>
<g fill="none" color="black" stroke="currentColor" stroke-width="1.00" stroke-linecap="butt" stroke-linejoin="miter">
	<path stroke='black'  d='M63.6,324.5 L72.6,324.5  '/>	<g transform="translate(55.3,328.4)" stroke="none" fill="black" font-family="Helvetica" font-size="12.00"  text-anchor="end">
		<text><tspan font-family="Helvetica" > 10</tspan></text>
	</g>
</g>
<g fill="none" color="black" stroke="currentColor" stroke-width="1.00" stroke-linecap="butt" stroke-linejoin="miter">
	<path stroke='black'  d='M63.6,256.9 L72.6,256.9  '/>	<g transform="translate(55.3,260.8)" stroke="none" fill="black" font-family="Helvetica" font-size="12.00"  text-anchor="end">
		<text><tspan font-family="Helvetica" > 12</tspan></text>
	</g>
</g>
<g fill="none" color="black" stroke="currentColor" stroke-width="1.00" stroke-linecap="butt" stroke-linejoin="miter">
	<path stroke='black'  d='M63.6,189.3 L72.6,189.3  '/>	<g transform="translate(55.3,193.2)" stroke="none" fill="black" font-family="Helvetica" font-size="12.00"  text-anchor="end">
		<text><tspan font-family="Helvetica" > 14</tspan></text>
	</g>
</g>
<g fill="none" color="black" stroke="currentColor" stroke-width="1.00" stroke-linecap="butt" stroke-linejoin="miter">
	<path stroke='black'  d='M63.6,121.7 L72.6,121.7  '/>	<g transform="translate(55.3,125.6)" stroke="none" fill="black" font-family="Helvetica" font-size="12.00"  text-anchor="end">
		<text><tspan font-family="Helvetica" > 16</tspan></text>
	</g>
</g>
<g fill="none" color="black" stroke="currentColor" stroke-width="1.00" stroke-linecap="butt" stroke-linejoin="miter">
	<path stroke='black'  d='M63.6,54.1 L72.6,54.1  '/>	<g transform="translate(55.3,58.0)" stroke="none" fill="black" font-family="Helvetica" font-size="12.00"  text-anchor="end">
		<text><tspan font-family="Helvetica" > 18</tspan></text>
	</g>
</g>
<g fill="none" color="black" stroke="currentColor" stroke-width="1.00" stroke-linecap="butt" stroke-linejoin="miter">
	<path stroke='black'  d='M222.3,662.4 L222.3,653.4  '/>	<g transform="translate(222.3,684.3)" stroke="none" fill="black" font-family="Helvetica" font-size="12.00"  text-anchor="middle">
		<text><tspan font-family="Helvetica" > 3.8</tspan></text>
	</g>
</g>
<g fill="none" color="black" stroke="currentColor" stroke-width="1.00" stroke-linecap="butt" stroke-linejoin="miter">
	<path stroke='black'  d='M444.9,662.4 L444.9,653.4  '/>	<g transform="translate(444.9,684.3)" stroke="none" fill="black" font-family="Helvetica" font-size="12.00"  text-anchor="middle">
		<text><tspan font-family="Helvetica" > 3.85</tspan></text>
	</g>
</g>
<g fill="none" color="black" stroke="currentColor" stroke-width="1.00" stroke-linecap="butt" stroke-linejoin="miter">
	<path stroke='black'  d='M667.5,662.4 L667.5,653.4  '/>	<g transform="translate(667.5,684.3)" stroke="none" fill="black" font-family="Helvetica" font-size="12.00"  text-anchor="middle">
		<text><tspan font-family="Helvetica" > 3.9</tspan></text>
	</g>
</g>
<g fill="none" color="black" stroke="currentColor" stroke-width="1.00" stroke-linecap="butt" stroke-linejoin="miter">
	<path stroke='black'  d='M890.1,662.4 L890.1,653.4  '/>	<g transform="translate(890.1,684.3)" stroke="none" fill="black" font-family="Helvetica" font-size="12.00"  text-anchor="middle">
		<text><tspan font-family="Helvetica" > 3.95</tspan></text>
	</g>
</g>
<g fill="none" color="black" stroke="currentColor" stroke-width="1.00" stroke-linecap="butt" stroke-linejoin="miter">
</g>
<g fill="none" color="black" stroke="currentColor" stroke-width="1.00" stroke-linecap="butt" stroke-linejoin="miter">
	<path stroke='black'  d='M63.6,54.1 L63.6,662.4 L1013.6,662.4 L1013.6,54.1 L63.6,54.1 Z  '/></g>
<g fill="none" color="black" stroke="currentColor" stroke-width="1.00" stroke-linecap="butt" stroke-linejoin="miter">
	<g transform="translate(19.0,358.3) rotate(270)" stroke="none" fill="black" font-family="Helvetica" font-size="12.00"  text-anchor="middle">
		<text><tspan font-family="Helvetica" >Density (a.u.)</tspan></text>
	</g>
</g>
<g fill="none" color="black" stroke="currentColor" stroke-width="1.00" stroke-linecap="butt" stroke-linejoin="miter">
	<g transform="translate(538.6,711.3)" stroke="none" fill="black" font-family="Helvetica" font-size="12.00"  text-anchor="middle">
		<text><tspan font-family="Helvetica" >Average time (ns)</tspan></text>
	</g>
</g>
<g fill="none" color="black" stroke="currentColor" stroke-width="1.00" stroke-linecap="butt" stroke-linejoin="miter">
	<g transform="translate(538.6,31.0)" stroke="none" fill="black" font-family="Helvetica" font-size="12.00"  text-anchor="middle">
		<text><tspan font-family="Helvetica" >String trim/std::io::Lines algo/win: median</tspan></text>
	</g>
</g>
<g fill="none" color="black" stroke="currentColor" stroke-width="1.00" stroke-linecap="butt" stroke-linejoin="miter">
</g>
	<g id="gnuplot_plot_1" ><title>Bootstrap distribution</title>
<g fill="none" color="white" stroke="currentColor" stroke-width="2.00" stroke-linecap="butt" stroke-linejoin="miter">
</g>
<g fill="none" color="black" stroke="currentColor" stroke-width="2.00" stroke-linecap="butt" stroke-linejoin="miter">
	<g transform="translate(1089.0,67.0)" stroke="none" fill="black" font-family="Helvetica" font-size="12.00"  text-anchor="start">
		<text><tspan font-family="Helvetica" >Bootstrap distribution</tspan></text>
	</g>
</g>
<g fill="none" color="black" stroke="currentColor" stroke-width="2.00" stroke-linecap="butt" stroke-linejoin="miter">
	<path stroke='rgb( 31, 120, 180)'  d='M1038.5,63.1 L1080.7,63.1 M63.6,637.0 L65.5,636.2 L67.4,635.3 L69.3,634.6 L71.2,633.8 L73.1,633.1
		L75.0,632.5 L76.9,631.9 L78.8,631.3 L80.7,630.9 L82.6,630.5 L84.5,630.1 L86.4,629.9 L88.3,629.6
		L90.3,629.5 L92.2,629.4 L94.1,629.3 L96.0,629.3 L97.9,629.4 L99.8,629.5 L101.7,629.6 L103.6,629.7
		L105.5,629.8 L107.4,630.0 L109.3,630.1 L111.2,630.3 L113.1,630.4 L115.0,630.5 L116.9,630.6 L118.8,630.7
		L120.7,630.7 L122.6,630.7 L124.5,630.7 L126.4,630.7 L128.3,630.6 L130.2,630.5 L132.1,630.3 L134.0,630.1
		L135.9,629.9 L137.8,629.6 L139.8,629.3 L141.7,628.9 L143.6,628.5 L145.5,628.1 L147.4,627.6 L149.3,627.0
		L151.2,626.4 L153.1,625.8 L155.0,625.0 L156.9,624.2 L158.8,623.3 L160.7,622.2 L162.6,621.1 L164.5,619.8
		L166.4,618.4 L168.3,616.8 L170.2,615.0 L172.1,613.0 L174.0,610.7 L175.9,608.2 L177.8,605.3 L179.7,602.2
		L181.6,598.7 L183.5,594.8 L185.4,590.5 L187.3,585.8 L189.3,580.6 L191.2,575.0 L193.1,568.8 L195.0,562.2
		L196.9,555.0 L198.8,547.4 L200.7,539.2 L202.6,530.4 L204.5,521.2 L206.4,511.6 L208.3,501.4 L210.2,490.9
		L212.1,479.9 L214.0,468.7 L215.9,457.1 L217.8,445.3 L219.7,433.3 L221.6,421.1 L223.5,408.8 L225.4,396.5
		L227.3,384.1 L229.2,371.8 L231.1,359.5 L233.0,347.4 L234.9,335.3 L236.8,323.4 L238.8,311.7 L240.7,300.1
		L242.6,288.7 L244.5,277.5 L246.4,266.5 L248.3,255.6 L250.2,245.0 L252.1,234.5 L254.0,224.3 L255.9,214.2
		L257.8,204.4 L259.7,194.8 L261.6,185.4 L263.5,176.4 L265.4,167.6 L267.3,159.2 L269.2,151.2 L271.1,143.6
		L273.0,136.5 L274.9,129.9 L276.8,123.9 L278.7,118.6 L280.6,113.9 L282.5,109.9 L284.4,106.7 L286.3,104.3
		L288.2,102.6 L290.2,101.8 L292.1,101.9 L294.0,102.8 L295.9,104.5 L297.8,107.0 L299.7,110.4 L301.6,114.5
		L303.5,119.3 L305.4,124.8 L307.3,131.0 L309.2,137.7 L311.1,145.0 L313.0,152.8 L314.9,160.9 L316.8,169.5
		L318.7,178.3 L320.6,187.5 L322.5,196.8 L324.4,206.2 L326.3,215.8 L328.2,225.4 L330.1,235.1 L332.0,244.7
		L333.9,254.3 L335.8,263.8 L337.7,273.3 L339.7,282.6 L341.6,291.8 L343.5,300.8 L345.4,309.7 L347.3,318.4
		L349.2,327.0 L351.1,335.4 L353.0,343.6 L354.9,351.7 L356.8,359.6 L358.7,367.3 L360.6,374.9 L362.5,382.2
		L364.4,389.5 L366.3,396.5 L368.2,403.4 L370.1,410.1 L372.0,416.7 L373.9,423.1 L375.8,429.4 L377.7,435.4
		L379.6,441.4 L381.5,447.1 L383.4,452.7 L385.3,458.1 L387.2,463.3 L389.2,468.4 L391.1,473.2 L393.0,477.9
		L394.9,482.3 L396.8,486.6 L398.7,490.7 L400.6,494.5 L402.5,498.2 L404.4,501.6 L406.3,504.9 L408.2,508.0
		L410.1,510.9 L412.0,513.7 L413.9,516.3 L415.8,518.8 L417.7,521.2 L419.6,523.5 L421.5,525.7 L423.4,527.9
		L425.3,530.0 L427.2,532.1 L429.1,534.1 L431.0,536.2 L432.9,538.3 L434.8,540.3 L436.7,542.4 L438.7,544.4
		L440.6,546.4 L442.5,548.5 L444.4,550.5 L446.3,552.4 L448.2,554.3 L450.1,556.2 L452.0,557.9 L453.9,559.6
		L455.8,561.1 L457.7,562.6 L459.6,563.9 L461.5,565.2 L463.4,566.3 L465.3,567.3 L467.2,568.2 L469.1,569.0
		L471.0,569.8 L472.9,570.5 L474.8,571.2 L476.7,571.8 L478.6,572.5 L480.5,573.2 L482.4,573.9 L484.3,574.7
		L486.2,575.6 L488.1,576.5 L490.1,577.6 L492.0,578.7 L493.9,579.9 L495.8,581.1 L497.7,582.5 L499.6,583.8
		L501.5,585.3 L503.4,586.7 L505.3,588.1 L507.2,589.6 L509.1,590.9 L511.0,592.2 L512.9,593.5 L514.8,594.6
		L516.7,595.7 L518.6,596.6 L520.5,597.4 L522.4,598.0 L524.3,598.5 L526.2,598.9 L528.1,599.1 L530.0,599.2
		L531.9,599.2 L533.8,599.0 L535.7,598.8 L537.6,598.4 L539.6,597.9 L541.5,597.3 L543.4,596.7 L545.3,595.9
		L547.2,595.1 L549.1,594.2 L551.0,593.2 L552.9,592.1 L554.8,591.0 L556.7,589.7 L558.6,588.4 L560.5,586.9
		L562.4,585.3 L564.3,583.7 L566.2,581.9 L568.1,580.1 L570.0,578.1 L571.9,576.1 L573.8,574.0 L575.7,571.9
		L577.6,569.7 L579.5,567.6 L581.4,565.5 L583.3,563.4 L585.2,561.5 L587.1,559.7 L589.1,558.1 L591.0,556.7
		L592.9,555.6 L594.8,554.8 L596.7,554.3 L598.6,554.1 L600.5,554.3 L602.4,554.8 L604.3,555.8 L606.2,557.1
		L608.1,558.9 L610.0,561.0 L611.9,563.5 L613.8,566.3 L615.7,569.5 L617.6,572.9 L619.5,576.5 L621.4,580.3
		L623.3,584.3 L625.2,588.4 L627.1,592.6 L629.0,596.8 L630.9,600.9 L632.8,605.0 L634.7,608.9 L636.6,612.7
		L638.5,616.2 L640.5,619.6 L642.4,622.6 L644.3,625.4 L646.2,627.9 L648.1,630.0 L650.0,631.7 L651.9,633.1
		L653.8,634.0 L655.7,634.5 L657.6,634.6 L659.5,634.2 L661.4,633.3 L663.3,631.9 L665.2,630.1 L667.1,627.7
		L669.0,624.8 L670.9,621.3 L672.8,617.3 L674.7,612.7 L676.6,607.6 L678.5,601.8 L680.4,595.5 L682.3,588.7
		L684.2,581.3 L686.1,573.3 L688.0,564.8 L690.0,555.9 L691.9,546.5 L693.8,536.7 L695.7,526.6 L697.6,516.3
		L699.5,505.7 L701.4,495.1 L703.3,484.4 L705.2,473.8 L707.1,463.4 L709.0,453.2 L710.9,443.5 L712.8,434.2
		L714.7,425.5 L716.6,417.6 L718.5,410.4 L720.4,404.1 L722.3,398.7 L724.2,394.4 L726.1,391.1 L728.0,388.9
		L729.9,387.9 L731.8,388.0 L733.7,389.2 L735.6,391.6 L737.5,395.0 L739.5,399.4 L741.4,404.7 L743.3,410.9
		L745.2,417.8 L747.1,425.3 L749.0,433.4 L750.9,441.8 L752.8,450.5 L754.7,459.4 L756.6,468.3 L758.5,477.1
		L760.4,485.6 L762.3,493.9 L764.2,501.7 L766.1,509.1 L768.0,515.9 L769.9,522.1 L771.8,527.6 L773.7,532.5
		L775.6,536.7 L777.5,540.2 L779.4,543.1 L781.3,545.4 L783.2,547.2 L785.1,548.4 L787.0,549.2 L789.0,549.6
		L790.9,549.7 L792.8,549.5 L794.7,549.2 L796.6,548.9 L798.5,548.4 L800.4,548.1 L802.3,547.8 L804.2,547.6
		L806.1,547.5 L808.0,547.6 L809.9,547.9 L811.8,548.3 L813.7,548.8 L815.6,549.5 L817.5,550.2 L819.4,550.9
		L821.3,551.6 L823.2,552.1 L825.1,552.4 L827.0,552.5 L828.9,552.3 L830.8,551.7 L832.7,550.7 L834.6,549.1
		L836.5,547.0 L838.4,544.3 L840.4,541.1 L842.3,537.2 L844.2,532.7 L846.1,527.6 L848.0,522.0 L849.9,515.9
		L851.8,509.4 L853.7,502.4 L855.6,495.3 L857.5,487.9 L859.4,480.4 L861.3,473.0 L863.2,465.7 L865.1,458.7
		L867.0,452.0 L868.9,445.8 L870.8,440.2 L872.7,435.2 L874.6,431.0 L876.5,427.5 L878.4,424.9 L880.3,423.2
		L882.2,422.4 L884.1,422.5 L886.0,423.6 L887.9,425.5 L889.9,428.3 L891.8,431.9 L893.7,436.2 L895.6,441.3
		L897.5,446.9 L899.4,453.1 L901.3,459.7 L903.2,466.7 L905.1,474.0 L907.0,481.4 L908.9,489.0 L910.8,496.6
		L912.7,504.2 L914.6,511.6 L916.5,518.9 L918.4,526.0 L920.3,532.8 L922.2,539.4 L924.1,545.6 L926.0,551.5
		L927.9,557.1 L929.8,562.3 L931.7,567.2 L933.6,571.8 L935.5,576.0 L937.4,579.9 L939.4,583.6 L941.3,586.9
		L943.2,590.1 L945.1,593.0 L947.0,595.8 L948.9,598.4 L950.8,600.8 L952.7,603.1 L954.6,605.4 L956.5,607.5
		L958.4,609.6 L960.3,611.6 L962.2,613.6 L964.1,615.6 L966.0,617.6 L967.9,619.5 L969.8,621.4 L971.7,623.3
		L973.6,625.2 L975.5,627.1 L977.4,629.0 L979.3,630.8 L981.2,632.6 L983.1,634.4 L985.0,636.1 L986.9,637.8
		L988.9,639.4 L990.8,641.0 L992.7,642.6 L994.6,644.0 L996.5,645.4 L998.4,646.7 L1000.3,648.0 L1002.2,649.2
		L1004.1,650.3 L1006.0,651.4 L1007.9,652.3 L1009.8,653.3 L1011.7,654.1 L1013.6,654.9  '/></g>
	</g>
	<g id="gnuplot_plot_2" ><title>Confidence interval</title>
<g fill="none" color="white" stroke="rgb( 31, 120, 180)" stroke-width="1.00" stroke-linecap="butt" stroke-linejoin="miter">
</g>
<g fill="none" color="black" stroke="currentColor" stroke-width="1.00" stroke-linecap="butt" stroke-linejoin="miter">
	<g transform="translate(1089.0,85.0)" stroke="none" fill="black" font-family="Helvetica" font-size="12.00"  text-anchor="start">
		<text><tspan font-family="Helvetica" >Confidence interval</tspan></text>
	</g>
</g>
<g fill="none" color="black" stroke="currentColor" stroke-width="1.00" stroke-linecap="butt" stroke-linejoin="miter">
	<g stroke='none' shape-rendering='crispEdges'>
		<polygon fill = 'rgb( 31, 120, 180)' fill-opacity = '0.250000' points = '1038.5,85.6 1080.7,85.6 1080.7,76.6 1038.5,76.6 '/>
		<polygon fill = 'rgb( 31, 120, 180)' fill-opacity = '0.250000' points = '151.2,626.4 153.1,625.8 155.0,625.0 156.9,624.2 158.8,623.3 160.7,622.2 162.6,621.1 164.5,619.8 166.4,618.4 168.3,616.8 170.2,615.0 172.1,613.0 174.0,610.7 175.9,608.2 177.8,605.3 179.7,602.2
181.6,598.7 183.5,594.8 185.4,590.5 187.3,585.8 189.3,580.6 191.2,575.0 193.1,568.8 195.0,562.2 196.9,555.0 198.8,547.4 200.7,539.2 202.6,530.4 204.5,521.2 206.4,511.6 208.3,501.4 210.2,490.9
212.1,479.9 214.0,468.7 215.9,457.1 217.8,445.3 219.7,433.3 221.6,421.1 223.5,408.8 225.4,396.5 227.3,384.1 229.2,371.8 231.1,359.5 233.0,347.4 234.9,335.3 236.8,323.4 238.8,311.7 240.7,300.1
242.6,288.7 244.5,277.5 246.4,266.5 248.3,255.6 250.2,245.0 252.1,234.5 254.0,224.3 255.9,214.2 257.8,204.4 259.7,194.8 261.6,185.4 263.5,176.4 265.4,167.6 267.3,159.2 269.2,151.2 271.1,143.6
273.0,136.5 274.9,129.9 276.8,123.9 278.7,118.6 280.6,113.9 282.5,109.9 284.4,106.7 286.3,104.3 288.2,102.6 290.2,101.8 292.1,101.9 294.0,102.8 295.9,104.5 297.8,107.0 299.7,110.4 301.6,114.5
303.5,119.3 305.4,124.8 307.3,131.0 309.2,137.7 311.1,145.0 313.0,152.8 314.9,160.9 316.8,169.5 318.7,178.3 320.6,187.5 322.5,196.8 324.4,206.2 326.3,215.8 328.2,225.4 330.1,235.1 332.0,244.7
333.9,254.3 335.8,263.8 337.7,273.3 339.7,282.6 341.6,291.8 343.5,300.8 345.4,309.7 347.3,318.4 349.2,327.0 351.1,335.4 353.0,343.6 354.9,351.7 356.8,359.6 358.7,367.3 360.6,374.9 362.5,382.2
364.4,389.5 366.3,396.5 368.2,403.4 370.1,410.1 372.0,416.7 373.9,423.1 375.8,429.4 377.7,435.4 379.6,441.4 381.5,447.1 383.4,452.7 385.3,458.1 387.2,463.3 389.2,468.4 391.1,473.2 393.0,477.9
394.9,482.3 396.8,486.6 398.7,490.7 400.6,494.5 402.5,498.2 404.4,501.6 406.3,504.9 408.2,508.0 410.1,510.9 412.0,513.7 413.9,516.3 415.8,518.8 417.7,521.2 419.6,523.5 421.5,525.7 423.4,527.9
425.3,530.0 427.2,532.1 429.1,534.1 431.0,536.2 432.9,538.3 434.8,540.3 436.7,542.4 438.7,544.4 440.6,546.4 442.5,548.5 444.4,550.5 446.3,552.4 448.2,554.3 450.1,556.2 452.0,557.9 453.9,559.6
455.8,561.1 457.7,562.6 459.6,563.9 461.5,565.2 463.4,566.3 465.3,567.3 467.2,568.2 469.1,569.0 471.0,569.8 472.9,570.5 474.8,571.2 476.7,571.8 478.6,572.5 480.5,573.2 482.4,573.9 484.3,574.7
486.2,575.6 488.1,576.5 490.1,577.6 492.0,578.7 493.9,579.9 495.8,581.1 497.7,582.5 499.6,583.8 501.5,585.3 503.4,586.7 505.3,588.1 507.2,589.6 509.1,590.9 511.0,592.2 512.9,593.5 514.8,594.6
516.7,595.7 518.6,596.6 520.5,597.4 522.4,598.0 524.3,598.5 526.2,598.9 528.1,599.1 530.0,599.2 531.9,599.2 533.8,599.0 535.7,598.8 537.6,598.4 539.6,597.9 541.5,597.3 543.4,596.7 545.3,595.9
547.2,595.1 549.1,594.2 551.0,593.2 552.9,592.1 554.8,591.0 556.7,589.7 558.6,588.4 560.5,586.9 562.4,585.3 564.3,583.7 566.2,581.9 568.1,580.1 570.0,578.1 571.9,576.1 573.8,574.0 575.7,571.9
577.6,569.7 579.5,567.6 581.4,565.5 583.3,563.4 585.2,561.5 587.1,559.7 589.1,558.1 591.0,556.7 592.9,555.6 594.8,554.8 596.7,554.3 598.6,554.1 600.5,554.3 602.4,554.8 604.3,555.8 606.2,557.1
608.1,558.9 610.0,561.0 611.9,563.5 613.8,566.3 615.7,569.5 617.6,572.9 619.5,576.5 621.4,580.3 623.3,584.3 625.2,588.4 627.1,592.6 629.0,596.8 630.9,600.9 632.8,605.0 634.7,608.9 636.6,612.7
638.5,616.2 640.5,619.6 642.4,622.6 644.3,625.4 646.2,627.9 648.1,630.0 650.0,631.7 651.9,633.1 653.8,634.0 655.7,634.5 657.6,634.6 659.5,634.2 661.4,633.3 663.3,631.9 665.2,630.1 667.1,627.7
669.0,624.8 670.9,621.3 672.8,617.3 674.7,612.7 676.6,607.6 678.5,601.8 680.4,595.5 682.3,588.7 684.2,581.3 686.1,573.3 688.0,564.8 690.0,555.9 691.9,546.5 693.8,536.7 695.7,526.6 697.6,516.3
699.5,505.7 701.4,495.1 703.3,484.4 705.2,473.8 707.1,463.4 709.0,453.2 710.9,443.5 712.8,434.2 714.7,425.5 716.6,417.6 718.5,410.4 720.4,404.1 722.3,398.7 724.2,394.4 726.1,391.1 728.0,388.9
729.9,387.9 731.8,388.0 733.7,389.2 735.6,391.6 737.5,395.0 739.5,399.4 741.4,404.7 743.3,410.9 745.2,417.8 747.1,425.3 749.0,433.4 750.9,441.8 752.8,450.5 754.7,459.4 756.6,468.3 758.5,477.1
760.4,485.6 762.3,493.9 764.2,501.7 766.1,509.1 768.0,515.9 769.9,522.1 771.8,527.6 773.7,532.5 775.6,536.7 777.5,540.2 779.4,543.1 781.3,545.4 783.2,547.2 785.1,548.4 787.0,549.2 789.0,549.6
790.9,549.7 792.8,549.5 794.7,549.2 796.6,548.9 798.5,548.4 800.4,548.1 802.3,547.8 804.2,547.6 806.1,547.5 808.0,547.6 809.9,547.9 811.8,548.3 813.7,548.8 815.6,549.5 817.5,550.2 819.4,550.9
821.3,551.6 823.2,552.1 825.1,552.4 827.0,552.5 828.9,552.3 830.8,551.7 832.7,550.7 834.6,549.1 836.5,547.0 838.4,544.3 840.4,541.1 842.3,537.2 844.2,532.7 846.1,527.6 848.0,522.0 849.9,515.9
851.8,509.4 853.7,502.4 855.6,495.3 857.5,487.9 859.4,480.4 861.3,473.0 863.2,465.7 865.1,458.7 867.0,452.0 868.9,445.8 870.8,440.2 872.7,435.2 874.6,431.0 876.5,427.5 878.4,424.9 880.3,423.2
882.2,422.4 884.1,422.5 886.0,423.6 887.9,425.5 889.9,428.3 891.8,431.9 893.7,436.2 895.6,441.3 897.5,446.9 899.4,453.1 901.3,459.7 903.2,466.7 905.1,474.0 907.0,481.4 908.9,489.0 910.8,496.6
912.7,504.2 914.6,511.6 916.5,518.9 918.4,526.0 920.3,532.8 922.2,539.4 924.1,545.6 924.1,662.4 922.2,662.4 920.3,662.4 918.4,662.4 916.5,662.4 914.6,662.4 912.7,662.4 910.8,662.4 908.9,662.4
907.0,662.4 905.1,662.4 903.2,662.4 901.3,662.4 899.4,662.4 897.5,662.4 895.6,662.4 893.7,662.4 891.8,662.4 889.9,662.4 887.9,662.4 886.0,662.4 884.1,662.4 882.2,662.4 880.3,662.4 878.4,662.4
876.5,662.4 874.6,662.4 872.7,662.4 870.8,662.4 868.9,662.4 867.0,662.4 865.1,662.4 863.2,662.4 861.3,662.4 859.4,662.4 857.5,662.4 855.6,662.4 853.7,662.4 851.8,662.4 849.9,662.4 848.0,662.4
846.1,662.4 844.2,662.4 842.3,662.4 840.4,662.4 838.4,662.4 836.5,662.4 834.6,662.4 832.7,662.4 830.8,662.4 828.9,662.4 827.0,662.4 825.1,662.4 823.2,662.4 821.3,662.4 819.4,662.4 817.5,662.4
815.6,662.4 813.7,662.4 811.8,662.4 809.9,662.4 808.0,662.4 806.1,662.4 804.2,662.4 802.3,662.4 800.4,662.4 798.5,662.4 796.6,662.4 794.7,662.4 792.8,662.4 790.9,662.4 789.0,662.4 787.0,662.4
785.1,662.4 783.2,662.4 781.3,662.4 779.4,662.4 777.5,662.4 775.6,662.4 773.7,662.4 771.8,662.4 769.9,662.4 768.0,662.4 766.1,662.4 764.2,662.4 762.3,662.4 760.4,662.4 758.5,662.4 756.6,662.4
754.7,662.4 752.8,662.4 750.9,662.4 749.0,662.4 747.1,662.4 745.2,662.4 743.3,662.4 741.4,662.4 739.5,662.4 737.5,662.4 735.6,662.4 733.7,662.4 731.8,662.4 729.9,662.4 728.0,662.4 726.1,662.4
724.2,662.4 722.3,662.4 720.4,662.4 718.5,662.4 716.6,662.4 714.7,662.4 712.8,662.4 710.9,662.4 709.0,662.4 707.1,662.4 705.2,662.4 703.3,662.4 701.4,662.4 699.5,662.4 697.6,662.4 695.7,662.4
693.8,662.4 691.9,662.4 690.0,662.4 688.0,662.4 686.1,662.4 684.2,662.4 682.3,662.4 680.4,662.4 678.5,662.4 676.6,662.4 674.7,662.4 672.8,662.4 670.9,662.4 669.0,662.4 667.1,662.4 665.2,662.4
663.3,662.4 661.4,662.4 659.5,662.4 657.6,662.4 655.7,662.4 653.8,662.4 651.9,662.4 650.0,662.4 648.1,662.4 646.2,662.4 644.3,662.4 642.4,662.4 640.5,662.4 638.5,662.4 636.6,662.4 634.7,662.4
632.8,662.4 630.9,662.4 629.0,662.4 627.1,662.4 625.2,662.4 623.3,662.4 621.4,662.4 619.5,662.4 617.6,662.4 615.7,662.4 613.8,662.4 611.9,662.4 610.0,662.4 608.1,662.4 606.2,662.4 604.3,662.4
602.4,662.4 600.5,662.4 598.6,662.4 596.7,662.4 594.8,662.4 592.9,662.4 591.0,662.4 589.1,662.4 587.1,662.4 585.2,662.4 583.3,662.4 581.4,662.4 579.5,662.4 577.6,662.4 575.7,662.4 573.8,662.4
571.9,662.4 570.0,662.4 568.1,662.4 566.2,662.4 564.3,662.4 562.4,662.4 560.5,662.4 558.6,662.4 556.7,662.4 554.8,662.4 552.9,662.4 551.0,662.4 549.1,662.4 547.2,662.4 545.3,662.4 543.4,662.4
541.5,662.4 539.6,662.4 537.6,662.4 535.7,662.4 533.8,662.4 531.9,662.4 530.0,662.4 528.1,662.4 526.2,662.4 524.3,662.4 522.4,662.4 520.5,662.4 518.6,662.4 516.7,662.4 514.8,662.4 512.9,662.4
511.0,662.4 509.1,662.4 507.2,662.4 505.3,662.4 503.4,662.4 501.5,662.4 499.6,662.4 497.7,662.4 495.8,662.4 493.9,662.4 492.0,662.4 490.1,662.4 488.1,662.4 486.2,662.4 484.3,662.4 482.4,662.4
480.5,662.4 478.6,662.4 476.7,662.4 474.8,662.4 472.9,662.4 471.0,662.4 469.1,662.4 467.2,662.4 465.3,662.4 463.4,662.4 461.5,662.4 459.6,662.4 457.7,662.4 455.8,662.4 453.9,662.4 452.0,662.4
450.1,662.4 448.2,662.4 446.3,662.4 444.4,662.4 442.5,662.4 440.6,662.4 438.7,662.4 436.7,662.4 434.8,662.4 432.9,662.4 431.0,662.4 429.1,662.4 427.2,662.4 425.3,662.4 423.4,662.4 421.5,662.4
419.6,662.4 417.7,662.4 415.8,662.4 413.9,662.4 412.0,662.4 410.1,662.4 408.2,662.4 406.3,662.4 404.4,662.4 402.5,662.4 400.6,662.4 398.7,662.4 396.8,662.4 394.9,662.4 393.0,662.4 391.1,662.4
389.2,662.4 387.2,662.4 385.3,662.4 383.4,662.4 381.5,662.4 379.6,662.4 377.7,662.4 375.8,662.4 373.9,662.4 372.0,662.4 370.1,662.4 368.2,662.4 366.3,662.4 364.4,662.4 362.5,662.4 360.6,662.4
358.7,662.4 356.8,662.4 354.9,662.4 353.0,662.4 351.1,662.4 349.2,662.4 347.3,662.4 345.4,662.4 343.5,662.4 341.6,662.4 339.7,662.4 337.7,662.4 335.8,662.4 333.9,662.4 332.0,662.4 330.1,662.4
328.2,662.4 326.3,662.4 324.4,662.4 322.5,662.4 320.6,662.4 318.7,662.4 316.8,662.4 314.9,662.4 313.0,662.4 311.1,662.4 309.2,662.4 307.3,662.4 305.4,662.4 303.5,662.4 301.6,662.4 299.7,662.4
297.8,662.4 295.9,662.4 294.0,662.4 292.1,662.4 290.2,662.4 288.2,662.4 286.3,662.4 284.4,662.4 282.5,662.4 280.6,662.4 278.7,662.4 276.8,662.4 274.9,662.4 273.0,662.4 271.1,662.4 269.2,662.4
267.3,662.4 265.4,662.4 263.5,662.4 261.6,662.4 259.7,662.4 257.8,662.4 255.9,662.4 254.0,662.4 252.1,662.4 250.2,662.4 248.3,662.4 246.4,662.4 244.5,662.4 242.6,662.4 240.7,662.4 238.8,662.4
236.8,662.4 234.9,662.4 233.0,662.4 231.1,662.4 229.2,662.4 227.3,662.4 225.4,662.4 223.5,662.4 221.6,662.4 219.7,662.4 217.8,662.4 215.9,662.4 214.0,662.4 212.1,662.4 210.2,662.4 208.3,662.4
206.4,662.4 204.5,662.4 202.6,662.4 200.7,662.4 198.8,662.4 196.9,662.4 195.0,662.4 193.1,662.4 191.2,662.4 189.3,662.4 187.3,662.4 185.4,662.4 183.5,662.4 181.6,662.4 179.7,662.4 177.8,662.4
175.9,662.4 174.0,662.4 172.1,662.4 170.2,662.4 168.3,662.4 166.4,662.4 164.5,662.4 162.6,662.4 160.7,662.4 158.8,662.4 156.9,662.4 155.0,662.4 153.1,662.4 151.2,662.4 '/>
	</g>
</g>
	</g>
	<g id="gnuplot_plot_3" ><title>Point estimate</title>
<g fill="none" color="white" stroke="rgb( 31, 120, 180)" stroke-width="2.00" stroke-linecap="butt" stroke-linejoin="miter">
</g>
<g fill="none" color="black" stroke="currentColor" stroke-width="2.00" stroke-linecap="butt" stroke-linejoin="miter">
	<g transform="translate(1089.0,103.0)" stroke="none" fill="black" font-family="Helvetica" font-size="12.00"  text-anchor="start">
		<text><tspan font-family="Helvetica" >Point estimate</tspan></text>
	</g>
</g>
<g fill="none" color="black" stroke="currentColor" stroke-width="2.00" stroke-linecap="butt" stroke-linejoin="miter">
	<path stroke='rgb( 31, 120, 180)'  d='M1038.5,99.1 L1080.7,99.1 M366.5,662.4 L366.5,397.3  '/></g>
	</g>
<g fill="none" color="black" stroke="currentColor" stroke-width="2.00" stroke-linecap="butt" stroke-linejoin="miter">
</g>
<g fill="none" color="black" stroke="black" stroke-width="1.00" stroke-linecap="butt" stroke-linejoin="miter">
</g>
<g fill="none" color="black" stroke="currentColor" stroke-width="1.00" stroke-linecap="butt" stroke-linejoin="miter">
	<path stroke='black'  d='M63.6,54.1 L63.6,662.4 L1013.6,662.4 L1013.6,54.1 L63.6,54.1 Z  '/></g>
<g fill="none" color="black" stroke="currentColor" stroke-width="1.00" stroke-linecap="butt" stroke-linejoin="miter">
</g>
</g>
</svg>

