<?xml version="1.0" encoding="utf-8"  standalone="no"?>
<svg 
 viewBox="0 0 1280 720"
 xmlns="http://www.w3.org/2000/svg"
 xmlns:xlink="http://www.w3.org/1999/xlink"
>

<title>Gnuplot</title>
<desc>Produced by GNUPLOT 5.2 patchlevel 8 </desc>

<g id="gnuplot_canvas">

<rect x="0" y="0" width="1280" height="720" fill="none"/>
<defs>

	<circle id='gpDot' r='0.5' stroke-width='0.5' stroke='currentColor'/>
	<path id='gpPt0' stroke-width='0.222' stroke='currentColor' d='M-1,0 h2 M0,-1 v2'/>
	<path id='gpPt1' stroke-width='0.222' stroke='currentColor' d='M-1,-1 L1,1 M1,-1 L-1,1'/>
	<path id='gpPt2' stroke-width='0.222' stroke='currentColor' d='M-1,0 L1,0 M0,-1 L0,1 M-1,-1 L1,1 M-1,1 L1,-1'/>
	<rect id='gpPt3' stroke-width='0.222' stroke='currentColor' x='-1' y='-1' width='2' height='2'/>
	<rect id='gpPt4' stroke-width='0.222' stroke='currentColor' fill='currentColor' x='-1' y='-1' width='2' height='2'/>
	<circle id='gpPt5' stroke-width='0.222' stroke='currentColor' cx='0' cy='0' r='1'/>
	<use xlink:href='#gpPt5' id='gpPt6' fill='currentColor' stroke='none'/>
	<path id='gpPt7' stroke-width='0.222' stroke='currentColor' d='M0,-1.33 L-1.33,0.67 L1.33,0.67 z'/>
	<use xlink:href='#gpPt7' id='gpPt8' fill='currentColor' stroke='none'/>
	<use xlink:href='#gpPt7' id='gpPt9' stroke='currentColor' transform='rotate(180)'/>
	<use xlink:href='#gpPt9' id='gpPt10' fill='currentColor' stroke='none'/>
	<use xlink:href='#gpPt3' id='gpPt11' stroke='currentColor' transform='rotate(45)'/>
	<use xlink:href='#gpPt11' id='gpPt12' fill='currentColor' stroke='none'/>
	<path id='gpPt13' stroke-width='0.222' stroke='currentColor' d='M0,1.330 L1.265,0.411 L0.782,-1.067 L-0.782,-1.076 L-1.265,0.411 z'/>
	<use xlink:href='#gpPt13' id='gpPt14' fill='currentColor' stroke='none'/>
	<filter id='textbox' filterUnits='objectBoundingBox' x='0' y='0' height='1' width='1'>
	  <feFlood flood-color='white' flood-opacity='1' result='bgnd'/>
	  <feComposite in='SourceGraphic' in2='bgnd' operator='atop'/>
	</filter>
	<filter id='greybox' filterUnits='objectBoundingBox' x='0' y='0' height='1' width='1'>
	  <feFlood flood-color='lightgrey' flood-opacity='1' result='grey'/>
	  <feComposite in='SourceGraphic' in2='grey' operator='atop'/>
	</filter>
</defs>
<g fill="none" color="white" stroke="currentColor" stroke-width="1.00" stroke-linecap="butt" stroke-linejoin="miter">
</g>
<g fill="none" color="black" stroke="currentColor" stroke-width="1.00" stroke-linecap="butt" stroke-linejoin="miter">
	<path stroke='black'  d='M88.5,662.4 L97.5,662.4  '/>	<g transform="translate(80.2,666.3)" stroke="none" fill="black" font-family="Helvetica" font-size="12.00"  text-anchor="end">
		<text><tspan font-family="Helvetica" > 0</tspan></text>
	</g>
</g>
<g fill="none" color="black" stroke="currentColor" stroke-width="1.00" stroke-linecap="butt" stroke-linejoin="miter">
	<path stroke='black'  d='M88.5,575.5 L97.5,575.5  '/>	<g transform="translate(80.2,579.4)" stroke="none" fill="black" font-family="Helvetica" font-size="12.00"  text-anchor="end">
		<text><tspan font-family="Helvetica" > 0.005</tspan></text>
	</g>
</g>
<g fill="none" color="black" stroke="currentColor" stroke-width="1.00" stroke-linecap="butt" stroke-linejoin="miter">
	<path stroke='black'  d='M88.5,488.6 L97.5,488.6  '/>	<g transform="translate(80.2,492.5)" stroke="none" fill="black" font-family="Helvetica" font-size="12.00"  text-anchor="end">
		<text><tspan font-family="Helvetica" > 0.01</tspan></text>
	</g>
</g>
<g fill="none" color="black" stroke="currentColor" stroke-width="1.00" stroke-linecap="butt" stroke-linejoin="miter">
	<path stroke='black'  d='M88.5,401.7 L97.5,401.7  '/>	<g transform="translate(80.2,405.6)" stroke="none" fill="black" font-family="Helvetica" font-size="12.00"  text-anchor="end">
		<text><tspan font-family="Helvetica" > 0.015</tspan></text>
	</g>
</g>
<g fill="none" color="black" stroke="currentColor" stroke-width="1.00" stroke-linecap="butt" stroke-linejoin="miter">
	<path stroke='black'  d='M88.5,314.8 L97.5,314.8  '/>	<g transform="translate(80.2,318.7)" stroke="none" fill="black" font-family="Helvetica" font-size="12.00"  text-anchor="end">
		<text><tspan font-family="Helvetica" > 0.02</tspan></text>
	</g>
</g>
<g fill="none" color="black" stroke="currentColor" stroke-width="1.00" stroke-linecap="butt" stroke-linejoin="miter">
	<path stroke='black'  d='M88.5,227.9 L97.5,227.9  '/>	<g transform="translate(80.2,231.8)" stroke="none" fill="black" font-family="Helvetica" font-size="12.00"  text-anchor="end">
		<text><tspan font-family="Helvetica" > 0.025</tspan></text>
	</g>
</g>
<g fill="none" color="black" stroke="currentColor" stroke-width="1.00" stroke-linecap="butt" stroke-linejoin="miter">
	<path stroke='black'  d='M88.5,141.0 L97.5,141.0  '/>	<g transform="translate(80.2,144.9)" stroke="none" fill="black" font-family="Helvetica" font-size="12.00"  text-anchor="end">
		<text><tspan font-family="Helvetica" > 0.03</tspan></text>
	</g>
</g>
<g fill="none" color="black" stroke="currentColor" stroke-width="1.00" stroke-linecap="butt" stroke-linejoin="miter">
	<path stroke='black'  d='M88.5,54.1 L97.5,54.1  '/>	<g transform="translate(80.2,58.0)" stroke="none" fill="black" font-family="Helvetica" font-size="12.00"  text-anchor="end">
		<text><tspan font-family="Helvetica" > 0.035</tspan></text>
	</g>
</g>
<g fill="none" color="black" stroke="currentColor" stroke-width="1.00" stroke-linecap="butt" stroke-linejoin="miter">
	<path stroke='black'  d='M88.9,662.4 L88.9,653.4  '/>	<g transform="translate(88.9,684.3)" stroke="none" fill="black" font-family="Helvetica" font-size="12.00"  text-anchor="middle">
		<text><tspan font-family="Helvetica" > 80</tspan></text>
	</g>
</g>
<g fill="none" color="black" stroke="currentColor" stroke-width="1.00" stroke-linecap="butt" stroke-linejoin="miter">
	<path stroke='black'  d='M186.0,662.4 L186.0,653.4  '/>	<g transform="translate(186.0,684.3)" stroke="none" fill="black" font-family="Helvetica" font-size="12.00"  text-anchor="middle">
		<text><tspan font-family="Helvetica" > 90</tspan></text>
	</g>
</g>
<g fill="none" color="black" stroke="currentColor" stroke-width="1.00" stroke-linecap="butt" stroke-linejoin="miter">
	<path stroke='black'  d='M283.0,662.4 L283.0,653.4  '/>	<g transform="translate(283.0,684.3)" stroke="none" fill="black" font-family="Helvetica" font-size="12.00"  text-anchor="middle">
		<text><tspan font-family="Helvetica" > 100</tspan></text>
	</g>
</g>
<g fill="none" color="black" stroke="currentColor" stroke-width="1.00" stroke-linecap="butt" stroke-linejoin="miter">
	<path stroke='black'  d='M380.0,662.4 L380.0,653.4  '/>	<g transform="translate(380.0,684.3)" stroke="none" fill="black" font-family="Helvetica" font-size="12.00"  text-anchor="middle">
		<text><tspan font-family="Helvetica" > 110</tspan></text>
	</g>
</g>
<g fill="none" color="black" stroke="currentColor" stroke-width="1.00" stroke-linecap="butt" stroke-linejoin="miter">
	<path stroke='black'  d='M477.0,662.4 L477.0,653.4  '/>	<g transform="translate(477.0,684.3)" stroke="none" fill="black" font-family="Helvetica" font-size="12.00"  text-anchor="middle">
		<text><tspan font-family="Helvetica" > 120</tspan></text>
	</g>
</g>
<g fill="none" color="black" stroke="currentColor" stroke-width="1.00" stroke-linecap="butt" stroke-linejoin="miter">
	<path stroke='black'  d='M574.1,662.4 L574.1,653.4  '/>	<g transform="translate(574.1,684.3)" stroke="none" fill="black" font-family="Helvetica" font-size="12.00"  text-anchor="middle">
		<text><tspan font-family="Helvetica" > 130</tspan></text>
	</g>
</g>
<g fill="none" color="black" stroke="currentColor" stroke-width="1.00" stroke-linecap="butt" stroke-linejoin="miter">
	<path stroke='black'  d='M671.1,662.4 L671.1,653.4  '/>	<g transform="translate(671.1,684.3)" stroke="none" fill="black" font-family="Helvetica" font-size="12.00"  text-anchor="middle">
		<text><tspan font-family="Helvetica" > 140</tspan></text>
	</g>
</g>
<g fill="none" color="black" stroke="currentColor" stroke-width="1.00" stroke-linecap="butt" stroke-linejoin="miter">
	<path stroke='black'  d='M768.1,662.4 L768.1,653.4  '/>	<g transform="translate(768.1,684.3)" stroke="none" fill="black" font-family="Helvetica" font-size="12.00"  text-anchor="middle">
		<text><tspan font-family="Helvetica" > 150</tspan></text>
	</g>
</g>
<g fill="none" color="black" stroke="currentColor" stroke-width="1.00" stroke-linecap="butt" stroke-linejoin="miter">
	<path stroke='black'  d='M865.1,662.4 L865.1,653.4  '/>	<g transform="translate(865.1,684.3)" stroke="none" fill="black" font-family="Helvetica" font-size="12.00"  text-anchor="middle">
		<text><tspan font-family="Helvetica" > 160</tspan></text>
	</g>
</g>
<g fill="none" color="black" stroke="currentColor" stroke-width="1.00" stroke-linecap="butt" stroke-linejoin="miter">
	<path stroke='black'  d='M962.1,662.4 L962.1,653.4  '/>	<g transform="translate(962.1,684.3)" stroke="none" fill="black" font-family="Helvetica" font-size="12.00"  text-anchor="middle">
		<text><tspan font-family="Helvetica" > 170</tspan></text>
	</g>
</g>
<g fill="none" color="black" stroke="currentColor" stroke-width="1.00" stroke-linecap="butt" stroke-linejoin="miter">
</g>
<g fill="none" color="black" stroke="currentColor" stroke-width="1.00" stroke-linecap="butt" stroke-linejoin="miter">
	<path stroke='black'  d='M88.5,54.1 L88.5,662.4 L1013.6,662.4 L1013.6,54.1 L88.5,54.1 Z  '/></g>
<g fill="none" color="black" stroke="currentColor" stroke-width="1.00" stroke-linecap="butt" stroke-linejoin="miter">
	<g transform="translate(19.0,358.3) rotate(270)" stroke="none" fill="black" font-family="Helvetica" font-size="12.00"  text-anchor="middle">
		<text><tspan font-family="Helvetica" >Density (a.u.)</tspan></text>
	</g>
</g>
<g fill="none" color="black" stroke="currentColor" stroke-width="1.00" stroke-linecap="butt" stroke-linejoin="miter">
	<g transform="translate(551.0,711.3)" stroke="none" fill="black" font-family="Helvetica" font-size="12.00"  text-anchor="middle">
		<text><tspan font-family="Helvetica" >Average time (ps)</tspan></text>
	</g>
</g>
<g fill="none" color="black" stroke="currentColor" stroke-width="1.00" stroke-linecap="butt" stroke-linejoin="miter">
	<g transform="translate(551.0,31.0)" stroke="none" fill="black" font-family="Helvetica" font-size="12.00"  text-anchor="middle">
		<text><tspan font-family="Helvetica" >Parse/Standard parse default/1: MAD</tspan></text>
	</g>
</g>
<g fill="none" color="black" stroke="currentColor" stroke-width="1.00" stroke-linecap="butt" stroke-linejoin="miter">
</g>
	<g id="gnuplot_plot_1" ><title>Bootstrap distribution</title>
<g fill="none" color="white" stroke="currentColor" stroke-width="2.00" stroke-linecap="butt" stroke-linejoin="miter">
</g>
<g fill="none" color="black" stroke="currentColor" stroke-width="2.00" stroke-linecap="butt" stroke-linejoin="miter">
	<g transform="translate(1089.0,67.0)" stroke="none" fill="black" font-family="Helvetica" font-size="12.00"  text-anchor="start">
		<text><tspan font-family="Helvetica" >Bootstrap distribution</tspan></text>
	</g>
</g>
<g fill="none" color="black" stroke="currentColor" stroke-width="2.00" stroke-linecap="butt" stroke-linejoin="miter">
	<path stroke='rgb( 31, 120, 180)'  d='M1038.5,63.1 L1080.7,63.1 M88.5,639.5 L90.4,639.4 L92.2,639.3 L94.1,639.1 L95.9,639.0 L97.8,638.9
		L99.6,638.7 L101.5,638.6 L103.3,638.4 L105.2,638.2 L107.0,638.1 L108.9,637.9 L110.7,637.7 L112.6,637.5
		L114.5,637.3 L116.3,637.1 L118.2,636.9 L120.0,636.7 L121.9,636.6 L123.7,636.4 L125.6,636.2 L127.4,636.1
		L129.3,636.0 L131.1,635.8 L133.0,635.7 L134.8,635.6 L136.7,635.5 L138.6,635.4 L140.4,635.3 L142.3,635.2
		L144.1,635.1 L146.0,634.9 L147.8,634.8 L149.7,634.6 L151.5,634.4 L153.4,634.2 L155.2,633.9 L157.1,633.6
		L158.9,633.3 L160.8,632.9 L162.7,632.5 L164.5,632.1 L166.4,631.7 L168.2,631.2 L170.1,630.7 L171.9,630.2
		L173.8,629.7 L175.6,629.2 L177.5,628.7 L179.3,628.2 L181.2,627.8 L183.0,627.3 L184.9,626.9 L186.8,626.6
		L188.6,626.2 L190.5,625.9 L192.3,625.7 L194.2,625.5 L196.0,625.3 L197.9,625.2 L199.7,625.1 L201.6,625.0
		L203.4,625.0 L205.3,624.9 L207.2,624.9 L209.0,624.9 L210.9,624.8 L212.7,624.8 L214.6,624.7 L216.4,624.7
		L218.3,624.6 L220.1,624.5 L222.0,624.4 L223.8,624.4 L225.7,624.2 L227.5,624.1 L229.4,624.0 L231.3,623.9
		L233.1,623.8 L235.0,623.7 L236.8,623.6 L238.7,623.5 L240.5,623.4 L242.4,623.3 L244.2,623.1 L246.1,623.0
		L247.9,622.8 L249.8,622.6 L251.6,622.4 L253.5,622.1 L255.4,621.8 L257.2,621.4 L259.1,620.9 L260.9,620.4
		L262.8,619.7 L264.6,619.0 L266.5,618.3 L268.3,617.4 L270.2,616.5 L272.0,615.5 L273.9,614.4 L275.7,613.3
		L277.6,612.1 L279.5,610.9 L281.3,609.7 L283.2,608.5 L285.0,607.2 L286.9,606.0 L288.7,604.8 L290.6,603.6
		L292.4,602.3 L294.3,601.2 L296.1,600.0 L298.0,598.8 L299.8,597.7 L301.7,596.5 L303.6,595.4 L305.4,594.2
		L307.3,593.0 L309.1,591.8 L311.0,590.6 L312.8,589.4 L314.7,588.1 L316.5,586.8 L318.4,585.5 L320.2,584.2
		L322.1,582.8 L323.9,581.4 L325.8,580.0 L327.7,578.5 L329.5,577.1 L331.4,575.6 L333.2,574.1 L335.1,572.7
		L336.9,571.2 L338.8,569.8 L340.6,568.4 L342.5,567.0 L344.3,565.6 L346.2,564.3 L348.0,563.0 L349.9,561.7
		L351.8,560.6 L353.6,559.5 L355.5,558.4 L357.3,557.4 L359.2,556.5 L361.0,555.7 L362.9,554.9 L364.7,554.2
		L366.6,553.5 L368.4,552.9 L370.3,552.3 L372.1,551.8 L374.0,551.2 L375.9,550.7 L377.7,550.2 L379.6,549.7
		L381.4,549.1 L383.3,548.5 L385.1,547.9 L387.0,547.3 L388.8,546.6 L390.7,545.9 L392.5,545.1 L394.4,544.4
		L396.2,543.6 L398.1,542.9 L400.0,542.1 L401.8,541.4 L403.7,540.7 L405.5,540.0 L407.4,539.3 L409.2,538.7
		L411.1,538.1 L412.9,537.6 L414.8,537.1 L416.6,536.7 L418.5,536.3 L420.3,535.9 L422.2,535.6 L424.1,535.2
		L425.9,534.8 L427.8,534.4 L429.6,533.9 L431.5,533.4 L433.3,532.8 L435.2,532.2 L437.0,531.4 L438.9,530.7
		L440.7,529.8 L442.6,528.9 L444.5,527.9 L446.3,526.9 L448.2,525.8 L450.0,524.8 L451.9,523.7 L453.7,522.7
		L455.6,521.7 L457.4,520.8 L459.3,520.0 L461.1,519.2 L463.0,518.6 L464.8,518.0 L466.7,517.5 L468.6,517.1
		L470.4,516.8 L472.3,516.6 L474.1,516.4 L476.0,516.2 L477.8,516.0 L479.7,515.8 L481.5,515.6 L483.4,515.2
		L485.2,514.8 L487.1,514.2 L488.9,513.4 L490.8,512.5 L492.7,511.4 L494.5,510.1 L496.4,508.6 L498.2,506.9
		L500.1,505.0 L501.9,502.9 L503.8,500.7 L505.6,498.4 L507.5,495.9 L509.3,493.4 L511.2,490.8 L513.0,488.1
		L514.9,485.4 L516.8,482.8 L518.6,480.1 L520.5,477.5 L522.3,474.9 L524.2,472.4 L526.0,470.0 L527.9,467.6
		L529.7,465.2 L531.6,462.9 L533.4,460.5 L535.3,458.2 L537.1,455.8 L539.0,453.3 L540.9,450.7 L542.7,448.0
		L544.6,445.2 L546.4,442.2 L548.3,439.0 L550.1,435.6 L552.0,432.0 L553.8,428.2 L555.7,424.3 L557.5,420.1
		L559.4,415.7 L561.2,411.2 L563.1,406.5 L565.0,401.7 L566.8,396.8 L568.7,391.8 L570.5,386.8 L572.4,381.7
		L574.2,376.6 L576.1,371.5 L577.9,366.5 L579.8,361.4 L581.6,356.3 L583.5,351.2 L585.3,346.2 L587.2,341.0
		L589.1,335.9 L590.9,330.6 L592.8,325.3 L594.6,319.8 L596.5,314.2 L598.3,308.4 L600.2,302.5 L602.0,296.3
		L603.9,290.0 L605.7,283.5 L607.6,276.8 L609.4,270.0 L611.3,263.0 L613.2,255.9 L615.0,248.8 L616.9,241.6
		L618.7,234.5 L620.6,227.5 L622.4,220.6 L624.3,213.9 L626.1,207.4 L628.0,201.2 L629.8,195.3 L631.7,189.8
		L633.5,184.6 L635.4,179.8 L637.3,175.5 L639.1,171.5 L641.0,167.8 L642.8,164.6 L644.7,161.6 L646.5,158.9
		L648.4,156.5 L650.2,154.2 L652.1,152.1 L653.9,150.1 L655.8,148.1 L657.6,146.2 L659.5,144.2 L661.4,142.2
		L663.2,140.2 L665.1,138.1 L666.9,136.0 L668.8,133.8 L670.6,131.5 L672.5,129.2 L674.3,126.9 L676.2,124.6
		L678.0,122.2 L679.9,119.9 L681.8,117.7 L683.6,115.5 L685.5,113.4 L687.3,111.4 L689.2,109.5 L691.0,107.7
		L692.9,106.0 L694.7,104.4 L696.6,102.9 L698.4,101.6 L700.3,100.3 L702.1,99.2 L704.0,98.3 L705.9,97.5
		L707.7,96.9 L709.6,96.4 L711.4,96.2 L713.3,96.3 L715.1,96.7 L717.0,97.4 L718.8,98.5 L720.7,100.0
		L722.5,102.0 L724.4,104.5 L726.2,107.6 L728.1,111.2 L730.0,115.5 L731.8,120.5 L733.7,126.0 L735.5,132.3
		L737.4,139.2 L739.2,146.7 L741.1,154.8 L742.9,163.4 L744.8,172.6 L746.6,182.2 L748.5,192.1 L750.3,202.4
		L752.2,213.0 L754.1,223.7 L755.9,234.4 L757.8,245.3 L759.6,256.0 L761.5,266.7 L763.3,277.2 L765.2,287.5
		L767.0,297.6 L768.9,307.4 L770.7,317.0 L772.6,326.2 L774.4,335.2 L776.3,343.9 L778.2,352.3 L780.0,360.4
		L781.9,368.3 L783.7,375.9 L785.6,383.4 L787.4,390.6 L789.3,397.7 L791.1,404.6 L793.0,411.3 L794.8,417.9
		L796.7,424.4 L798.5,430.7 L800.4,436.9 L802.3,442.9 L804.1,448.8 L806.0,454.6 L807.8,460.1 L809.7,465.5
		L811.5,470.8 L813.4,475.8 L815.2,480.6 L817.1,485.3 L818.9,489.7 L820.8,493.9 L822.6,498.0 L824.5,501.9
		L826.4,505.6 L828.2,509.1 L830.1,512.5 L831.9,515.7 L833.8,518.8 L835.6,521.8 L837.5,524.6 L839.3,527.4
		L841.2,530.2 L843.0,532.8 L844.9,535.4 L846.7,538.0 L848.6,540.5 L850.5,543.0 L852.3,545.4 L854.2,547.9
		L856.0,550.3 L857.9,552.6 L859.7,555.0 L861.6,557.3 L863.4,559.5 L865.3,561.7 L867.1,563.9 L869.0,566.1
		L870.8,568.1 L872.7,570.2 L874.6,572.2 L876.4,574.1 L878.3,576.0 L880.1,577.8 L882.0,579.6 L883.8,581.4
		L885.7,583.1 L887.5,584.7 L889.4,586.4 L891.2,588.0 L893.1,589.5 L894.9,591.1 L896.8,592.5 L898.7,594.0
		L900.5,595.4 L902.4,596.8 L904.2,598.2 L906.1,599.5 L907.9,600.7 L909.8,602.0 L911.6,603.2 L913.5,604.4
		L915.3,605.5 L917.2,606.6 L919.1,607.7 L920.9,608.7 L922.8,609.7 L924.6,610.7 L926.5,611.7 L928.3,612.7
		L930.2,613.6 L932.0,614.5 L933.9,615.4 L935.7,616.2 L937.6,617.1 L939.4,617.9 L941.3,618.7 L943.2,619.5
		L945.0,620.3 L946.9,621.0 L948.7,621.8 L950.6,622.5 L952.4,623.3 L954.3,624.0 L956.1,624.7 L958.0,625.4
		L959.8,626.1 L961.7,626.8 L963.5,627.5 L965.4,628.1 L967.3,628.8 L969.1,629.4 L971.0,630.0 L972.8,630.6
		L974.7,631.2 L976.5,631.8 L978.4,632.4 L980.2,632.9 L982.1,633.5 L983.9,634.0 L985.8,634.5 L987.6,635.0
		L989.5,635.5 L991.4,636.0 L993.2,636.5 L995.1,637.0 L996.9,637.5 L998.8,638.1 L1000.6,638.6 L1002.5,639.1
		L1004.3,639.6 L1006.2,640.1 L1008.0,640.7 L1009.9,641.2 L1011.7,641.7 L1013.6,642.3  '/></g>
	</g>
	<g id="gnuplot_plot_2" ><title>Confidence interval</title>
<g fill="none" color="white" stroke="rgb( 31, 120, 180)" stroke-width="1.00" stroke-linecap="butt" stroke-linejoin="miter">
</g>
<g fill="none" color="black" stroke="currentColor" stroke-width="1.00" stroke-linecap="butt" stroke-linejoin="miter">
	<g transform="translate(1089.0,85.0)" stroke="none" fill="black" font-family="Helvetica" font-size="12.00"  text-anchor="start">
		<text><tspan font-family="Helvetica" >Confidence interval</tspan></text>
	</g>
</g>
<g fill="none" color="black" stroke="currentColor" stroke-width="1.00" stroke-linecap="butt" stroke-linejoin="miter">
	<g stroke='none' shape-rendering='crispEdges'>
		<polygon fill = 'rgb( 31, 120, 180)' fill-opacity = '0.250000' points = '1038.5,85.6 1080.7,85.6 1080.7,76.6 1038.5,76.6 '/>
		<polygon fill = 'rgb( 31, 120, 180)' fill-opacity = '0.250000' points = '173.8,629.7 175.6,629.2 177.5,628.7 179.3,628.2 181.2,627.8 183.0,627.3 184.9,626.9 186.8,626.6 188.6,626.2 190.5,625.9 192.3,625.7 194.2,625.5 196.0,625.3 197.9,625.2 199.7,625.1 201.6,625.0
203.4,625.0 205.3,624.9 207.2,624.9 209.0,624.9 210.9,624.8 212.7,624.8 214.6,624.7 216.4,624.7 218.3,624.6 220.1,624.5 222.0,624.4 223.8,624.4 225.7,624.2 227.5,624.1 229.4,624.0 231.3,623.9
233.1,623.8 235.0,623.7 236.8,623.6 238.7,623.5 240.5,623.4 242.4,623.3 244.2,623.1 246.1,623.0 247.9,622.8 249.8,622.6 251.6,622.4 253.5,622.1 255.4,621.8 257.2,621.4 259.1,620.9 260.9,620.4
262.8,619.7 264.6,619.0 266.5,618.3 268.3,617.4 270.2,616.5 272.0,615.5 273.9,614.4 275.7,613.3 277.6,612.1 279.5,610.9 281.3,609.7 283.2,608.5 285.0,607.2 286.9,606.0 288.7,604.8 290.6,603.6
292.4,602.3 294.3,601.2 296.1,600.0 298.0,598.8 299.8,597.7 301.7,596.5 303.6,595.4 305.4,594.2 307.3,593.0 309.1,591.8 311.0,590.6 312.8,589.4 314.7,588.1 316.5,586.8 318.4,585.5 320.2,584.2
322.1,582.8 323.9,581.4 325.8,580.0 327.7,578.5 329.5,577.1 331.4,575.6 333.2,574.1 335.1,572.7 336.9,571.2 338.8,569.8 340.6,568.4 342.5,567.0 344.3,565.6 346.2,564.3 348.0,563.0 349.9,561.7
351.8,560.6 353.6,559.5 355.5,558.4 357.3,557.4 359.2,556.5 361.0,555.7 362.9,554.9 364.7,554.2 366.6,553.5 368.4,552.9 370.3,552.3 372.1,551.8 374.0,551.2 375.9,550.7 377.7,550.2 379.6,549.7
381.4,549.1 383.3,548.5 385.1,547.9 387.0,547.3 388.8,546.6 390.7,545.9 392.5,545.1 394.4,544.4 396.2,543.6 398.1,542.9 400.0,542.1 401.8,541.4 403.7,540.7 405.5,540.0 407.4,539.3 409.2,538.7
411.1,538.1 412.9,537.6 414.8,537.1 416.6,536.7 418.5,536.3 420.3,535.9 422.2,535.6 424.1,535.2 425.9,534.8 427.8,534.4 429.6,533.9 431.5,533.4 433.3,532.8 435.2,532.2 437.0,531.4 438.9,530.7
440.7,529.8 442.6,528.9 444.5,527.9 446.3,526.9 448.2,525.8 450.0,524.8 451.9,523.7 453.7,522.7 455.6,521.7 457.4,520.8 459.3,520.0 461.1,519.2 463.0,518.6 464.8,518.0 466.7,517.5 468.6,517.1
470.4,516.8 472.3,516.6 474.1,516.4 476.0,516.2 477.8,516.0 479.7,515.8 481.5,515.6 483.4,515.2 485.2,514.8 487.1,514.2 488.9,513.4 490.8,512.5 492.7,511.4 494.5,510.1 496.4,508.6 498.2,506.9
500.1,505.0 501.9,502.9 503.8,500.7 505.6,498.4 507.5,495.9 509.3,493.4 511.2,490.8 513.0,488.1 514.9,485.4 516.8,482.8 518.6,480.1 520.5,477.5 522.3,474.9 524.2,472.4 526.0,470.0 527.9,467.6
529.7,465.2 531.6,462.9 533.4,460.5 535.3,458.2 537.1,455.8 539.0,453.3 540.9,450.7 542.7,448.0 544.6,445.2 546.4,442.2 548.3,439.0 550.1,435.6 552.0,432.0 553.8,428.2 555.7,424.3 557.5,420.1
559.4,415.7 561.2,411.2 563.1,406.5 565.0,401.7 566.8,396.8 568.7,391.8 570.5,386.8 572.4,381.7 574.2,376.6 576.1,371.5 577.9,366.5 579.8,361.4 581.6,356.3 583.5,351.2 585.3,346.2 587.2,341.0
589.1,335.9 590.9,330.6 592.8,325.3 594.6,319.8 596.5,314.2 598.3,308.4 600.2,302.5 602.0,296.3 603.9,290.0 605.7,283.5 607.6,276.8 609.4,270.0 611.3,263.0 613.2,255.9 615.0,248.8 616.9,241.6
618.7,234.5 620.6,227.5 622.4,220.6 624.3,213.9 626.1,207.4 628.0,201.2 629.8,195.3 631.7,189.8 633.5,184.6 635.4,179.8 637.3,175.5 639.1,171.5 641.0,167.8 642.8,164.6 644.7,161.6 646.5,158.9
648.4,156.5 650.2,154.2 652.1,152.1 653.9,150.1 655.8,148.1 657.6,146.2 659.5,144.2 661.4,142.2 663.2,140.2 665.1,138.1 666.9,136.0 668.8,133.8 670.6,131.5 672.5,129.2 674.3,126.9 676.2,124.6
678.0,122.2 679.9,119.9 681.8,117.7 683.6,115.5 685.5,113.4 687.3,111.4 689.2,109.5 691.0,107.7 692.9,106.0 694.7,104.4 696.6,102.9 698.4,101.6 700.3,100.3 702.1,99.2 704.0,98.3 705.9,97.5
707.7,96.9 709.6,96.4 711.4,96.2 713.3,96.3 715.1,96.7 717.0,97.4 718.8,98.5 720.7,100.0 722.5,102.0 724.4,104.5 726.2,107.6 728.1,111.2 730.0,115.5 731.8,120.5 733.7,126.0 735.5,132.3
737.4,139.2 739.2,146.7 741.1,154.8 742.9,163.4 744.8,172.6 746.6,182.2 748.5,192.1 750.3,202.4 752.2,213.0 754.1,223.7 755.9,234.4 757.8,245.3 759.6,256.0 761.5,266.7 763.3,277.2 765.2,287.5
767.0,297.6 768.9,307.4 770.7,317.0 772.6,326.2 774.4,335.2 776.3,343.9 778.2,352.3 780.0,360.4 781.9,368.3 783.7,375.9 785.6,383.4 787.4,390.6 789.3,397.7 791.1,404.6 793.0,411.3 794.8,417.9
796.7,424.4 798.5,430.7 800.4,436.9 802.3,442.9 804.1,448.8 806.0,454.6 807.8,460.1 809.7,465.5 811.5,470.8 813.4,475.8 815.2,480.6 817.1,485.3 818.9,489.7 820.8,493.9 822.6,498.0 824.5,501.9
826.4,505.6 828.2,509.1 830.1,512.5 831.9,515.7 833.8,518.8 835.6,521.8 837.5,524.6 839.3,527.4 841.2,530.2 843.0,532.8 844.9,535.4 846.7,538.0 848.6,540.5 850.5,543.0 852.3,545.4 854.2,547.9
856.0,550.3 857.9,552.6 859.7,555.0 861.6,557.3 863.4,559.5 865.3,561.7 867.1,563.9 869.0,566.1 870.8,568.1 872.7,570.2 874.6,572.2 876.4,574.1 878.3,576.0 880.1,577.8 882.0,579.6 883.8,581.4
885.7,583.1 887.5,584.7 889.4,586.4 891.2,588.0 893.1,589.5 894.9,591.1 896.8,592.5 898.7,594.0 900.5,595.4 902.4,596.8 904.2,598.2 906.1,599.5 907.9,600.7 909.8,602.0 911.6,603.2 913.5,604.4
915.3,605.5 917.2,606.6 919.1,607.7 920.9,608.7 922.8,609.7 924.6,610.7 926.5,611.7 926.5,662.4 924.6,662.4 922.8,662.4 920.9,662.4 919.1,662.4 917.2,662.4 915.3,662.4 913.5,662.4 911.6,662.4
909.8,662.4 907.9,662.4 906.1,662.4 904.2,662.4 902.4,662.4 900.5,662.4 898.7,662.4 896.8,662.4 894.9,662.4 893.1,662.4 891.2,662.4 889.4,662.4 887.5,662.4 885.7,662.4 883.8,662.4 882.0,662.4
880.1,662.4 878.3,662.4 876.4,662.4 874.6,662.4 872.7,662.4 870.8,662.4 869.0,662.4 867.1,662.4 865.3,662.4 863.4,662.4 861.6,662.4 859.7,662.4 857.9,662.4 856.0,662.4 854.2,662.4 852.3,662.4
850.5,662.4 848.6,662.4 846.7,662.4 844.9,662.4 843.0,662.4 841.2,662.4 839.3,662.4 837.5,662.4 835.6,662.4 833.8,662.4 831.9,662.4 830.1,662.4 828.2,662.4 826.4,662.4 824.5,662.4 822.6,662.4
820.8,662.4 818.9,662.4 817.1,662.4 815.2,662.4 813.4,662.4 811.5,662.4 809.7,662.4 807.8,662.4 806.0,662.4 804.1,662.4 802.3,662.4 800.4,662.4 798.5,662.4 796.7,662.4 794.8,662.4 793.0,662.4
791.1,662.4 789.3,662.4 787.4,662.4 785.6,662.4 783.7,662.4 781.9,662.4 780.0,662.4 778.2,662.4 776.3,662.4 774.4,662.4 772.6,662.4 770.7,662.4 768.9,662.4 767.0,662.4 765.2,662.4 763.3,662.4
761.5,662.4 759.6,662.4 757.8,662.4 755.9,662.4 754.1,662.4 752.2,662.4 750.3,662.4 748.5,662.4 746.6,662.4 744.8,662.4 742.9,662.4 741.1,662.4 739.2,662.4 737.4,662.4 735.5,662.4 733.7,662.4
731.8,662.4 730.0,662.4 728.1,662.4 726.2,662.4 724.4,662.4 722.5,662.4 720.7,662.4 718.8,662.4 717.0,662.4 715.1,662.4 713.3,662.4 711.4,662.4 709.6,662.4 707.7,662.4 705.9,662.4 704.0,662.4
702.1,662.4 700.3,662.4 698.4,662.4 696.6,662.4 694.7,662.4 692.9,662.4 691.0,662.4 689.2,662.4 687.3,662.4 685.5,662.4 683.6,662.4 681.8,662.4 679.9,662.4 678.0,662.4 676.2,662.4 674.3,662.4
672.5,662.4 670.6,662.4 668.8,662.4 666.9,662.4 665.1,662.4 663.2,662.4 661.4,662.4 659.5,662.4 657.6,662.4 655.8,662.4 653.9,662.4 652.1,662.4 650.2,662.4 648.4,662.4 646.5,662.4 644.7,662.4
642.8,662.4 641.0,662.4 639.1,662.4 637.3,662.4 635.4,662.4 633.5,662.4 631.7,662.4 629.8,662.4 628.0,662.4 626.1,662.4 624.3,662.4 622.4,662.4 620.6,662.4 618.7,662.4 616.9,662.4 615.0,662.4
613.2,662.4 611.3,662.4 609.4,662.4 607.6,662.4 605.7,662.4 603.9,662.4 602.0,662.4 600.2,662.4 598.3,662.4 596.5,662.4 594.6,662.4 592.8,662.4 590.9,662.4 589.1,662.4 587.2,662.4 585.3,662.4
583.5,662.4 581.6,662.4 579.8,662.4 577.9,662.4 576.1,662.4 574.2,662.4 572.4,662.4 570.5,662.4 568.7,662.4 566.8,662.4 565.0,662.4 563.1,662.4 561.2,662.4 559.4,662.4 557.5,662.4 555.7,662.4
553.8,662.4 552.0,662.4 550.1,662.4 548.3,662.4 546.4,662.4 544.6,662.4 542.7,662.4 540.9,662.4 539.0,662.4 537.1,662.4 535.3,662.4 533.4,662.4 531.6,662.4 529.7,662.4 527.9,662.4 526.0,662.4
524.2,662.4 522.3,662.4 520.5,662.4 518.6,662.4 516.8,662.4 514.9,662.4 513.0,662.4 511.2,662.4 509.3,662.4 507.5,662.4 505.6,662.4 503.8,662.4 501.9,662.4 500.1,662.4 498.2,662.4 496.4,662.4
494.5,662.4 492.7,662.4 490.8,662.4 488.9,662.4 487.1,662.4 485.2,662.4 483.4,662.4 481.5,662.4 479.7,662.4 477.8,662.4 476.0,662.4 474.1,662.4 472.3,662.4 470.4,662.4 468.6,662.4 466.7,662.4
464.8,662.4 463.0,662.4 461.1,662.4 459.3,662.4 457.4,662.4 455.6,662.4 453.7,662.4 451.9,662.4 450.0,662.4 448.2,662.4 446.3,662.4 444.5,662.4 442.6,662.4 440.7,662.4 438.9,662.4 437.0,662.4
435.2,662.4 433.3,662.4 431.5,662.4 429.6,662.4 427.8,662.4 425.9,662.4 424.1,662.4 422.2,662.4 420.3,662.4 418.5,662.4 416.6,662.4 414.8,662.4 412.9,662.4 411.1,662.4 409.2,662.4 407.4,662.4
405.5,662.4 403.7,662.4 401.8,662.4 400.0,662.4 398.1,662.4 396.2,662.4 394.4,662.4 392.5,662.4 390.7,662.4 388.8,662.4 387.0,662.4 385.1,662.4 383.3,662.4 381.4,662.4 379.6,662.4 377.7,662.4
375.9,662.4 374.0,662.4 372.1,662.4 370.3,662.4 368.4,662.4 366.6,662.4 364.7,662.4 362.9,662.4 361.0,662.4 359.2,662.4 357.3,662.4 355.5,662.4 353.6,662.4 351.8,662.4 349.9,662.4 348.0,662.4
346.2,662.4 344.3,662.4 342.5,662.4 340.6,662.4 338.8,662.4 336.9,662.4 335.1,662.4 333.2,662.4 331.4,662.4 329.5,662.4 327.7,662.4 325.8,662.4 323.9,662.4 322.1,662.4 320.2,662.4 318.4,662.4
316.5,662.4 314.7,662.4 312.8,662.4 311.0,662.4 309.1,662.4 307.3,662.4 305.4,662.4 303.6,662.4 301.7,662.4 299.8,662.4 298.0,662.4 296.1,662.4 294.3,662.4 292.4,662.4 290.6,662.4 288.7,662.4
286.9,662.4 285.0,662.4 283.2,662.4 281.3,662.4 279.5,662.4 277.6,662.4 275.7,662.4 273.9,662.4 272.0,662.4 270.2,662.4 268.3,662.4 266.5,662.4 264.6,662.4 262.8,662.4 260.9,662.4 259.1,662.4
257.2,662.4 255.4,662.4 253.5,662.4 251.6,662.4 249.8,662.4 247.9,662.4 246.1,662.4 244.2,662.4 242.4,662.4 240.5,662.4 238.7,662.4 236.8,662.4 235.0,662.4 233.1,662.4 231.3,662.4 229.4,662.4
227.5,662.4 225.7,662.4 223.8,662.4 222.0,662.4 220.1,662.4 218.3,662.4 216.4,662.4 214.6,662.4 212.7,662.4 210.9,662.4 209.0,662.4 207.2,662.4 205.3,662.4 203.4,662.4 201.6,662.4 199.7,662.4
197.9,662.4 196.0,662.4 194.2,662.4 192.3,662.4 190.5,662.4 188.6,662.4 186.8,662.4 184.9,662.4 183.0,662.4 181.2,662.4 179.3,662.4 177.5,662.4 175.6,662.4 173.8,662.4 '/>
	</g>
</g>
	</g>
	<g id="gnuplot_plot_3" ><title>Point estimate</title>
<g fill="none" color="white" stroke="rgb( 31, 120, 180)" stroke-width="2.00" stroke-linecap="butt" stroke-linejoin="miter">
</g>
<g fill="none" color="black" stroke="currentColor" stroke-width="2.00" stroke-linecap="butt" stroke-linejoin="miter">
	<g transform="translate(1089.0,103.0)" stroke="none" fill="black" font-family="Helvetica" font-size="12.00"  text-anchor="start">
		<text><tspan font-family="Helvetica" >Point estimate</tspan></text>
	</g>
</g>
<g fill="none" color="black" stroke="currentColor" stroke-width="2.00" stroke-linecap="butt" stroke-linejoin="miter">
	<path stroke='rgb( 31, 120, 180)'  d='M1038.5,99.1 L1080.7,99.1 M705.2,662.4 L705.2,97.8  '/></g>
	</g>
<g fill="none" color="black" stroke="currentColor" stroke-width="2.00" stroke-linecap="butt" stroke-linejoin="miter">
</g>
<g fill="none" color="black" stroke="black" stroke-width="1.00" stroke-linecap="butt" stroke-linejoin="miter">
</g>
<g fill="none" color="black" stroke="currentColor" stroke-width="1.00" stroke-linecap="butt" stroke-linejoin="miter">
	<path stroke='black'  d='M88.5,54.1 L88.5,662.4 L1013.6,662.4 L1013.6,54.1 L88.5,54.1 Z  '/></g>
<g fill="none" color="black" stroke="currentColor" stroke-width="1.00" stroke-linecap="butt" stroke-linejoin="miter">
</g>
</g>
</svg>

