<?xml version="1.0" encoding="utf-8"  standalone="no"?>
<svg 
 viewBox="0 0 1280 720"
 xmlns="http://www.w3.org/2000/svg"
 xmlns:xlink="http://www.w3.org/1999/xlink"
>

<title>Gnuplot</title>
<desc>Produced by GNUPLOT 5.2 patchlevel 8 </desc>

<g id="gnuplot_canvas">

<rect x="0" y="0" width="1280" height="720" fill="none"/>
<defs>

	<circle id='gpDot' r='0.5' stroke-width='0.5' stroke='currentColor'/>
	<path id='gpPt0' stroke-width='0.222' stroke='currentColor' d='M-1,0 h2 M0,-1 v2'/>
	<path id='gpPt1' stroke-width='0.222' stroke='currentColor' d='M-1,-1 L1,1 M1,-1 L-1,1'/>
	<path id='gpPt2' stroke-width='0.222' stroke='currentColor' d='M-1,0 L1,0 M0,-1 L0,1 M-1,-1 L1,1 M-1,1 L1,-1'/>
	<rect id='gpPt3' stroke-width='0.222' stroke='currentColor' x='-1' y='-1' width='2' height='2'/>
	<rect id='gpPt4' stroke-width='0.222' stroke='currentColor' fill='currentColor' x='-1' y='-1' width='2' height='2'/>
	<circle id='gpPt5' stroke-width='0.222' stroke='currentColor' cx='0' cy='0' r='1'/>
	<use xlink:href='#gpPt5' id='gpPt6' fill='currentColor' stroke='none'/>
	<path id='gpPt7' stroke-width='0.222' stroke='currentColor' d='M0,-1.33 L-1.33,0.67 L1.33,0.67 z'/>
	<use xlink:href='#gpPt7' id='gpPt8' fill='currentColor' stroke='none'/>
	<use xlink:href='#gpPt7' id='gpPt9' stroke='currentColor' transform='rotate(180)'/>
	<use xlink:href='#gpPt9' id='gpPt10' fill='currentColor' stroke='none'/>
	<use xlink:href='#gpPt3' id='gpPt11' stroke='currentColor' transform='rotate(45)'/>
	<use xlink:href='#gpPt11' id='gpPt12' fill='currentColor' stroke='none'/>
	<path id='gpPt13' stroke-width='0.222' stroke='currentColor' d='M0,1.330 L1.265,0.411 L0.782,-1.067 L-0.782,-1.076 L-1.265,0.411 z'/>
	<use xlink:href='#gpPt13' id='gpPt14' fill='currentColor' stroke='none'/>
	<filter id='textbox' filterUnits='objectBoundingBox' x='0' y='0' height='1' width='1'>
	  <feFlood flood-color='white' flood-opacity='1' result='bgnd'/>
	  <feComposite in='SourceGraphic' in2='bgnd' operator='atop'/>
	</filter>
	<filter id='greybox' filterUnits='objectBoundingBox' x='0' y='0' height='1' width='1'>
	  <feFlood flood-color='lightgrey' flood-opacity='1' result='grey'/>
	  <feComposite in='SourceGraphic' in2='grey' operator='atop'/>
	</filter>
</defs>
<g fill="none" color="white" stroke="currentColor" stroke-width="1.00" stroke-linecap="butt" stroke-linejoin="miter">
</g>
<g fill="none" color="black" stroke="currentColor" stroke-width="1.00" stroke-linecap="butt" stroke-linejoin="miter">
	<path stroke='black'  d='M88.5,662.4 L97.5,662.4  '/>	<g transform="translate(80.2,666.3)" stroke="none" fill="black" font-family="Helvetica" font-size="12.00"  text-anchor="end">
		<text><tspan font-family="Helvetica" > 0</tspan></text>
	</g>
</g>
<g fill="none" color="black" stroke="currentColor" stroke-width="1.00" stroke-linecap="butt" stroke-linejoin="miter">
	<path stroke='black'  d='M88.5,561.0 L97.5,561.0  '/>	<g transform="translate(80.2,564.9)" stroke="none" fill="black" font-family="Helvetica" font-size="12.00"  text-anchor="end">
		<text><tspan font-family="Helvetica" > 0.002</tspan></text>
	</g>
</g>
<g fill="none" color="black" stroke="currentColor" stroke-width="1.00" stroke-linecap="butt" stroke-linejoin="miter">
	<path stroke='black'  d='M88.5,459.6 L97.5,459.6  '/>	<g transform="translate(80.2,463.5)" stroke="none" fill="black" font-family="Helvetica" font-size="12.00"  text-anchor="end">
		<text><tspan font-family="Helvetica" > 0.004</tspan></text>
	</g>
</g>
<g fill="none" color="black" stroke="currentColor" stroke-width="1.00" stroke-linecap="butt" stroke-linejoin="miter">
	<path stroke='black'  d='M88.5,358.2 L97.5,358.2  '/>	<g transform="translate(80.2,362.1)" stroke="none" fill="black" font-family="Helvetica" font-size="12.00"  text-anchor="end">
		<text><tspan font-family="Helvetica" > 0.006</tspan></text>
	</g>
</g>
<g fill="none" color="black" stroke="currentColor" stroke-width="1.00" stroke-linecap="butt" stroke-linejoin="miter">
	<path stroke='black'  d='M88.5,256.9 L97.5,256.9  '/>	<g transform="translate(80.2,260.8)" stroke="none" fill="black" font-family="Helvetica" font-size="12.00"  text-anchor="end">
		<text><tspan font-family="Helvetica" > 0.008</tspan></text>
	</g>
</g>
<g fill="none" color="black" stroke="currentColor" stroke-width="1.00" stroke-linecap="butt" stroke-linejoin="miter">
	<path stroke='black'  d='M88.5,155.5 L97.5,155.5  '/>	<g transform="translate(80.2,159.4)" stroke="none" fill="black" font-family="Helvetica" font-size="12.00"  text-anchor="end">
		<text><tspan font-family="Helvetica" > 0.01</tspan></text>
	</g>
</g>
<g fill="none" color="black" stroke="currentColor" stroke-width="1.00" stroke-linecap="butt" stroke-linejoin="miter">
	<path stroke='black'  d='M88.5,54.1 L97.5,54.1  '/>	<g transform="translate(80.2,58.0)" stroke="none" fill="black" font-family="Helvetica" font-size="12.00"  text-anchor="end">
		<text><tspan font-family="Helvetica" > 0.012</tspan></text>
	</g>
</g>
<g fill="none" color="black" stroke="currentColor" stroke-width="1.00" stroke-linecap="butt" stroke-linejoin="miter">
	<path stroke='black'  d='M105.7,662.4 L105.7,653.4  '/>	<g transform="translate(105.7,684.3)" stroke="none" fill="black" font-family="Helvetica" font-size="12.00"  text-anchor="middle">
		<text><tspan font-family="Helvetica" > 260</tspan></text>
	</g>
</g>
<g fill="none" color="black" stroke="currentColor" stroke-width="1.00" stroke-linecap="butt" stroke-linejoin="miter">
	<path stroke='black'  d='M208.9,662.4 L208.9,653.4  '/>	<g transform="translate(208.9,684.3)" stroke="none" fill="black" font-family="Helvetica" font-size="12.00"  text-anchor="middle">
		<text><tspan font-family="Helvetica" > 280</tspan></text>
	</g>
</g>
<g fill="none" color="black" stroke="currentColor" stroke-width="1.00" stroke-linecap="butt" stroke-linejoin="miter">
	<path stroke='black'  d='M312.2,662.4 L312.2,653.4  '/>	<g transform="translate(312.2,684.3)" stroke="none" fill="black" font-family="Helvetica" font-size="12.00"  text-anchor="middle">
		<text><tspan font-family="Helvetica" > 300</tspan></text>
	</g>
</g>
<g fill="none" color="black" stroke="currentColor" stroke-width="1.00" stroke-linecap="butt" stroke-linejoin="miter">
	<path stroke='black'  d='M415.4,662.4 L415.4,653.4  '/>	<g transform="translate(415.4,684.3)" stroke="none" fill="black" font-family="Helvetica" font-size="12.00"  text-anchor="middle">
		<text><tspan font-family="Helvetica" > 320</tspan></text>
	</g>
</g>
<g fill="none" color="black" stroke="currentColor" stroke-width="1.00" stroke-linecap="butt" stroke-linejoin="miter">
	<path stroke='black'  d='M518.6,662.4 L518.6,653.4  '/>	<g transform="translate(518.6,684.3)" stroke="none" fill="black" font-family="Helvetica" font-size="12.00"  text-anchor="middle">
		<text><tspan font-family="Helvetica" > 340</tspan></text>
	</g>
</g>
<g fill="none" color="black" stroke="currentColor" stroke-width="1.00" stroke-linecap="butt" stroke-linejoin="miter">
	<path stroke='black'  d='M621.8,662.4 L621.8,653.4  '/>	<g transform="translate(621.8,684.3)" stroke="none" fill="black" font-family="Helvetica" font-size="12.00"  text-anchor="middle">
		<text><tspan font-family="Helvetica" > 360</tspan></text>
	</g>
</g>
<g fill="none" color="black" stroke="currentColor" stroke-width="1.00" stroke-linecap="butt" stroke-linejoin="miter">
	<path stroke='black'  d='M725.1,662.4 L725.1,653.4  '/>	<g transform="translate(725.1,684.3)" stroke="none" fill="black" font-family="Helvetica" font-size="12.00"  text-anchor="middle">
		<text><tspan font-family="Helvetica" > 380</tspan></text>
	</g>
</g>
<g fill="none" color="black" stroke="currentColor" stroke-width="1.00" stroke-linecap="butt" stroke-linejoin="miter">
	<path stroke='black'  d='M828.3,662.4 L828.3,653.4  '/>	<g transform="translate(828.3,684.3)" stroke="none" fill="black" font-family="Helvetica" font-size="12.00"  text-anchor="middle">
		<text><tspan font-family="Helvetica" > 400</tspan></text>
	</g>
</g>
<g fill="none" color="black" stroke="currentColor" stroke-width="1.00" stroke-linecap="butt" stroke-linejoin="miter">
	<path stroke='black'  d='M931.5,662.4 L931.5,653.4  '/>	<g transform="translate(931.5,684.3)" stroke="none" fill="black" font-family="Helvetica" font-size="12.00"  text-anchor="middle">
		<text><tspan font-family="Helvetica" > 420</tspan></text>
	</g>
</g>
<g fill="none" color="black" stroke="currentColor" stroke-width="1.00" stroke-linecap="butt" stroke-linejoin="miter">
</g>
<g fill="none" color="black" stroke="currentColor" stroke-width="1.00" stroke-linecap="butt" stroke-linejoin="miter">
	<path stroke='black'  d='M88.5,54.1 L88.5,662.4 L1013.6,662.4 L1013.6,54.1 L88.5,54.1 Z  '/></g>
<g fill="none" color="black" stroke="currentColor" stroke-width="1.00" stroke-linecap="butt" stroke-linejoin="miter">
	<g transform="translate(19.0,358.3) rotate(270)" stroke="none" fill="black" font-family="Helvetica" font-size="12.00"  text-anchor="middle">
		<text><tspan font-family="Helvetica" >Density (a.u.)</tspan></text>
	</g>
</g>
<g fill="none" color="black" stroke="currentColor" stroke-width="1.00" stroke-linecap="butt" stroke-linejoin="miter">
	<g transform="translate(551.0,711.3)" stroke="none" fill="black" font-family="Helvetica" font-size="12.00"  text-anchor="middle">
		<text><tspan font-family="Helvetica" >Average time (ps)</tspan></text>
	</g>
</g>
<g fill="none" color="black" stroke="currentColor" stroke-width="1.00" stroke-linecap="butt" stroke-linejoin="miter">
	<g transform="translate(551.0,31.0)" stroke="none" fill="black" font-family="Helvetica" font-size="12.00"  text-anchor="middle">
		<text><tspan font-family="Helvetica" >Parse/Standard parse default/9999999999: SD</tspan></text>
	</g>
</g>
<g fill="none" color="black" stroke="currentColor" stroke-width="1.00" stroke-linecap="butt" stroke-linejoin="miter">
</g>
	<g id="gnuplot_plot_1" ><title>Bootstrap distribution</title>
<g fill="none" color="white" stroke="currentColor" stroke-width="2.00" stroke-linecap="butt" stroke-linejoin="miter">
</g>
<g fill="none" color="black" stroke="currentColor" stroke-width="2.00" stroke-linecap="butt" stroke-linejoin="miter">
	<g transform="translate(1089.0,67.0)" stroke="none" fill="black" font-family="Helvetica" font-size="12.00"  text-anchor="start">
		<text><tspan font-family="Helvetica" >Bootstrap distribution</tspan></text>
	</g>
</g>
<g fill="none" color="black" stroke="currentColor" stroke-width="2.00" stroke-linecap="butt" stroke-linejoin="miter">
	<path stroke='rgb( 31, 120, 180)'  d='M1038.5,63.1 L1080.7,63.1 M88.5,629.6 L90.4,628.8 L92.2,628.0 L94.1,627.2 L95.9,626.3 L97.8,625.5
		L99.6,624.7 L101.5,623.8 L103.3,622.9 L105.2,622.0 L107.0,621.1 L108.9,620.2 L110.7,619.2 L112.6,618.2
		L114.5,617.2 L116.3,616.1 L118.2,615.0 L120.0,613.8 L121.9,612.7 L123.7,611.4 L125.6,610.2 L127.4,608.9
		L129.3,607.6 L131.1,606.2 L133.0,604.8 L134.8,603.4 L136.7,602.0 L138.6,600.5 L140.4,599.1 L142.3,597.6
		L144.1,596.1 L146.0,594.6 L147.8,593.1 L149.7,591.6 L151.5,590.1 L153.4,588.6 L155.2,587.1 L157.1,585.7
		L158.9,584.2 L160.8,582.7 L162.7,581.3 L164.5,579.8 L166.4,578.3 L168.2,576.8 L170.1,575.4 L171.9,573.9
		L173.8,572.4 L175.6,570.8 L177.5,569.3 L179.3,567.7 L181.2,566.1 L183.0,564.4 L184.9,562.8 L186.8,561.0
		L188.6,559.2 L190.5,557.4 L192.3,555.6 L194.2,553.6 L196.0,551.7 L197.9,549.6 L199.7,547.6 L201.6,545.4
		L203.4,543.3 L205.3,541.0 L207.2,538.8 L209.0,536.5 L210.9,534.1 L212.7,531.8 L214.6,529.4 L216.4,527.0
		L218.3,524.5 L220.1,522.1 L222.0,519.6 L223.8,517.1 L225.7,514.7 L227.5,512.2 L229.4,509.7 L231.3,507.2
		L233.1,504.8 L235.0,502.3 L236.8,499.9 L238.7,497.4 L240.5,495.0 L242.4,492.6 L244.2,490.1 L246.1,487.7
		L247.9,485.3 L249.8,482.8 L251.6,480.4 L253.5,477.9 L255.4,475.4 L257.2,472.8 L259.1,470.3 L260.9,467.6
		L262.8,465.0 L264.6,462.2 L266.5,459.5 L268.3,456.6 L270.2,453.7 L272.0,450.8 L273.9,447.7 L275.7,444.7
		L277.6,441.6 L279.5,438.4 L281.3,435.2 L283.2,431.9 L285.0,428.7 L286.9,425.4 L288.7,422.1 L290.6,418.8
		L292.4,415.5 L294.3,412.3 L296.1,409.0 L298.0,405.8 L299.8,402.7 L301.7,399.6 L303.6,396.5 L305.4,393.4
		L307.3,390.5 L309.1,387.5 L311.0,384.7 L312.8,381.8 L314.7,379.0 L316.5,376.2 L318.4,373.5 L320.2,370.8
		L322.1,368.1 L323.9,365.4 L325.8,362.7 L327.7,360.0 L329.5,357.3 L331.4,354.5 L333.2,351.8 L335.1,349.0
		L336.9,346.2 L338.8,343.3 L340.6,340.4 L342.5,337.4 L344.3,334.4 L346.2,331.4 L348.0,328.3 L349.9,325.2
		L351.8,322.0 L353.6,318.8 L355.5,315.6 L357.3,312.4 L359.2,309.2 L361.0,306.0 L362.9,302.8 L364.7,299.6
		L366.6,296.5 L368.4,293.3 L370.3,290.2 L372.1,287.2 L374.0,284.2 L375.9,281.2 L377.7,278.3 L379.6,275.4
		L381.4,272.6 L383.3,269.8 L385.1,267.1 L387.0,264.4 L388.8,261.8 L390.7,259.2 L392.5,256.6 L394.4,254.1
		L396.2,251.7 L398.1,249.3 L400.0,246.9 L401.8,244.5 L403.7,242.2 L405.5,239.9 L407.4,237.7 L409.2,235.4
		L411.1,233.2 L412.9,231.0 L414.8,228.8 L416.6,226.6 L418.5,224.4 L420.3,222.2 L422.2,220.0 L424.1,217.9
		L425.9,215.7 L427.8,213.5 L429.6,211.3 L431.5,209.1 L433.3,206.8 L435.2,204.6 L437.0,202.4 L438.9,200.2
		L440.7,198.0 L442.6,195.8 L444.5,193.6 L446.3,191.5 L448.2,189.3 L450.0,187.2 L451.9,185.2 L453.7,183.2
		L455.6,181.2 L457.4,179.3 L459.3,177.4 L461.1,175.5 L463.0,173.8 L464.8,172.0 L466.7,170.3 L468.6,168.7
		L470.4,167.1 L472.3,165.6 L474.1,164.1 L476.0,162.6 L477.8,161.2 L479.7,159.8 L481.5,158.5 L483.4,157.2
		L485.2,156.0 L487.1,154.8 L488.9,153.6 L490.8,152.5 L492.7,151.4 L494.5,150.4 L496.4,149.4 L498.2,148.4
		L500.1,147.5 L501.9,146.7 L503.8,145.8 L505.6,145.1 L507.5,144.3 L509.3,143.6 L511.2,143.0 L513.0,142.4
		L514.9,141.8 L516.8,141.2 L518.6,140.7 L520.5,140.3 L522.3,139.8 L524.2,139.5 L526.0,139.1 L527.9,138.8
		L529.7,138.5 L531.6,138.2 L533.4,138.0 L535.3,137.8 L537.1,137.7 L539.0,137.6 L540.9,137.5 L542.7,137.4
		L544.6,137.4 L546.4,137.4 L548.3,137.5 L550.1,137.5 L552.0,137.6 L553.8,137.8 L555.7,137.9 L557.5,138.1
		L559.4,138.3 L561.2,138.6 L563.1,138.8 L565.0,139.1 L566.8,139.5 L568.7,139.8 L570.5,140.2 L572.4,140.7
		L574.2,141.2 L576.1,141.7 L577.9,142.3 L579.8,143.0 L581.6,143.7 L583.5,144.5 L585.3,145.4 L587.2,146.3
		L589.1,147.3 L590.9,148.4 L592.8,149.6 L594.6,150.9 L596.5,152.2 L598.3,153.6 L600.2,155.2 L602.0,156.7
		L603.9,158.4 L605.7,160.1 L607.6,161.9 L609.4,163.7 L611.3,165.6 L613.2,167.5 L615.0,169.5 L616.9,171.5
		L618.7,173.5 L620.6,175.5 L622.4,177.5 L624.3,179.5 L626.1,181.5 L628.0,183.6 L629.8,185.6 L631.7,187.5
		L633.5,189.5 L635.4,191.5 L637.3,193.5 L639.1,195.4 L641.0,197.4 L642.8,199.4 L644.7,201.4 L646.5,203.3
		L648.4,205.3 L650.2,207.4 L652.1,209.4 L653.9,211.5 L655.8,213.6 L657.6,215.8 L659.5,218.0 L661.4,220.2
		L663.2,222.5 L665.1,224.8 L666.9,227.2 L668.8,229.7 L670.6,232.2 L672.5,234.7 L674.3,237.3 L676.2,240.0
		L678.0,242.7 L679.9,245.4 L681.8,248.3 L683.6,251.1 L685.5,254.1 L687.3,257.0 L689.2,260.1 L691.0,263.1
		L692.9,266.2 L694.7,269.4 L696.6,272.6 L698.4,275.8 L700.3,279.1 L702.1,282.3 L704.0,285.6 L705.9,289.0
		L707.7,292.3 L709.6,295.7 L711.4,299.0 L713.3,302.4 L715.1,305.8 L717.0,309.1 L718.8,312.5 L720.7,315.9
		L722.5,319.2 L724.4,322.5 L726.2,325.8 L728.1,329.0 L730.0,332.3 L731.8,335.4 L733.7,338.6 L735.5,341.7
		L737.4,344.8 L739.2,347.8 L741.1,350.8 L742.9,353.7 L744.8,356.6 L746.6,359.5 L748.5,362.3 L750.3,365.1
		L752.2,367.8 L754.1,370.5 L755.9,373.2 L757.8,375.8 L759.6,378.4 L761.5,381.0 L763.3,383.6 L765.2,386.2
		L767.0,388.7 L768.9,391.2 L770.7,393.8 L772.6,396.3 L774.4,398.8 L776.3,401.4 L778.2,403.9 L780.0,406.5
		L781.9,409.0 L783.7,411.6 L785.6,414.1 L787.4,416.7 L789.3,419.3 L791.1,421.9 L793.0,424.5 L794.8,427.1
		L796.7,429.7 L798.5,432.3 L800.4,434.9 L802.3,437.5 L804.1,440.1 L806.0,442.7 L807.8,445.3 L809.7,447.9
		L811.5,450.4 L813.4,453.0 L815.2,455.6 L817.1,458.1 L818.9,460.7 L820.8,463.2 L822.6,465.7 L824.5,468.3
		L826.4,470.8 L828.2,473.4 L830.1,475.9 L831.9,478.4 L833.8,481.0 L835.6,483.5 L837.5,486.1 L839.3,488.6
		L841.2,491.2 L843.0,493.7 L844.9,496.3 L846.7,498.8 L848.6,501.3 L850.5,503.8 L852.3,506.3 L854.2,508.8
		L856.0,511.2 L857.9,513.6 L859.7,515.9 L861.6,518.3 L863.4,520.6 L865.3,522.8 L867.1,525.0 L869.0,527.2
		L870.8,529.3 L872.7,531.4 L874.6,533.4 L876.4,535.5 L878.3,537.5 L880.1,539.4 L882.0,541.4 L883.8,543.3
		L885.7,545.2 L887.5,547.0 L889.4,548.9 L891.2,550.7 L893.1,552.5 L894.9,554.3 L896.8,556.1 L898.7,557.9
		L900.5,559.7 L902.4,561.4 L904.2,563.2 L906.1,564.9 L907.9,566.6 L909.8,568.3 L911.6,569.9 L913.5,571.5
		L915.3,573.1 L917.2,574.7 L919.1,576.3 L920.9,577.8 L922.8,579.3 L924.6,580.7 L926.5,582.2 L928.3,583.6
		L930.2,585.0 L932.0,586.3 L933.9,587.7 L935.7,589.0 L937.6,590.3 L939.4,591.5 L941.3,592.8 L943.2,594.0
		L945.0,595.2 L946.9,596.4 L948.7,597.6 L950.6,598.8 L952.4,600.0 L954.3,601.2 L956.1,602.4 L958.0,603.6
		L959.8,604.8 L961.7,605.9 L963.5,607.1 L965.4,608.3 L967.3,609.5 L969.1,610.6 L971.0,611.8 L972.8,612.9
		L974.7,614.0 L976.5,615.1 L978.4,616.2 L980.2,617.3 L982.1,618.3 L983.9,619.3 L985.8,620.3 L987.6,621.2
		L989.5,622.1 L991.4,623.0 L993.2,623.8 L995.1,624.6 L996.9,625.4 L998.8,626.2 L1000.6,626.9 L1002.5,627.6
		L1004.3,628.2 L1006.2,628.9 L1008.0,629.5 L1009.9,630.1 L1011.7,630.7 L1013.6,631.3  '/></g>
	</g>
	<g id="gnuplot_plot_2" ><title>Confidence interval</title>
<g fill="none" color="white" stroke="rgb( 31, 120, 180)" stroke-width="1.00" stroke-linecap="butt" stroke-linejoin="miter">
</g>
<g fill="none" color="black" stroke="currentColor" stroke-width="1.00" stroke-linecap="butt" stroke-linejoin="miter">
	<g transform="translate(1089.0,85.0)" stroke="none" fill="black" font-family="Helvetica" font-size="12.00"  text-anchor="start">
		<text><tspan font-family="Helvetica" >Confidence interval</tspan></text>
	</g>
</g>
<g fill="none" color="black" stroke="currentColor" stroke-width="1.00" stroke-linecap="butt" stroke-linejoin="miter">
	<g stroke='none' shape-rendering='crispEdges'>
		<polygon fill = 'rgb( 31, 120, 180)' fill-opacity = '0.250000' points = '1038.5,85.6 1080.7,85.6 1080.7,76.6 1038.5,76.6 '/>
		<polygon fill = 'rgb( 31, 120, 180)' fill-opacity = '0.250000' points = '173.8,572.4 175.6,570.8 177.5,569.3 179.3,567.7 181.2,566.1 183.0,564.4 184.9,562.8 186.8,561.0 188.6,559.2 190.5,557.4 192.3,555.6 194.2,553.6 196.0,551.7 197.9,549.6 199.7,547.6 201.6,545.4
203.4,543.3 205.3,541.0 207.2,538.8 209.0,536.5 210.9,534.1 212.7,531.8 214.6,529.4 216.4,527.0 218.3,524.5 220.1,522.1 222.0,519.6 223.8,517.1 225.7,514.7 227.5,512.2 229.4,509.7 231.3,507.2
233.1,504.8 235.0,502.3 236.8,499.9 238.7,497.4 240.5,495.0 242.4,492.6 244.2,490.1 246.1,487.7 247.9,485.3 249.8,482.8 251.6,480.4 253.5,477.9 255.4,475.4 257.2,472.8 259.1,470.3 260.9,467.6
262.8,465.0 264.6,462.2 266.5,459.5 268.3,456.6 270.2,453.7 272.0,450.8 273.9,447.7 275.7,444.7 277.6,441.6 279.5,438.4 281.3,435.2 283.2,431.9 285.0,428.7 286.9,425.4 288.7,422.1 290.6,418.8
292.4,415.5 294.3,412.3 296.1,409.0 298.0,405.8 299.8,402.7 301.7,399.6 303.6,396.5 305.4,393.4 307.3,390.5 309.1,387.5 311.0,384.7 312.8,381.8 314.7,379.0 316.5,376.2 318.4,373.5 320.2,370.8
322.1,368.1 323.9,365.4 325.8,362.7 327.7,360.0 329.5,357.3 331.4,354.5 333.2,351.8 335.1,349.0 336.9,346.2 338.8,343.3 340.6,340.4 342.5,337.4 344.3,334.4 346.2,331.4 348.0,328.3 349.9,325.2
351.8,322.0 353.6,318.8 355.5,315.6 357.3,312.4 359.2,309.2 361.0,306.0 362.9,302.8 364.7,299.6 366.6,296.5 368.4,293.3 370.3,290.2 372.1,287.2 374.0,284.2 375.9,281.2 377.7,278.3 379.6,275.4
381.4,272.6 383.3,269.8 385.1,267.1 387.0,264.4 388.8,261.8 390.7,259.2 392.5,256.6 394.4,254.1 396.2,251.7 398.1,249.3 400.0,246.9 401.8,244.5 403.7,242.2 405.5,239.9 407.4,237.7 409.2,235.4
411.1,233.2 412.9,231.0 414.8,228.8 416.6,226.6 418.5,224.4 420.3,222.2 422.2,220.0 424.1,217.9 425.9,215.7 427.8,213.5 429.6,211.3 431.5,209.1 433.3,206.8 435.2,204.6 437.0,202.4 438.9,200.2
440.7,198.0 442.6,195.8 444.5,193.6 446.3,191.5 448.2,189.3 450.0,187.2 451.9,185.2 453.7,183.2 455.6,181.2 457.4,179.3 459.3,177.4 461.1,175.5 463.0,173.8 464.8,172.0 466.7,170.3 468.6,168.7
470.4,167.1 472.3,165.6 474.1,164.1 476.0,162.6 477.8,161.2 479.7,159.8 481.5,158.5 483.4,157.2 485.2,156.0 487.1,154.8 488.9,153.6 490.8,152.5 492.7,151.4 494.5,150.4 496.4,149.4 498.2,148.4
500.1,147.5 501.9,146.7 503.8,145.8 505.6,145.1 507.5,144.3 509.3,143.6 511.2,143.0 513.0,142.4 514.9,141.8 516.8,141.2 518.6,140.7 520.5,140.3 522.3,139.8 524.2,139.5 526.0,139.1 527.9,138.8
529.7,138.5 531.6,138.2 533.4,138.0 535.3,137.8 537.1,137.7 539.0,137.6 540.9,137.5 542.7,137.4 544.6,137.4 546.4,137.4 548.3,137.5 550.1,137.5 552.0,137.6 553.8,137.8 555.7,137.9 557.5,138.1
559.4,138.3 561.2,138.6 563.1,138.8 565.0,139.1 566.8,139.5 568.7,139.8 570.5,140.2 572.4,140.7 574.2,141.2 576.1,141.7 577.9,142.3 579.8,143.0 581.6,143.7 583.5,144.5 585.3,145.4 587.2,146.3
589.1,147.3 590.9,148.4 592.8,149.6 594.6,150.9 596.5,152.2 598.3,153.6 600.2,155.2 602.0,156.7 603.9,158.4 605.7,160.1 607.6,161.9 609.4,163.7 611.3,165.6 613.2,167.5 615.0,169.5 616.9,171.5
618.7,173.5 620.6,175.5 622.4,177.5 624.3,179.5 626.1,181.5 628.0,183.6 629.8,185.6 631.7,187.5 633.5,189.5 635.4,191.5 637.3,193.5 639.1,195.4 641.0,197.4 642.8,199.4 644.7,201.4 646.5,203.3
648.4,205.3 650.2,207.4 652.1,209.4 653.9,211.5 655.8,213.6 657.6,215.8 659.5,218.0 661.4,220.2 663.2,222.5 665.1,224.8 666.9,227.2 668.8,229.7 670.6,232.2 672.5,234.7 674.3,237.3 676.2,240.0
678.0,242.7 679.9,245.4 681.8,248.3 683.6,251.1 685.5,254.1 687.3,257.0 689.2,260.1 691.0,263.1 692.9,266.2 694.7,269.4 696.6,272.6 698.4,275.8 700.3,279.1 702.1,282.3 704.0,285.6 705.9,289.0
707.7,292.3 709.6,295.7 711.4,299.0 713.3,302.4 715.1,305.8 717.0,309.1 718.8,312.5 720.7,315.9 722.5,319.2 724.4,322.5 726.2,325.8 728.1,329.0 730.0,332.3 731.8,335.4 733.7,338.6 735.5,341.7
737.4,344.8 739.2,347.8 741.1,350.8 742.9,353.7 744.8,356.6 746.6,359.5 748.5,362.3 750.3,365.1 752.2,367.8 754.1,370.5 755.9,373.2 757.8,375.8 759.6,378.4 761.5,381.0 763.3,383.6 765.2,386.2
767.0,388.7 768.9,391.2 770.7,393.8 772.6,396.3 774.4,398.8 776.3,401.4 778.2,403.9 780.0,406.5 781.9,409.0 783.7,411.6 785.6,414.1 787.4,416.7 789.3,419.3 791.1,421.9 793.0,424.5 794.8,427.1
796.7,429.7 798.5,432.3 800.4,434.9 802.3,437.5 804.1,440.1 806.0,442.7 807.8,445.3 809.7,447.9 811.5,450.4 813.4,453.0 815.2,455.6 817.1,458.1 818.9,460.7 820.8,463.2 822.6,465.7 824.5,468.3
826.4,470.8 828.2,473.4 830.1,475.9 831.9,478.4 833.8,481.0 835.6,483.5 837.5,486.1 839.3,488.6 841.2,491.2 843.0,493.7 844.9,496.3 846.7,498.8 848.6,501.3 850.5,503.8 852.3,506.3 854.2,508.8
856.0,511.2 857.9,513.6 859.7,515.9 861.6,518.3 863.4,520.6 865.3,522.8 867.1,525.0 869.0,527.2 870.8,529.3 872.7,531.4 874.6,533.4 876.4,535.5 878.3,537.5 880.1,539.4 882.0,541.4 883.8,543.3
885.7,545.2 887.5,547.0 889.4,548.9 891.2,550.7 893.1,552.5 894.9,554.3 896.8,556.1 898.7,557.9 900.5,559.7 902.4,561.4 904.2,563.2 906.1,564.9 907.9,566.6 909.8,568.3 911.6,569.9 913.5,571.5
915.3,573.1 917.2,574.7 919.1,576.3 920.9,577.8 922.8,579.3 924.6,580.7 926.5,582.2 926.5,662.4 924.6,662.4 922.8,662.4 920.9,662.4 919.1,662.4 917.2,662.4 915.3,662.4 913.5,662.4 911.6,662.4
909.8,662.4 907.9,662.4 906.1,662.4 904.2,662.4 902.4,662.4 900.5,662.4 898.7,662.4 896.8,662.4 894.9,662.4 893.1,662.4 891.2,662.4 889.4,662.4 887.5,662.4 885.7,662.4 883.8,662.4 882.0,662.4
880.1,662.4 878.3,662.4 876.4,662.4 874.6,662.4 872.7,662.4 870.8,662.4 869.0,662.4 867.1,662.4 865.3,662.4 863.4,662.4 861.6,662.4 859.7,662.4 857.9,662.4 856.0,662.4 854.2,662.4 852.3,662.4
850.5,662.4 848.6,662.4 846.7,662.4 844.9,662.4 843.0,662.4 841.2,662.4 839.3,662.4 837.5,662.4 835.6,662.4 833.8,662.4 831.9,662.4 830.1,662.4 828.2,662.4 826.4,662.4 824.5,662.4 822.6,662.4
820.8,662.4 818.9,662.4 817.1,662.4 815.2,662.4 813.4,662.4 811.5,662.4 809.7,662.4 807.8,662.4 806.0,662.4 804.1,662.4 802.3,662.4 800.4,662.4 798.5,662.4 796.7,662.4 794.8,662.4 793.0,662.4
791.1,662.4 789.3,662.4 787.4,662.4 785.6,662.4 783.7,662.4 781.9,662.4 780.0,662.4 778.2,662.4 776.3,662.4 774.4,662.4 772.6,662.4 770.7,662.4 768.9,662.4 767.0,662.4 765.2,662.4 763.3,662.4
761.5,662.4 759.6,662.4 757.8,662.4 755.9,662.4 754.1,662.4 752.2,662.4 750.3,662.4 748.5,662.4 746.6,662.4 744.8,662.4 742.9,662.4 741.1,662.4 739.2,662.4 737.4,662.4 735.5,662.4 733.7,662.4
731.8,662.4 730.0,662.4 728.1,662.4 726.2,662.4 724.4,662.4 722.5,662.4 720.7,662.4 718.8,662.4 717.0,662.4 715.1,662.4 713.3,662.4 711.4,662.4 709.6,662.4 707.7,662.4 705.9,662.4 704.0,662.4
702.1,662.4 700.3,662.4 698.4,662.4 696.6,662.4 694.7,662.4 692.9,662.4 691.0,662.4 689.2,662.4 687.3,662.4 685.5,662.4 683.6,662.4 681.8,662.4 679.9,662.4 678.0,662.4 676.2,662.4 674.3,662.4
672.5,662.4 670.6,662.4 668.8,662.4 666.9,662.4 665.1,662.4 663.2,662.4 661.4,662.4 659.5,662.4 657.6,662.4 655.8,662.4 653.9,662.4 652.1,662.4 650.2,662.4 648.4,662.4 646.5,662.4 644.7,662.4
642.8,662.4 641.0,662.4 639.1,662.4 637.3,662.4 635.4,662.4 633.5,662.4 631.7,662.4 629.8,662.4 628.0,662.4 626.1,662.4 624.3,662.4 622.4,662.4 620.6,662.4 618.7,662.4 616.9,662.4 615.0,662.4
613.2,662.4 611.3,662.4 609.4,662.4 607.6,662.4 605.7,662.4 603.9,662.4 602.0,662.4 600.2,662.4 598.3,662.4 596.5,662.4 594.6,662.4 592.8,662.4 590.9,662.4 589.1,662.4 587.2,662.4 585.3,662.4
583.5,662.4 581.6,662.4 579.8,662.4 577.9,662.4 576.1,662.4 574.2,662.4 572.4,662.4 570.5,662.4 568.7,662.4 566.8,662.4 565.0,662.4 563.1,662.4 561.2,662.4 559.4,662.4 557.5,662.4 555.7,662.4
553.8,662.4 552.0,662.4 550.1,662.4 548.3,662.4 546.4,662.4 544.6,662.4 542.7,662.4 540.9,662.4 539.0,662.4 537.1,662.4 535.3,662.4 533.4,662.4 531.6,662.4 529.7,662.4 527.9,662.4 526.0,662.4
524.2,662.4 522.3,662.4 520.5,662.4 518.6,662.4 516.8,662.4 514.9,662.4 513.0,662.4 511.2,662.4 509.3,662.4 507.5,662.4 505.6,662.4 503.8,662.4 501.9,662.4 500.1,662.4 498.2,662.4 496.4,662.4
494.5,662.4 492.7,662.4 490.8,662.4 488.9,662.4 487.1,662.4 485.2,662.4 483.4,662.4 481.5,662.4 479.7,662.4 477.8,662.4 476.0,662.4 474.1,662.4 472.3,662.4 470.4,662.4 468.6,662.4 466.7,662.4
464.8,662.4 463.0,662.4 461.1,662.4 459.3,662.4 457.4,662.4 455.6,662.4 453.7,662.4 451.9,662.4 450.0,662.4 448.2,662.4 446.3,662.4 444.5,662.4 442.6,662.4 440.7,662.4 438.9,662.4 437.0,662.4
435.2,662.4 433.3,662.4 431.5,662.4 429.6,662.4 427.8,662.4 425.9,662.4 424.1,662.4 422.2,662.4 420.3,662.4 418.5,662.4 416.6,662.4 414.8,662.4 412.9,662.4 411.1,662.4 409.2,662.4 407.4,662.4
405.5,662.4 403.7,662.4 401.8,662.4 400.0,662.4 398.1,662.4 396.2,662.4 394.4,662.4 392.5,662.4 390.7,662.4 388.8,662.4 387.0,662.4 385.1,662.4 383.3,662.4 381.4,662.4 379.6,662.4 377.7,662.4
375.9,662.4 374.0,662.4 372.1,662.4 370.3,662.4 368.4,662.4 366.6,662.4 364.7,662.4 362.9,662.4 361.0,662.4 359.2,662.4 357.3,662.4 355.5,662.4 353.6,662.4 351.8,662.4 349.9,662.4 348.0,662.4
346.2,662.4 344.3,662.4 342.5,662.4 340.6,662.4 338.8,662.4 336.9,662.4 335.1,662.4 333.2,662.4 331.4,662.4 329.5,662.4 327.7,662.4 325.8,662.4 323.9,662.4 322.1,662.4 320.2,662.4 318.4,662.4
316.5,662.4 314.7,662.4 312.8,662.4 311.0,662.4 309.1,662.4 307.3,662.4 305.4,662.4 303.6,662.4 301.7,662.4 299.8,662.4 298.0,662.4 296.1,662.4 294.3,662.4 292.4,662.4 290.6,662.4 288.7,662.4
286.9,662.4 285.0,662.4 283.2,662.4 281.3,662.4 279.5,662.4 277.6,662.4 275.7,662.4 273.9,662.4 272.0,662.4 270.2,662.4 268.3,662.4 266.5,662.4 264.6,662.4 262.8,662.4 260.9,662.4 259.1,662.4
257.2,662.4 255.4,662.4 253.5,662.4 251.6,662.4 249.8,662.4 247.9,662.4 246.1,662.4 244.2,662.4 242.4,662.4 240.5,662.4 238.7,662.4 236.8,662.4 235.0,662.4 233.1,662.4 231.3,662.4 229.4,662.4
227.5,662.4 225.7,662.4 223.8,662.4 222.0,662.4 220.1,662.4 218.3,662.4 216.4,662.4 214.6,662.4 212.7,662.4 210.9,662.4 209.0,662.4 207.2,662.4 205.3,662.4 203.4,662.4 201.6,662.4 199.7,662.4
197.9,662.4 196.0,662.4 194.2,662.4 192.3,662.4 190.5,662.4 188.6,662.4 186.8,662.4 184.9,662.4 183.0,662.4 181.2,662.4 179.3,662.4 177.5,662.4 175.6,662.4 173.8,662.4 '/>
	</g>
</g>
	</g>
	<g id="gnuplot_plot_3" ><title>Point estimate</title>
<g fill="none" color="white" stroke="rgb( 31, 120, 180)" stroke-width="2.00" stroke-linecap="butt" stroke-linejoin="miter">
</g>
<g fill="none" color="black" stroke="currentColor" stroke-width="2.00" stroke-linecap="butt" stroke-linejoin="miter">
	<g transform="translate(1089.0,103.0)" stroke="none" fill="black" font-family="Helvetica" font-size="12.00"  text-anchor="start">
		<text><tspan font-family="Helvetica" >Point estimate</tspan></text>
	</g>
</g>
<g fill="none" color="black" stroke="currentColor" stroke-width="2.00" stroke-linecap="butt" stroke-linejoin="miter">
	<path stroke='rgb( 31, 120, 180)'  d='M1038.5,99.1 L1080.7,99.1 M564.8,662.4 L564.8,139.1  '/></g>
	</g>
<g fill="none" color="black" stroke="currentColor" stroke-width="2.00" stroke-linecap="butt" stroke-linejoin="miter">
</g>
<g fill="none" color="black" stroke="black" stroke-width="1.00" stroke-linecap="butt" stroke-linejoin="miter">
</g>
<g fill="none" color="black" stroke="currentColor" stroke-width="1.00" stroke-linecap="butt" stroke-linejoin="miter">
	<path stroke='black'  d='M88.5,54.1 L88.5,662.4 L1013.6,662.4 L1013.6,54.1 L88.5,54.1 Z  '/></g>
<g fill="none" color="black" stroke="currentColor" stroke-width="1.00" stroke-linecap="butt" stroke-linejoin="miter">
</g>
</g>
</svg>

