<?xml version="1.0" encoding="utf-8"  standalone="no"?>
<svg 
 viewBox="0 0 450 300"
 xmlns="http://www.w3.org/2000/svg"
 xmlns:xlink="http://www.w3.org/1999/xlink"
>

<title>Gnuplot</title>
<desc>Produced by GNUPLOT 5.2 patchlevel 8 </desc>

<g id="gnuplot_canvas">

<rect x="0" y="0" width="450" height="300" fill="none"/>
<defs>

	<circle id='gpDot' r='0.5' stroke-width='0.5' stroke='currentColor'/>
	<path id='gpPt0' stroke-width='0.222' stroke='currentColor' d='M-1,0 h2 M0,-1 v2'/>
	<path id='gpPt1' stroke-width='0.222' stroke='currentColor' d='M-1,-1 L1,1 M1,-1 L-1,1'/>
	<path id='gpPt2' stroke-width='0.222' stroke='currentColor' d='M-1,0 L1,0 M0,-1 L0,1 M-1,-1 L1,1 M-1,1 L1,-1'/>
	<rect id='gpPt3' stroke-width='0.222' stroke='currentColor' x='-1' y='-1' width='2' height='2'/>
	<rect id='gpPt4' stroke-width='0.222' stroke='currentColor' fill='currentColor' x='-1' y='-1' width='2' height='2'/>
	<circle id='gpPt5' stroke-width='0.222' stroke='currentColor' cx='0' cy='0' r='1'/>
	<use xlink:href='#gpPt5' id='gpPt6' fill='currentColor' stroke='none'/>
	<path id='gpPt7' stroke-width='0.222' stroke='currentColor' d='M0,-1.33 L-1.33,0.67 L1.33,0.67 z'/>
	<use xlink:href='#gpPt7' id='gpPt8' fill='currentColor' stroke='none'/>
	<use xlink:href='#gpPt7' id='gpPt9' stroke='currentColor' transform='rotate(180)'/>
	<use xlink:href='#gpPt9' id='gpPt10' fill='currentColor' stroke='none'/>
	<use xlink:href='#gpPt3' id='gpPt11' stroke='currentColor' transform='rotate(45)'/>
	<use xlink:href='#gpPt11' id='gpPt12' fill='currentColor' stroke='none'/>
	<path id='gpPt13' stroke-width='0.222' stroke='currentColor' d='M0,1.330 L1.265,0.411 L0.782,-1.067 L-0.782,-1.076 L-1.265,0.411 z'/>
	<use xlink:href='#gpPt13' id='gpPt14' fill='currentColor' stroke='none'/>
	<filter id='textbox' filterUnits='objectBoundingBox' x='0' y='0' height='1' width='1'>
	  <feFlood flood-color='white' flood-opacity='1' result='bgnd'/>
	  <feComposite in='SourceGraphic' in2='bgnd' operator='atop'/>
	</filter>
	<filter id='greybox' filterUnits='objectBoundingBox' x='0' y='0' height='1' width='1'>
	  <feFlood flood-color='lightgrey' flood-opacity='1' result='grey'/>
	  <feComposite in='SourceGraphic' in2='grey' operator='atop'/>
	</filter>
</defs>
<g fill="none" color="white" stroke="currentColor" stroke-width="1.00" stroke-linecap="butt" stroke-linejoin="miter">
</g>
<g fill="none" color="black" stroke="currentColor" stroke-width="1.00" stroke-linecap="butt" stroke-linejoin="miter">
	<path stroke='black'  d='M71.9,242.4 L80.9,242.4  '/>	<g transform="translate(63.6,246.3)" stroke="none" fill="black" font-family="Helvetica" font-size="12.00"  text-anchor="end">
		<text><tspan font-family="Helvetica" > 0</tspan></text>
	</g>
</g>
<g fill="none" color="black" stroke="currentColor" stroke-width="1.00" stroke-linecap="butt" stroke-linejoin="miter">
	<path stroke='black'  d='M71.9,196.1 L80.9,196.1  '/>	<g transform="translate(63.6,200.0)" stroke="none" fill="black" font-family="Helvetica" font-size="12.00"  text-anchor="end">
		<text><tspan font-family="Helvetica" > 0.5</tspan></text>
	</g>
</g>
<g fill="none" color="black" stroke="currentColor" stroke-width="1.00" stroke-linecap="butt" stroke-linejoin="miter">
	<path stroke='black'  d='M71.9,149.8 L80.9,149.8  '/>	<g transform="translate(63.6,153.7)" stroke="none" fill="black" font-family="Helvetica" font-size="12.00"  text-anchor="end">
		<text><tspan font-family="Helvetica" > 1</tspan></text>
	</g>
</g>
<g fill="none" color="black" stroke="currentColor" stroke-width="1.00" stroke-linecap="butt" stroke-linejoin="miter">
	<path stroke='black'  d='M71.9,103.4 L80.9,103.4  '/>	<g transform="translate(63.6,107.3)" stroke="none" fill="black" font-family="Helvetica" font-size="12.00"  text-anchor="end">
		<text><tspan font-family="Helvetica" > 1.5</tspan></text>
	</g>
</g>
<g fill="none" color="black" stroke="currentColor" stroke-width="1.00" stroke-linecap="butt" stroke-linejoin="miter">
	<path stroke='black'  d='M71.9,57.1 L80.9,57.1  '/>	<g transform="translate(63.6,61.0)" stroke="none" fill="black" font-family="Helvetica" font-size="12.00"  text-anchor="end">
		<text><tspan font-family="Helvetica" > 2</tspan></text>
	</g>
</g>
<g fill="none" color="black" stroke="currentColor" stroke-width="1.00" stroke-linecap="butt" stroke-linejoin="miter">
	<path stroke='black'  d='M77.4,242.4 L77.4,233.4  '/>	<g transform="translate(77.4,264.3)" stroke="none" fill="black" font-family="Helvetica" font-size="12.00"  text-anchor="middle">
		<text><tspan font-family="Helvetica" > 5.2</tspan></text>
	</g>
</g>
<g fill="none" color="black" stroke="currentColor" stroke-width="1.00" stroke-linecap="butt" stroke-linejoin="miter">
	<path stroke='black'  d='M118.5,242.4 L118.5,233.4  '/>	<g transform="translate(118.5,264.3)" stroke="none" fill="black" font-family="Helvetica" font-size="12.00"  text-anchor="middle">
		<text><tspan font-family="Helvetica" > 5.4</tspan></text>
	</g>
</g>
<g fill="none" color="black" stroke="currentColor" stroke-width="1.00" stroke-linecap="butt" stroke-linejoin="miter">
	<path stroke='black'  d='M159.6,242.4 L159.6,233.4  '/>	<g transform="translate(159.6,264.3)" stroke="none" fill="black" font-family="Helvetica" font-size="12.00"  text-anchor="middle">
		<text><tspan font-family="Helvetica" > 5.6</tspan></text>
	</g>
</g>
<g fill="none" color="black" stroke="currentColor" stroke-width="1.00" stroke-linecap="butt" stroke-linejoin="miter">
	<path stroke='black'  d='M200.7,242.4 L200.7,233.4  '/>	<g transform="translate(200.7,264.3)" stroke="none" fill="black" font-family="Helvetica" font-size="12.00"  text-anchor="middle">
		<text><tspan font-family="Helvetica" > 5.8</tspan></text>
	</g>
</g>
<g fill="none" color="black" stroke="currentColor" stroke-width="1.00" stroke-linecap="butt" stroke-linejoin="miter">
	<path stroke='black'  d='M241.8,242.4 L241.8,233.4  '/>	<g transform="translate(241.8,264.3)" stroke="none" fill="black" font-family="Helvetica" font-size="12.00"  text-anchor="middle">
		<text><tspan font-family="Helvetica" > 6</tspan></text>
	</g>
</g>
<g fill="none" color="black" stroke="currentColor" stroke-width="1.00" stroke-linecap="butt" stroke-linejoin="miter">
	<path stroke='black'  d='M282.9,242.4 L282.9,233.4  '/>	<g transform="translate(282.9,264.3)" stroke="none" fill="black" font-family="Helvetica" font-size="12.00"  text-anchor="middle">
		<text><tspan font-family="Helvetica" > 6.2</tspan></text>
	</g>
</g>
<g fill="none" color="black" stroke="currentColor" stroke-width="1.00" stroke-linecap="butt" stroke-linejoin="miter">
	<path stroke='black'  d='M324.0,242.4 L324.0,233.4  '/>	<g transform="translate(324.0,264.3)" stroke="none" fill="black" font-family="Helvetica" font-size="12.00"  text-anchor="middle">
		<text><tspan font-family="Helvetica" > 6.4</tspan></text>
	</g>
</g>
<g fill="none" color="black" stroke="currentColor" stroke-width="1.00" stroke-linecap="butt" stroke-linejoin="miter">
	<path stroke='black'  d='M365.1,242.4 L365.1,233.4  '/>	<g transform="translate(365.1,264.3)" stroke="none" fill="black" font-family="Helvetica" font-size="12.00"  text-anchor="middle">
		<text><tspan font-family="Helvetica" > 6.6</tspan></text>
	</g>
</g>
<g fill="none" color="black" stroke="currentColor" stroke-width="1.00" stroke-linecap="butt" stroke-linejoin="miter">
	<path stroke='black'  d='M406.2,242.4 L406.2,233.4  '/>	<g transform="translate(406.2,264.3)" stroke="none" fill="black" font-family="Helvetica" font-size="12.00"  text-anchor="middle">
		<text><tspan font-family="Helvetica" > 6.8</tspan></text>
	</g>
</g>
<g fill="none" color="black" stroke="currentColor" stroke-width="1.00" stroke-linecap="butt" stroke-linejoin="miter">
</g>
<g fill="none" color="black" stroke="currentColor" stroke-width="1.00" stroke-linecap="butt" stroke-linejoin="miter">
	<path stroke='black'  d='M71.9,18.1 L71.9,242.4 L425.0,242.4 L425.0,18.1 L71.9,18.1 Z  '/></g>
<g fill="none" color="black" stroke="currentColor" stroke-width="1.00" stroke-linecap="butt" stroke-linejoin="miter">
	<g transform="translate(19.0,130.3) rotate(270)" stroke="none" fill="black" font-family="Helvetica" font-size="12.00"  text-anchor="middle">
		<text><tspan font-family="Helvetica" >Density (a.u.)</tspan></text>
	</g>
</g>
<g fill="none" color="black" stroke="currentColor" stroke-width="1.00" stroke-linecap="butt" stroke-linejoin="miter">
	<g transform="translate(248.4,291.3)" stroke="none" fill="black" font-family="Helvetica" font-size="12.00"  text-anchor="middle">
		<text><tspan font-family="Helvetica" >Average time (ns)</tspan></text>
	</g>
</g>
<g fill="none" color="black" stroke="currentColor" stroke-width="1.00" stroke-linecap="butt" stroke-linejoin="miter">
</g>
	<g id="gnuplot_plot_1" ><title>PDF</title>
<g fill="none" color="black" stroke="currentColor" stroke-width="1.00" stroke-linecap="butt" stroke-linejoin="miter">
	<g stroke='none' shape-rendering='crispEdges'>
		<polygon fill = 'rgb( 31, 120, 180)' fill-opacity = '0.250000' points = '71.9,242.3 72.6,242.3 73.3,242.3 74.0,242.3 74.7,242.3 75.4,242.3 76.1,242.3 76.9,242.2 77.6,242.2 78.3,242.2 79.0,242.2 79.7,242.2 80.4,242.1 81.1,242.1 81.8,242.1 82.5,242.0
83.2,242.0 83.9,242.0 84.6,241.9 85.3,241.9 86.1,241.8 86.8,241.7 87.5,241.7 88.2,241.6 88.9,241.5 89.6,241.5 90.3,241.4 91.0,241.3 91.7,241.2 92.4,241.0 93.1,240.9 93.8,240.8
94.5,240.6 95.3,240.5 96.0,240.3 96.7,240.1 97.4,239.9 98.1,239.7 98.8,239.5 99.5,239.3 100.2,239.0 100.9,238.7 101.6,238.4 102.3,238.1 103.0,237.8 103.7,237.4 104.5,237.0 105.2,236.6
105.9,236.1 106.6,235.7 107.3,235.2 108.0,234.6 108.7,234.1 109.4,233.5 110.1,232.8 110.8,232.1 111.5,231.4 112.2,230.6 112.9,229.8 113.6,229.0 114.4,228.1 115.1,227.1 115.8,226.2 116.5,225.1
117.2,224.0 117.9,222.8 118.6,221.6 119.3,220.3 120.0,219.0 120.7,217.6 121.4,216.1 122.1,214.6 122.8,213.0 123.6,211.3 124.3,209.6 125.0,207.8 125.7,205.9 126.4,203.9 127.1,201.9 127.8,199.8
128.5,197.6 129.2,195.3 129.9,193.0 130.6,190.6 131.3,188.1 132.0,185.5 132.8,182.9 133.5,180.2 134.2,177.4 134.9,174.5 135.6,171.6 136.3,168.5 137.0,165.5 137.7,162.3 138.4,159.1 139.1,155.8
139.8,152.5 140.5,149.1 141.2,145.7 142.0,142.2 142.7,138.7 143.4,135.1 144.1,131.5 144.8,127.8 145.5,124.2 146.2,120.5 146.9,116.7 147.6,113.0 148.3,109.3 149.0,105.6 149.7,101.8 150.4,98.1
151.2,94.4 151.9,90.7 152.6,87.1 153.3,83.5 154.0,79.9 154.7,76.4 155.4,72.9 156.1,69.5 156.8,66.2 157.5,62.9 158.2,59.7 158.9,56.6 159.6,53.6 160.4,50.6 161.1,47.8 161.8,45.1
162.5,42.5 163.2,40.0 163.9,37.6 164.6,35.3 165.3,33.2 166.0,31.2 166.7,29.4 167.4,27.6 168.1,26.0 168.8,24.6 169.6,23.3 170.3,22.1 171.0,21.1 171.7,20.2 172.4,19.5 173.1,18.9
173.8,18.5 174.5,18.2 175.2,18.1 175.9,18.1 176.6,18.3 177.3,18.6 178.0,19.0 178.7,19.6 179.5,20.3 180.2,21.1 180.9,22.1 181.6,23.2 182.3,24.4 183.0,25.7 183.7,27.1 184.4,28.7
185.1,30.4 185.8,32.1 186.5,34.0 187.2,35.9 187.9,37.9 188.7,40.1 189.4,42.2 190.1,44.5 190.8,46.8 191.5,49.2 192.2,51.7 192.9,54.2 193.6,56.7 194.3,59.3 195.0,61.9 195.7,64.6
196.4,67.3 197.1,70.0 197.9,72.7 198.6,75.4 199.3,78.1 200.0,80.9 200.7,83.6 201.4,86.3 202.1,89.0 202.8,91.7 203.5,94.4 204.2,97.0 204.9,99.6 205.6,102.2 206.3,104.8 207.1,107.3
207.8,109.8 208.5,112.2 209.2,114.6 209.9,116.9 210.6,119.2 211.3,121.4 212.0,123.5 212.7,125.6 213.4,127.7 214.1,129.7 214.8,131.6 215.5,133.4 216.3,135.2 217.0,137.0 217.7,138.6 218.4,140.2
219.1,141.8 219.8,143.2 220.5,144.6 221.2,146.0 221.9,147.3 222.6,148.5 223.3,149.7 224.0,150.8 224.7,151.8 225.5,152.8 226.2,153.8 226.9,154.7 227.6,155.5 228.3,156.3 229.0,157.1 229.7,157.8
230.4,158.5 231.1,159.2 231.8,159.8 232.5,160.4 233.2,161.0 233.9,161.5 234.7,162.0 235.4,162.5 236.1,163.0 236.8,163.5 237.5,164.0 238.2,164.5 238.9,164.9 239.6,165.4 240.3,165.9 241.0,166.3
241.7,166.8 242.4,167.3 243.1,167.8 243.9,168.3 244.6,168.8 245.3,169.3 246.0,169.8 246.7,170.4 247.4,170.9 248.1,171.5 248.8,172.1 249.5,172.7 250.2,173.3 250.9,174.0 251.6,174.6 252.3,175.3
253.0,176.0 253.8,176.7 254.5,177.4 255.2,178.1 255.9,178.9 256.6,179.6 257.3,180.4 258.0,181.1 258.7,181.9 259.4,182.7 260.1,183.4 260.8,184.2 261.5,185.0 262.2,185.8 263.0,186.6 263.7,187.4
264.4,188.1 265.1,188.9 265.8,189.7 266.5,190.4 267.2,191.2 267.9,191.9 268.6,192.7 269.3,193.4 270.0,194.1 270.7,194.8 271.4,195.5 272.2,196.2 272.9,196.9 273.6,197.5 274.3,198.1 275.0,198.8
275.7,199.4 276.4,200.0 277.1,200.6 277.8,201.1 278.5,201.7 279.2,202.2 279.9,202.8 280.6,203.3 281.4,203.8 282.1,204.3 282.8,204.8 283.5,205.2 284.2,205.7 284.9,206.2 285.6,206.6 286.3,207.0
287.0,207.5 287.7,207.9 288.4,208.3 289.1,208.7 289.8,209.2 290.6,209.6 291.3,210.0 292.0,210.4 292.7,210.8 293.4,211.1 294.1,211.5 294.8,211.9 295.5,212.3 296.2,212.7 296.9,213.1 297.6,213.4
298.3,213.8 299.0,214.2 299.8,214.6 300.5,214.9 301.2,215.3 301.9,215.7 302.6,216.0 303.3,216.4 304.0,216.7 304.7,217.1 305.4,217.5 306.1,217.8 306.8,218.1 307.5,218.5 308.2,218.8 309.0,219.1
309.7,219.4 310.4,219.8 311.1,220.1 311.8,220.4 312.5,220.7 313.2,220.9 313.9,221.2 314.6,221.5 315.3,221.7 316.0,222.0 316.7,222.2 317.4,222.5 318.2,222.7 318.9,222.9 319.6,223.1 320.3,223.3
321.0,223.5 321.7,223.7 322.4,223.9 323.1,224.0 323.8,224.2 324.5,224.3 325.2,224.5 325.9,224.6 326.6,224.7 327.3,224.8 328.1,224.9 328.8,225.0 329.5,225.1 330.2,225.2 330.9,225.3 331.6,225.4
332.3,225.5 333.0,225.5 333.7,225.6 334.4,225.7 335.1,225.7 335.8,225.8 336.5,225.9 337.3,225.9 338.0,226.0 338.7,226.1 339.4,226.1 340.1,226.2 340.8,226.3 341.5,226.3 342.2,226.4 342.9,226.5
343.6,226.6 344.3,226.6 345.0,226.7 345.7,226.8 346.5,226.9 347.2,227.0 347.9,227.1 348.6,227.3 349.3,227.4 350.0,227.5 350.7,227.7 351.4,227.8 352.1,228.0 352.8,228.1 353.5,228.3 354.2,228.4
354.9,228.6 355.7,228.8 356.4,229.0 357.1,229.2 357.8,229.4 358.5,229.6 359.2,229.8 359.9,230.0 360.6,230.3 361.3,230.5 362.0,230.7 362.7,231.0 363.4,231.2 364.1,231.4 364.9,231.7 365.6,231.9
366.3,232.2 367.0,232.4 367.7,232.7 368.4,233.0 369.1,233.2 369.8,233.5 370.5,233.7 371.2,234.0 371.9,234.3 372.6,234.5 373.3,234.8 374.1,235.0 374.8,235.3 375.5,235.5 376.2,235.8 376.9,236.0
377.6,236.2 378.3,236.5 379.0,236.7 379.7,236.9 380.4,237.2 381.1,237.4 381.8,237.6 382.5,237.8 383.3,238.0 384.0,238.2 384.7,238.4 385.4,238.6 386.1,238.8 386.8,238.9 387.5,239.1 388.2,239.3
388.9,239.4 389.6,239.6 390.3,239.8 391.0,239.9 391.7,240.0 392.4,240.2 393.2,240.3 393.9,240.4 394.6,240.5 395.3,240.6 396.0,240.8 396.7,240.9 397.4,241.0 398.1,241.0 398.8,241.1 399.5,241.2
400.2,241.3 400.9,241.4 401.6,241.4 402.4,241.5 403.1,241.6 403.8,241.6 404.5,241.7 405.2,241.7 405.9,241.8 406.6,241.8 407.3,241.9 408.0,241.9 408.7,242.0 409.4,242.0 410.1,242.0 410.8,242.1
411.6,242.1 412.3,242.1 413.0,242.1 413.7,242.2 414.4,242.2 415.1,242.2 415.8,242.2 416.5,242.2 417.2,242.2 417.9,242.3 418.6,242.3 419.3,242.3 420.0,242.3 420.8,242.3 421.5,242.3 422.2,242.3
422.9,242.3 423.6,242.3 424.3,242.3 425.0,242.3 425.0,242.4 424.3,242.4 423.6,242.4 422.9,242.4 422.2,242.4 421.5,242.4 420.8,242.4 420.0,242.4 419.3,242.4 418.6,242.4 417.9,242.4 417.2,242.4
416.5,242.4 415.8,242.4 415.1,242.4 414.4,242.4 413.7,242.4 413.0,242.4 412.3,242.4 411.6,242.4 410.8,242.4 410.1,242.4 409.4,242.4 408.7,242.4 408.0,242.4 407.3,242.4 406.6,242.4 405.9,242.4
405.2,242.4 404.5,242.4 403.8,242.4 403.1,242.4 402.4,242.4 401.6,242.4 400.9,242.4 400.2,242.4 399.5,242.4 398.8,242.4 398.1,242.4 397.4,242.4 396.7,242.4 396.0,242.4 395.3,242.4 394.6,242.4
393.9,242.4 393.2,242.4 392.4,242.4 391.7,242.4 391.0,242.4 390.3,242.4 389.6,242.4 388.9,242.4 388.2,242.4 387.5,242.4 386.8,242.4 386.1,242.4 385.4,242.4 384.7,242.4 384.0,242.4 383.3,242.4
382.5,242.4 381.8,242.4 381.1,242.4 380.4,242.4 379.7,242.4 379.0,242.4 378.3,242.4 377.6,242.4 376.9,242.4 376.2,242.4 375.5,242.4 374.8,242.4 374.1,242.4 373.3,242.4 372.6,242.4 371.9,242.4
371.2,242.4 370.5,242.4 369.8,242.4 369.1,242.4 368.4,242.4 367.7,242.4 367.0,242.4 366.3,242.4 365.6,242.4 364.9,242.4 364.1,242.4 363.4,242.4 362.7,242.4 362.0,242.4 361.3,242.4 360.6,242.4
359.9,242.4 359.2,242.4 358.5,242.4 357.8,242.4 357.1,242.4 356.4,242.4 355.7,242.4 354.9,242.4 354.2,242.4 353.5,242.4 352.8,242.4 352.1,242.4 351.4,242.4 350.7,242.4 350.0,242.4 349.3,242.4
348.6,242.4 347.9,242.4 347.2,242.4 346.5,242.4 345.7,242.4 345.0,242.4 344.3,242.4 343.6,242.4 342.9,242.4 342.2,242.4 341.5,242.4 340.8,242.4 340.1,242.4 339.4,242.4 338.7,242.4 338.0,242.4
337.3,242.4 336.5,242.4 335.8,242.4 335.1,242.4 334.4,242.4 333.7,242.4 333.0,242.4 332.3,242.4 331.6,242.4 330.9,242.4 330.2,242.4 329.5,242.4 328.8,242.4 328.1,242.4 327.3,242.4 326.6,242.4
325.9,242.4 325.2,242.4 324.5,242.4 323.8,242.4 323.1,242.4 322.4,242.4 321.7,242.4 321.0,242.4 320.3,242.4 319.6,242.4 318.9,242.4 318.2,242.4 317.4,242.4 316.7,242.4 316.0,242.4 315.3,242.4
314.6,242.4 313.9,242.4 313.2,242.4 312.5,242.4 311.8,242.4 311.1,242.4 310.4,242.4 309.7,242.4 309.0,242.4 308.2,242.4 307.5,242.4 306.8,242.4 306.1,242.4 305.4,242.4 304.7,242.4 304.0,242.4
303.3,242.4 302.6,242.4 301.9,242.4 301.2,242.4 300.5,242.4 299.8,242.4 299.0,242.4 298.3,242.4 297.6,242.4 296.9,242.4 296.2,242.4 295.5,242.4 294.8,242.4 294.1,242.4 293.4,242.4 292.7,242.4
292.0,242.4 291.3,242.4 290.6,242.4 289.8,242.4 289.1,242.4 288.4,242.4 287.7,242.4 287.0,242.4 286.3,242.4 285.6,242.4 284.9,242.4 284.2,242.4 283.5,242.4 282.8,242.4 282.1,242.4 281.4,242.4
280.6,242.4 279.9,242.4 279.2,242.4 278.5,242.4 277.8,242.4 277.1,242.4 276.4,242.4 275.7,242.4 275.0,242.4 274.3,242.4 273.6,242.4 272.9,242.4 272.2,242.4 271.4,242.4 270.7,242.4 270.0,242.4
269.3,242.4 268.6,242.4 267.9,242.4 267.2,242.4 266.5,242.4 265.8,242.4 265.1,242.4 264.4,242.4 263.7,242.4 263.0,242.4 262.2,242.4 261.5,242.4 260.8,242.4 260.1,242.4 259.4,242.4 258.7,242.4
258.0,242.4 257.3,242.4 256.6,242.4 255.9,242.4 255.2,242.4 254.5,242.4 253.8,242.4 253.0,242.4 252.3,242.4 251.6,242.4 250.9,242.4 250.2,242.4 249.5,242.4 248.8,242.4 248.1,242.4 247.4,242.4
246.7,242.4 246.0,242.4 245.3,242.4 244.6,242.4 243.9,242.4 243.1,242.4 242.4,242.4 241.7,242.4 241.0,242.4 240.3,242.4 239.6,242.4 238.9,242.4 238.2,242.4 237.5,242.4 236.8,242.4 236.1,242.4
235.4,242.4 234.7,242.4 233.9,242.4 233.2,242.4 232.5,242.4 231.8,242.4 231.1,242.4 230.4,242.4 229.7,242.4 229.0,242.4 228.3,242.4 227.6,242.4 226.9,242.4 226.2,242.4 225.5,242.4 224.7,242.4
224.0,242.4 223.3,242.4 222.6,242.4 221.9,242.4 221.2,242.4 220.5,242.4 219.8,242.4 219.1,242.4 218.4,242.4 217.7,242.4 217.0,242.4 216.3,242.4 215.5,242.4 214.8,242.4 214.1,242.4 213.4,242.4
212.7,242.4 212.0,242.4 211.3,242.4 210.6,242.4 209.9,242.4 209.2,242.4 208.5,242.4 207.8,242.4 207.1,242.4 206.3,242.4 205.6,242.4 204.9,242.4 204.2,242.4 203.5,242.4 202.8,242.4 202.1,242.4
201.4,242.4 200.7,242.4 200.0,242.4 199.3,242.4 198.6,242.4 197.9,242.4 197.1,242.4 196.4,242.4 195.7,242.4 195.0,242.4 194.3,242.4 193.6,242.4 192.9,242.4 192.2,242.4 191.5,242.4 190.8,242.4
190.1,242.4 189.4,242.4 188.7,242.4 187.9,242.4 187.2,242.4 186.5,242.4 185.8,242.4 185.1,242.4 184.4,242.4 183.7,242.4 183.0,242.4 182.3,242.4 181.6,242.4 180.9,242.4 180.2,242.4 179.5,242.4
178.7,242.4 178.0,242.4 177.3,242.4 176.6,242.4 175.9,242.4 175.2,242.4 174.5,242.4 173.8,242.4 173.1,242.4 172.4,242.4 171.7,242.4 171.0,242.4 170.3,242.4 169.6,242.4 168.8,242.4 168.1,242.4
167.4,242.4 166.7,242.4 166.0,242.4 165.3,242.4 164.6,242.4 163.9,242.4 163.2,242.4 162.5,242.4 161.8,242.4 161.1,242.4 160.4,242.4 159.6,242.4 158.9,242.4 158.2,242.4 157.5,242.4 156.8,242.4
156.1,242.4 155.4,242.4 154.7,242.4 154.0,242.4 153.3,242.4 152.6,242.4 151.9,242.4 151.2,242.4 150.4,242.4 149.7,242.4 149.0,242.4 148.3,242.4 147.6,242.4 146.9,242.4 146.2,242.4 145.5,242.4
144.8,242.4 144.1,242.4 143.4,242.4 142.7,242.4 142.0,242.4 141.2,242.4 140.5,242.4 139.8,242.4 139.1,242.4 138.4,242.4 137.7,242.4 137.0,242.4 136.3,242.4 135.6,242.4 134.9,242.4 134.2,242.4
133.5,242.4 132.8,242.4 132.0,242.4 131.3,242.4 130.6,242.4 129.9,242.4 129.2,242.4 128.5,242.4 127.8,242.4 127.1,242.4 126.4,242.4 125.7,242.4 125.0,242.4 124.3,242.4 123.6,242.4 122.8,242.4
122.1,242.4 121.4,242.4 120.7,242.4 120.0,242.4 119.3,242.4 118.6,242.4 117.9,242.4 117.2,242.4 116.5,242.4 115.8,242.4 115.1,242.4 114.4,242.4 113.6,242.4 112.9,242.4 112.2,242.4 111.5,242.4
110.8,242.4 110.1,242.4 109.4,242.4 108.7,242.4 108.0,242.4 107.3,242.4 106.6,242.4 105.9,242.4 105.2,242.4 104.5,242.4 103.7,242.4 103.0,242.4 102.3,242.4 101.6,242.4 100.9,242.4 100.2,242.4
99.5,242.4 98.8,242.4 98.1,242.4 97.4,242.4 96.7,242.4 96.0,242.4 95.3,242.4 94.5,242.4 93.8,242.4 93.1,242.4 92.4,242.4 91.7,242.4 91.0,242.4 90.3,242.4 89.6,242.4 88.9,242.4
88.2,242.4 87.5,242.4 86.8,242.4 86.1,242.4 85.3,242.4 84.6,242.4 83.9,242.4 83.2,242.4 82.5,242.4 81.8,242.4 81.1,242.4 80.4,242.4 79.7,242.4 79.0,242.4 78.3,242.4 77.6,242.4
76.9,242.4 76.1,242.4 75.4,242.4 74.7,242.4 74.0,242.4 73.3,242.4 72.6,242.4 71.9,242.4 '/>
	</g>
</g>
	</g>
	<g id="gnuplot_plot_2" ><title>Mean</title>
<g fill="none" color="white" stroke="rgb( 31, 120, 180)" stroke-width="2.00" stroke-linecap="butt" stroke-linejoin="miter">
</g>
<g fill="none" color="black" stroke="currentColor" stroke-width="2.00" stroke-linecap="butt" stroke-linejoin="miter">
	<path stroke='rgb( 31, 120, 180)'  d='M202.5,242.4 L202.5,104.2  '/></g>
	</g>
<g fill="none" color="black" stroke="currentColor" stroke-width="2.00" stroke-linecap="butt" stroke-linejoin="miter">
</g>
<g fill="none" color="black" stroke="black" stroke-width="1.00" stroke-linecap="butt" stroke-linejoin="miter">
</g>
<g fill="none" color="black" stroke="currentColor" stroke-width="1.00" stroke-linecap="butt" stroke-linejoin="miter">
	<path stroke='black'  d='M71.9,18.1 L71.9,242.4 L425.0,242.4 L425.0,18.1 L71.9,18.1 Z  '/></g>
<g fill="none" color="black" stroke="currentColor" stroke-width="1.00" stroke-linecap="butt" stroke-linejoin="miter">
</g>
</g>
</svg>

