group,function,value,throughput_num,throughput_type,sample_measured_value,unit,iteration_count
String trim,Standard trim end,win,,,963426.0,ns,207645
String trim,Standard trim end,win,,,1904960.0,ns,415290
String trim,Standard trim end,win,,,2877814.0,ns,622935
String trim,Standard trim end,win,,,3951407.0,ns,830580
String trim,Standard trim end,win,,,4999695.0,ns,1038225
String trim,Standard trim end,win,,,5798989.0,ns,1245870
String trim,Standard trim end,win,,,6907779.0,ns,1453515
String trim,Standard trim end,win,,,7765847.0,ns,1661160
String trim,Standard trim end,win,,,8733399.0,ns,1868805
String trim,Standard trim end,win,,,10082135.0,ns,2076450
String trim,Standard trim end,win,,,10720376.0,ns,2284095
String trim,Standard trim end,win,,,11699660.0,ns,2491740
String trim,Standard trim end,win,,,12873064.0,ns,2699385
String trim,Standard trim end,win,,,13876766.0,ns,2907030
String trim,Standard trim end,win,,,14716617.0,ns,3114675
String trim,Standard trim end,win,,,15824948.0,ns,3322320
String trim,Standard trim end,win,,,16740854.0,ns,3529965
String trim,Standard trim end,win,,,17981163.0,ns,3737610
String trim,Standard trim end,win,,,18761902.0,ns,3945255
String trim,Standard trim end,win,,,19908808.0,ns,4152900
String trim,Standard trim end,win,,,20890526.0,ns,4360545
String trim,Standard trim end,win,,,21926301.0,ns,4568190
String trim,Standard trim end,win,,,22775408.0,ns,4775835
String trim,Standard trim end,win,,,32542087.0,ns,4983480
String trim,Standard trim end,win,,,24538570.0,ns,5191125
String trim,Standard trim end,win,,,25522455.0,ns,5398770
String trim,Standard trim end,win,,,26567966.0,ns,5606415
String trim,Standard trim end,win,,,27324880.0,ns,5814060
String trim,Standard trim end,win,,,28899313.0,ns,6021705
String trim,Standard trim end,win,,,29481496.0,ns,6229350
String trim,Standard trim end,win,,,30813650.0,ns,6436995
String trim,Standard trim end,win,,,31868820.0,ns,6644640
String trim,Standard trim end,win,,,32890867.0,ns,6852285
String trim,Standard trim end,win,,,33427073.0,ns,7059930
String trim,Standard trim end,win,,,34042328.0,ns,7267575
String trim,Standard trim end,win,,,35229048.0,ns,7475220
String trim,Standard trim end,win,,,36278267.0,ns,7682865
String trim,Standard trim end,win,,,37398199.0,ns,7890510
String trim,Standard trim end,win,,,39056280.0,ns,8098155
String trim,Standard trim end,win,,,39567089.0,ns,8305800
String trim,Standard trim end,win,,,41019441.0,ns,8513445
String trim,Standard trim end,win,,,41740317.0,ns,8721090
String trim,Standard trim end,win,,,43882515.0,ns,8928735
String trim,Standard trim end,win,,,44213764.0,ns,9136380
String trim,Standard trim end,win,,,44151175.0,ns,9344025
String trim,Standard trim end,win,,,45806241.0,ns,9551670
String trim,Standard trim end,win,,,46182574.0,ns,9759315
String trim,Standard trim end,win,,,48324162.0,ns,9966960
String trim,Standard trim end,win,,,48849909.0,ns,10174605
String trim,Standard trim end,win,,,49647049.0,ns,10382250
String trim,Standard trim end,win,,,50005359.0,ns,10589895
String trim,Standard trim end,win,,,51200764.0,ns,10797540
String trim,Standard trim end,win,,,52414052.0,ns,11005185
String trim,Standard trim end,win,,,53178220.0,ns,11212830
String trim,Standard trim end,win,,,54020777.0,ns,11420475
String trim,Standard trim end,win,,,55010763.0,ns,11628120
String trim,Standard trim end,win,,,55949112.0,ns,11835765
String trim,Standard trim end,win,,,56835120.0,ns,12043410
String trim,Standard trim end,win,,,58483905.0,ns,12251055
String trim,Standard trim end,win,,,58734209.0,ns,12458700
String trim,Standard trim end,win,,,60942584.0,ns,12666345
String trim,Standard trim end,win,,,61703977.0,ns,12873990
String trim,Standard trim end,win,,,62218010.0,ns,13081635
String trim,Standard trim end,win,,,63136871.0,ns,13289280
String trim,Standard trim end,win,,,63966544.0,ns,13496925
String trim,Standard trim end,win,,,65059766.0,ns,13704570
String trim,Standard trim end,win,,,65259714.0,ns,13912215
String trim,Standard trim end,win,,,66282603.0,ns,14119860
String trim,Standard trim end,win,,,68166922.0,ns,14327505
String trim,Standard trim end,win,,,68907087.0,ns,14535150
String trim,Standard trim end,win,,,69800018.0,ns,14742795
String trim,Standard trim end,win,,,71196856.0,ns,14950440
String trim,Standard trim end,win,,,72193013.0,ns,15158085
String trim,Standard trim end,win,,,73712583.0,ns,15365730
String trim,Standard trim end,win,,,73841466.0,ns,15573375
String trim,Standard trim end,win,,,75308877.0,ns,15781020
String trim,Standard trim end,win,,,75484780.0,ns,15988665
String trim,Standard trim end,win,,,76866758.0,ns,16196310
String trim,Standard trim end,win,,,78725171.0,ns,16403955
String trim,Standard trim end,win,,,79311711.0,ns,16611600
String trim,Standard trim end,win,,,79550635.0,ns,16819245
String trim,Standard trim end,win,,,81179520.0,ns,17026890
String trim,Standard trim end,win,,,81646355.0,ns,17234535
String trim,Standard trim end,win,,,82716284.0,ns,17442180
String trim,Standard trim end,win,,,84017850.0,ns,17649825
String trim,Standard trim end,win,,,84815371.0,ns,17857470
String trim,Standard trim end,win,,,86523487.0,ns,18065115
String trim,Standard trim end,win,,,86283994.0,ns,18272760
String trim,Standard trim end,win,,,88307188.0,ns,18480405
String trim,Standard trim end,win,,,88461320.0,ns,18688050
String trim,Standard trim end,win,,,89836175.0,ns,18895695
String trim,Standard trim end,win,,,89947757.0,ns,19103340
String trim,Standard trim end,win,,,91959068.0,ns,19310985
String trim,Standard trim end,win,,,93252949.0,ns,19518630
String trim,Standard trim end,win,,,93611218.0,ns,19726275
String trim,Standard trim end,win,,,94012659.0,ns,19933920
String trim,Standard trim end,win,,,97073830.0,ns,20141565
String trim,Standard trim end,win,,,98151441.0,ns,20349210
String trim,Standard trim end,win,,,98312928.0,ns,20556855
String trim,Standard trim end,win,,,99304907.0,ns,20764500
