<?xml version="1.0" encoding="utf-8"  standalone="no"?>
<svg 
 viewBox="0 0 1280 720"
 xmlns="http://www.w3.org/2000/svg"
 xmlns:xlink="http://www.w3.org/1999/xlink"
>

<title>Gnuplot</title>
<desc>Produced by GNUPLOT 5.2 patchlevel 8 </desc>

<g id="gnuplot_canvas">

<rect x="0" y="0" width="1280" height="720" fill="none"/>
<defs>

	<circle id='gpDot' r='0.5' stroke-width='0.5' stroke='currentColor'/>
	<path id='gpPt0' stroke-width='0.222' stroke='currentColor' d='M-1,0 h2 M0,-1 v2'/>
	<path id='gpPt1' stroke-width='0.222' stroke='currentColor' d='M-1,-1 L1,1 M1,-1 L-1,1'/>
	<path id='gpPt2' stroke-width='0.222' stroke='currentColor' d='M-1,0 L1,0 M0,-1 L0,1 M-1,-1 L1,1 M-1,1 L1,-1'/>
	<rect id='gpPt3' stroke-width='0.222' stroke='currentColor' x='-1' y='-1' width='2' height='2'/>
	<rect id='gpPt4' stroke-width='0.222' stroke='currentColor' fill='currentColor' x='-1' y='-1' width='2' height='2'/>
	<circle id='gpPt5' stroke-width='0.222' stroke='currentColor' cx='0' cy='0' r='1'/>
	<use xlink:href='#gpPt5' id='gpPt6' fill='currentColor' stroke='none'/>
	<path id='gpPt7' stroke-width='0.222' stroke='currentColor' d='M0,-1.33 L-1.33,0.67 L1.33,0.67 z'/>
	<use xlink:href='#gpPt7' id='gpPt8' fill='currentColor' stroke='none'/>
	<use xlink:href='#gpPt7' id='gpPt9' stroke='currentColor' transform='rotate(180)'/>
	<use xlink:href='#gpPt9' id='gpPt10' fill='currentColor' stroke='none'/>
	<use xlink:href='#gpPt3' id='gpPt11' stroke='currentColor' transform='rotate(45)'/>
	<use xlink:href='#gpPt11' id='gpPt12' fill='currentColor' stroke='none'/>
	<path id='gpPt13' stroke-width='0.222' stroke='currentColor' d='M0,1.330 L1.265,0.411 L0.782,-1.067 L-0.782,-1.076 L-1.265,0.411 z'/>
	<use xlink:href='#gpPt13' id='gpPt14' fill='currentColor' stroke='none'/>
	<filter id='textbox' filterUnits='objectBoundingBox' x='0' y='0' height='1' width='1'>
	  <feFlood flood-color='white' flood-opacity='1' result='bgnd'/>
	  <feComposite in='SourceGraphic' in2='bgnd' operator='atop'/>
	</filter>
	<filter id='greybox' filterUnits='objectBoundingBox' x='0' y='0' height='1' width='1'>
	  <feFlood flood-color='lightgrey' flood-opacity='1' result='grey'/>
	  <feComposite in='SourceGraphic' in2='grey' operator='atop'/>
	</filter>
</defs>
<g fill="none" color="white" stroke="currentColor" stroke-width="1.00" stroke-linecap="butt" stroke-linejoin="miter">
</g>
<g fill="none" color="black" stroke="currentColor" stroke-width="1.00" stroke-linecap="butt" stroke-linejoin="miter">
	<path stroke='black'  d='M63.6,662.4 L72.6,662.4  '/>	<g transform="translate(55.3,666.3)" stroke="none" fill="black" font-family="Helvetica" font-size="12.00"  text-anchor="end">
		<text><tspan font-family="Helvetica" > 0</tspan></text>
	</g>
</g>
<g fill="none" color="black" stroke="currentColor" stroke-width="1.00" stroke-linecap="butt" stroke-linejoin="miter">
	<path stroke='black'  d='M63.6,599.7 L72.6,599.7  '/>	<g transform="translate(55.3,603.6)" stroke="none" fill="black" font-family="Helvetica" font-size="12.00"  text-anchor="end">
		<text><tspan font-family="Helvetica" > 5</tspan></text>
	</g>
</g>
<g fill="none" color="black" stroke="currentColor" stroke-width="1.00" stroke-linecap="butt" stroke-linejoin="miter">
	<path stroke='black'  d='M63.6,537.1 L72.6,537.1  '/>	<g transform="translate(55.3,541.0)" stroke="none" fill="black" font-family="Helvetica" font-size="12.00"  text-anchor="end">
		<text><tspan font-family="Helvetica" > 10</tspan></text>
	</g>
</g>
<g fill="none" color="black" stroke="currentColor" stroke-width="1.00" stroke-linecap="butt" stroke-linejoin="miter">
	<path stroke='black'  d='M63.6,474.4 L72.6,474.4  '/>	<g transform="translate(55.3,478.3)" stroke="none" fill="black" font-family="Helvetica" font-size="12.00"  text-anchor="end">
		<text><tspan font-family="Helvetica" > 15</tspan></text>
	</g>
</g>
<g fill="none" color="black" stroke="currentColor" stroke-width="1.00" stroke-linecap="butt" stroke-linejoin="miter">
	<path stroke='black'  d='M63.6,411.8 L72.6,411.8  '/>	<g transform="translate(55.3,415.7)" stroke="none" fill="black" font-family="Helvetica" font-size="12.00"  text-anchor="end">
		<text><tspan font-family="Helvetica" > 20</tspan></text>
	</g>
</g>
<g fill="none" color="black" stroke="currentColor" stroke-width="1.00" stroke-linecap="butt" stroke-linejoin="miter">
	<path stroke='black'  d='M63.6,349.1 L72.6,349.1  '/>	<g transform="translate(55.3,353.0)" stroke="none" fill="black" font-family="Helvetica" font-size="12.00"  text-anchor="end">
		<text><tspan font-family="Helvetica" > 25</tspan></text>
	</g>
</g>
<g fill="none" color="black" stroke="currentColor" stroke-width="1.00" stroke-linecap="butt" stroke-linejoin="miter">
	<path stroke='black'  d='M63.6,286.4 L72.6,286.4  '/>	<g transform="translate(55.3,290.3)" stroke="none" fill="black" font-family="Helvetica" font-size="12.00"  text-anchor="end">
		<text><tspan font-family="Helvetica" > 30</tspan></text>
	</g>
</g>
<g fill="none" color="black" stroke="currentColor" stroke-width="1.00" stroke-linecap="butt" stroke-linejoin="miter">
	<path stroke='black'  d='M63.6,223.8 L72.6,223.8  '/>	<g transform="translate(55.3,227.7)" stroke="none" fill="black" font-family="Helvetica" font-size="12.00"  text-anchor="end">
		<text><tspan font-family="Helvetica" > 35</tspan></text>
	</g>
</g>
<g fill="none" color="black" stroke="currentColor" stroke-width="1.00" stroke-linecap="butt" stroke-linejoin="miter">
	<path stroke='black'  d='M63.6,161.1 L72.6,161.1  '/>	<g transform="translate(55.3,165.0)" stroke="none" fill="black" font-family="Helvetica" font-size="12.00"  text-anchor="end">
		<text><tspan font-family="Helvetica" > 40</tspan></text>
	</g>
</g>
<g fill="none" color="black" stroke="currentColor" stroke-width="1.00" stroke-linecap="butt" stroke-linejoin="miter">
	<path stroke='black'  d='M63.6,98.5 L72.6,98.5  '/>	<g transform="translate(55.3,102.4)" stroke="none" fill="black" font-family="Helvetica" font-size="12.00"  text-anchor="end">
		<text><tspan font-family="Helvetica" > 45</tspan></text>
	</g>
</g>
<g fill="none" color="black" stroke="currentColor" stroke-width="1.00" stroke-linecap="butt" stroke-linejoin="miter">
	<path stroke='black'  d='M110.6,662.4 L110.6,653.4  '/>	<g transform="translate(110.6,684.3)" stroke="none" fill="black" font-family="Helvetica" font-size="12.00"  text-anchor="middle">
		<text><tspan font-family="Helvetica" > 1.9</tspan></text>
	</g>
</g>
<g fill="none" color="black" stroke="currentColor" stroke-width="1.00" stroke-linecap="butt" stroke-linejoin="miter">
	<path stroke='black'  d='M206.7,662.4 L206.7,653.4  '/>	<g transform="translate(206.7,684.3)" stroke="none" fill="black" font-family="Helvetica" font-size="12.00"  text-anchor="middle">
		<text><tspan font-family="Helvetica" > 1.95</tspan></text>
	</g>
</g>
<g fill="none" color="black" stroke="currentColor" stroke-width="1.00" stroke-linecap="butt" stroke-linejoin="miter">
	<path stroke='black'  d='M302.9,662.4 L302.9,653.4  '/>	<g transform="translate(302.9,684.3)" stroke="none" fill="black" font-family="Helvetica" font-size="12.00"  text-anchor="middle">
		<text><tspan font-family="Helvetica" > 2</tspan></text>
	</g>
</g>
<g fill="none" color="black" stroke="currentColor" stroke-width="1.00" stroke-linecap="butt" stroke-linejoin="miter">
	<path stroke='black'  d='M399.1,662.4 L399.1,653.4  '/>	<g transform="translate(399.1,684.3)" stroke="none" fill="black" font-family="Helvetica" font-size="12.00"  text-anchor="middle">
		<text><tspan font-family="Helvetica" > 2.05</tspan></text>
	</g>
</g>
<g fill="none" color="black" stroke="currentColor" stroke-width="1.00" stroke-linecap="butt" stroke-linejoin="miter">
	<path stroke='black'  d='M495.2,662.4 L495.2,653.4  '/>	<g transform="translate(495.2,684.3)" stroke="none" fill="black" font-family="Helvetica" font-size="12.00"  text-anchor="middle">
		<text><tspan font-family="Helvetica" > 2.1</tspan></text>
	</g>
</g>
<g fill="none" color="black" stroke="currentColor" stroke-width="1.00" stroke-linecap="butt" stroke-linejoin="miter">
	<path stroke='black'  d='M591.4,662.4 L591.4,653.4  '/>	<g transform="translate(591.4,684.3)" stroke="none" fill="black" font-family="Helvetica" font-size="12.00"  text-anchor="middle">
		<text><tspan font-family="Helvetica" > 2.15</tspan></text>
	</g>
</g>
<g fill="none" color="black" stroke="currentColor" stroke-width="1.00" stroke-linecap="butt" stroke-linejoin="miter">
	<path stroke='black'  d='M687.6,662.4 L687.6,653.4  '/>	<g transform="translate(687.6,684.3)" stroke="none" fill="black" font-family="Helvetica" font-size="12.00"  text-anchor="middle">
		<text><tspan font-family="Helvetica" > 2.2</tspan></text>
	</g>
</g>
<g fill="none" color="black" stroke="currentColor" stroke-width="1.00" stroke-linecap="butt" stroke-linejoin="miter">
	<path stroke='black'  d='M783.7,662.4 L783.7,653.4  '/>	<g transform="translate(783.7,684.3)" stroke="none" fill="black" font-family="Helvetica" font-size="12.00"  text-anchor="middle">
		<text><tspan font-family="Helvetica" > 2.25</tspan></text>
	</g>
</g>
<g fill="none" color="black" stroke="currentColor" stroke-width="1.00" stroke-linecap="butt" stroke-linejoin="miter">
	<path stroke='black'  d='M879.9,662.4 L879.9,653.4  '/>	<g transform="translate(879.9,684.3)" stroke="none" fill="black" font-family="Helvetica" font-size="12.00"  text-anchor="middle">
		<text><tspan font-family="Helvetica" > 2.3</tspan></text>
	</g>
</g>
<g fill="none" color="black" stroke="currentColor" stroke-width="1.00" stroke-linecap="butt" stroke-linejoin="miter">
	<path stroke='black'  d='M976.1,662.4 L976.1,653.4  '/>	<g transform="translate(976.1,684.3)" stroke="none" fill="black" font-family="Helvetica" font-size="12.00"  text-anchor="middle">
		<text><tspan font-family="Helvetica" > 2.35</tspan></text>
	</g>
</g>
<g fill="none" color="black" stroke="currentColor" stroke-width="1.00" stroke-linecap="butt" stroke-linejoin="miter">
	<path stroke='black'  d='M1012.2,662.4 L1003.2,662.4  '/>	<g transform="translate(1020.5,666.3)" stroke="none" fill="black" font-family="Helvetica" font-size="12.00"  text-anchor="start">
		<text><tspan font-family="Helvetica" > 0</tspan></text>
	</g>
</g>
<g fill="none" color="black" stroke="currentColor" stroke-width="1.00" stroke-linecap="butt" stroke-linejoin="miter">
	<path stroke='black'  d='M1012.2,601.6 L1003.2,601.6  '/>	<g transform="translate(1020.5,605.5)" stroke="none" fill="black" font-family="Helvetica" font-size="12.00"  text-anchor="start">
		<text><tspan font-family="Helvetica" > 1</tspan></text>
	</g>
</g>
<g fill="none" color="black" stroke="currentColor" stroke-width="1.00" stroke-linecap="butt" stroke-linejoin="miter">
	<path stroke='black'  d='M1012.2,540.7 L1003.2,540.7  '/>	<g transform="translate(1020.5,544.6)" stroke="none" fill="black" font-family="Helvetica" font-size="12.00"  text-anchor="start">
		<text><tspan font-family="Helvetica" > 2</tspan></text>
	</g>
</g>
<g fill="none" color="black" stroke="currentColor" stroke-width="1.00" stroke-linecap="butt" stroke-linejoin="miter">
	<path stroke='black'  d='M1012.2,479.9 L1003.2,479.9  '/>	<g transform="translate(1020.5,483.8)" stroke="none" fill="black" font-family="Helvetica" font-size="12.00"  text-anchor="start">
		<text><tspan font-family="Helvetica" > 3</tspan></text>
	</g>
</g>
<g fill="none" color="black" stroke="currentColor" stroke-width="1.00" stroke-linecap="butt" stroke-linejoin="miter">
	<path stroke='black'  d='M1012.2,419.1 L1003.2,419.1  '/>	<g transform="translate(1020.5,423.0)" stroke="none" fill="black" font-family="Helvetica" font-size="12.00"  text-anchor="start">
		<text><tspan font-family="Helvetica" > 4</tspan></text>
	</g>
</g>
<g fill="none" color="black" stroke="currentColor" stroke-width="1.00" stroke-linecap="butt" stroke-linejoin="miter">
	<path stroke='black'  d='M1012.2,358.2 L1003.2,358.2  '/>	<g transform="translate(1020.5,362.1)" stroke="none" fill="black" font-family="Helvetica" font-size="12.00"  text-anchor="start">
		<text><tspan font-family="Helvetica" > 5</tspan></text>
	</g>
</g>
<g fill="none" color="black" stroke="currentColor" stroke-width="1.00" stroke-linecap="butt" stroke-linejoin="miter">
	<path stroke='black'  d='M1012.2,297.4 L1003.2,297.4  '/>	<g transform="translate(1020.5,301.3)" stroke="none" fill="black" font-family="Helvetica" font-size="12.00"  text-anchor="start">
		<text><tspan font-family="Helvetica" > 6</tspan></text>
	</g>
</g>
<g fill="none" color="black" stroke="currentColor" stroke-width="1.00" stroke-linecap="butt" stroke-linejoin="miter">
	<path stroke='black'  d='M1012.2,236.6 L1003.2,236.6  '/>	<g transform="translate(1020.5,240.5)" stroke="none" fill="black" font-family="Helvetica" font-size="12.00"  text-anchor="start">
		<text><tspan font-family="Helvetica" > 7</tspan></text>
	</g>
</g>
<g fill="none" color="black" stroke="currentColor" stroke-width="1.00" stroke-linecap="butt" stroke-linejoin="miter">
	<path stroke='black'  d='M1012.2,175.8 L1003.2,175.8  '/>	<g transform="translate(1020.5,179.7)" stroke="none" fill="black" font-family="Helvetica" font-size="12.00"  text-anchor="start">
		<text><tspan font-family="Helvetica" > 8</tspan></text>
	</g>
</g>
<g fill="none" color="black" stroke="currentColor" stroke-width="1.00" stroke-linecap="butt" stroke-linejoin="miter">
	<path stroke='black'  d='M1012.2,114.9 L1003.2,114.9  '/>	<g transform="translate(1020.5,118.8)" stroke="none" fill="black" font-family="Helvetica" font-size="12.00"  text-anchor="start">
		<text><tspan font-family="Helvetica" > 9</tspan></text>
	</g>
</g>
<g fill="none" color="black" stroke="currentColor" stroke-width="1.00" stroke-linecap="butt" stroke-linejoin="miter">
	<path stroke='black'  d='M1012.2,54.1 L1003.2,54.1  '/>	<g transform="translate(1020.5,58.0)" stroke="none" fill="black" font-family="Helvetica" font-size="12.00"  text-anchor="start">
		<text><tspan font-family="Helvetica" > 10</tspan></text>
	</g>
</g>
<g fill="none" color="black" stroke="currentColor" stroke-width="1.00" stroke-linecap="butt" stroke-linejoin="miter">
</g>
<g fill="none" color="black" stroke="currentColor" stroke-width="1.00" stroke-linecap="butt" stroke-linejoin="miter">
	<path stroke='black'  d='M63.6,54.1 L63.6,662.4 L1012.2,662.4 L1012.2,54.1 L63.6,54.1 Z  '/></g>
<g fill="none" color="black" stroke="currentColor" stroke-width="1.00" stroke-linecap="butt" stroke-linejoin="miter">
	<g transform="translate(19.0,358.3) rotate(270)" stroke="none" fill="black" font-family="Helvetica" font-size="12.00"  text-anchor="middle">
		<text><tspan font-family="Helvetica" >Iterations (x 10</tspan><tspan font-family="Helvetica"  font-size="9.6" dy="-6.00px">6</tspan><tspan font-family="Helvetica"  font-size="12.0" dy="6.00px">)</tspan></text>
	</g>
</g>
<g fill="none" color="black" stroke="currentColor" stroke-width="1.00" stroke-linecap="butt" stroke-linejoin="miter">
	<g transform="translate(1066.6,358.3) rotate(270)" stroke="none" fill="black" font-family="Helvetica" font-size="12.00"  text-anchor="middle">
		<text><tspan font-family="Helvetica" >Density (a.u.)</tspan></text>
	</g>
</g>
<g fill="none" color="black" stroke="currentColor" stroke-width="1.00" stroke-linecap="butt" stroke-linejoin="miter">
	<g transform="translate(537.9,711.3)" stroke="none" fill="black" font-family="Helvetica" font-size="12.00"  text-anchor="middle">
		<text><tspan font-family="Helvetica" >Average time (ns)</tspan></text>
	</g>
</g>
<g fill="none" color="black" stroke="currentColor" stroke-width="1.00" stroke-linecap="butt" stroke-linejoin="miter">
	<g transform="translate(537.9,31.0)" stroke="none" fill="black" font-family="Helvetica" font-size="12.00"  text-anchor="middle">
		<text><tspan font-family="Helvetica" >String trim/Standard strip suffix incorrect/win</tspan></text>
	</g>
</g>
<g fill="none" color="black" stroke="currentColor" stroke-width="1.00" stroke-linecap="butt" stroke-linejoin="miter">
</g>
	<g id="gnuplot_plot_1" ><title>PDF</title>
<g fill="none" color="black" stroke="currentColor" stroke-width="1.00" stroke-linecap="butt" stroke-linejoin="miter">
	<g transform="translate(1147.1,67.0)" stroke="none" fill="black" font-family="Helvetica" font-size="12.00"  text-anchor="start">
		<text><tspan font-family="Helvetica" >PDF</tspan></text>
	</g>
</g>
<g fill="none" color="black" stroke="currentColor" stroke-width="1.00" stroke-linecap="butt" stroke-linejoin="miter">
	<g stroke='none' shape-rendering='crispEdges'>
		<polygon fill = 'rgb( 31, 120, 180)' fill-opacity = '0.250000' points = '1096.6,67.6 1138.8,67.6 1138.8,58.6 1096.6,58.6 '/>
		<polygon fill = 'rgb( 31, 120, 180)' fill-opacity = '0.250000' points = '63.6,661.4 65.5,661.2 67.4,661.1 69.3,660.9 71.2,660.7 73.1,660.5 75.0,660.3 76.9,660.0 78.8,659.7 80.7,659.4 82.6,659.1 84.5,658.7 86.4,658.3 88.3,657.8 90.2,657.3 92.1,656.7
94.0,656.1 95.9,655.4 97.8,654.7 99.7,653.9 101.6,653.0 103.5,652.0 105.4,651.0 107.3,649.8 109.2,648.6 111.1,647.3 113.0,645.9 114.9,644.3 116.8,642.7 118.7,640.9 120.6,638.9 122.5,636.9
124.4,634.7 126.3,632.3 128.2,629.8 130.1,627.1 132.0,624.2 133.9,621.2 135.8,617.9 137.7,614.5 139.6,610.9 141.5,607.0 143.4,603.0 145.3,598.7 147.2,594.2 149.1,589.4 151.0,584.5 152.9,579.2
154.8,573.8 156.7,568.1 158.7,562.1 160.6,555.9 162.5,549.4 164.4,542.7 166.3,535.7 168.2,528.4 170.1,520.9 172.0,513.2 173.9,505.2 175.8,497.0 177.7,488.5 179.6,479.8 181.5,470.8 183.4,461.7
185.3,452.3 187.2,442.8 189.1,433.0 191.0,423.1 192.9,413.0 194.8,402.8 196.7,392.4 198.6,381.9 200.5,371.3 202.4,360.6 204.3,349.8 206.2,338.9 208.1,328.1 210.0,317.2 211.9,306.3 213.8,295.4
215.7,284.6 217.6,273.8 219.5,263.1 221.4,252.5 223.3,242.0 225.2,231.6 227.1,221.4 229.0,211.4 230.9,201.5 232.8,191.9 234.7,182.5 236.6,173.4 238.5,164.5 240.4,155.9 242.3,147.6 244.2,139.6
246.1,131.9 248.0,124.6 249.9,117.6 251.8,111.0 253.7,104.8 255.6,99.0 257.5,93.5 259.4,88.5 261.3,83.8 263.2,79.6 265.1,75.8 267.0,72.4 268.9,69.4 270.8,66.9 272.7,64.8 274.6,63.1
276.5,61.8 278.4,61.0 280.3,60.5 282.2,60.5 284.1,60.9 286.0,61.7 287.9,62.9 289.8,64.5 291.7,66.4 293.6,68.7 295.5,71.4 297.4,74.5 299.3,77.9 301.2,81.6 303.1,85.6 305.0,90.0
306.9,94.6 308.8,99.6 310.7,104.8 312.6,110.3 314.5,116.0 316.4,122.0 318.3,128.1 320.2,134.5 322.1,141.1 324.0,147.9 325.9,154.9 327.8,162.0 329.7,169.3 331.6,176.8 333.5,184.3 335.4,192.0
337.3,199.8 339.2,207.7 341.1,215.7 343.0,223.8 344.9,231.9 346.8,240.1 348.8,248.3 350.7,256.6 352.6,264.9 354.5,273.3 356.4,281.6 358.3,290.0 360.2,298.4 362.1,306.8 364.0,315.2 365.9,323.5
367.8,331.8 369.7,340.1 371.6,348.4 373.5,356.6 375.4,364.8 377.3,372.9 379.2,381.0 381.1,389.0 383.0,396.9 384.9,404.7 386.8,412.5 388.7,420.2 390.6,427.8 392.5,435.3 394.4,442.7 396.3,450.1
398.2,457.3 400.1,464.4 402.0,471.4 403.9,478.2 405.8,485.0 407.7,491.6 409.6,498.1 411.5,504.5 413.4,510.7 415.3,516.8 417.2,522.8 419.1,528.6 421.0,534.3 422.9,539.9 424.8,545.2 426.7,550.5
428.6,555.6 430.5,560.5 432.4,565.3 434.3,569.9 436.2,574.4 438.1,578.7 440.0,582.9 441.9,586.9 443.8,590.8 445.7,594.5 447.6,598.1 449.5,601.5 451.4,604.8 453.3,607.9 455.2,610.9 457.1,613.7
459.0,616.4 460.9,618.9 462.8,621.3 464.7,623.6 466.6,625.8 468.5,627.8 470.4,629.7 472.3,631.5 474.2,633.1 476.1,634.7 478.0,636.1 479.9,637.4 481.8,638.6 483.7,639.7 485.6,640.7 487.5,641.7
489.4,642.5 491.3,643.3 493.2,643.9 495.1,644.5 497.0,645.0 498.9,645.5 500.8,645.8 502.7,646.2 504.6,646.4 506.5,646.6 508.4,646.8 510.3,646.9 512.2,646.9 514.1,647.0 516.0,646.9 517.9,646.9
519.8,646.8 521.7,646.7 523.6,646.6 525.5,646.4 527.4,646.3 529.3,646.1 531.2,645.9 533.1,645.7 535.0,645.5 536.9,645.3 538.9,645.1 540.8,644.9 542.7,644.7 544.6,644.5 546.5,644.4 548.4,644.2
550.3,644.0 552.2,643.9 554.1,643.8 556.0,643.7 557.9,643.6 559.8,643.5 561.7,643.4 563.6,643.4 565.5,643.4 567.4,643.4 569.3,643.4 571.2,643.5 573.1,643.5 575.0,643.6 576.9,643.7 578.8,643.8
580.7,644.0 582.6,644.1 584.5,644.3 586.4,644.5 588.3,644.7 590.2,644.9 592.1,645.1 594.0,645.3 595.9,645.6 597.8,645.8 599.7,646.0 601.6,646.3 603.5,646.5 605.4,646.8 607.3,647.0 609.2,647.2
611.1,647.4 613.0,647.6 614.9,647.8 616.8,648.0 618.7,648.2 620.6,648.3 622.5,648.5 624.4,648.6 626.3,648.7 628.2,648.8 630.1,648.8 632.0,648.8 633.9,648.8 635.8,648.8 637.7,648.8 639.6,648.7
641.5,648.6 643.4,648.4 645.3,648.3 647.2,648.1 649.1,647.9 651.0,647.6 652.9,647.3 654.8,647.0 656.7,646.7 658.6,646.3 660.5,646.0 662.4,645.6 664.3,645.1 666.2,644.7 668.1,644.2 670.0,643.7
671.9,643.2 673.8,642.7 675.7,642.2 677.6,641.6 679.5,641.1 681.4,640.5 683.3,639.9 685.2,639.3 687.1,638.7 689.0,638.2 690.9,637.6 692.8,637.0 694.7,636.4 696.6,635.9 698.5,635.3 700.4,634.7
702.3,634.2 704.2,633.7 706.1,633.2 708.0,632.7 709.9,632.2 711.8,631.8 713.7,631.4 715.6,631.0 717.5,630.6 719.4,630.3 721.3,630.0 723.2,629.7 725.1,629.4 727.0,629.2 729.0,629.0 730.9,628.8
732.8,628.7 734.7,628.6 736.6,628.6 738.5,628.5 740.4,628.6 742.3,628.6 744.2,628.7 746.1,628.8 748.0,628.9 749.9,629.1 751.8,629.3 753.7,629.5 755.6,629.8 757.5,630.1 759.4,630.4 761.3,630.7
763.2,631.0 765.1,631.4 767.0,631.8 768.9,632.2 770.8,632.7 772.7,633.1 774.6,633.6 776.5,634.0 778.4,634.5 780.3,635.0 782.2,635.5 784.1,636.0 786.0,636.5 787.9,637.0 789.8,637.5 791.7,638.0
793.6,638.5 795.5,639.0 797.4,639.5 799.3,640.0 801.2,640.5 803.1,640.9 805.0,641.4 806.9,641.9 808.8,642.3 810.7,642.7 812.6,643.1 814.5,643.6 816.4,643.9 818.3,644.3 820.2,644.7 822.1,645.1
824.0,645.4 825.9,645.7 827.8,646.1 829.7,646.4 831.6,646.7 833.5,647.0 835.4,647.2 837.3,647.5 839.2,647.8 841.1,648.0 843.0,648.3 844.9,648.5 846.8,648.8 848.7,649.0 850.6,649.2 852.5,649.4
854.4,649.7 856.3,649.9 858.2,650.1 860.1,650.3 862.0,650.5 863.9,650.7 865.8,651.0 867.7,651.2 869.6,651.4 871.5,651.6 873.4,651.8 875.3,652.1 877.2,652.3 879.1,652.5 881.0,652.7 882.9,653.0
884.8,653.2 886.7,653.4 888.6,653.7 890.5,653.9 892.4,654.2 894.3,654.4 896.2,654.6 898.1,654.9 900.0,655.1 901.9,655.4 903.8,655.6 905.7,655.9 907.6,656.1 909.5,656.3 911.4,656.6 913.3,656.8
915.2,657.0 917.1,657.3 919.1,657.5 921.0,657.7 922.9,657.9 924.8,658.1 926.7,658.4 928.6,658.6 930.5,658.8 932.4,658.9 934.3,659.1 936.2,659.3 938.1,659.5 940.0,659.7 941.9,659.8 943.8,660.0
945.7,660.1 947.6,660.3 949.5,660.4 951.4,660.5 953.3,660.7 955.2,660.8 957.1,660.9 959.0,661.0 960.9,661.1 962.8,661.2 964.7,661.3 966.6,661.4 968.5,661.4 970.4,661.5 972.3,661.6 974.2,661.7
976.1,661.7 978.0,661.8 979.9,661.8 981.8,661.9 983.7,661.9 985.6,662.0 987.5,662.0 989.4,662.0 991.3,662.1 993.2,662.1 995.1,662.1 997.0,662.2 998.9,662.2 1000.8,662.2 1002.7,662.2 1004.6,662.2
1006.5,662.3 1008.4,662.3 1010.3,662.3 1012.2,662.3 1012.2,662.4 1010.3,662.4 1008.4,662.4 1006.5,662.4 1004.6,662.4 1002.7,662.4 1000.8,662.4 998.9,662.4 997.0,662.4 995.1,662.4 993.2,662.4 991.3,662.4
989.4,662.4 987.5,662.4 985.6,662.4 983.7,662.4 981.8,662.4 979.9,662.4 978.0,662.4 976.1,662.4 974.2,662.4 972.3,662.4 970.4,662.4 968.5,662.4 966.6,662.4 964.7,662.4 962.8,662.4 960.9,662.4
959.0,662.4 957.1,662.4 955.2,662.4 953.3,662.4 951.4,662.4 949.5,662.4 947.6,662.4 945.7,662.4 943.8,662.4 941.9,662.4 940.0,662.4 938.1,662.4 936.2,662.4 934.3,662.4 932.4,662.4 930.5,662.4
928.6,662.4 926.7,662.4 924.8,662.4 922.9,662.4 921.0,662.4 919.1,662.4 917.1,662.4 915.2,662.4 913.3,662.4 911.4,662.4 909.5,662.4 907.6,662.4 905.7,662.4 903.8,662.4 901.9,662.4 900.0,662.4
898.1,662.4 896.2,662.4 894.3,662.4 892.4,662.4 890.5,662.4 888.6,662.4 886.7,662.4 884.8,662.4 882.9,662.4 881.0,662.4 879.1,662.4 877.2,662.4 875.3,662.4 873.4,662.4 871.5,662.4 869.6,662.4
867.7,662.4 865.8,662.4 863.9,662.4 862.0,662.4 860.1,662.4 858.2,662.4 856.3,662.4 854.4,662.4 852.5,662.4 850.6,662.4 848.7,662.4 846.8,662.4 844.9,662.4 843.0,662.4 841.1,662.4 839.2,662.4
837.3,662.4 835.4,662.4 833.5,662.4 831.6,662.4 829.7,662.4 827.8,662.4 825.9,662.4 824.0,662.4 822.1,662.4 820.2,662.4 818.3,662.4 816.4,662.4 814.5,662.4 812.6,662.4 810.7,662.4 808.8,662.4
806.9,662.4 805.0,662.4 803.1,662.4 801.2,662.4 799.3,662.4 797.4,662.4 795.5,662.4 793.6,662.4 791.7,662.4 789.8,662.4 787.9,662.4 786.0,662.4 784.1,662.4 782.2,662.4 780.3,662.4 778.4,662.4
776.5,662.4 774.6,662.4 772.7,662.4 770.8,662.4 768.9,662.4 767.0,662.4 765.1,662.4 763.2,662.4 761.3,662.4 759.4,662.4 757.5,662.4 755.6,662.4 753.7,662.4 751.8,662.4 749.9,662.4 748.0,662.4
746.1,662.4 744.2,662.4 742.3,662.4 740.4,662.4 738.5,662.4 736.6,662.4 734.7,662.4 732.8,662.4 730.9,662.4 729.0,662.4 727.0,662.4 725.1,662.4 723.2,662.4 721.3,662.4 719.4,662.4 717.5,662.4
715.6,662.4 713.7,662.4 711.8,662.4 709.9,662.4 708.0,662.4 706.1,662.4 704.2,662.4 702.3,662.4 700.4,662.4 698.5,662.4 696.6,662.4 694.7,662.4 692.8,662.4 690.9,662.4 689.0,662.4 687.1,662.4
685.2,662.4 683.3,662.4 681.4,662.4 679.5,662.4 677.6,662.4 675.7,662.4 673.8,662.4 671.9,662.4 670.0,662.4 668.1,662.4 666.2,662.4 664.3,662.4 662.4,662.4 660.5,662.4 658.6,662.4 656.7,662.4
654.8,662.4 652.9,662.4 651.0,662.4 649.1,662.4 647.2,662.4 645.3,662.4 643.4,662.4 641.5,662.4 639.6,662.4 637.7,662.4 635.8,662.4 633.9,662.4 632.0,662.4 630.1,662.4 628.2,662.4 626.3,662.4
624.4,662.4 622.5,662.4 620.6,662.4 618.7,662.4 616.8,662.4 614.9,662.4 613.0,662.4 611.1,662.4 609.2,662.4 607.3,662.4 605.4,662.4 603.5,662.4 601.6,662.4 599.7,662.4 597.8,662.4 595.9,662.4
594.0,662.4 592.1,662.4 590.2,662.4 588.3,662.4 586.4,662.4 584.5,662.4 582.6,662.4 580.7,662.4 578.8,662.4 576.9,662.4 575.0,662.4 573.1,662.4 571.2,662.4 569.3,662.4 567.4,662.4 565.5,662.4
563.6,662.4 561.7,662.4 559.8,662.4 557.9,662.4 556.0,662.4 554.1,662.4 552.2,662.4 550.3,662.4 548.4,662.4 546.5,662.4 544.6,662.4 542.7,662.4 540.8,662.4 538.9,662.4 536.9,662.4 535.0,662.4
533.1,662.4 531.2,662.4 529.3,662.4 527.4,662.4 525.5,662.4 523.6,662.4 521.7,662.4 519.8,662.4 517.9,662.4 516.0,662.4 514.1,662.4 512.2,662.4 510.3,662.4 508.4,662.4 506.5,662.4 504.6,662.4
502.7,662.4 500.8,662.4 498.9,662.4 497.0,662.4 495.1,662.4 493.2,662.4 491.3,662.4 489.4,662.4 487.5,662.4 485.6,662.4 483.7,662.4 481.8,662.4 479.9,662.4 478.0,662.4 476.1,662.4 474.2,662.4
472.3,662.4 470.4,662.4 468.5,662.4 466.6,662.4 464.7,662.4 462.8,662.4 460.9,662.4 459.0,662.4 457.1,662.4 455.2,662.4 453.3,662.4 451.4,662.4 449.5,662.4 447.6,662.4 445.7,662.4 443.8,662.4
441.9,662.4 440.0,662.4 438.1,662.4 436.2,662.4 434.3,662.4 432.4,662.4 430.5,662.4 428.6,662.4 426.7,662.4 424.8,662.4 422.9,662.4 421.0,662.4 419.1,662.4 417.2,662.4 415.3,662.4 413.4,662.4
411.5,662.4 409.6,662.4 407.7,662.4 405.8,662.4 403.9,662.4 402.0,662.4 400.1,662.4 398.2,662.4 396.3,662.4 394.4,662.4 392.5,662.4 390.6,662.4 388.7,662.4 386.8,662.4 384.9,662.4 383.0,662.4
381.1,662.4 379.2,662.4 377.3,662.4 375.4,662.4 373.5,662.4 371.6,662.4 369.7,662.4 367.8,662.4 365.9,662.4 364.0,662.4 362.1,662.4 360.2,662.4 358.3,662.4 356.4,662.4 354.5,662.4 352.6,662.4
350.7,662.4 348.8,662.4 346.8,662.4 344.9,662.4 343.0,662.4 341.1,662.4 339.2,662.4 337.3,662.4 335.4,662.4 333.5,662.4 331.6,662.4 329.7,662.4 327.8,662.4 325.9,662.4 324.0,662.4 322.1,662.4
320.2,662.4 318.3,662.4 316.4,662.4 314.5,662.4 312.6,662.4 310.7,662.4 308.8,662.4 306.9,662.4 305.0,662.4 303.1,662.4 301.2,662.4 299.3,662.4 297.4,662.4 295.5,662.4 293.6,662.4 291.7,662.4
289.8,662.4 287.9,662.4 286.0,662.4 284.1,662.4 282.2,662.4 280.3,662.4 278.4,662.4 276.5,662.4 274.6,662.4 272.7,662.4 270.8,662.4 268.9,662.4 267.0,662.4 265.1,662.4 263.2,662.4 261.3,662.4
259.4,662.4 257.5,662.4 255.6,662.4 253.7,662.4 251.8,662.4 249.9,662.4 248.0,662.4 246.1,662.4 244.2,662.4 242.3,662.4 240.4,662.4 238.5,662.4 236.6,662.4 234.7,662.4 232.8,662.4 230.9,662.4
229.0,662.4 227.1,662.4 225.2,662.4 223.3,662.4 221.4,662.4 219.5,662.4 217.6,662.4 215.7,662.4 213.8,662.4 211.9,662.4 210.0,662.4 208.1,662.4 206.2,662.4 204.3,662.4 202.4,662.4 200.5,662.4
198.6,662.4 196.7,662.4 194.8,662.4 192.9,662.4 191.0,662.4 189.1,662.4 187.2,662.4 185.3,662.4 183.4,662.4 181.5,662.4 179.6,662.4 177.7,662.4 175.8,662.4 173.9,662.4 172.0,662.4 170.1,662.4
168.2,662.4 166.3,662.4 164.4,662.4 162.5,662.4 160.6,662.4 158.7,662.4 156.7,662.4 154.8,662.4 152.9,662.4 151.0,662.4 149.1,662.4 147.2,662.4 145.3,662.4 143.4,662.4 141.5,662.4 139.6,662.4
137.7,662.4 135.8,662.4 133.9,662.4 132.0,662.4 130.1,662.4 128.2,662.4 126.3,662.4 124.4,662.4 122.5,662.4 120.6,662.4 118.7,662.4 116.8,662.4 114.9,662.4 113.0,662.4 111.1,662.4 109.2,662.4
107.3,662.4 105.4,662.4 103.5,662.4 101.6,662.4 99.7,662.4 97.8,662.4 95.9,662.4 94.0,662.4 92.1,662.4 90.2,662.4 88.3,662.4 86.4,662.4 84.5,662.4 82.6,662.4 80.7,662.4 78.8,662.4
76.9,662.4 75.0,662.4 73.1,662.4 71.2,662.4 69.3,662.4 67.4,662.4 65.5,662.4 63.6,662.4 '/>
	</g>
</g>
	</g>
	<g id="gnuplot_plot_2" ><title>Mean</title>
<g fill="none" color="white" stroke="rgb( 31, 120, 180)" stroke-width="2.00" stroke-linecap="butt" stroke-linejoin="miter">
</g>
<g fill="none" color="black" stroke="currentColor" stroke-width="2.00" stroke-linecap="butt" stroke-linejoin="miter">
	<g transform="translate(1147.1,85.0)" stroke="none" fill="black" font-family="Helvetica" font-size="12.00"  text-anchor="start">
		<text><tspan font-family="Helvetica" >Mean</tspan></text>
	</g>
</g>
<g fill="none" color="black" stroke="currentColor" stroke-width="2.00" stroke-linecap="butt" stroke-linejoin="miter">
	<path stroke='rgb( 31, 120, 180)'  d='M1096.6,81.1 L1138.8,81.1 M320.6,662.4 L320.6,54.1  '/></g>
	</g>
	<g id="gnuplot_plot_3" ><title>"Clean" sample</title>
<g fill="none" color="white" stroke="rgb( 31, 120, 180)" stroke-width="1.00" stroke-linecap="butt" stroke-linejoin="miter">
</g>
<g fill="none" color="black" stroke="currentColor" stroke-width="1.00" stroke-linecap="butt" stroke-linejoin="miter">
	<g transform="translate(1147.1,103.0)" stroke="none" fill="black" font-family="Helvetica" font-size="12.00"  text-anchor="start">
		<text><tspan font-family="Helvetica" >"Clean" sample</tspan></text>
	</g>
</g>
<g fill="none" color="black" stroke="currentColor" stroke-width="1.00" stroke-linecap="butt" stroke-linejoin="miter">
	<use xlink:href='#gpPt6' transform='translate(223.0,656.3) scale(3.38)' color='rgb( 31, 120, 180)'/>
	<use xlink:href='#gpPt6' transform='translate(318.5,644.2) scale(3.38)' color='rgb( 31, 120, 180)'/>
	<use xlink:href='#gpPt6' transform='translate(355.6,638.1) scale(3.38)' color='rgb( 31, 120, 180)'/>
	<use xlink:href='#gpPt6' transform='translate(309.4,632.0) scale(3.38)' color='rgb( 31, 120, 180)'/>
	<use xlink:href='#gpPt6' transform='translate(365.5,625.9) scale(3.38)' color='rgb( 31, 120, 180)'/>
	<use xlink:href='#gpPt6' transform='translate(308.1,619.8) scale(3.38)' color='rgb( 31, 120, 180)'/>
	<use xlink:href='#gpPt6' transform='translate(384.6,613.7) scale(3.38)' color='rgb( 31, 120, 180)'/>
	<use xlink:href='#gpPt6' transform='translate(343.5,607.7) scale(3.38)' color='rgb( 31, 120, 180)'/>
	<use xlink:href='#gpPt6' transform='translate(351.6,601.6) scale(3.38)' color='rgb( 31, 120, 180)'/>
	<use xlink:href='#gpPt6' transform='translate(325.6,595.5) scale(3.38)' color='rgb( 31, 120, 180)'/>
	<use xlink:href='#gpPt6' transform='translate(380.1,589.4) scale(3.38)' color='rgb( 31, 120, 180)'/>
	<use xlink:href='#gpPt6' transform='translate(411.3,565.1) scale(3.38)' color='rgb( 31, 120, 180)'/>
	<use xlink:href='#gpPt6' transform='translate(359.2,559.0) scale(3.38)' color='rgb( 31, 120, 180)'/>
	<use xlink:href='#gpPt6' transform='translate(389.5,552.9) scale(3.38)' color='rgb( 31, 120, 180)'/>
	<use xlink:href='#gpPt6' transform='translate(231.6,546.8) scale(3.38)' color='rgb( 31, 120, 180)'/>
	<use xlink:href='#gpPt6' transform='translate(229.2,540.7) scale(3.38)' color='rgb( 31, 120, 180)'/>
	<use xlink:href='#gpPt6' transform='translate(255.6,534.7) scale(3.38)' color='rgb( 31, 120, 180)'/>
	<use xlink:href='#gpPt6' transform='translate(244.4,528.6) scale(3.38)' color='rgb( 31, 120, 180)'/>
	<use xlink:href='#gpPt6' transform='translate(247.5,522.5) scale(3.38)' color='rgb( 31, 120, 180)'/>
	<use xlink:href='#gpPt6' transform='translate(235.3,516.4) scale(3.38)' color='rgb( 31, 120, 180)'/>
	<use xlink:href='#gpPt6' transform='translate(231.1,510.3) scale(3.38)' color='rgb( 31, 120, 180)'/>
	<use xlink:href='#gpPt6' transform='translate(220.7,504.2) scale(3.38)' color='rgb( 31, 120, 180)'/>
	<use xlink:href='#gpPt6' transform='translate(214.8,498.2) scale(3.38)' color='rgb( 31, 120, 180)'/>
	<use xlink:href='#gpPt6' transform='translate(225.8,492.1) scale(3.38)' color='rgb( 31, 120, 180)'/>
	<use xlink:href='#gpPt6' transform='translate(231.2,486.0) scale(3.38)' color='rgb( 31, 120, 180)'/>
	<use xlink:href='#gpPt6' transform='translate(220.5,479.9) scale(3.38)' color='rgb( 31, 120, 180)'/>
	<use xlink:href='#gpPt6' transform='translate(224.6,473.8) scale(3.38)' color='rgb( 31, 120, 180)'/>
	<use xlink:href='#gpPt6' transform='translate(230.2,467.7) scale(3.38)' color='rgb( 31, 120, 180)'/>
	<use xlink:href='#gpPt6' transform='translate(219.2,461.7) scale(3.38)' color='rgb( 31, 120, 180)'/>
	<use xlink:href='#gpPt6' transform='translate(390.0,455.6) scale(3.38)' color='rgb( 31, 120, 180)'/>
	<use xlink:href='#gpPt6' transform='translate(274.4,449.5) scale(3.38)' color='rgb( 31, 120, 180)'/>
	<use xlink:href='#gpPt6' transform='translate(224.1,443.4) scale(3.38)' color='rgb( 31, 120, 180)'/>
	<use xlink:href='#gpPt6' transform='translate(221.9,437.3) scale(3.38)' color='rgb( 31, 120, 180)'/>
	<use xlink:href='#gpPt6' transform='translate(375.0,419.1) scale(3.38)' color='rgb( 31, 120, 180)'/>
	<use xlink:href='#gpPt6' transform='translate(302.1,413.0) scale(3.38)' color='rgb( 31, 120, 180)'/>
	<use xlink:href='#gpPt6' transform='translate(325.3,406.9) scale(3.38)' color='rgb( 31, 120, 180)'/>
	<use xlink:href='#gpPt6' transform='translate(290.9,400.8) scale(3.38)' color='rgb( 31, 120, 180)'/>
	<use xlink:href='#gpPt6' transform='translate(364.3,394.7) scale(3.38)' color='rgb( 31, 120, 180)'/>
	<use xlink:href='#gpPt6' transform='translate(380.9,388.7) scale(3.38)' color='rgb( 31, 120, 180)'/>
	<use xlink:href='#gpPt6' transform='translate(230.8,382.6) scale(3.38)' color='rgb( 31, 120, 180)'/>
	<use xlink:href='#gpPt6' transform='translate(342.8,370.4) scale(3.38)' color='rgb( 31, 120, 180)'/>
	<use xlink:href='#gpPt6' transform='translate(309.1,364.3) scale(3.38)' color='rgb( 31, 120, 180)'/>
	<use xlink:href='#gpPt6' transform='translate(250.7,358.2) scale(3.38)' color='rgb( 31, 120, 180)'/>
	<use xlink:href='#gpPt6' transform='translate(311.2,352.2) scale(3.38)' color='rgb( 31, 120, 180)'/>
	<use xlink:href='#gpPt6' transform='translate(279.8,346.1) scale(3.38)' color='rgb( 31, 120, 180)'/>
	<use xlink:href='#gpPt6' transform='translate(326.7,340.0) scale(3.38)' color='rgb( 31, 120, 180)'/>
	<use xlink:href='#gpPt6' transform='translate(371.4,333.9) scale(3.38)' color='rgb( 31, 120, 180)'/>
	<use xlink:href='#gpPt6' transform='translate(390.1,327.8) scale(3.38)' color='rgb( 31, 120, 180)'/>
	<use xlink:href='#gpPt6' transform='translate(357.7,321.8) scale(3.38)' color='rgb( 31, 120, 180)'/>
	<use xlink:href='#gpPt6' transform='translate(335.2,315.7) scale(3.38)' color='rgb( 31, 120, 180)'/>
	<use xlink:href='#gpPt6' transform='translate(296.7,309.6) scale(3.38)' color='rgb( 31, 120, 180)'/>
	<use xlink:href='#gpPt6' transform='translate(309.3,303.5) scale(3.38)' color='rgb( 31, 120, 180)'/>
	<use xlink:href='#gpPt6' transform='translate(305.8,297.4) scale(3.38)' color='rgb( 31, 120, 180)'/>
	<use xlink:href='#gpPt6' transform='translate(316.3,291.3) scale(3.38)' color='rgb( 31, 120, 180)'/>
	<use xlink:href='#gpPt6' transform='translate(319.4,285.3) scale(3.38)' color='rgb( 31, 120, 180)'/>
	<use xlink:href='#gpPt6' transform='translate(307.5,279.2) scale(3.38)' color='rgb( 31, 120, 180)'/>
	<use xlink:href='#gpPt6' transform='translate(327.5,273.1) scale(3.38)' color='rgb( 31, 120, 180)'/>
	<use xlink:href='#gpPt6' transform='translate(327.4,267.0) scale(3.38)' color='rgb( 31, 120, 180)'/>
	<use xlink:href='#gpPt6' transform='translate(300.6,260.9) scale(3.38)' color='rgb( 31, 120, 180)'/>
	<use xlink:href='#gpPt6' transform='translate(296.8,254.8) scale(3.38)' color='rgb( 31, 120, 180)'/>
	<use xlink:href='#gpPt6' transform='translate(279.5,248.8) scale(3.38)' color='rgb( 31, 120, 180)'/>
	<use xlink:href='#gpPt6' transform='translate(261.6,242.7) scale(3.38)' color='rgb( 31, 120, 180)'/>
	<use xlink:href='#gpPt6' transform='translate(283.6,236.6) scale(3.38)' color='rgb( 31, 120, 180)'/>
	<use xlink:href='#gpPt6' transform='translate(274.9,230.5) scale(3.38)' color='rgb( 31, 120, 180)'/>
	<use xlink:href='#gpPt6' transform='translate(263.8,224.4) scale(3.38)' color='rgb( 31, 120, 180)'/>
	<use xlink:href='#gpPt6' transform='translate(289.9,218.3) scale(3.38)' color='rgb( 31, 120, 180)'/>
	<use xlink:href='#gpPt6' transform='translate(240.2,212.3) scale(3.38)' color='rgb( 31, 120, 180)'/>
	<use xlink:href='#gpPt6' transform='translate(317.0,206.2) scale(3.38)' color='rgb( 31, 120, 180)'/>
	<use xlink:href='#gpPt6' transform='translate(295.5,200.1) scale(3.38)' color='rgb( 31, 120, 180)'/>
	<use xlink:href='#gpPt6' transform='translate(263.4,194.0) scale(3.38)' color='rgb( 31, 120, 180)'/>
	<use xlink:href='#gpPt6' transform='translate(277.0,187.9) scale(3.38)' color='rgb( 31, 120, 180)'/>
	<use xlink:href='#gpPt6' transform='translate(321.4,181.8) scale(3.38)' color='rgb( 31, 120, 180)'/>
	<use xlink:href='#gpPt6' transform='translate(269.9,175.8) scale(3.38)' color='rgb( 31, 120, 180)'/>
	<use xlink:href='#gpPt6' transform='translate(303.0,169.7) scale(3.38)' color='rgb( 31, 120, 180)'/>
	<use xlink:href='#gpPt6' transform='translate(263.1,163.6) scale(3.38)' color='rgb( 31, 120, 180)'/>
	<use xlink:href='#gpPt6' transform='translate(264.6,157.5) scale(3.38)' color='rgb( 31, 120, 180)'/>
	<use xlink:href='#gpPt6' transform='translate(347.9,151.4) scale(3.38)' color='rgb( 31, 120, 180)'/>
	<use xlink:href='#gpPt6' transform='translate(276.6,145.3) scale(3.38)' color='rgb( 31, 120, 180)'/>
	<use xlink:href='#gpPt6' transform='translate(253.7,139.3) scale(3.38)' color='rgb( 31, 120, 180)'/>
	<use xlink:href='#gpPt6' transform='translate(279.5,133.2) scale(3.38)' color='rgb( 31, 120, 180)'/>
	<use xlink:href='#gpPt6' transform='translate(245.7,127.1) scale(3.38)' color='rgb( 31, 120, 180)'/>
	<use xlink:href='#gpPt6' transform='translate(252.5,121.0) scale(3.38)' color='rgb( 31, 120, 180)'/>
	<use xlink:href='#gpPt6' transform='translate(274.3,114.9) scale(3.38)' color='rgb( 31, 120, 180)'/>
	<use xlink:href='#gpPt6' transform='translate(260.9,108.8) scale(3.38)' color='rgb( 31, 120, 180)'/>
	<use xlink:href='#gpPt6' transform='translate(269.3,102.8) scale(3.38)' color='rgb( 31, 120, 180)'/>
	<use xlink:href='#gpPt6' transform='translate(260.3,96.7) scale(3.38)' color='rgb( 31, 120, 180)'/>
	<use xlink:href='#gpPt6' transform='translate(260.7,90.6) scale(3.38)' color='rgb( 31, 120, 180)'/>
	<use xlink:href='#gpPt6' transform='translate(286.9,84.5) scale(3.38)' color='rgb( 31, 120, 180)'/>
	<use xlink:href='#gpPt6' transform='translate(276.1,78.4) scale(3.38)' color='rgb( 31, 120, 180)'/>
	<use xlink:href='#gpPt6' transform='translate(253.2,72.3) scale(3.38)' color='rgb( 31, 120, 180)'/>
	<use xlink:href='#gpPt6' transform='translate(267.3,66.3) scale(3.38)' color='rgb( 31, 120, 180)'/>
	<use xlink:href='#gpPt6' transform='translate(274.2,60.2) scale(3.38)' color='rgb( 31, 120, 180)'/>
	<use xlink:href='#gpPt6' transform='translate(263.3,54.1) scale(3.38)' color='rgb( 31, 120, 180)'/>
	<use xlink:href='#gpPt6' transform='translate(1117.7,99.1) scale(3.38)' color='rgb( 31, 120, 180)'/>
</g>
	</g>
	<g id="gnuplot_plot_4" ><title>Mild outliers</title>
<g fill="none" color="black" stroke="currentColor" stroke-width="1.00" stroke-linecap="butt" stroke-linejoin="miter">
	<g transform="translate(1147.1,121.0)" stroke="none" fill="black" font-family="Helvetica" font-size="12.00"  text-anchor="start">
		<text><tspan font-family="Helvetica" >Mild outliers</tspan></text>
	</g>
</g>
<g fill="none" color="black" stroke="currentColor" stroke-width="1.00" stroke-linecap="butt" stroke-linejoin="miter">
	<use xlink:href='#gpPt6' transform='translate(565.6,583.3) scale(3.38)' color='rgb(255, 127,   0)'/>
	<use xlink:href='#gpPt6' transform='translate(565.9,376.5) scale(3.38)' color='rgb(255, 127,   0)'/>
	<use xlink:href='#gpPt6' transform='translate(1117.7,117.1) scale(3.38)' color='rgb(255, 127,   0)'/>
</g>
	</g>
	<g id="gnuplot_plot_5" ><title>Severe outliers</title>
<g fill="none" color="black" stroke="currentColor" stroke-width="1.00" stroke-linecap="butt" stroke-linejoin="miter">
	<g transform="translate(1147.1,139.0)" stroke="none" fill="black" font-family="Helvetica" font-size="12.00"  text-anchor="start">
		<text><tspan font-family="Helvetica" >Severe outliers</tspan></text>
	</g>
</g>
<g fill="none" color="black" stroke="currentColor" stroke-width="1.00" stroke-linecap="butt" stroke-linejoin="miter">
	<use xlink:href='#gpPt6' transform='translate(757.1,650.2) scale(3.38)' color='rgb(227,  26,  28)'/>
	<use xlink:href='#gpPt6' transform='translate(861.0,577.2) scale(3.38)' color='rgb(227,  26,  28)'/>
	<use xlink:href='#gpPt6' transform='translate(762.0,571.2) scale(3.38)' color='rgb(227,  26,  28)'/>
	<use xlink:href='#gpPt6' transform='translate(707.8,431.2) scale(3.38)' color='rgb(227,  26,  28)'/>
	<use xlink:href='#gpPt6' transform='translate(720.0,425.2) scale(3.38)' color='rgb(227,  26,  28)'/>
	<use xlink:href='#gpPt6' transform='translate(1117.7,135.1) scale(3.38)' color='rgb(227,  26,  28)'/>
</g>
	</g>
	<g id="gnuplot_plot_6" ><title>gnuplot_plot_6</title>
<g fill="none" color="white" stroke="rgb(227,  26,  28)" stroke-width="2.00" stroke-linecap="butt" stroke-linejoin="miter">
</g>
<g fill="none" color="black" stroke="currentColor" stroke-width="2.00" stroke-linecap="butt" stroke-linejoin="miter">
	<path stroke='rgb(255, 127,   0)'  d='M142.2,662.4 L142.2,54.1  '/></g>
	</g>
	<g id="gnuplot_plot_7" ><title>gnuplot_plot_7</title>
<g fill="none" color="black" stroke="currentColor" stroke-width="2.00" stroke-linecap="butt" stroke-linejoin="miter">
	<path stroke='rgb(255, 127,   0)'  d='M454.1,662.4 L454.1,54.1  '/></g>
	</g>
	<g id="gnuplot_plot_8" ><title>gnuplot_plot_8</title>
<g fill="none" color="black" stroke="currentColor" stroke-width="2.00" stroke-linecap="butt" stroke-linejoin="miter">
</g>
	</g>
	<g id="gnuplot_plot_9" ><title>gnuplot_plot_9</title>
<g fill="none" color="black" stroke="currentColor" stroke-width="2.00" stroke-linecap="butt" stroke-linejoin="miter">
	<path stroke='rgb(227,  26,  28)'  d='M571.0,662.4 L571.0,54.1  '/></g>
	</g>
<g fill="none" color="black" stroke="currentColor" stroke-width="2.00" stroke-linecap="butt" stroke-linejoin="miter">
</g>
<g fill="none" color="black" stroke="black" stroke-width="1.00" stroke-linecap="butt" stroke-linejoin="miter">
</g>
<g fill="none" color="black" stroke="currentColor" stroke-width="1.00" stroke-linecap="butt" stroke-linejoin="miter">
	<path stroke='black'  d='M63.6,54.1 L63.6,662.4 L1012.2,662.4 L1012.2,54.1 L63.6,54.1 Z  '/></g>
<g fill="none" color="black" stroke="currentColor" stroke-width="1.00" stroke-linecap="butt" stroke-linejoin="miter">
</g>
</g>
</svg>

