group,function,value,throughput_num,throughput_type,sample_measured_value,unit,iteration_count
Parse,Standard parse default,1,,,1029527.0,ns,235467
Parse,Standard parse default,1,,,2061929.0,ns,470934
Parse,Standard parse default,1,,,3072860.0,ns,706401
Parse,Standard parse default,1,,,4430357.0,ns,941868
Parse,Standard parse default,1,,,5226292.0,ns,1177335
Parse,Standard parse default,1,,,6132936.0,ns,1412802
Parse,Standard parse default,1,,,7290775.0,ns,1648269
Parse,Standard parse default,1,,,8262933.0,ns,1883736
Parse,Standard parse default,1,,,9282400.0,ns,2119203
Parse,Standard parse default,1,,,10326134.0,ns,2354670
Parse,Standard parse default,1,,,11364837.0,ns,2590137
Parse,Standard parse default,1,,,12363066.0,ns,2825604
Parse,Standard parse default,1,,,13399085.0,ns,3061071
Parse,Standard parse default,1,,,14465118.0,ns,3296538
Parse,Standard parse default,1,,,15457236.0,ns,3532005
Parse,Standard parse default,1,,,16487544.0,ns,3767472
Parse,Standard parse default,1,,,17067801.0,ns,4002939
Parse,Standard parse default,1,,,18654772.0,ns,4238406
Parse,Standard parse default,1,,,20842869.0,ns,4473873
Parse,Standard parse default,1,,,21043499.0,ns,4709340
Parse,Standard parse default,1,,,22536321.0,ns,4944807
Parse,Standard parse default,1,,,23414210.0,ns,5180274
Parse,Standard parse default,1,,,25636022.0,ns,5415741
Parse,Standard parse default,1,,,25825771.0,ns,5651208
Parse,Standard parse default,1,,,26435453.0,ns,5886675
Parse,Standard parse default,1,,,26904861.0,ns,6122142
Parse,Standard parse default,1,,,27161475.0,ns,6357609
Parse,Standard parse default,1,,,29428483.0,ns,6593076
Parse,Standard parse default,1,,,29475161.0,ns,6828543
Parse,Standard parse default,1,,,30070004.0,ns,7064010
Parse,Standard parse default,1,,,31007828.0,ns,7299477
Parse,Standard parse default,1,,,33107598.0,ns,7534944
Parse,Standard parse default,1,,,34225021.0,ns,7770411
Parse,Standard parse default,1,,,35248977.0,ns,8005878
Parse,Standard parse default,1,,,34855433.0,ns,8241345
Parse,Standard parse default,1,,,35644495.0,ns,8476812
Parse,Standard parse default,1,,,39685746.0,ns,8712279
Parse,Standard parse default,1,,,39600615.0,ns,8947746
Parse,Standard parse default,1,,,41274150.0,ns,9183213
Parse,Standard parse default,1,,,40713169.0,ns,9418680
Parse,Standard parse default,1,,,40430135.0,ns,9654147
Parse,Standard parse default,1,,,42062700.0,ns,9889614
Parse,Standard parse default,1,,,42675308.0,ns,10125081
Parse,Standard parse default,1,,,43605819.0,ns,10360548
Parse,Standard parse default,1,,,45437461.0,ns,10596015
Parse,Standard parse default,1,,,47364937.0,ns,10831482
Parse,Standard parse default,1,,,47713645.0,ns,11066949
Parse,Standard parse default,1,,,48438825.0,ns,11302416
Parse,Standard parse default,1,,,48535389.0,ns,11537883
Parse,Standard parse default,1,,,51189237.0,ns,11773350
Parse,Standard parse default,1,,,51327929.0,ns,12008817
Parse,Standard parse default,1,,,54278618.0,ns,12244284
Parse,Standard parse default,1,,,52020599.0,ns,12479751
Parse,Standard parse default,1,,,53663275.0,ns,12715218
Parse,Standard parse default,1,,,53889823.0,ns,12950685
Parse,Standard parse default,1,,,55327491.0,ns,13186152
Parse,Standard parse default,1,,,55715845.0,ns,13421619
Parse,Standard parse default,1,,,58024520.0,ns,13657086
Parse,Standard parse default,1,,,58523693.0,ns,13892553
Parse,Standard parse default,1,,,60826880.0,ns,14128020
Parse,Standard parse default,1,,,60138357.0,ns,14363487
Parse,Standard parse default,1,,,60971492.0,ns,14598954
Parse,Standard parse default,1,,,61818625.0,ns,14834421
Parse,Standard parse default,1,,,62831478.0,ns,15069888
Parse,Standard parse default,1,,,63843944.0,ns,15305355
Parse,Standard parse default,1,,,64502138.0,ns,15540822
Parse,Standard parse default,1,,,65937170.0,ns,15776289
Parse,Standard parse default,1,,,66940599.0,ns,16011756
Parse,Standard parse default,1,,,67518001.0,ns,16247223
Parse,Standard parse default,1,,,70926325.0,ns,16482690
Parse,Standard parse default,1,,,69491241.0,ns,16718157
Parse,Standard parse default,1,,,73259367.0,ns,16953624
Parse,Standard parse default,1,,,71926465.0,ns,17189091
Parse,Standard parse default,1,,,74474043.0,ns,17424558
Parse,Standard parse default,1,,,74356620.0,ns,17660025
Parse,Standard parse default,1,,,75361180.0,ns,17895492
Parse,Standard parse default,1,,,75793567.0,ns,18130959
Parse,Standard parse default,1,,,77213743.0,ns,18366426
Parse,Standard parse default,1,,,77476869.0,ns,18601893
Parse,Standard parse default,1,,,78791565.0,ns,18837360
Parse,Standard parse default,1,,,79405207.0,ns,19072827
Parse,Standard parse default,1,,,81007355.0,ns,19308294
Parse,Standard parse default,1,,,82022806.0,ns,19543761
Parse,Standard parse default,1,,,90408019.0,ns,19779228
Parse,Standard parse default,1,,,87359947.0,ns,20014695
Parse,Standard parse default,1,,,95588614.0,ns,20250162
Parse,Standard parse default,1,,,88680854.0,ns,20485629
Parse,Standard parse default,1,,,86623965.0,ns,20721096
Parse,Standard parse default,1,,,87353735.0,ns,20956563
Parse,Standard parse default,1,,,90924526.0,ns,21192030
Parse,Standard parse default,1,,,89458164.0,ns,21427497
Parse,Standard parse default,1,,,90383965.0,ns,21662964
Parse,Standard parse default,1,,,92340604.0,ns,21898431
Parse,Standard parse default,1,,,94969886.0,ns,22133898
Parse,Standard parse default,1,,,99495942.0,ns,22369365
Parse,Standard parse default,1,,,95694776.0,ns,22604832
Parse,Standard parse default,1,,,95976217.0,ns,22840299
Parse,Standard parse default,1,,,96680881.0,ns,23075766
Parse,Standard parse default,1,,,98283720.0,ns,23311233
Parse,Standard parse default,1,,,98887884.0,ns,23546700
