group,function,value,throughput_num,throughput_type,sample_measured_value,unit,iteration_count
String trim,Standard trim,win,,,951433.0,ns,142431
String trim,Standard trim,win,,,1928424.0,ns,284862
String trim,Standard trim,win,,,2859869.0,ns,427293
String trim,Standard trim,win,,,3837472.0,ns,569724
String trim,Standard trim,win,,,4760802.0,ns,712155
String trim,Standard trim,win,,,5741039.0,ns,854586
String trim,Standard trim,win,,,6685359.0,ns,997017
String trim,Standard trim,win,,,7637915.0,ns,1139448
String trim,Standard trim,win,,,8607862.0,ns,1281879
String trim,Standard trim,win,,,9590603.0,ns,1424310
String trim,Standard trim,win,,,10506942.0,ns,1566741
String trim,Standard trim,win,,,11480737.0,ns,1709172
String trim,Standard trim,win,,,12428393.0,ns,1851603
String trim,Standard trim,win,,,13388652.0,ns,1994034
String trim,Standard trim,win,,,14338462.0,ns,2136465
String trim,Standard trim,win,,,15283994.0,ns,2278896
String trim,Standard trim,win,,,16244644.0,ns,2421327
String trim,Standard trim,win,,,17213330.0,ns,2563758
String trim,Standard trim,win,,,18144796.0,ns,2706189
String trim,Standard trim,win,,,19122637.0,ns,2848620
String trim,Standard trim,win,,,20079341.0,ns,2991051
String trim,Standard trim,win,,,21041375.0,ns,3133482
String trim,Standard trim,win,,,22039685.0,ns,3275913
String trim,Standard trim,win,,,23005567.0,ns,3418344
String trim,Standard trim,win,,,23871887.0,ns,3560775
String trim,Standard trim,win,,,25627255.0,ns,3703206
String trim,Standard trim,win,,,25802777.0,ns,3845637
String trim,Standard trim,win,,,26780580.0,ns,3988068
String trim,Standard trim,win,,,27792468.0,ns,4130499
String trim,Standard trim,win,,,28669429.0,ns,4272930
String trim,Standard trim,win,,,29746741.0,ns,4415361
String trim,Standard trim,win,,,30685530.0,ns,4557792
String trim,Standard trim,win,,,31536724.0,ns,4700223
String trim,Standard trim,win,,,32479981.0,ns,4842654
String trim,Standard trim,win,,,33451251.0,ns,4985085
String trim,Standard trim,win,,,34394859.0,ns,5127516
String trim,Standard trim,win,,,35354688.0,ns,5269947
String trim,Standard trim,win,,,36317403.0,ns,5412378
String trim,Standard trim,win,,,37297440.0,ns,5554809
String trim,Standard trim,win,,,38204389.0,ns,5697240
String trim,Standard trim,win,,,39655920.0,ns,5839671
String trim,Standard trim,win,,,40194420.0,ns,5982102
String trim,Standard trim,win,,,41089917.0,ns,6124533
String trim,Standard trim,win,,,42032934.0,ns,6266964
String trim,Standard trim,win,,,43029773.0,ns,6409395
String trim,Standard trim,win,,,43956930.0,ns,6551826
String trim,Standard trim,win,,,45048960.0,ns,6694257
String trim,Standard trim,win,,,45885585.0,ns,6836688
String trim,Standard trim,win,,,47769284.0,ns,6979119
String trim,Standard trim,win,,,50422271.0,ns,7121550
String trim,Standard trim,win,,,49936251.0,ns,7263981
String trim,Standard trim,win,,,50198018.0,ns,7406412
String trim,Standard trim,win,,,51115395.0,ns,7548843
String trim,Standard trim,win,,,51714671.0,ns,7691274
String trim,Standard trim,win,,,52373148.0,ns,7833705
String trim,Standard trim,win,,,53444359.0,ns,7976136
String trim,Standard trim,win,,,54450785.0,ns,8118567
String trim,Standard trim,win,,,55423218.0,ns,8260998
String trim,Standard trim,win,,,56380423.0,ns,8403429
String trim,Standard trim,win,,,57333709.0,ns,8545860
String trim,Standard trim,win,,,58893885.0,ns,8688291
String trim,Standard trim,win,,,59715713.0,ns,8830722
String trim,Standard trim,win,,,65236294.0,ns,8973153
String trim,Standard trim,win,,,67496659.0,ns,9115584
String trim,Standard trim,win,,,68523193.0,ns,9258015
String trim,Standard trim,win,,,69603320.0,ns,9400446
String trim,Standard trim,win,,,70815949.0,ns,9542877
String trim,Standard trim,win,,,71432777.0,ns,9685308
String trim,Standard trim,win,,,72900609.0,ns,9827739
String trim,Standard trim,win,,,69244720.0,ns,9970170
String trim,Standard trim,win,,,70147732.0,ns,10112601
String trim,Standard trim,win,,,71404875.0,ns,10255032
String trim,Standard trim,win,,,88215180.0,ns,10397463
String trim,Standard trim,win,,,76691431.0,ns,10539894
String trim,Standard trim,win,,,73354820.0,ns,10682325
String trim,Standard trim,win,,,72993524.0,ns,10824756
String trim,Standard trim,win,,,73588031.0,ns,10967187
String trim,Standard trim,win,,,78800358.0,ns,11109618
String trim,Standard trim,win,,,80612472.0,ns,11252049
String trim,Standard trim,win,,,78013958.0,ns,11394480
String trim,Standard trim,win,,,81857552.0,ns,11536911
String trim,Standard trim,win,,,82314037.0,ns,11679342
String trim,Standard trim,win,,,79299754.0,ns,11821773
String trim,Standard trim,win,,,80266436.0,ns,11964204
String trim,Standard trim,win,,,81247354.0,ns,12106635
String trim,Standard trim,win,,,82195572.0,ns,12249066
String trim,Standard trim,win,,,83183975.0,ns,12391497
String trim,Standard trim,win,,,84411110.0,ns,12533928
String trim,Standard trim,win,,,85966819.0,ns,12676359
String trim,Standard trim,win,,,88939541.0,ns,12818790
String trim,Standard trim,win,,,87125455.0,ns,12961221
String trim,Standard trim,win,,,89554136.0,ns,13103652
String trim,Standard trim,win,,,89903530.0,ns,13246083
String trim,Standard trim,win,,,90095762.0,ns,13388514
String trim,Standard trim,win,,,90949220.0,ns,13530945
String trim,Standard trim,win,,,92561916.0,ns,13673376
String trim,Standard trim,win,,,93299494.0,ns,13815807
String trim,Standard trim,win,,,94049244.0,ns,13958238
String trim,Standard trim,win,,,94776152.0,ns,14100669
String trim,Standard trim,win,,,95677790.0,ns,14243100
