group,function,value,throughput_num,throughput_type,sample_measured_value,unit,iteration_count
Parse,Standard parse default,9999999999,,,943347.0,ns,94148
Parse,Standard parse default,9999999999,,,1886575.0,ns,188296
Parse,Standard parse default,9999999999,,,2839462.0,ns,282444
Parse,Standard parse default,9999999999,,,3935779.0,ns,376592
Parse,Standard parse default,9999999999,,,4804846.0,ns,470740
Parse,Standard parse default,9999999999,,,5695354.0,ns,564888
Parse,Standard parse default,9999999999,,,7185538.0,ns,659036
Parse,Standard parse default,9999999999,,,8815737.0,ns,753184
Parse,Standard parse default,9999999999,,,10124837.0,ns,847332
Parse,Standard parse default,9999999999,,,10040860.0,ns,941480
Parse,Standard parse default,9999999999,,,10583186.0,ns,1035628
Parse,Standard parse default,9999999999,,,11264899.0,ns,1129776
Parse,Standard parse default,9999999999,,,12566045.0,ns,1223924
Parse,Standard parse default,9999999999,,,13059210.0,ns,1318072
Parse,Standard parse default,9999999999,,,15990645.0,ns,1412220
Parse,Standard parse default,9999999999,,,15706607.0,ns,1506368
Parse,Standard parse default,9999999999,,,16481655.0,ns,1600516
Parse,Standard parse default,9999999999,,,18573821.0,ns,1694664
Parse,Standard parse default,9999999999,,,18402185.0,ns,1788812
Parse,Standard parse default,9999999999,,,20783358.0,ns,1882960
Parse,Standard parse default,9999999999,,,22410852.0,ns,1977108
Parse,Standard parse default,9999999999,,,21882911.0,ns,2071256
Parse,Standard parse default,9999999999,,,22626481.0,ns,2165404
Parse,Standard parse default,9999999999,,,23639520.0,ns,2259552
Parse,Standard parse default,9999999999,,,24815508.0,ns,2353700
Parse,Standard parse default,9999999999,,,25557797.0,ns,2447848
Parse,Standard parse default,9999999999,,,25882360.0,ns,2541996
Parse,Standard parse default,9999999999,,,28559776.0,ns,2636144
Parse,Standard parse default,9999999999,,,28547572.0,ns,2730292
Parse,Standard parse default,9999999999,,,32102710.0,ns,2824440
Parse,Standard parse default,9999999999,,,30619900.0,ns,2918588
Parse,Standard parse default,9999999999,,,32596766.0,ns,3012736
Parse,Standard parse default,9999999999,,,33080753.0,ns,3106884
Parse,Standard parse default,9999999999,,,33445054.0,ns,3201032
Parse,Standard parse default,9999999999,,,34873641.0,ns,3295180
Parse,Standard parse default,9999999999,,,35114316.0,ns,3389328
Parse,Standard parse default,9999999999,,,35125278.0,ns,3483476
Parse,Standard parse default,9999999999,,,36572270.0,ns,3577624
Parse,Standard parse default,9999999999,,,39363820.0,ns,3671772
Parse,Standard parse default,9999999999,,,39263811.0,ns,3765920
Parse,Standard parse default,9999999999,,,40359838.0,ns,3860068
Parse,Standard parse default,9999999999,,,41777746.0,ns,3954216
Parse,Standard parse default,9999999999,,,41758769.0,ns,4048364
Parse,Standard parse default,9999999999,,,42707126.0,ns,4142512
Parse,Standard parse default,9999999999,,,43778989.0,ns,4236660
Parse,Standard parse default,9999999999,,,47848140.0,ns,4330808
Parse,Standard parse default,9999999999,,,46087341.0,ns,4424956
Parse,Standard parse default,9999999999,,,45188640.0,ns,4519104
Parse,Standard parse default,9999999999,,,48095177.0,ns,4613252
Parse,Standard parse default,9999999999,,,48504644.0,ns,4707400
Parse,Standard parse default,9999999999,,,51074814.0,ns,4801548
Parse,Standard parse default,9999999999,,,52208764.0,ns,4895696
Parse,Standard parse default,9999999999,,,55227275.0,ns,4989844
Parse,Standard parse default,9999999999,,,51653642.0,ns,5083992
Parse,Standard parse default,9999999999,,,54886327.0,ns,5178140
Parse,Standard parse default,9999999999,,,58749971.0,ns,5272288
Parse,Standard parse default,9999999999,,,57814957.0,ns,5366436
Parse,Standard parse default,9999999999,,,58125416.0,ns,5460584
Parse,Standard parse default,9999999999,,,58535654.0,ns,5554732
Parse,Standard parse default,9999999999,,,60425235.0,ns,5648880
Parse,Standard parse default,9999999999,,,61035602.0,ns,5743028
Parse,Standard parse default,9999999999,,,62199567.0,ns,5837176
Parse,Standard parse default,9999999999,,,61737782.0,ns,5931324
Parse,Standard parse default,9999999999,,,62897701.0,ns,6025472
Parse,Standard parse default,9999999999,,,64979506.0,ns,6119620
Parse,Standard parse default,9999999999,,,65744625.0,ns,6213768
Parse,Standard parse default,9999999999,,,66029836.0,ns,6307916
Parse,Standard parse default,9999999999,,,68277015.0,ns,6402064
Parse,Standard parse default,9999999999,,,70728552.0,ns,6496212
Parse,Standard parse default,9999999999,,,71526222.0,ns,6590360
Parse,Standard parse default,9999999999,,,67444146.0,ns,6684508
Parse,Standard parse default,9999999999,,,71628507.0,ns,6778656
Parse,Standard parse default,9999999999,,,71358704.0,ns,6872804
Parse,Standard parse default,9999999999,,,74164523.0,ns,6966952
Parse,Standard parse default,9999999999,,,75344878.0,ns,7061100
Parse,Standard parse default,9999999999,,,73714380.0,ns,7155248
Parse,Standard parse default,9999999999,,,73928965.0,ns,7249396
Parse,Standard parse default,9999999999,,,77882469.0,ns,7343544
Parse,Standard parse default,9999999999,,,78407502.0,ns,7437692
Parse,Standard parse default,9999999999,,,78179041.0,ns,7531840
Parse,Standard parse default,9999999999,,,79720080.0,ns,7625988
Parse,Standard parse default,9999999999,,,80341088.0,ns,7720136
Parse,Standard parse default,9999999999,,,83071882.0,ns,7814284
Parse,Standard parse default,9999999999,,,84317824.0,ns,7908432
Parse,Standard parse default,9999999999,,,84045898.0,ns,8002580
Parse,Standard parse default,9999999999,,,85233730.0,ns,8096728
Parse,Standard parse default,9999999999,,,90904136.0,ns,8190876
Parse,Standard parse default,9999999999,,,88819906.0,ns,8285024
Parse,Standard parse default,9999999999,,,90096043.0,ns,8379172
Parse,Standard parse default,9999999999,,,93012211.0,ns,8473320
Parse,Standard parse default,9999999999,,,89744468.0,ns,8567468
Parse,Standard parse default,9999999999,,,92292216.0,ns,8661616
Parse,Standard parse default,9999999999,,,91273765.0,ns,8755764
Parse,Standard parse default,9999999999,,,91589775.0,ns,8849912
Parse,Standard parse default,9999999999,,,92748730.0,ns,8944060
Parse,Standard parse default,9999999999,,,91987629.0,ns,9038208
Parse,Standard parse default,9999999999,,,95910812.0,ns,9132356
Parse,Standard parse default,9999999999,,,95771279.0,ns,9226504
Parse,Standard parse default,9999999999,,,97648477.0,ns,9320652
Parse,Standard parse default,9999999999,,,98740946.0,ns,9414800
