group,function,value,throughput_num,throughput_type,sample_measured_value,unit,iteration_count
String trim,std::io::Lines algo,unix,,,890277.0,ns,280932
String trim,std::io::Lines algo,unix,,,2349911.0,ns,561864
String trim,std::io::Lines algo,unix,,,3332785.0,ns,842796
String trim,std::io::Lines algo,unix,,,3833011.0,ns,1123728
String trim,std::io::Lines algo,unix,,,6368666.0,ns,1404660
String trim,std::io::Lines algo,unix,,,7682764.0,ns,1685592
String trim,std::io::Lines algo,unix,,,7812441.0,ns,1966524
String trim,std::io::Lines algo,unix,,,8637102.0,ns,2247456
String trim,std::io::Lines algo,unix,,,8083504.0,ns,2528388
String trim,std::io::Lines algo,unix,,,9960871.0,ns,2809320
String trim,std::io::Lines algo,unix,,,10682798.0,ns,3090252
String trim,std::io::Lines algo,unix,,,11727436.0,ns,3371184
String trim,std::io::Lines algo,unix,,,12323807.0,ns,3652116
String trim,std::io::Lines algo,unix,,,13820182.0,ns,3933048
String trim,std::io::Lines algo,unix,,,15117840.0,ns,4213980
String trim,std::io::Lines algo,unix,,,14393689.0,ns,4494912
String trim,std::io::Lines algo,unix,,,15151524.0,ns,4775844
String trim,std::io::Lines algo,unix,,,17036515.0,ns,5056776
String trim,std::io::Lines algo,unix,,,17910430.0,ns,5337708
String trim,std::io::Lines algo,unix,,,18643138.0,ns,5618640
String trim,std::io::Lines algo,unix,,,19595233.0,ns,5899572
String trim,std::io::Lines algo,unix,,,19899209.0,ns,6180504
String trim,std::io::Lines algo,unix,,,21866845.0,ns,6461436
String trim,std::io::Lines algo,unix,,,21640127.0,ns,6742368
String trim,std::io::Lines algo,unix,,,23576394.0,ns,7023300
String trim,std::io::Lines algo,unix,,,27623823.0,ns,7304232
String trim,std::io::Lines algo,unix,,,31215827.0,ns,7585164
String trim,std::io::Lines algo,unix,,,32042904.0,ns,7866096
String trim,std::io::Lines algo,unix,,,28061552.0,ns,8147028
String trim,std::io::Lines algo,unix,,,33316417.0,ns,8427960
String trim,std::io::Lines algo,unix,,,37214180.0,ns,8708892
String trim,std::io::Lines algo,unix,,,35323659.0,ns,8989824
String trim,std::io::Lines algo,unix,,,35299875.0,ns,9270756
String trim,std::io::Lines algo,unix,,,38017493.0,ns,9551688
String trim,std::io::Lines algo,unix,,,36052479.0,ns,9832620
String trim,std::io::Lines algo,unix,,,37476989.0,ns,10113552
String trim,std::io::Lines algo,unix,,,35003784.0,ns,10394484
String trim,std::io::Lines algo,unix,,,36307283.0,ns,10675416
String trim,std::io::Lines algo,unix,,,36009067.0,ns,10956348
String trim,std::io::Lines algo,unix,,,37083583.0,ns,11237280
String trim,std::io::Lines algo,unix,,,37279866.0,ns,11518212
String trim,std::io::Lines algo,unix,,,38449641.0,ns,11799144
String trim,std::io::Lines algo,unix,,,43018928.0,ns,12080076
String trim,std::io::Lines algo,unix,,,47229986.0,ns,12361008
String trim,std::io::Lines algo,unix,,,44074837.0,ns,12641940
String trim,std::io::Lines algo,unix,,,48176580.0,ns,12922872
String trim,std::io::Lines algo,unix,,,50267739.0,ns,13203804
String trim,std::io::Lines algo,unix,,,50384952.0,ns,13484736
String trim,std::io::Lines algo,unix,,,52097817.0,ns,13765668
String trim,std::io::Lines algo,unix,,,57699349.0,ns,14046600
String trim,std::io::Lines algo,unix,,,57531991.0,ns,14327532
String trim,std::io::Lines algo,unix,,,58050805.0,ns,14608464
String trim,std::io::Lines algo,unix,,,58271533.0,ns,14889396
String trim,std::io::Lines algo,unix,,,61943168.0,ns,15170328
String trim,std::io::Lines algo,unix,,,62513169.0,ns,15451260
String trim,std::io::Lines algo,unix,,,59664081.0,ns,15732192
String trim,std::io::Lines algo,unix,,,65969406.0,ns,16013124
String trim,std::io::Lines algo,unix,,,65896819.0,ns,16294056
String trim,std::io::Lines algo,unix,,,60028331.0,ns,16574988
String trim,std::io::Lines algo,unix,,,64336924.0,ns,16855920
String trim,std::io::Lines algo,unix,,,60949387.0,ns,17136852
String trim,std::io::Lines algo,unix,,,74536877.0,ns,17417784
String trim,std::io::Lines algo,unix,,,71474725.0,ns,17698716
String trim,std::io::Lines algo,unix,,,75737140.0,ns,17979648
String trim,std::io::Lines algo,unix,,,71215715.0,ns,18260580
String trim,std::io::Lines algo,unix,,,71823034.0,ns,18541512
String trim,std::io::Lines algo,unix,,,88444484.0,ns,18822444
String trim,std::io::Lines algo,unix,,,88014870.0,ns,19103376
String trim,std::io::Lines algo,unix,,,78480337.0,ns,19384308
String trim,std::io::Lines algo,unix,,,79543902.0,ns,19665240
String trim,std::io::Lines algo,unix,,,80236023.0,ns,19946172
String trim,std::io::Lines algo,unix,,,73833023.0,ns,20227104
String trim,std::io::Lines algo,unix,,,84750926.0,ns,20508036
String trim,std::io::Lines algo,unix,,,83748698.0,ns,20788968
String trim,std::io::Lines algo,unix,,,82517245.0,ns,21069900
String trim,std::io::Lines algo,unix,,,85206108.0,ns,21350832
String trim,std::io::Lines algo,unix,,,76494575.0,ns,21631764
String trim,std::io::Lines algo,unix,,,87172844.0,ns,21912696
String trim,std::io::Lines algo,unix,,,83768496.0,ns,22193628
String trim,std::io::Lines algo,unix,,,79546315.0,ns,22474560
String trim,std::io::Lines algo,unix,,,78257244.0,ns,22755492
String trim,std::io::Lines algo,unix,,,86449083.0,ns,23036424
String trim,std::io::Lines algo,unix,,,94368857.0,ns,23317356
String trim,std::io::Lines algo,unix,,,93749513.0,ns,23598288
String trim,std::io::Lines algo,unix,,,92312451.0,ns,23879220
String trim,std::io::Lines algo,unix,,,90637076.0,ns,24160152
String trim,std::io::Lines algo,unix,,,79517562.0,ns,24441084
String trim,std::io::Lines algo,unix,,,85904420.0,ns,24722016
String trim,std::io::Lines algo,unix,,,94538218.0,ns,25002948
String trim,std::io::Lines algo,unix,,,93077289.0,ns,25283880
String trim,std::io::Lines algo,unix,,,92853815.0,ns,25564812
String trim,std::io::Lines algo,unix,,,97435074.0,ns,25845744
String trim,std::io::Lines algo,unix,,,93622673.0,ns,26126676
String trim,std::io::Lines algo,unix,,,105917765.0,ns,26407608
String trim,std::io::Lines algo,unix,,,101097643.0,ns,26688540
String trim,std::io::Lines algo,unix,,,103645950.0,ns,26969472
String trim,std::io::Lines algo,unix,,,109158274.0,ns,27250404
String trim,std::io::Lines algo,unix,,,111723824.0,ns,27531336
String trim,std::io::Lines algo,unix,,,112759124.0,ns,27812268
String trim,std::io::Lines algo,unix,,,115216700.0,ns,28093200
