<?xml version="1.0" encoding="utf-8"  standalone="no"?>
<svg 
 viewBox="0 0 450 300"
 xmlns="http://www.w3.org/2000/svg"
 xmlns:xlink="http://www.w3.org/1999/xlink"
>

<title>Gnuplot</title>
<desc>Produced by GNUPLOT 5.2 patchlevel 8 </desc>

<g id="gnuplot_canvas">

<rect x="0" y="0" width="450" height="300" fill="none"/>
<defs>

	<circle id='gpDot' r='0.5' stroke-width='0.5' stroke='currentColor'/>
	<path id='gpPt0' stroke-width='0.222' stroke='currentColor' d='M-1,0 h2 M0,-1 v2'/>
	<path id='gpPt1' stroke-width='0.222' stroke='currentColor' d='M-1,-1 L1,1 M1,-1 L-1,1'/>
	<path id='gpPt2' stroke-width='0.222' stroke='currentColor' d='M-1,0 L1,0 M0,-1 L0,1 M-1,-1 L1,1 M-1,1 L1,-1'/>
	<rect id='gpPt3' stroke-width='0.222' stroke='currentColor' x='-1' y='-1' width='2' height='2'/>
	<rect id='gpPt4' stroke-width='0.222' stroke='currentColor' fill='currentColor' x='-1' y='-1' width='2' height='2'/>
	<circle id='gpPt5' stroke-width='0.222' stroke='currentColor' cx='0' cy='0' r='1'/>
	<use xlink:href='#gpPt5' id='gpPt6' fill='currentColor' stroke='none'/>
	<path id='gpPt7' stroke-width='0.222' stroke='currentColor' d='M0,-1.33 L-1.33,0.67 L1.33,0.67 z'/>
	<use xlink:href='#gpPt7' id='gpPt8' fill='currentColor' stroke='none'/>
	<use xlink:href='#gpPt7' id='gpPt9' stroke='currentColor' transform='rotate(180)'/>
	<use xlink:href='#gpPt9' id='gpPt10' fill='currentColor' stroke='none'/>
	<use xlink:href='#gpPt3' id='gpPt11' stroke='currentColor' transform='rotate(45)'/>
	<use xlink:href='#gpPt11' id='gpPt12' fill='currentColor' stroke='none'/>
	<path id='gpPt13' stroke-width='0.222' stroke='currentColor' d='M0,1.330 L1.265,0.411 L0.782,-1.067 L-0.782,-1.076 L-1.265,0.411 z'/>
	<use xlink:href='#gpPt13' id='gpPt14' fill='currentColor' stroke='none'/>
	<filter id='textbox' filterUnits='objectBoundingBox' x='0' y='0' height='1' width='1'>
	  <feFlood flood-color='white' flood-opacity='1' result='bgnd'/>
	  <feComposite in='SourceGraphic' in2='bgnd' operator='atop'/>
	</filter>
	<filter id='greybox' filterUnits='objectBoundingBox' x='0' y='0' height='1' width='1'>
	  <feFlood flood-color='lightgrey' flood-opacity='1' result='grey'/>
	  <feComposite in='SourceGraphic' in2='grey' operator='atop'/>
	</filter>
</defs>
<g fill="none" color="white" stroke="currentColor" stroke-width="1.00" stroke-linecap="butt" stroke-linejoin="miter">
</g>
<g fill="none" color="black" stroke="currentColor" stroke-width="1.00" stroke-linecap="butt" stroke-linejoin="miter">
	<path stroke='black'  d='M71.9,242.4 L80.9,242.4  '/>	<g transform="translate(63.6,246.3)" stroke="none" fill="black" font-family="Helvetica" font-size="12.00"  text-anchor="end">
		<text><tspan font-family="Helvetica" > 0</tspan></text>
	</g>
</g>
<g fill="none" color="black" stroke="currentColor" stroke-width="1.00" stroke-linecap="butt" stroke-linejoin="miter">
	<path stroke='black'  d='M71.9,192.7 L80.9,192.7  '/>	<g transform="translate(63.6,196.6)" stroke="none" fill="black" font-family="Helvetica" font-size="12.00"  text-anchor="end">
		<text><tspan font-family="Helvetica" > 0.5</tspan></text>
	</g>
</g>
<g fill="none" color="black" stroke="currentColor" stroke-width="1.00" stroke-linecap="butt" stroke-linejoin="miter">
	<path stroke='black'  d='M71.9,143.0 L80.9,143.0  '/>	<g transform="translate(63.6,146.9)" stroke="none" fill="black" font-family="Helvetica" font-size="12.00"  text-anchor="end">
		<text><tspan font-family="Helvetica" > 1</tspan></text>
	</g>
</g>
<g fill="none" color="black" stroke="currentColor" stroke-width="1.00" stroke-linecap="butt" stroke-linejoin="miter">
	<path stroke='black'  d='M71.9,93.2 L80.9,93.2  '/>	<g transform="translate(63.6,97.1)" stroke="none" fill="black" font-family="Helvetica" font-size="12.00"  text-anchor="end">
		<text><tspan font-family="Helvetica" > 1.5</tspan></text>
	</g>
</g>
<g fill="none" color="black" stroke="currentColor" stroke-width="1.00" stroke-linecap="butt" stroke-linejoin="miter">
	<path stroke='black'  d='M71.9,43.5 L80.9,43.5  '/>	<g transform="translate(63.6,47.4)" stroke="none" fill="black" font-family="Helvetica" font-size="12.00"  text-anchor="end">
		<text><tspan font-family="Helvetica" > 2</tspan></text>
	</g>
</g>
<g fill="none" color="black" stroke="currentColor" stroke-width="1.00" stroke-linecap="butt" stroke-linejoin="miter">
	<path stroke='black'  d='M94.3,242.4 L94.3,233.4  '/>	<g transform="translate(94.3,264.3)" stroke="none" fill="black" font-family="Helvetica" font-size="12.00"  text-anchor="middle">
		<text><tspan font-family="Helvetica" > 5.4</tspan></text>
	</g>
</g>
<g fill="none" color="black" stroke="currentColor" stroke-width="1.00" stroke-linecap="butt" stroke-linejoin="miter">
	<path stroke='black'  d='M139.4,242.4 L139.4,233.4  '/>	<g transform="translate(139.4,264.3)" stroke="none" fill="black" font-family="Helvetica" font-size="12.00"  text-anchor="middle">
		<text><tspan font-family="Helvetica" > 5.6</tspan></text>
	</g>
</g>
<g fill="none" color="black" stroke="currentColor" stroke-width="1.00" stroke-linecap="butt" stroke-linejoin="miter">
	<path stroke='black'  d='M184.5,242.4 L184.5,233.4  '/>	<g transform="translate(184.5,264.3)" stroke="none" fill="black" font-family="Helvetica" font-size="12.00"  text-anchor="middle">
		<text><tspan font-family="Helvetica" > 5.8</tspan></text>
	</g>
</g>
<g fill="none" color="black" stroke="currentColor" stroke-width="1.00" stroke-linecap="butt" stroke-linejoin="miter">
	<path stroke='black'  d='M229.7,242.4 L229.7,233.4  '/>	<g transform="translate(229.7,264.3)" stroke="none" fill="black" font-family="Helvetica" font-size="12.00"  text-anchor="middle">
		<text><tspan font-family="Helvetica" > 6</tspan></text>
	</g>
</g>
<g fill="none" color="black" stroke="currentColor" stroke-width="1.00" stroke-linecap="butt" stroke-linejoin="miter">
	<path stroke='black'  d='M274.8,242.4 L274.8,233.4  '/>	<g transform="translate(274.8,264.3)" stroke="none" fill="black" font-family="Helvetica" font-size="12.00"  text-anchor="middle">
		<text><tspan font-family="Helvetica" > 6.2</tspan></text>
	</g>
</g>
<g fill="none" color="black" stroke="currentColor" stroke-width="1.00" stroke-linecap="butt" stroke-linejoin="miter">
	<path stroke='black'  d='M319.9,242.4 L319.9,233.4  '/>	<g transform="translate(319.9,264.3)" stroke="none" fill="black" font-family="Helvetica" font-size="12.00"  text-anchor="middle">
		<text><tspan font-family="Helvetica" > 6.4</tspan></text>
	</g>
</g>
<g fill="none" color="black" stroke="currentColor" stroke-width="1.00" stroke-linecap="butt" stroke-linejoin="miter">
	<path stroke='black'  d='M365.1,242.4 L365.1,233.4  '/>	<g transform="translate(365.1,264.3)" stroke="none" fill="black" font-family="Helvetica" font-size="12.00"  text-anchor="middle">
		<text><tspan font-family="Helvetica" > 6.6</tspan></text>
	</g>
</g>
<g fill="none" color="black" stroke="currentColor" stroke-width="1.00" stroke-linecap="butt" stroke-linejoin="miter">
	<path stroke='black'  d='M410.2,242.4 L410.2,233.4  '/>	<g transform="translate(410.2,264.3)" stroke="none" fill="black" font-family="Helvetica" font-size="12.00"  text-anchor="middle">
		<text><tspan font-family="Helvetica" > 6.8</tspan></text>
	</g>
</g>
<g fill="none" color="black" stroke="currentColor" stroke-width="1.00" stroke-linecap="butt" stroke-linejoin="miter">
</g>
<g fill="none" color="black" stroke="currentColor" stroke-width="1.00" stroke-linecap="butt" stroke-linejoin="miter">
	<path stroke='black'  d='M71.9,18.1 L71.9,242.4 L425.0,242.4 L425.0,18.1 L71.9,18.1 Z  '/></g>
<g fill="none" color="black" stroke="currentColor" stroke-width="1.00" stroke-linecap="butt" stroke-linejoin="miter">
	<g transform="translate(19.0,130.3) rotate(270)" stroke="none" fill="black" font-family="Helvetica" font-size="12.00"  text-anchor="middle">
		<text><tspan font-family="Helvetica" >Density (a.u.)</tspan></text>
	</g>
</g>
<g fill="none" color="black" stroke="currentColor" stroke-width="1.00" stroke-linecap="butt" stroke-linejoin="miter">
	<g transform="translate(248.4,291.3)" stroke="none" fill="black" font-family="Helvetica" font-size="12.00"  text-anchor="middle">
		<text><tspan font-family="Helvetica" >Average time (ns)</tspan></text>
	</g>
</g>
<g fill="none" color="black" stroke="currentColor" stroke-width="1.00" stroke-linecap="butt" stroke-linejoin="miter">
</g>
	<g id="gnuplot_plot_1" ><title>PDF</title>
<g fill="none" color="black" stroke="currentColor" stroke-width="1.00" stroke-linecap="butt" stroke-linejoin="miter">
	<g stroke='none' shape-rendering='crispEdges'>
		<polygon fill = 'rgb( 31, 120, 180)' fill-opacity = '0.250000' points = '71.9,242.2 72.6,242.1 73.3,242.1 74.0,242.1 74.7,242.0 75.4,242.0 76.1,241.9 76.9,241.9 77.6,241.8 78.3,241.7 79.0,241.7 79.7,241.6 80.4,241.5 81.1,241.4 81.8,241.3 82.5,241.2
83.2,241.0 83.9,240.9 84.6,240.8 85.3,240.6 86.1,240.4 86.8,240.2 87.5,240.0 88.2,239.8 88.9,239.5 89.6,239.3 90.3,239.0 91.0,238.7 91.7,238.3 92.4,238.0 93.1,237.6 93.8,237.2
94.5,236.7 95.3,236.3 96.0,235.7 96.7,235.2 97.4,234.6 98.1,234.0 98.8,233.3 99.5,232.7 100.2,231.9 100.9,231.1 101.6,230.3 102.3,229.4 103.0,228.5 103.7,227.5 104.5,226.5 105.2,225.4
105.9,224.2 106.6,223.0 107.3,221.7 108.0,220.4 108.7,219.0 109.4,217.6 110.1,216.0 110.8,214.5 111.5,212.8 112.2,211.1 112.9,209.3 113.6,207.5 114.4,205.5 115.1,203.5 115.8,201.5 116.5,199.3
117.2,197.1 117.9,194.9 118.6,192.5 119.3,190.1 120.0,187.7 120.7,185.1 121.4,182.5 122.1,179.9 122.8,177.1 123.6,174.4 124.3,171.5 125.0,168.6 125.7,165.7 126.4,162.7 127.1,159.6 127.8,156.6
128.5,153.4 129.2,150.3 129.9,147.1 130.6,143.8 131.3,140.6 132.0,137.3 132.8,133.9 133.5,130.6 134.2,127.3 134.9,123.9 135.6,120.6 136.3,117.2 137.0,113.8 137.7,110.5 138.4,107.2 139.1,103.8
139.8,100.5 140.5,97.2 141.2,94.0 142.0,90.7 142.7,87.5 143.4,84.4 144.1,81.3 144.8,78.2 145.5,75.1 146.2,72.2 146.9,69.3 147.6,66.4 148.3,63.6 149.0,60.9 149.7,58.2 150.4,55.6
151.2,53.1 151.9,50.6 152.6,48.2 153.3,45.9 154.0,43.7 154.7,41.6 155.4,39.6 156.1,37.6 156.8,35.7 157.5,34.0 158.2,32.3 158.9,30.7 159.6,29.2 160.4,27.8 161.1,26.5 161.8,25.2
162.5,24.1 163.2,23.1 163.9,22.2 164.6,21.3 165.3,20.6 166.0,20.0 166.7,19.4 167.4,19.0 168.1,18.6 168.8,18.3 169.6,18.2 170.3,18.1 171.0,18.1 171.7,18.2 172.4,18.4 173.1,18.7
173.8,19.1 174.5,19.5 175.2,20.1 175.9,20.7 176.6,21.4 177.3,22.2 178.0,23.1 178.7,24.0 179.5,25.0 180.2,26.1 180.9,27.3 181.6,28.5 182.3,29.8 183.0,31.2 183.7,32.6 184.4,34.1
185.1,35.6 185.8,37.2 186.5,38.8 187.2,40.5 187.9,42.2 188.7,44.0 189.4,45.8 190.1,47.7 190.8,49.6 191.5,51.5 192.2,53.5 192.9,55.5 193.6,57.5 194.3,59.5 195.0,61.6 195.7,63.6
196.4,65.7 197.1,67.8 197.9,69.9 198.6,72.0 199.3,74.1 200.0,76.2 200.7,78.2 201.4,80.3 202.1,82.4 202.8,84.4 203.5,86.5 204.2,88.5 204.9,90.5 205.6,92.4 206.3,94.4 207.1,96.3
207.8,98.1 208.5,100.0 209.2,101.8 209.9,103.5 210.6,105.2 211.3,106.9 212.0,108.5 212.7,110.1 213.4,111.6 214.1,113.1 214.8,114.5 215.5,115.9 216.3,117.2 217.0,118.5 217.7,119.7 218.4,120.9
219.1,122.0 219.8,123.0 220.5,124.0 221.2,125.0 221.9,125.9 222.6,126.7 223.3,127.5 224.0,128.2 224.7,128.9 225.5,129.5 226.2,130.1 226.9,130.7 227.6,131.2 228.3,131.6 229.0,132.1 229.7,132.5
230.4,132.8 231.1,133.2 231.8,133.5 232.5,133.7 233.2,134.0 233.9,134.2 234.7,134.5 235.4,134.7 236.1,134.9 236.8,135.1 237.5,135.3 238.2,135.5 238.9,135.7 239.6,135.9 240.3,136.2 241.0,136.4
241.7,136.7 242.4,137.0 243.1,137.3 243.9,137.6 244.6,137.9 245.3,138.3 246.0,138.7 246.7,139.2 247.4,139.7 248.1,140.2 248.8,140.8 249.5,141.4 250.2,142.0 250.9,142.7 251.6,143.4 252.3,144.2
253.0,145.0 253.8,145.9 254.5,146.8 255.2,147.7 255.9,148.7 256.6,149.8 257.3,150.8 258.0,152.0 258.7,153.1 259.4,154.3 260.1,155.6 260.8,156.8 261.5,158.1 262.2,159.5 263.0,160.8 263.7,162.2
264.4,163.7 265.1,165.1 265.8,166.6 266.5,168.0 267.2,169.5 267.9,171.0 268.6,172.6 269.3,174.1 270.0,175.6 270.7,177.1 271.4,178.7 272.2,180.2 272.9,181.7 273.6,183.2 274.3,184.7 275.0,186.2
275.7,187.7 276.4,189.2 277.1,190.6 277.8,192.0 278.5,193.4 279.2,194.8 279.9,196.1 280.6,197.4 281.4,198.7 282.1,199.9 282.8,201.1 283.5,202.3 284.2,203.4 284.9,204.5 285.6,205.6 286.3,206.6
287.0,207.6 287.7,208.5 288.4,209.4 289.1,210.3 289.8,211.1 290.6,211.9 291.3,212.6 292.0,213.3 292.7,214.0 293.4,214.6 294.1,215.2 294.8,215.7 295.5,216.2 296.2,216.7 296.9,217.1 297.6,217.5
298.3,217.9 299.0,218.2 299.8,218.6 300.5,218.8 301.2,219.1 301.9,219.3 302.6,219.5 303.3,219.7 304.0,219.9 304.7,220.1 305.4,220.2 306.1,220.3 306.8,220.4 307.5,220.5 308.2,220.6 309.0,220.7
309.7,220.8 310.4,220.8 311.1,220.9 311.8,221.0 312.5,221.0 313.2,221.1 313.9,221.2 314.6,221.2 315.3,221.3 316.0,221.4 316.7,221.5 317.4,221.5 318.2,221.6 318.9,221.7 319.6,221.9 320.3,222.0
321.0,222.1 321.7,222.3 322.4,222.4 323.1,222.6 323.8,222.7 324.5,222.9 325.2,223.1 325.9,223.3 326.6,223.5 327.3,223.7 328.1,224.0 328.8,224.2 329.5,224.4 330.2,224.7 330.9,224.9 331.6,225.2
332.3,225.5 333.0,225.8 333.7,226.0 334.4,226.3 335.1,226.6 335.8,226.9 336.5,227.2 337.3,227.5 338.0,227.8 338.7,228.1 339.4,228.3 340.1,228.6 340.8,228.9 341.5,229.2 342.2,229.5 342.9,229.8
343.6,230.0 344.3,230.3 345.0,230.6 345.7,230.8 346.5,231.1 347.2,231.3 347.9,231.6 348.6,231.8 349.3,232.0 350.0,232.3 350.7,232.5 351.4,232.7 352.1,232.9 352.8,233.1 353.5,233.3 354.2,233.5
354.9,233.7 355.7,233.9 356.4,234.0 357.1,234.2 357.8,234.4 358.5,234.5 359.2,234.7 359.9,234.9 360.6,235.0 361.3,235.2 362.0,235.3 362.7,235.5 363.4,235.6 364.1,235.7 364.9,235.9 365.6,236.0
366.3,236.1 367.0,236.3 367.7,236.4 368.4,236.5 369.1,236.7 369.8,236.8 370.5,236.9 371.2,237.1 371.9,237.2 372.6,237.3 373.3,237.4 374.1,237.6 374.8,237.7 375.5,237.8 376.2,238.0 376.9,238.1
377.6,238.2 378.3,238.3 379.0,238.5 379.7,238.6 380.4,238.7 381.1,238.8 381.8,238.9 382.5,239.1 383.3,239.2 384.0,239.3 384.7,239.4 385.4,239.5 386.1,239.7 386.8,239.8 387.5,239.9 388.2,240.0
388.9,240.1 389.6,240.2 390.3,240.3 391.0,240.4 391.7,240.5 392.4,240.6 393.2,240.7 393.9,240.8 394.6,240.8 395.3,240.9 396.0,241.0 396.7,241.1 397.4,241.2 398.1,241.2 398.8,241.3 399.5,241.4
400.2,241.4 400.9,241.5 401.6,241.5 402.4,241.6 403.1,241.6 403.8,241.7 404.5,241.7 405.2,241.8 405.9,241.8 406.6,241.9 407.3,241.9 408.0,241.9 408.7,242.0 409.4,242.0 410.1,242.0 410.8,242.1
411.6,242.1 412.3,242.1 413.0,242.1 413.7,242.2 414.4,242.2 415.1,242.2 415.8,242.2 416.5,242.2 417.2,242.2 417.9,242.3 418.6,242.3 419.3,242.3 420.0,242.3 420.8,242.3 421.5,242.3 422.2,242.3
422.9,242.3 423.6,242.3 424.3,242.3 425.0,242.3 425.0,242.4 424.3,242.4 423.6,242.4 422.9,242.4 422.2,242.4 421.5,242.4 420.8,242.4 420.0,242.4 419.3,242.4 418.6,242.4 417.9,242.4 417.2,242.4
416.5,242.4 415.8,242.4 415.1,242.4 414.4,242.4 413.7,242.4 413.0,242.4 412.3,242.4 411.6,242.4 410.8,242.4 410.1,242.4 409.4,242.4 408.7,242.4 408.0,242.4 407.3,242.4 406.6,242.4 405.9,242.4
405.2,242.4 404.5,242.4 403.8,242.4 403.1,242.4 402.4,242.4 401.6,242.4 400.9,242.4 400.2,242.4 399.5,242.4 398.8,242.4 398.1,242.4 397.4,242.4 396.7,242.4 396.0,242.4 395.3,242.4 394.6,242.4
393.9,242.4 393.2,242.4 392.4,242.4 391.7,242.4 391.0,242.4 390.3,242.4 389.6,242.4 388.9,242.4 388.2,242.4 387.5,242.4 386.8,242.4 386.1,242.4 385.4,242.4 384.7,242.4 384.0,242.4 383.3,242.4
382.5,242.4 381.8,242.4 381.1,242.4 380.4,242.4 379.7,242.4 379.0,242.4 378.3,242.4 377.6,242.4 376.9,242.4 376.2,242.4 375.5,242.4 374.8,242.4 374.1,242.4 373.3,242.4 372.6,242.4 371.9,242.4
371.2,242.4 370.5,242.4 369.8,242.4 369.1,242.4 368.4,242.4 367.7,242.4 367.0,242.4 366.3,242.4 365.6,242.4 364.9,242.4 364.1,242.4 363.4,242.4 362.7,242.4 362.0,242.4 361.3,242.4 360.6,242.4
359.9,242.4 359.2,242.4 358.5,242.4 357.8,242.4 357.1,242.4 356.4,242.4 355.7,242.4 354.9,242.4 354.2,242.4 353.5,242.4 352.8,242.4 352.1,242.4 351.4,242.4 350.7,242.4 350.0,242.4 349.3,242.4
348.6,242.4 347.9,242.4 347.2,242.4 346.5,242.4 345.7,242.4 345.0,242.4 344.3,242.4 343.6,242.4 342.9,242.4 342.2,242.4 341.5,242.4 340.8,242.4 340.1,242.4 339.4,242.4 338.7,242.4 338.0,242.4
337.3,242.4 336.5,242.4 335.8,242.4 335.1,242.4 334.4,242.4 333.7,242.4 333.0,242.4 332.3,242.4 331.6,242.4 330.9,242.4 330.2,242.4 329.5,242.4 328.8,242.4 328.1,242.4 327.3,242.4 326.6,242.4
325.9,242.4 325.2,242.4 324.5,242.4 323.8,242.4 323.1,242.4 322.4,242.4 321.7,242.4 321.0,242.4 320.3,242.4 319.6,242.4 318.9,242.4 318.2,242.4 317.4,242.4 316.7,242.4 316.0,242.4 315.3,242.4
314.6,242.4 313.9,242.4 313.2,242.4 312.5,242.4 311.8,242.4 311.1,242.4 310.4,242.4 309.7,242.4 309.0,242.4 308.2,242.4 307.5,242.4 306.8,242.4 306.1,242.4 305.4,242.4 304.7,242.4 304.0,242.4
303.3,242.4 302.6,242.4 301.9,242.4 301.2,242.4 300.5,242.4 299.8,242.4 299.0,242.4 298.3,242.4 297.6,242.4 296.9,242.4 296.2,242.4 295.5,242.4 294.8,242.4 294.1,242.4 293.4,242.4 292.7,242.4
292.0,242.4 291.3,242.4 290.6,242.4 289.8,242.4 289.1,242.4 288.4,242.4 287.7,242.4 287.0,242.4 286.3,242.4 285.6,242.4 284.9,242.4 284.2,242.4 283.5,242.4 282.8,242.4 282.1,242.4 281.4,242.4
280.6,242.4 279.9,242.4 279.2,242.4 278.5,242.4 277.8,242.4 277.1,242.4 276.4,242.4 275.7,242.4 275.0,242.4 274.3,242.4 273.6,242.4 272.9,242.4 272.2,242.4 271.4,242.4 270.7,242.4 270.0,242.4
269.3,242.4 268.6,242.4 267.9,242.4 267.2,242.4 266.5,242.4 265.8,242.4 265.1,242.4 264.4,242.4 263.7,242.4 263.0,242.4 262.2,242.4 261.5,242.4 260.8,242.4 260.1,242.4 259.4,242.4 258.7,242.4
258.0,242.4 257.3,242.4 256.6,242.4 255.9,242.4 255.2,242.4 254.5,242.4 253.8,242.4 253.0,242.4 252.3,242.4 251.6,242.4 250.9,242.4 250.2,242.4 249.5,242.4 248.8,242.4 248.1,242.4 247.4,242.4
246.7,242.4 246.0,242.4 245.3,242.4 244.6,242.4 243.9,242.4 243.1,242.4 242.4,242.4 241.7,242.4 241.0,242.4 240.3,242.4 239.6,242.4 238.9,242.4 238.2,242.4 237.5,242.4 236.8,242.4 236.1,242.4
235.4,242.4 234.7,242.4 233.9,242.4 233.2,242.4 232.5,242.4 231.8,242.4 231.1,242.4 230.4,242.4 229.7,242.4 229.0,242.4 228.3,242.4 227.6,242.4 226.9,242.4 226.2,242.4 225.5,242.4 224.7,242.4
224.0,242.4 223.3,242.4 222.6,242.4 221.9,242.4 221.2,242.4 220.5,242.4 219.8,242.4 219.1,242.4 218.4,242.4 217.7,242.4 217.0,242.4 216.3,242.4 215.5,242.4 214.8,242.4 214.1,242.4 213.4,242.4
212.7,242.4 212.0,242.4 211.3,242.4 210.6,242.4 209.9,242.4 209.2,242.4 208.5,242.4 207.8,242.4 207.1,242.4 206.3,242.4 205.6,242.4 204.9,242.4 204.2,242.4 203.5,242.4 202.8,242.4 202.1,242.4
201.4,242.4 200.7,242.4 200.0,242.4 199.3,242.4 198.6,242.4 197.9,242.4 197.1,242.4 196.4,242.4 195.7,242.4 195.0,242.4 194.3,242.4 193.6,242.4 192.9,242.4 192.2,242.4 191.5,242.4 190.8,242.4
190.1,242.4 189.4,242.4 188.7,242.4 187.9,242.4 187.2,242.4 186.5,242.4 185.8,242.4 185.1,242.4 184.4,242.4 183.7,242.4 183.0,242.4 182.3,242.4 181.6,242.4 180.9,242.4 180.2,242.4 179.5,242.4
178.7,242.4 178.0,242.4 177.3,242.4 176.6,242.4 175.9,242.4 175.2,242.4 174.5,242.4 173.8,242.4 173.1,242.4 172.4,242.4 171.7,242.4 171.0,242.4 170.3,242.4 169.6,242.4 168.8,242.4 168.1,242.4
167.4,242.4 166.7,242.4 166.0,242.4 165.3,242.4 164.6,242.4 163.9,242.4 163.2,242.4 162.5,242.4 161.8,242.4 161.1,242.4 160.4,242.4 159.6,242.4 158.9,242.4 158.2,242.4 157.5,242.4 156.8,242.4
156.1,242.4 155.4,242.4 154.7,242.4 154.0,242.4 153.3,242.4 152.6,242.4 151.9,242.4 151.2,242.4 150.4,242.4 149.7,242.4 149.0,242.4 148.3,242.4 147.6,242.4 146.9,242.4 146.2,242.4 145.5,242.4
144.8,242.4 144.1,242.4 143.4,242.4 142.7,242.4 142.0,242.4 141.2,242.4 140.5,242.4 139.8,242.4 139.1,242.4 138.4,242.4 137.7,242.4 137.0,242.4 136.3,242.4 135.6,242.4 134.9,242.4 134.2,242.4
133.5,242.4 132.8,242.4 132.0,242.4 131.3,242.4 130.6,242.4 129.9,242.4 129.2,242.4 128.5,242.4 127.8,242.4 127.1,242.4 126.4,242.4 125.7,242.4 125.0,242.4 124.3,242.4 123.6,242.4 122.8,242.4
122.1,242.4 121.4,242.4 120.7,242.4 120.0,242.4 119.3,242.4 118.6,242.4 117.9,242.4 117.2,242.4 116.5,242.4 115.8,242.4 115.1,242.4 114.4,242.4 113.6,242.4 112.9,242.4 112.2,242.4 111.5,242.4
110.8,242.4 110.1,242.4 109.4,242.4 108.7,242.4 108.0,242.4 107.3,242.4 106.6,242.4 105.9,242.4 105.2,242.4 104.5,242.4 103.7,242.4 103.0,242.4 102.3,242.4 101.6,242.4 100.9,242.4 100.2,242.4
99.5,242.4 98.8,242.4 98.1,242.4 97.4,242.4 96.7,242.4 96.0,242.4 95.3,242.4 94.5,242.4 93.8,242.4 93.1,242.4 92.4,242.4 91.7,242.4 91.0,242.4 90.3,242.4 89.6,242.4 88.9,242.4
88.2,242.4 87.5,242.4 86.8,242.4 86.1,242.4 85.3,242.4 84.6,242.4 83.9,242.4 83.2,242.4 82.5,242.4 81.8,242.4 81.1,242.4 80.4,242.4 79.7,242.4 79.0,242.4 78.3,242.4 77.6,242.4
76.9,242.4 76.1,242.4 75.4,242.4 74.7,242.4 74.0,242.4 73.3,242.4 72.6,242.4 71.9,242.4 '/>
	</g>
</g>
	</g>
	<g id="gnuplot_plot_2" ><title>Mean</title>
<g fill="none" color="white" stroke="rgb( 31, 120, 180)" stroke-width="2.00" stroke-linecap="butt" stroke-linejoin="miter">
</g>
<g fill="none" color="black" stroke="currentColor" stroke-width="2.00" stroke-linecap="butt" stroke-linejoin="miter">
	<path stroke='rgb( 31, 120, 180)'  d='M197.9,242.4 L197.9,85.8  '/></g>
	</g>
<g fill="none" color="black" stroke="currentColor" stroke-width="2.00" stroke-linecap="butt" stroke-linejoin="miter">
</g>
<g fill="none" color="black" stroke="black" stroke-width="1.00" stroke-linecap="butt" stroke-linejoin="miter">
</g>
<g fill="none" color="black" stroke="currentColor" stroke-width="1.00" stroke-linecap="butt" stroke-linejoin="miter">
	<path stroke='black'  d='M71.9,18.1 L71.9,242.4 L425.0,242.4 L425.0,18.1 L71.9,18.1 Z  '/></g>
<g fill="none" color="black" stroke="currentColor" stroke-width="1.00" stroke-linecap="butt" stroke-linejoin="miter">
</g>
</g>
</svg>

