group,function,value,throughput_num,throughput_type,sample_measured_value,unit,iteration_count
Parse,Standard parse default,999,,,1001168.0,ns,171742
Parse,Standard parse default,999,,,2005081.0,ns,343484
Parse,Standard parse default,999,,,3036847.0,ns,515226
Parse,Standard parse default,999,,,4025590.0,ns,686968
Parse,Standard parse default,999,,,5662012.0,ns,858710
Parse,Standard parse default,999,,,6548323.0,ns,1030452
Parse,Standard parse default,999,,,7327231.0,ns,1202194
Parse,Standard parse default,999,,,8779762.0,ns,1373936
Parse,Standard parse default,999,,,9525377.0,ns,1545678
Parse,Standard parse default,999,,,11017534.0,ns,1717420
Parse,Standard parse default,999,,,11192006.0,ns,1889162
Parse,Standard parse default,999,,,12567272.0,ns,2060904
Parse,Standard parse default,999,,,13639596.0,ns,2232646
Parse,Standard parse default,999,,,14139892.0,ns,2404388
Parse,Standard parse default,999,,,15261189.0,ns,2576130
Parse,Standard parse default,999,,,16699546.0,ns,2747872
Parse,Standard parse default,999,,,16931826.0,ns,2919614
Parse,Standard parse default,999,,,18553098.0,ns,3091356
Parse,Standard parse default,999,,,19368564.0,ns,3263098
Parse,Standard parse default,999,,,20158782.0,ns,3434840
Parse,Standard parse default,999,,,21864185.0,ns,3606582
Parse,Standard parse default,999,,,22231732.0,ns,3778324
Parse,Standard parse default,999,,,22762738.0,ns,3950066
Parse,Standard parse default,999,,,23599936.0,ns,4121808
Parse,Standard parse default,999,,,24939695.0,ns,4293550
Parse,Standard parse default,999,,,25080512.0,ns,4465292
Parse,Standard parse default,999,,,26053336.0,ns,4637034
Parse,Standard parse default,999,,,27220379.0,ns,4808776
Parse,Standard parse default,999,,,28824870.0,ns,4980518
Parse,Standard parse default,999,,,28810422.0,ns,5152260
Parse,Standard parse default,999,,,29920828.0,ns,5324002
Parse,Standard parse default,999,,,30937293.0,ns,5495744
Parse,Standard parse default,999,,,32614633.0,ns,5667486
Parse,Standard parse default,999,,,33999479.0,ns,5839228
Parse,Standard parse default,999,,,34939339.0,ns,6010970
Parse,Standard parse default,999,,,36094340.0,ns,6182712
Parse,Standard parse default,999,,,36649452.0,ns,6354454
Parse,Standard parse default,999,,,36737348.0,ns,6526196
Parse,Standard parse default,999,,,37552925.0,ns,6697938
Parse,Standard parse default,999,,,38283880.0,ns,6869680
Parse,Standard parse default,999,,,40920217.0,ns,7041422
Parse,Standard parse default,999,,,40944884.0,ns,7213164
Parse,Standard parse default,999,,,41458105.0,ns,7384906
Parse,Standard parse default,999,,,42801002.0,ns,7556648
Parse,Standard parse default,999,,,43291412.0,ns,7728390
Parse,Standard parse default,999,,,45044324.0,ns,7900132
Parse,Standard parse default,999,,,45452639.0,ns,8071874
Parse,Standard parse default,999,,,46548727.0,ns,8243616
Parse,Standard parse default,999,,,48138300.0,ns,8415358
Parse,Standard parse default,999,,,48866811.0,ns,8587100
Parse,Standard parse default,999,,,50476362.0,ns,8758842
Parse,Standard parse default,999,,,50306750.0,ns,8930584
Parse,Standard parse default,999,,,52185781.0,ns,9102326
Parse,Standard parse default,999,,,52065984.0,ns,9274068
Parse,Standard parse default,999,,,52807931.0,ns,9445810
Parse,Standard parse default,999,,,54289499.0,ns,9617552
Parse,Standard parse default,999,,,55651912.0,ns,9789294
Parse,Standard parse default,999,,,57027489.0,ns,9961036
Parse,Standard parse default,999,,,57836693.0,ns,10132778
Parse,Standard parse default,999,,,63451356.0,ns,10304520
Parse,Standard parse default,999,,,63913000.0,ns,10476262
Parse,Standard parse default,999,,,62614710.0,ns,10648004
Parse,Standard parse default,999,,,65605741.0,ns,10819746
Parse,Standard parse default,999,,,63236399.0,ns,10991488
Parse,Standard parse default,999,,,63802461.0,ns,11163230
Parse,Standard parse default,999,,,64568112.0,ns,11334972
Parse,Standard parse default,999,,,66888631.0,ns,11506714
Parse,Standard parse default,999,,,67840086.0,ns,11678456
Parse,Standard parse default,999,,,68143770.0,ns,11850198
Parse,Standard parse default,999,,,72018164.0,ns,12021940
Parse,Standard parse default,999,,,74088711.0,ns,12193682
Parse,Standard parse default,999,,,76897974.0,ns,12365424
Parse,Standard parse default,999,,,74549914.0,ns,12537166
Parse,Standard parse default,999,,,75936303.0,ns,12708908
Parse,Standard parse default,999,,,77513711.0,ns,12880650
Parse,Standard parse default,999,,,79710125.0,ns,13052392
Parse,Standard parse default,999,,,77235784.0,ns,13224134
Parse,Standard parse default,999,,,76243685.0,ns,13395876
Parse,Standard parse default,999,,,78193780.0,ns,13567618
Parse,Standard parse default,999,,,83274050.0,ns,13739360
Parse,Standard parse default,999,,,84190258.0,ns,13911102
Parse,Standard parse default,999,,,90369399.0,ns,14082844
Parse,Standard parse default,999,,,83590862.0,ns,14254586
Parse,Standard parse default,999,,,85425227.0,ns,14426328
Parse,Standard parse default,999,,,89593628.0,ns,14598070
Parse,Standard parse default,999,,,90988051.0,ns,14769812
Parse,Standard parse default,999,,,92072659.0,ns,14941554
Parse,Standard parse default,999,,,87710108.0,ns,15113296
Parse,Standard parse default,999,,,87573038.0,ns,15285038
Parse,Standard parse default,999,,,89549244.0,ns,15456780
Parse,Standard parse default,999,,,88917638.0,ns,15628522
Parse,Standard parse default,999,,,90064361.0,ns,15800264
Parse,Standard parse default,999,,,91702626.0,ns,15972006
Parse,Standard parse default,999,,,92688126.0,ns,16143748
Parse,Standard parse default,999,,,95338929.0,ns,16315490
Parse,Standard parse default,999,,,99888763.0,ns,16487232
Parse,Standard parse default,999,,,94632549.0,ns,16658974
Parse,Standard parse default,999,,,102231384.0,ns,16830716
Parse,Standard parse default,999,,,97585638.0,ns,17002458
Parse,Standard parse default,999,,,98419278.0,ns,17174200
