<?xml version="1.0" encoding="utf-8"  standalone="no"?>
<svg 
 viewBox="0 0 1280 720"
 xmlns="http://www.w3.org/2000/svg"
 xmlns:xlink="http://www.w3.org/1999/xlink"
>

<title>Gnuplot</title>
<desc>Produced by GNUPLOT 5.2 patchlevel 8 </desc>

<g id="gnuplot_canvas">

<rect x="0" y="0" width="1280" height="720" fill="none"/>
<defs>

	<circle id='gpDot' r='0.5' stroke-width='0.5' stroke='currentColor'/>
	<path id='gpPt0' stroke-width='0.222' stroke='currentColor' d='M-1,0 h2 M0,-1 v2'/>
	<path id='gpPt1' stroke-width='0.222' stroke='currentColor' d='M-1,-1 L1,1 M1,-1 L-1,1'/>
	<path id='gpPt2' stroke-width='0.222' stroke='currentColor' d='M-1,0 L1,0 M0,-1 L0,1 M-1,-1 L1,1 M-1,1 L1,-1'/>
	<rect id='gpPt3' stroke-width='0.222' stroke='currentColor' x='-1' y='-1' width='2' height='2'/>
	<rect id='gpPt4' stroke-width='0.222' stroke='currentColor' fill='currentColor' x='-1' y='-1' width='2' height='2'/>
	<circle id='gpPt5' stroke-width='0.222' stroke='currentColor' cx='0' cy='0' r='1'/>
	<use xlink:href='#gpPt5' id='gpPt6' fill='currentColor' stroke='none'/>
	<path id='gpPt7' stroke-width='0.222' stroke='currentColor' d='M0,-1.33 L-1.33,0.67 L1.33,0.67 z'/>
	<use xlink:href='#gpPt7' id='gpPt8' fill='currentColor' stroke='none'/>
	<use xlink:href='#gpPt7' id='gpPt9' stroke='currentColor' transform='rotate(180)'/>
	<use xlink:href='#gpPt9' id='gpPt10' fill='currentColor' stroke='none'/>
	<use xlink:href='#gpPt3' id='gpPt11' stroke='currentColor' transform='rotate(45)'/>
	<use xlink:href='#gpPt11' id='gpPt12' fill='currentColor' stroke='none'/>
	<path id='gpPt13' stroke-width='0.222' stroke='currentColor' d='M0,1.330 L1.265,0.411 L0.782,-1.067 L-0.782,-1.076 L-1.265,0.411 z'/>
	<use xlink:href='#gpPt13' id='gpPt14' fill='currentColor' stroke='none'/>
	<filter id='textbox' filterUnits='objectBoundingBox' x='0' y='0' height='1' width='1'>
	  <feFlood flood-color='white' flood-opacity='1' result='bgnd'/>
	  <feComposite in='SourceGraphic' in2='bgnd' operator='atop'/>
	</filter>
	<filter id='greybox' filterUnits='objectBoundingBox' x='0' y='0' height='1' width='1'>
	  <feFlood flood-color='lightgrey' flood-opacity='1' result='grey'/>
	  <feComposite in='SourceGraphic' in2='grey' operator='atop'/>
	</filter>
</defs>
<g fill="none" color="white" stroke="currentColor" stroke-width="1.00" stroke-linecap="butt" stroke-linejoin="miter">
</g>
<g fill="none" color="black" stroke="currentColor" stroke-width="1.00" stroke-linecap="butt" stroke-linejoin="miter">
	<path stroke='black'  d='M80.2,662.4 L89.2,662.4  '/>	<g transform="translate(71.9,666.3)" stroke="none" fill="black" font-family="Helvetica" font-size="12.00"  text-anchor="end">
		<text><tspan font-family="Helvetica" > 0</tspan></text>
	</g>
</g>
<g fill="none" color="black" stroke="currentColor" stroke-width="1.00" stroke-linecap="butt" stroke-linejoin="miter">
	<path stroke='black'  d='M80.2,575.5 L89.2,575.5  '/>	<g transform="translate(71.9,579.4)" stroke="none" fill="black" font-family="Helvetica" font-size="12.00"  text-anchor="end">
		<text><tspan font-family="Helvetica" > 0.01</tspan></text>
	</g>
</g>
<g fill="none" color="black" stroke="currentColor" stroke-width="1.00" stroke-linecap="butt" stroke-linejoin="miter">
	<path stroke='black'  d='M80.2,488.6 L89.2,488.6  '/>	<g transform="translate(71.9,492.5)" stroke="none" fill="black" font-family="Helvetica" font-size="12.00"  text-anchor="end">
		<text><tspan font-family="Helvetica" > 0.02</tspan></text>
	</g>
</g>
<g fill="none" color="black" stroke="currentColor" stroke-width="1.00" stroke-linecap="butt" stroke-linejoin="miter">
	<path stroke='black'  d='M80.2,401.7 L89.2,401.7  '/>	<g transform="translate(71.9,405.6)" stroke="none" fill="black" font-family="Helvetica" font-size="12.00"  text-anchor="end">
		<text><tspan font-family="Helvetica" > 0.03</tspan></text>
	</g>
</g>
<g fill="none" color="black" stroke="currentColor" stroke-width="1.00" stroke-linecap="butt" stroke-linejoin="miter">
	<path stroke='black'  d='M80.2,314.8 L89.2,314.8  '/>	<g transform="translate(71.9,318.7)" stroke="none" fill="black" font-family="Helvetica" font-size="12.00"  text-anchor="end">
		<text><tspan font-family="Helvetica" > 0.04</tspan></text>
	</g>
</g>
<g fill="none" color="black" stroke="currentColor" stroke-width="1.00" stroke-linecap="butt" stroke-linejoin="miter">
	<path stroke='black'  d='M80.2,227.9 L89.2,227.9  '/>	<g transform="translate(71.9,231.8)" stroke="none" fill="black" font-family="Helvetica" font-size="12.00"  text-anchor="end">
		<text><tspan font-family="Helvetica" > 0.05</tspan></text>
	</g>
</g>
<g fill="none" color="black" stroke="currentColor" stroke-width="1.00" stroke-linecap="butt" stroke-linejoin="miter">
	<path stroke='black'  d='M80.2,141.0 L89.2,141.0  '/>	<g transform="translate(71.9,144.9)" stroke="none" fill="black" font-family="Helvetica" font-size="12.00"  text-anchor="end">
		<text><tspan font-family="Helvetica" > 0.06</tspan></text>
	</g>
</g>
<g fill="none" color="black" stroke="currentColor" stroke-width="1.00" stroke-linecap="butt" stroke-linejoin="miter">
	<path stroke='black'  d='M80.2,54.1 L89.2,54.1  '/>	<g transform="translate(71.9,58.0)" stroke="none" fill="black" font-family="Helvetica" font-size="12.00"  text-anchor="end">
		<text><tspan font-family="Helvetica" > 0.07</tspan></text>
	</g>
</g>
<g fill="none" color="black" stroke="currentColor" stroke-width="1.00" stroke-linecap="butt" stroke-linejoin="miter">
	<path stroke='black'  d='M141.6,662.4 L141.6,653.4  '/>	<g transform="translate(141.6,684.3)" stroke="none" fill="black" font-family="Helvetica" font-size="12.00"  text-anchor="middle">
		<text><tspan font-family="Helvetica" > 30</tspan></text>
	</g>
</g>
<g fill="none" color="black" stroke="currentColor" stroke-width="1.00" stroke-linecap="butt" stroke-linejoin="miter">
	<path stroke='black'  d='M274.4,662.4 L274.4,653.4  '/>	<g transform="translate(274.4,684.3)" stroke="none" fill="black" font-family="Helvetica" font-size="12.00"  text-anchor="middle">
		<text><tspan font-family="Helvetica" > 35</tspan></text>
	</g>
</g>
<g fill="none" color="black" stroke="currentColor" stroke-width="1.00" stroke-linecap="butt" stroke-linejoin="miter">
	<path stroke='black'  d='M407.2,662.4 L407.2,653.4  '/>	<g transform="translate(407.2,684.3)" stroke="none" fill="black" font-family="Helvetica" font-size="12.00"  text-anchor="middle">
		<text><tspan font-family="Helvetica" > 40</tspan></text>
	</g>
</g>
<g fill="none" color="black" stroke="currentColor" stroke-width="1.00" stroke-linecap="butt" stroke-linejoin="miter">
	<path stroke='black'  d='M540.0,662.4 L540.0,653.4  '/>	<g transform="translate(540.0,684.3)" stroke="none" fill="black" font-family="Helvetica" font-size="12.00"  text-anchor="middle">
		<text><tspan font-family="Helvetica" > 45</tspan></text>
	</g>
</g>
<g fill="none" color="black" stroke="currentColor" stroke-width="1.00" stroke-linecap="butt" stroke-linejoin="miter">
	<path stroke='black'  d='M672.8,662.4 L672.8,653.4  '/>	<g transform="translate(672.8,684.3)" stroke="none" fill="black" font-family="Helvetica" font-size="12.00"  text-anchor="middle">
		<text><tspan font-family="Helvetica" > 50</tspan></text>
	</g>
</g>
<g fill="none" color="black" stroke="currentColor" stroke-width="1.00" stroke-linecap="butt" stroke-linejoin="miter">
	<path stroke='black'  d='M805.7,662.4 L805.7,653.4  '/>	<g transform="translate(805.7,684.3)" stroke="none" fill="black" font-family="Helvetica" font-size="12.00"  text-anchor="middle">
		<text><tspan font-family="Helvetica" > 55</tspan></text>
	</g>
</g>
<g fill="none" color="black" stroke="currentColor" stroke-width="1.00" stroke-linecap="butt" stroke-linejoin="miter">
	<path stroke='black'  d='M938.5,662.4 L938.5,653.4  '/>	<g transform="translate(938.5,684.3)" stroke="none" fill="black" font-family="Helvetica" font-size="12.00"  text-anchor="middle">
		<text><tspan font-family="Helvetica" > 60</tspan></text>
	</g>
</g>
<g fill="none" color="black" stroke="currentColor" stroke-width="1.00" stroke-linecap="butt" stroke-linejoin="miter">
</g>
<g fill="none" color="black" stroke="currentColor" stroke-width="1.00" stroke-linecap="butt" stroke-linejoin="miter">
	<path stroke='black'  d='M80.2,54.1 L80.2,662.4 L1013.6,662.4 L1013.6,54.1 L80.2,54.1 Z  '/></g>
<g fill="none" color="black" stroke="currentColor" stroke-width="1.00" stroke-linecap="butt" stroke-linejoin="miter">
	<g transform="translate(19.0,358.3) rotate(270)" stroke="none" fill="black" font-family="Helvetica" font-size="12.00"  text-anchor="middle">
		<text><tspan font-family="Helvetica" >Density (a.u.)</tspan></text>
	</g>
</g>
<g fill="none" color="black" stroke="currentColor" stroke-width="1.00" stroke-linecap="butt" stroke-linejoin="miter">
	<g transform="translate(546.9,711.3)" stroke="none" fill="black" font-family="Helvetica" font-size="12.00"  text-anchor="middle">
		<text><tspan font-family="Helvetica" >Average time (ps)</tspan></text>
	</g>
</g>
<g fill="none" color="black" stroke="currentColor" stroke-width="1.00" stroke-linecap="butt" stroke-linejoin="miter">
	<g transform="translate(546.9,31.0)" stroke="none" fill="black" font-family="Helvetica" font-size="12.00"  text-anchor="middle">
		<text><tspan font-family="Helvetica" >Parse/Manual/50: MAD</tspan></text>
	</g>
</g>
<g fill="none" color="black" stroke="currentColor" stroke-width="1.00" stroke-linecap="butt" stroke-linejoin="miter">
</g>
	<g id="gnuplot_plot_1" ><title>Bootstrap distribution</title>
<g fill="none" color="white" stroke="currentColor" stroke-width="2.00" stroke-linecap="butt" stroke-linejoin="miter">
</g>
<g fill="none" color="black" stroke="currentColor" stroke-width="2.00" stroke-linecap="butt" stroke-linejoin="miter">
	<g transform="translate(1089.0,67.0)" stroke="none" fill="black" font-family="Helvetica" font-size="12.00"  text-anchor="start">
		<text><tspan font-family="Helvetica" >Bootstrap distribution</tspan></text>
	</g>
</g>
<g fill="none" color="black" stroke="currentColor" stroke-width="2.00" stroke-linecap="butt" stroke-linejoin="miter">
	<path stroke='rgb( 31, 120, 180)'  d='M1038.5,63.1 L1080.7,63.1 M80.2,640.7 L82.1,640.1 L83.9,639.5 L85.8,638.9 L87.7,638.2 L89.6,637.5
		L91.4,636.8 L93.3,636.1 L95.2,635.3 L97.0,634.4 L98.9,633.5 L100.8,632.5 L102.6,631.4 L104.5,630.2
		L106.4,629.0 L108.3,627.6 L110.1,626.2 L112.0,624.6 L113.9,622.9 L115.7,621.1 L117.6,619.1 L119.5,617.0
		L121.4,614.7 L123.2,612.3 L125.1,609.8 L127.0,607.1 L128.8,604.2 L130.7,601.2 L132.6,598.1 L134.4,594.9
		L136.3,591.5 L138.2,588.1 L140.1,584.6 L141.9,581.0 L143.8,577.4 L145.7,573.8 L147.5,570.1 L149.4,566.5
		L151.3,563.0 L153.2,559.4 L155.0,556.0 L156.9,552.6 L158.8,549.3 L160.6,546.1 L162.5,543.0 L164.4,540.1
		L166.2,537.2 L168.1,534.4 L170.0,531.8 L171.9,529.2 L173.7,526.8 L175.6,524.4 L177.5,522.2 L179.3,520.0
		L181.2,518.0 L183.1,516.0 L185.0,514.1 L186.8,512.2 L188.7,510.5 L190.6,508.8 L192.4,507.1 L194.3,505.5
		L196.2,503.9 L198.0,502.3 L199.9,500.7 L201.8,499.0 L203.7,497.3 L205.5,495.5 L207.4,493.6 L209.3,491.5
		L211.1,489.3 L213.0,486.9 L214.9,484.2 L216.7,481.3 L218.6,478.1 L220.5,474.7 L222.4,471.0 L224.2,467.0
		L226.1,462.8 L228.0,458.3 L229.8,453.6 L231.7,448.7 L233.6,443.7 L235.5,438.5 L237.3,433.2 L239.2,427.8
		L241.1,422.3 L242.9,416.8 L244.8,411.1 L246.7,405.4 L248.5,399.6 L250.4,393.6 L252.3,387.5 L254.2,381.2
		L256.0,374.7 L257.9,367.9 L259.8,360.8 L261.6,353.4 L263.5,345.5 L265.4,337.3 L267.3,328.7 L269.1,319.7
		L271.0,310.4 L272.9,300.8 L274.7,291.0 L276.6,281.0 L278.5,271.1 L280.3,261.2 L282.2,251.6 L284.1,242.4
		L286.0,233.8 L287.8,225.8 L289.7,218.7 L291.6,212.6 L293.4,207.6 L295.3,203.9 L297.2,201.5 L299.1,200.4
		L300.9,200.8 L302.8,202.6 L304.7,205.8 L306.5,210.3 L308.4,216.1 L310.3,223.1 L312.1,231.2 L314.0,240.2
		L315.9,250.0 L317.8,260.4 L319.6,271.4 L321.5,282.6 L323.4,294.0 L325.2,305.4 L327.1,316.6 L329.0,327.6
		L330.9,338.2 L332.7,348.2 L334.6,357.7 L336.5,366.4 L338.3,374.4 L340.2,381.6 L342.1,387.9 L343.9,393.3
		L345.8,397.9 L347.7,401.5 L349.6,404.2 L351.4,406.1 L353.3,407.0 L355.2,407.2 L357.0,406.7 L358.9,405.4
		L360.8,403.5 L362.7,401.0 L364.5,398.1 L366.4,394.8 L368.3,391.1 L370.1,387.2 L372.0,383.2 L373.9,379.1
		L375.7,375.0 L377.6,370.9 L379.5,366.9 L381.4,363.1 L383.2,359.4 L385.1,355.9 L387.0,352.5 L388.8,349.3
		L390.7,346.2 L392.6,343.1 L394.5,340.1 L396.3,337.1 L398.2,334.1 L400.1,330.9 L401.9,327.6 L403.8,324.1
		L405.7,320.4 L407.5,316.4 L409.4,312.2 L411.3,307.8 L413.2,303.2 L415.0,298.3 L416.9,293.3 L418.8,288.1
		L420.6,282.9 L422.5,277.7 L424.4,272.5 L426.3,267.3 L428.1,262.3 L430.0,257.5 L431.9,252.9 L433.7,248.5
		L435.6,244.3 L437.5,240.4 L439.3,236.7 L441.2,233.3 L443.1,230.0 L445.0,227.0 L446.8,224.1 L448.7,221.4
		L450.6,218.7 L452.4,216.1 L454.3,213.6 L456.2,211.1 L458.0,208.6 L459.9,206.1 L461.8,203.6 L463.7,201.0
		L465.5,198.4 L467.4,195.7 L469.3,193.0 L471.1,190.2 L473.0,187.4 L474.9,184.5 L476.8,181.4 L478.6,178.3
		L480.5,175.0 L482.4,171.6 L484.2,168.0 L486.1,164.3 L488.0,160.4 L489.8,156.4 L491.7,152.2 L493.6,147.8
		L495.5,143.3 L497.3,138.8 L499.2,134.1 L501.1,129.5 L502.9,124.9 L504.8,120.3 L506.7,115.9 L508.6,111.7
		L510.4,107.7 L512.3,104.0 L514.2,100.6 L516.0,97.6 L517.9,94.9 L519.8,92.6 L521.6,90.6 L523.5,89.1
		L525.4,88.0 L527.3,87.3 L529.1,87.0 L531.0,87.0 L532.9,87.4 L534.7,88.2 L536.6,89.4 L538.5,90.9
		L540.4,92.8 L542.2,95.0 L544.1,97.5 L546.0,100.5 L547.8,103.8 L549.7,107.4 L551.6,111.4 L553.4,115.6
		L555.3,120.2 L557.2,125.1 L559.1,130.2 L560.9,135.6 L562.8,141.1 L564.7,146.8 L566.5,152.6 L568.4,158.5
		L570.3,164.4 L572.2,170.3 L574.0,176.2 L575.9,182.1 L577.8,187.9 L579.6,193.7 L581.5,199.5 L583.4,205.2
		L585.2,210.9 L587.1,216.6 L589.0,222.3 L590.9,228.1 L592.7,233.9 L594.6,239.8 L596.5,245.8 L598.3,251.9
		L600.2,258.1 L602.1,264.4 L604.0,270.8 L605.8,277.3 L607.7,283.8 L609.6,290.4 L611.4,297.0 L613.3,303.6
		L615.2,310.2 L617.0,316.6 L618.9,323.0 L620.8,329.2 L622.7,335.3 L624.5,341.2 L626.4,346.8 L628.3,352.3
		L630.1,357.5 L632.0,362.5 L633.9,367.3 L635.8,371.8 L637.6,376.1 L639.5,380.1 L641.4,383.9 L643.2,387.5
		L645.1,390.9 L647.0,394.1 L648.8,397.2 L650.7,400.1 L652.6,402.8 L654.5,405.4 L656.3,408.0 L658.2,410.5
		L660.1,412.9 L661.9,415.2 L663.8,417.5 L665.7,419.8 L667.5,422.1 L669.4,424.4 L671.3,426.7 L673.2,428.9
		L675.0,431.2 L676.9,433.5 L678.8,435.7 L680.6,437.9 L682.5,440.2 L684.4,442.3 L686.3,444.5 L688.1,446.6
		L690.0,448.6 L691.9,450.5 L693.7,452.4 L695.6,454.1 L697.5,455.8 L699.3,457.2 L701.2,458.6 L703.1,459.7
		L705.0,460.7 L706.8,461.6 L708.7,462.2 L710.6,462.7 L712.4,463.0 L714.3,463.1 L716.2,463.1 L718.1,462.9
		L719.9,462.7 L721.8,462.4 L723.7,462.1 L725.5,461.8 L727.4,461.5 L729.3,461.2 L731.1,461.1 L733.0,461.1
		L734.9,461.3 L736.8,461.6 L738.6,462.2 L740.5,462.9 L742.4,463.9 L744.2,465.0 L746.1,466.3 L748.0,467.8
		L749.9,469.5 L751.7,471.3 L753.6,473.2 L755.5,475.2 L757.3,477.3 L759.2,479.4 L761.1,481.6 L762.9,483.9
		L764.8,486.1 L766.7,488.4 L768.6,490.7 L770.4,493.0 L772.3,495.4 L774.2,497.8 L776.0,500.2 L777.9,502.7
		L779.8,505.2 L781.7,507.7 L783.5,510.3 L785.4,513.0 L787.3,515.6 L789.1,518.3 L791.0,521.0 L792.9,523.6
		L794.7,526.3 L796.6,528.9 L798.5,531.4 L800.4,533.8 L802.2,536.1 L804.1,538.4 L806.0,540.5 L807.8,542.5
		L809.7,544.3 L811.6,546.1 L813.5,547.7 L815.3,549.2 L817.2,550.7 L819.1,552.0 L820.9,553.2 L822.8,554.4
		L824.7,555.5 L826.5,556.6 L828.4,557.6 L830.3,558.6 L832.2,559.6 L834.0,560.6 L835.9,561.5 L837.8,562.5
		L839.6,563.4 L841.5,564.4 L843.4,565.4 L845.3,566.3 L847.1,567.3 L849.0,568.2 L850.9,569.2 L852.7,570.1
		L854.6,571.0 L856.5,572.0 L858.3,572.9 L860.2,573.9 L862.1,574.8 L864.0,575.7 L865.8,576.7 L867.7,577.7
		L869.6,578.7 L871.4,579.7 L873.3,580.7 L875.2,581.8 L877.1,582.9 L878.9,584.0 L880.8,585.1 L882.7,586.3
		L884.5,587.5 L886.4,588.7 L888.3,590.0 L890.1,591.2 L892.0,592.5 L893.9,593.7 L895.8,594.9 L897.6,596.2
		L899.5,597.4 L901.4,598.6 L903.2,599.8 L905.1,600.9 L907.0,602.0 L908.8,603.1 L910.7,604.1 L912.6,605.2
		L914.5,606.2 L916.3,607.1 L918.2,608.0 L920.1,608.9 L921.9,609.8 L923.8,610.7 L925.7,611.5 L927.6,612.3
		L929.4,613.1 L931.3,613.9 L933.2,614.7 L935.0,615.4 L936.9,616.2 L938.8,616.9 L940.6,617.6 L942.5,618.3
		L944.4,618.9 L946.3,619.6 L948.1,620.2 L950.0,620.8 L951.9,621.4 L953.7,622.0 L955.6,622.5 L957.5,623.1
		L959.4,623.6 L961.2,624.1 L963.1,624.7 L965.0,625.2 L966.8,625.7 L968.7,626.2 L970.6,626.7 L972.4,627.2
		L974.3,627.7 L976.2,628.2 L978.1,628.7 L979.9,629.2 L981.8,629.8 L983.7,630.3 L985.5,630.8 L987.4,631.4
		L989.3,631.9 L991.2,632.5 L993.0,633.1 L994.9,633.6 L996.8,634.2 L998.6,634.7 L1000.5,635.3 L1002.4,635.9
		L1004.2,636.4 L1006.1,636.9 L1008.0,637.4 L1009.9,637.9 L1011.7,638.4 L1013.6,638.9  '/></g>
	</g>
	<g id="gnuplot_plot_2" ><title>Confidence interval</title>
<g fill="none" color="white" stroke="rgb( 31, 120, 180)" stroke-width="1.00" stroke-linecap="butt" stroke-linejoin="miter">
</g>
<g fill="none" color="black" stroke="currentColor" stroke-width="1.00" stroke-linecap="butt" stroke-linejoin="miter">
	<g transform="translate(1089.0,85.0)" stroke="none" fill="black" font-family="Helvetica" font-size="12.00"  text-anchor="start">
		<text><tspan font-family="Helvetica" >Confidence interval</tspan></text>
	</g>
</g>
<g fill="none" color="black" stroke="currentColor" stroke-width="1.00" stroke-linecap="butt" stroke-linejoin="miter">
	<g stroke='none' shape-rendering='crispEdges'>
		<polygon fill = 'rgb( 31, 120, 180)' fill-opacity = '0.250000' points = '1038.5,85.6 1080.7,85.6 1080.7,76.6 1038.5,76.6 '/>
		<polygon fill = 'rgb( 31, 120, 180)' fill-opacity = '0.250000' points = '166.2,537.2 168.1,534.4 170.0,531.8 171.9,529.2 173.7,526.8 175.6,524.4 177.5,522.2 179.3,520.0 181.2,518.0 183.1,516.0 185.0,514.1 186.8,512.2 188.7,510.5 190.6,508.8 192.4,507.1 194.3,505.5
196.2,503.9 198.0,502.3 199.9,500.7 201.8,499.0 203.7,497.3 205.5,495.5 207.4,493.6 209.3,491.5 211.1,489.3 213.0,486.9 214.9,484.2 216.7,481.3 218.6,478.1 220.5,474.7 222.4,471.0 224.2,467.0
226.1,462.8 228.0,458.3 229.8,453.6 231.7,448.7 233.6,443.7 235.5,438.5 237.3,433.2 239.2,427.8 241.1,422.3 242.9,416.8 244.8,411.1 246.7,405.4 248.5,399.6 250.4,393.6 252.3,387.5 254.2,381.2
256.0,374.7 257.9,367.9 259.8,360.8 261.6,353.4 263.5,345.5 265.4,337.3 267.3,328.7 269.1,319.7 271.0,310.4 272.9,300.8 274.7,291.0 276.6,281.0 278.5,271.1 280.3,261.2 282.2,251.6 284.1,242.4
286.0,233.8 287.8,225.8 289.7,218.7 291.6,212.6 293.4,207.6 295.3,203.9 297.2,201.5 299.1,200.4 300.9,200.8 302.8,202.6 304.7,205.8 306.5,210.3 308.4,216.1 310.3,223.1 312.1,231.2 314.0,240.2
315.9,250.0 317.8,260.4 319.6,271.4 321.5,282.6 323.4,294.0 325.2,305.4 327.1,316.6 329.0,327.6 330.9,338.2 332.7,348.2 334.6,357.7 336.5,366.4 338.3,374.4 340.2,381.6 342.1,387.9 343.9,393.3
345.8,397.9 347.7,401.5 349.6,404.2 351.4,406.1 353.3,407.0 355.2,407.2 357.0,406.7 358.9,405.4 360.8,403.5 362.7,401.0 364.5,398.1 366.4,394.8 368.3,391.1 370.1,387.2 372.0,383.2 373.9,379.1
375.7,375.0 377.6,370.9 379.5,366.9 381.4,363.1 383.2,359.4 385.1,355.9 387.0,352.5 388.8,349.3 390.7,346.2 392.6,343.1 394.5,340.1 396.3,337.1 398.2,334.1 400.1,330.9 401.9,327.6 403.8,324.1
405.7,320.4 407.5,316.4 409.4,312.2 411.3,307.8 413.2,303.2 415.0,298.3 416.9,293.3 418.8,288.1 420.6,282.9 422.5,277.7 424.4,272.5 426.3,267.3 428.1,262.3 430.0,257.5 431.9,252.9 433.7,248.5
435.6,244.3 437.5,240.4 439.3,236.7 441.2,233.3 443.1,230.0 445.0,227.0 446.8,224.1 448.7,221.4 450.6,218.7 452.4,216.1 454.3,213.6 456.2,211.1 458.0,208.6 459.9,206.1 461.8,203.6 463.7,201.0
465.5,198.4 467.4,195.7 469.3,193.0 471.1,190.2 473.0,187.4 474.9,184.5 476.8,181.4 478.6,178.3 480.5,175.0 482.4,171.6 484.2,168.0 486.1,164.3 488.0,160.4 489.8,156.4 491.7,152.2 493.6,147.8
495.5,143.3 497.3,138.8 499.2,134.1 501.1,129.5 502.9,124.9 504.8,120.3 506.7,115.9 508.6,111.7 510.4,107.7 512.3,104.0 514.2,100.6 516.0,97.6 517.9,94.9 519.8,92.6 521.6,90.6 523.5,89.1
525.4,88.0 527.3,87.3 529.1,87.0 531.0,87.0 532.9,87.4 534.7,88.2 536.6,89.4 538.5,90.9 540.4,92.8 542.2,95.0 544.1,97.5 546.0,100.5 547.8,103.8 549.7,107.4 551.6,111.4 553.4,115.6
555.3,120.2 557.2,125.1 559.1,130.2 560.9,135.6 562.8,141.1 564.7,146.8 566.5,152.6 568.4,158.5 570.3,164.4 572.2,170.3 574.0,176.2 575.9,182.1 577.8,187.9 579.6,193.7 581.5,199.5 583.4,205.2
585.2,210.9 587.1,216.6 589.0,222.3 590.9,228.1 592.7,233.9 594.6,239.8 596.5,245.8 598.3,251.9 600.2,258.1 602.1,264.4 604.0,270.8 605.8,277.3 607.7,283.8 609.6,290.4 611.4,297.0 613.3,303.6
615.2,310.2 617.0,316.6 618.9,323.0 620.8,329.2 622.7,335.3 624.5,341.2 626.4,346.8 628.3,352.3 630.1,357.5 632.0,362.5 633.9,367.3 635.8,371.8 637.6,376.1 639.5,380.1 641.4,383.9 643.2,387.5
645.1,390.9 647.0,394.1 648.8,397.2 650.7,400.1 652.6,402.8 654.5,405.4 656.3,408.0 658.2,410.5 660.1,412.9 661.9,415.2 663.8,417.5 665.7,419.8 667.5,422.1 669.4,424.4 671.3,426.7 673.2,428.9
675.0,431.2 676.9,433.5 678.8,435.7 680.6,437.9 682.5,440.2 684.4,442.3 686.3,444.5 688.1,446.6 690.0,448.6 691.9,450.5 693.7,452.4 695.6,454.1 697.5,455.8 699.3,457.2 701.2,458.6 703.1,459.7
705.0,460.7 706.8,461.6 708.7,462.2 710.6,462.7 712.4,463.0 714.3,463.1 716.2,463.1 718.1,462.9 719.9,462.7 721.8,462.4 723.7,462.1 725.5,461.8 727.4,461.5 729.3,461.2 731.1,461.1 733.0,461.1
734.9,461.3 736.8,461.6 738.6,462.2 740.5,462.9 742.4,463.9 744.2,465.0 746.1,466.3 748.0,467.8 749.9,469.5 751.7,471.3 753.6,473.2 755.5,475.2 757.3,477.3 759.2,479.4 761.1,481.6 762.9,483.9
764.8,486.1 766.7,488.4 768.6,490.7 770.4,493.0 772.3,495.4 774.2,497.8 776.0,500.2 777.9,502.7 779.8,505.2 781.7,507.7 783.5,510.3 785.4,513.0 787.3,515.6 789.1,518.3 791.0,521.0 792.9,523.6
794.7,526.3 796.6,528.9 798.5,531.4 800.4,533.8 802.2,536.1 804.1,538.4 806.0,540.5 807.8,542.5 809.7,544.3 811.6,546.1 813.5,547.7 815.3,549.2 817.2,550.7 819.1,552.0 820.9,553.2 822.8,554.4
824.7,555.5 826.5,556.6 828.4,557.6 830.3,558.6 832.2,559.6 834.0,560.6 835.9,561.5 837.8,562.5 839.6,563.4 841.5,564.4 843.4,565.4 845.3,566.3 847.1,567.3 849.0,568.2 850.9,569.2 852.7,570.1
854.6,571.0 856.5,572.0 858.3,572.9 860.2,573.9 862.1,574.8 864.0,575.7 865.8,576.7 867.7,577.7 869.6,578.7 871.4,579.7 873.3,580.7 875.2,581.8 877.1,582.9 878.9,584.0 880.8,585.1 882.7,586.3
884.5,587.5 886.4,588.7 888.3,590.0 890.1,591.2 892.0,592.5 893.9,593.7 895.8,594.9 897.6,596.2 899.5,597.4 901.4,598.6 903.2,599.8 905.1,600.9 907.0,602.0 908.8,603.1 910.7,604.1 912.6,605.2
914.5,606.2 916.3,607.1 918.2,608.0 920.1,608.9 921.9,609.8 923.8,610.7 925.7,611.5 925.7,662.4 923.8,662.4 921.9,662.4 920.1,662.4 918.2,662.4 916.3,662.4 914.5,662.4 912.6,662.4 910.7,662.4
908.8,662.4 907.0,662.4 905.1,662.4 903.2,662.4 901.4,662.4 899.5,662.4 897.6,662.4 895.8,662.4 893.9,662.4 892.0,662.4 890.1,662.4 888.3,662.4 886.4,662.4 884.5,662.4 882.7,662.4 880.8,662.4
878.9,662.4 877.1,662.4 875.2,662.4 873.3,662.4 871.4,662.4 869.6,662.4 867.7,662.4 865.8,662.4 864.0,662.4 862.1,662.4 860.2,662.4 858.3,662.4 856.5,662.4 854.6,662.4 852.7,662.4 850.9,662.4
849.0,662.4 847.1,662.4 845.3,662.4 843.4,662.4 841.5,662.4 839.6,662.4 837.8,662.4 835.9,662.4 834.0,662.4 832.2,662.4 830.3,662.4 828.4,662.4 826.5,662.4 824.7,662.4 822.8,662.4 820.9,662.4
819.1,662.4 817.2,662.4 815.3,662.4 813.5,662.4 811.6,662.4 809.7,662.4 807.8,662.4 806.0,662.4 804.1,662.4 802.2,662.4 800.4,662.4 798.5,662.4 796.6,662.4 794.7,662.4 792.9,662.4 791.0,662.4
789.1,662.4 787.3,662.4 785.4,662.4 783.5,662.4 781.7,662.4 779.8,662.4 777.9,662.4 776.0,662.4 774.2,662.4 772.3,662.4 770.4,662.4 768.6,662.4 766.7,662.4 764.8,662.4 762.9,662.4 761.1,662.4
759.2,662.4 757.3,662.4 755.5,662.4 753.6,662.4 751.7,662.4 749.9,662.4 748.0,662.4 746.1,662.4 744.2,662.4 742.4,662.4 740.5,662.4 738.6,662.4 736.8,662.4 734.9,662.4 733.0,662.4 731.1,662.4
729.3,662.4 727.4,662.4 725.5,662.4 723.7,662.4 721.8,662.4 719.9,662.4 718.1,662.4 716.2,662.4 714.3,662.4 712.4,662.4 710.6,662.4 708.7,662.4 706.8,662.4 705.0,662.4 703.1,662.4 701.2,662.4
699.3,662.4 697.5,662.4 695.6,662.4 693.7,662.4 691.9,662.4 690.0,662.4 688.1,662.4 686.3,662.4 684.4,662.4 682.5,662.4 680.6,662.4 678.8,662.4 676.9,662.4 675.0,662.4 673.2,662.4 671.3,662.4
669.4,662.4 667.5,662.4 665.7,662.4 663.8,662.4 661.9,662.4 660.1,662.4 658.2,662.4 656.3,662.4 654.5,662.4 652.6,662.4 650.7,662.4 648.8,662.4 647.0,662.4 645.1,662.4 643.2,662.4 641.4,662.4
639.5,662.4 637.6,662.4 635.8,662.4 633.9,662.4 632.0,662.4 630.1,662.4 628.3,662.4 626.4,662.4 624.5,662.4 622.7,662.4 620.8,662.4 618.9,662.4 617.0,662.4 615.2,662.4 613.3,662.4 611.4,662.4
609.6,662.4 607.7,662.4 605.8,662.4 604.0,662.4 602.1,662.4 600.2,662.4 598.3,662.4 596.5,662.4 594.6,662.4 592.7,662.4 590.9,662.4 589.0,662.4 587.1,662.4 585.2,662.4 583.4,662.4 581.5,662.4
579.6,662.4 577.8,662.4 575.9,662.4 574.0,662.4 572.2,662.4 570.3,662.4 568.4,662.4 566.5,662.4 564.7,662.4 562.8,662.4 560.9,662.4 559.1,662.4 557.2,662.4 555.3,662.4 553.4,662.4 551.6,662.4
549.7,662.4 547.8,662.4 546.0,662.4 544.1,662.4 542.2,662.4 540.4,662.4 538.5,662.4 536.6,662.4 534.7,662.4 532.9,662.4 531.0,662.4 529.1,662.4 527.3,662.4 525.4,662.4 523.5,662.4 521.6,662.4
519.8,662.4 517.9,662.4 516.0,662.4 514.2,662.4 512.3,662.4 510.4,662.4 508.6,662.4 506.7,662.4 504.8,662.4 502.9,662.4 501.1,662.4 499.2,662.4 497.3,662.4 495.5,662.4 493.6,662.4 491.7,662.4
489.8,662.4 488.0,662.4 486.1,662.4 484.2,662.4 482.4,662.4 480.5,662.4 478.6,662.4 476.8,662.4 474.9,662.4 473.0,662.4 471.1,662.4 469.3,662.4 467.4,662.4 465.5,662.4 463.7,662.4 461.8,662.4
459.9,662.4 458.0,662.4 456.2,662.4 454.3,662.4 452.4,662.4 450.6,662.4 448.7,662.4 446.8,662.4 445.0,662.4 443.1,662.4 441.2,662.4 439.3,662.4 437.5,662.4 435.6,662.4 433.7,662.4 431.9,662.4
430.0,662.4 428.1,662.4 426.3,662.4 424.4,662.4 422.5,662.4 420.6,662.4 418.8,662.4 416.9,662.4 415.0,662.4 413.2,662.4 411.3,662.4 409.4,662.4 407.5,662.4 405.7,662.4 403.8,662.4 401.9,662.4
400.1,662.4 398.2,662.4 396.3,662.4 394.5,662.4 392.6,662.4 390.7,662.4 388.8,662.4 387.0,662.4 385.1,662.4 383.2,662.4 381.4,662.4 379.5,662.4 377.6,662.4 375.7,662.4 373.9,662.4 372.0,662.4
370.1,662.4 368.3,662.4 366.4,662.4 364.5,662.4 362.7,662.4 360.8,662.4 358.9,662.4 357.0,662.4 355.2,662.4 353.3,662.4 351.4,662.4 349.6,662.4 347.7,662.4 345.8,662.4 343.9,662.4 342.1,662.4
340.2,662.4 338.3,662.4 336.5,662.4 334.6,662.4 332.7,662.4 330.9,662.4 329.0,662.4 327.1,662.4 325.2,662.4 323.4,662.4 321.5,662.4 319.6,662.4 317.8,662.4 315.9,662.4 314.0,662.4 312.1,662.4
310.3,662.4 308.4,662.4 306.5,662.4 304.7,662.4 302.8,662.4 300.9,662.4 299.1,662.4 297.2,662.4 295.3,662.4 293.4,662.4 291.6,662.4 289.7,662.4 287.8,662.4 286.0,662.4 284.1,662.4 282.2,662.4
280.3,662.4 278.5,662.4 276.6,662.4 274.7,662.4 272.9,662.4 271.0,662.4 269.1,662.4 267.3,662.4 265.4,662.4 263.5,662.4 261.6,662.4 259.8,662.4 257.9,662.4 256.0,662.4 254.2,662.4 252.3,662.4
250.4,662.4 248.5,662.4 246.7,662.4 244.8,662.4 242.9,662.4 241.1,662.4 239.2,662.4 237.3,662.4 235.5,662.4 233.6,662.4 231.7,662.4 229.8,662.4 228.0,662.4 226.1,662.4 224.2,662.4 222.4,662.4
220.5,662.4 218.6,662.4 216.7,662.4 214.9,662.4 213.0,662.4 211.1,662.4 209.3,662.4 207.4,662.4 205.5,662.4 203.7,662.4 201.8,662.4 199.9,662.4 198.0,662.4 196.2,662.4 194.3,662.4 192.4,662.4
190.6,662.4 188.7,662.4 186.8,662.4 185.0,662.4 183.1,662.4 181.2,662.4 179.3,662.4 177.5,662.4 175.6,662.4 173.7,662.4 171.9,662.4 170.0,662.4 168.1,662.4 166.2,662.4 '/>
	</g>
</g>
	</g>
	<g id="gnuplot_plot_3" ><title>Point estimate</title>
<g fill="none" color="white" stroke="rgb( 31, 120, 180)" stroke-width="2.00" stroke-linecap="butt" stroke-linejoin="miter">
</g>
<g fill="none" color="black" stroke="currentColor" stroke-width="2.00" stroke-linecap="butt" stroke-linejoin="miter">
	<g transform="translate(1089.0,103.0)" stroke="none" fill="black" font-family="Helvetica" font-size="12.00"  text-anchor="start">
		<text><tspan font-family="Helvetica" >Point estimate</tspan></text>
	</g>
</g>
<g fill="none" color="black" stroke="currentColor" stroke-width="2.00" stroke-linecap="butt" stroke-linejoin="miter">
	<path stroke='rgb( 31, 120, 180)'  d='M1038.5,99.1 L1080.7,99.1 M520.9,662.4 L520.9,91.4  '/></g>
	</g>
<g fill="none" color="black" stroke="currentColor" stroke-width="2.00" stroke-linecap="butt" stroke-linejoin="miter">
</g>
<g fill="none" color="black" stroke="black" stroke-width="1.00" stroke-linecap="butt" stroke-linejoin="miter">
</g>
<g fill="none" color="black" stroke="currentColor" stroke-width="1.00" stroke-linecap="butt" stroke-linejoin="miter">
	<path stroke='black'  d='M80.2,54.1 L80.2,662.4 L1013.6,662.4 L1013.6,54.1 L80.2,54.1 Z  '/></g>
<g fill="none" color="black" stroke="currentColor" stroke-width="1.00" stroke-linecap="butt" stroke-linejoin="miter">
</g>
</g>
</svg>

