group,function,value,throughput_num,throughput_type,sample_measured_value,unit,iteration_count
String trim,Hardcoded trim,unix,,,954058.0,ns,984734
String trim,Hardcoded trim,unix,,,1911140.0,ns,1969468
String trim,Hardcoded trim,unix,,,2870498.0,ns,2954202
String trim,Hardcoded trim,unix,,,3823503.0,ns,3938936
String trim,Hardcoded trim,unix,,,4782491.0,ns,4923670
String trim,Hardcoded trim,unix,,,7341938.0,ns,5908404
String trim,Hardcoded trim,unix,,,8685303.0,ns,6893138
String trim,Hardcoded trim,unix,,,7732319.0,ns,7877872
String trim,Hardcoded trim,unix,,,8638424.0,ns,8862606
String trim,Hardcoded trim,unix,,,9737157.0,ns,9847340
String trim,Hardcoded trim,unix,,,11597560.0,ns,10832074
String trim,Hardcoded trim,unix,,,11439751.0,ns,11816808
String trim,Hardcoded trim,unix,,,12827961.0,ns,12801542
String trim,Hardcoded trim,unix,,,13339069.0,ns,13786276
String trim,Hardcoded trim,unix,,,14483056.0,ns,14771010
String trim,Hardcoded trim,unix,,,15254018.0,ns,15755744
String trim,Hardcoded trim,unix,,,16214266.0,ns,16740478
String trim,Hardcoded trim,unix,,,17165678.0,ns,17725212
String trim,Hardcoded trim,unix,,,18205499.0,ns,18709946
String trim,Hardcoded trim,unix,,,19097899.0,ns,19694680
String trim,Hardcoded trim,unix,,,20082725.0,ns,20679414
String trim,Hardcoded trim,unix,,,21064966.0,ns,21664148
String trim,Hardcoded trim,unix,,,22289184.0,ns,22648882
String trim,Hardcoded trim,unix,,,23016112.0,ns,23633616
String trim,Hardcoded trim,unix,,,23964850.0,ns,24618350
String trim,Hardcoded trim,unix,,,24943082.0,ns,25603084
String trim,Hardcoded trim,unix,,,26032777.0,ns,26587818
String trim,Hardcoded trim,unix,,,26863731.0,ns,27572552
String trim,Hardcoded trim,unix,,,27929209.0,ns,28557286
String trim,Hardcoded trim,unix,,,33272331.0,ns,29542020
String trim,Hardcoded trim,unix,,,29976007.0,ns,30526754
String trim,Hardcoded trim,unix,,,30840225.0,ns,31511488
String trim,Hardcoded trim,unix,,,31651381.0,ns,32496222
String trim,Hardcoded trim,unix,,,34021982.0,ns,33480956
String trim,Hardcoded trim,unix,,,35627382.0,ns,34465690
String trim,Hardcoded trim,unix,,,36295760.0,ns,35450424
String trim,Hardcoded trim,unix,,,35575834.0,ns,36435158
String trim,Hardcoded trim,unix,,,36467404.0,ns,37419892
String trim,Hardcoded trim,unix,,,37424708.0,ns,38404626
String trim,Hardcoded trim,unix,,,38985183.0,ns,39389360
String trim,Hardcoded trim,unix,,,39659220.0,ns,40374094
String trim,Hardcoded trim,unix,,,40317318.0,ns,41358828
String trim,Hardcoded trim,unix,,,41248091.0,ns,42343562
String trim,Hardcoded trim,unix,,,42602126.0,ns,43328296
String trim,Hardcoded trim,unix,,,43248860.0,ns,44313030
String trim,Hardcoded trim,unix,,,44126393.0,ns,45297764
String trim,Hardcoded trim,unix,,,45419834.0,ns,46282498
String trim,Hardcoded trim,unix,,,46979478.0,ns,47267232
String trim,Hardcoded trim,unix,,,47046465.0,ns,48251966
String trim,Hardcoded trim,unix,,,47999631.0,ns,49236700
String trim,Hardcoded trim,unix,,,49459756.0,ns,50221434
String trim,Hardcoded trim,unix,,,49949044.0,ns,51206168
String trim,Hardcoded trim,unix,,,51162823.0,ns,52190902
String trim,Hardcoded trim,unix,,,55362339.0,ns,53175636
String trim,Hardcoded trim,unix,,,57122413.0,ns,54160370
String trim,Hardcoded trim,unix,,,57258290.0,ns,55145104
String trim,Hardcoded trim,unix,,,56188724.0,ns,56129838
String trim,Hardcoded trim,unix,,,56066732.0,ns,57114572
String trim,Hardcoded trim,unix,,,56515563.0,ns,58099306
String trim,Hardcoded trim,unix,,,57966081.0,ns,59084040
String trim,Hardcoded trim,unix,,,58511275.0,ns,60068774
String trim,Hardcoded trim,unix,,,59513261.0,ns,61053508
String trim,Hardcoded trim,unix,,,61092074.0,ns,62038242
String trim,Hardcoded trim,unix,,,61442396.0,ns,63022976
String trim,Hardcoded trim,unix,,,62444084.0,ns,64007710
String trim,Hardcoded trim,unix,,,63049712.0,ns,64992444
String trim,Hardcoded trim,unix,,,63816253.0,ns,65977178
String trim,Hardcoded trim,unix,,,64785390.0,ns,66961912
String trim,Hardcoded trim,unix,,,65775074.0,ns,67946646
String trim,Hardcoded trim,unix,,,66786501.0,ns,68931380
String trim,Hardcoded trim,unix,,,68210858.0,ns,69916114
String trim,Hardcoded trim,unix,,,68984355.0,ns,70900848
String trim,Hardcoded trim,unix,,,69899347.0,ns,71885582
String trim,Hardcoded trim,unix,,,70622507.0,ns,72870316
String trim,Hardcoded trim,unix,,,72416776.0,ns,73855050
String trim,Hardcoded trim,unix,,,84931404.0,ns,74839784
String trim,Hardcoded trim,unix,,,79949125.0,ns,75824518
String trim,Hardcoded trim,unix,,,80452218.0,ns,76809252
String trim,Hardcoded trim,unix,,,77803330.0,ns,77793986
String trim,Hardcoded trim,unix,,,81088162.0,ns,78778720
String trim,Hardcoded trim,unix,,,78378250.0,ns,79763454
String trim,Hardcoded trim,unix,,,80915936.0,ns,80748188
String trim,Hardcoded trim,unix,,,80410048.0,ns,81732922
String trim,Hardcoded trim,unix,,,83167792.0,ns,82717656
String trim,Hardcoded trim,unix,,,83269485.0,ns,83702390
String trim,Hardcoded trim,unix,,,83378070.0,ns,84687124
String trim,Hardcoded trim,unix,,,84312372.0,ns,85671858
String trim,Hardcoded trim,unix,,,85778297.0,ns,86656592
String trim,Hardcoded trim,unix,,,86244661.0,ns,87641326
String trim,Hardcoded trim,unix,,,87946825.0,ns,88626060
String trim,Hardcoded trim,unix,,,88646191.0,ns,89610794
String trim,Hardcoded trim,unix,,,89601661.0,ns,90595528
String trim,Hardcoded trim,unix,,,90675734.0,ns,91580262
String trim,Hardcoded trim,unix,,,90688489.0,ns,92564996
String trim,Hardcoded trim,unix,,,92876273.0,ns,93549730
String trim,Hardcoded trim,unix,,,93920231.0,ns,94534464
String trim,Hardcoded trim,unix,,,93891556.0,ns,95519198
String trim,Hardcoded trim,unix,,,94652047.0,ns,96503932
String trim,Hardcoded trim,unix,,,96012414.0,ns,97488666
String trim,Hardcoded trim,unix,,,96561906.0,ns,98473400
