group,function,value,throughput_num,throughput_type,sample_measured_value,unit,iteration_count
Parse,Standard parse,9999,,,1126665.0,ns,149376
Parse,Standard parse,9999,,,2072829.0,ns,298752
Parse,Standard parse,9999,,,3128691.0,ns,448128
Parse,Standard parse,9999,,,4528021.0,ns,597504
Parse,Standard parse,9999,,,5105838.0,ns,746880
Parse,Standard parse,9999,,,6121924.0,ns,896256
Parse,Standard parse,9999,,,6651777.0,ns,1045632
Parse,Standard parse,9999,,,7600175.0,ns,1195008
Parse,Standard parse,9999,,,8724878.0,ns,1344384
Parse,Standard parse,9999,,,9759527.0,ns,1493760
Parse,Standard parse,9999,,,10436362.0,ns,1643136
Parse,Standard parse,9999,,,11662847.0,ns,1792512
Parse,Standard parse,9999,,,12861658.0,ns,1941888
Parse,Standard parse,9999,,,14145622.0,ns,2091264
Parse,Standard parse,9999,,,14467253.0,ns,2240640
Parse,Standard parse,9999,,,15912211.0,ns,2390016
Parse,Standard parse,9999,,,16327438.0,ns,2539392
Parse,Standard parse,9999,,,17657840.0,ns,2688768
Parse,Standard parse,9999,,,17725978.0,ns,2838144
Parse,Standard parse,9999,,,19559643.0,ns,2987520
Parse,Standard parse,9999,,,19855575.0,ns,3136896
Parse,Standard parse,9999,,,20473195.0,ns,3286272
Parse,Standard parse,9999,,,21424889.0,ns,3435648
Parse,Standard parse,9999,,,22579969.0,ns,3585024
Parse,Standard parse,9999,,,24119586.0,ns,3734400
Parse,Standard parse,9999,,,23901283.0,ns,3883776
Parse,Standard parse,9999,,,26099420.0,ns,4033152
Parse,Standard parse,9999,,,25278413.0,ns,4182528
Parse,Standard parse,9999,,,26914445.0,ns,4331904
Parse,Standard parse,9999,,,29260200.0,ns,4481280
Parse,Standard parse,9999,,,29625071.0,ns,4630656
Parse,Standard parse,9999,,,30193179.0,ns,4780032
Parse,Standard parse,9999,,,30925698.0,ns,4929408
Parse,Standard parse,9999,,,32978568.0,ns,5078784
Parse,Standard parse,9999,,,33256525.0,ns,5228160
Parse,Standard parse,9999,,,33499135.0,ns,5377536
Parse,Standard parse,9999,,,35984536.0,ns,5526912
Parse,Standard parse,9999,,,38036034.0,ns,5676288
Parse,Standard parse,9999,,,39742390.0,ns,5825664
Parse,Standard parse,9999,,,38908177.0,ns,5975040
Parse,Standard parse,9999,,,39569090.0,ns,6124416
Parse,Standard parse,9999,,,40901787.0,ns,6273792
Parse,Standard parse,9999,,,41582225.0,ns,6423168
Parse,Standard parse,9999,,,42572083.0,ns,6572544
Parse,Standard parse,9999,,,44101831.0,ns,6721920
Parse,Standard parse,9999,,,43618596.0,ns,6871296
Parse,Standard parse,9999,,,45595843.0,ns,7020672
Parse,Standard parse,9999,,,47601905.0,ns,7170048
Parse,Standard parse,9999,,,47239469.0,ns,7319424
Parse,Standard parse,9999,,,48439033.0,ns,7468800
Parse,Standard parse,9999,,,49114101.0,ns,7618176
Parse,Standard parse,9999,,,52623825.0,ns,7767552
Parse,Standard parse,9999,,,53846061.0,ns,7916928
Parse,Standard parse,9999,,,57066494.0,ns,8066304
Parse,Standard parse,9999,,,56330891.0,ns,8215680
Parse,Standard parse,9999,,,53224612.0,ns,8365056
Parse,Standard parse,9999,,,57680460.0,ns,8514432
Parse,Standard parse,9999,,,57527538.0,ns,8663808
Parse,Standard parse,9999,,,59952857.0,ns,8813184
Parse,Standard parse,9999,,,57141327.0,ns,8962560
Parse,Standard parse,9999,,,60507968.0,ns,9111936
Parse,Standard parse,9999,,,59888394.0,ns,9261312
Parse,Standard parse,9999,,,66785606.0,ns,9410688
Parse,Standard parse,9999,,,67297026.0,ns,9560064
Parse,Standard parse,9999,,,63778286.0,ns,9709440
Parse,Standard parse,9999,,,63029377.0,ns,9858816
Parse,Standard parse,9999,,,64870878.0,ns,10008192
Parse,Standard parse,9999,,,65374230.0,ns,10157568
Parse,Standard parse,9999,,,67728194.0,ns,10306944
Parse,Standard parse,9999,,,70392722.0,ns,10456320
Parse,Standard parse,9999,,,69840056.0,ns,10605696
Parse,Standard parse,9999,,,75624390.0,ns,10755072
Parse,Standard parse,9999,,,69914828.0,ns,10904448
Parse,Standard parse,9999,,,74001395.0,ns,11053824
Parse,Standard parse,9999,,,74497433.0,ns,11203200
Parse,Standard parse,9999,,,73503179.0,ns,11352576
Parse,Standard parse,9999,,,81262786.0,ns,11501952
Parse,Standard parse,9999,,,80617554.0,ns,11651328
Parse,Standard parse,9999,,,75059869.0,ns,11800704
Parse,Standard parse,9999,,,75889822.0,ns,11950080
Parse,Standard parse,9999,,,79346353.0,ns,12099456
Parse,Standard parse,9999,,,78230870.0,ns,12248832
Parse,Standard parse,9999,,,78135307.0,ns,12398208
Parse,Standard parse,9999,,,79553747.0,ns,12547584
Parse,Standard parse,9999,,,80401264.0,ns,12696960
Parse,Standard parse,9999,,,86479533.0,ns,12846336
Parse,Standard parse,9999,,,83706898.0,ns,12995712
Parse,Standard parse,9999,,,83105940.0,ns,13145088
Parse,Standard parse,9999,,,84516092.0,ns,13294464
Parse,Standard parse,9999,,,87313715.0,ns,13443840
Parse,Standard parse,9999,,,90220233.0,ns,13593216
Parse,Standard parse,9999,,,89351176.0,ns,13742592
Parse,Standard parse,9999,,,88047815.0,ns,13891968
Parse,Standard parse,9999,,,94864757.0,ns,14041344
Parse,Standard parse,9999,,,92248597.0,ns,14190720
Parse,Standard parse,9999,,,92989312.0,ns,14340096
Parse,Standard parse,9999,,,92853655.0,ns,14489472
Parse,Standard parse,9999,,,94961140.0,ns,14638848
Parse,Standard parse,9999,,,94473705.0,ns,14788224
Parse,Standard parse,9999,,,98583215.0,ns,14937600
