group,function,value,throughput_num,throughput_type,sample_measured_value,unit,iteration_count
Parse,Standard parse,50,,,930424.0,ns,189446
Parse,Standard parse,50,,,1844897.0,ns,378892
Parse,Standard parse,50,,,2787925.0,ns,568338
Parse,Standard parse,50,,,3810764.0,ns,757784
Parse,Standard parse,50,,,4670905.0,ns,947230
Parse,Standard parse,50,,,5561896.0,ns,1136676
Parse,Standard parse,50,,,7884818.0,ns,1326122
Parse,Standard parse,50,,,7509668.0,ns,1515568
Parse,Standard parse,50,,,8390837.0,ns,1705014
Parse,Standard parse,50,,,9603768.0,ns,1894460
Parse,Standard parse,50,,,10340103.0,ns,2083906
Parse,Standard parse,50,,,11216706.0,ns,2273352
Parse,Standard parse,50,,,12145916.0,ns,2462798
Parse,Standard parse,50,,,13001209.0,ns,2652244
Parse,Standard parse,50,,,14591684.0,ns,2841690
Parse,Standard parse,50,,,14999046.0,ns,3031136
Parse,Standard parse,50,,,15835182.0,ns,3220582
Parse,Standard parse,50,,,16824247.0,ns,3410028
Parse,Standard parse,50,,,18732885.0,ns,3599474
Parse,Standard parse,50,,,18650108.0,ns,3788920
Parse,Standard parse,50,,,21506654.0,ns,3978366
Parse,Standard parse,50,,,20555511.0,ns,4167812
Parse,Standard parse,50,,,22303545.0,ns,4357258
Parse,Standard parse,50,,,24546958.0,ns,4546704
Parse,Standard parse,50,,,23214371.0,ns,4736150
Parse,Standard parse,50,,,24339635.0,ns,4925596
Parse,Standard parse,50,,,25153627.0,ns,5115042
Parse,Standard parse,50,,,25991016.0,ns,5304488
Parse,Standard parse,50,,,28695913.0,ns,5493934
Parse,Standard parse,50,,,27921987.0,ns,5683380
Parse,Standard parse,50,,,30615011.0,ns,5872826
Parse,Standard parse,50,,,30675196.0,ns,6062272
Parse,Standard parse,50,,,31399058.0,ns,6251718
Parse,Standard parse,50,,,34217181.0,ns,6441164
Parse,Standard parse,50,,,34428332.0,ns,6630610
Parse,Standard parse,50,,,35509091.0,ns,6820056
Parse,Standard parse,50,,,36356828.0,ns,7009502
Parse,Standard parse,50,,,35539127.0,ns,7198948
Parse,Standard parse,50,,,39488905.0,ns,7388394
Parse,Standard parse,50,,,37285409.0,ns,7577840
Parse,Standard parse,50,,,37758215.0,ns,7767286
Parse,Standard parse,50,,,38679830.0,ns,7956732
Parse,Standard parse,50,,,39625996.0,ns,8146178
Parse,Standard parse,50,,,40563572.0,ns,8335624
Parse,Standard parse,50,,,41773037.0,ns,8525070
Parse,Standard parse,50,,,42415995.0,ns,8714516
Parse,Standard parse,50,,,43354684.0,ns,8903962
Parse,Standard parse,50,,,44379947.0,ns,9093408
Parse,Standard parse,50,,,46816748.0,ns,9282854
Parse,Standard parse,50,,,46103918.0,ns,9472300
Parse,Standard parse,50,,,47318900.0,ns,9661746
Parse,Standard parse,50,,,47924938.0,ns,9851192
Parse,Standard parse,50,,,48866946.0,ns,10040638
Parse,Standard parse,50,,,50260105.0,ns,10230084
Parse,Standard parse,50,,,53410539.0,ns,10419530
Parse,Standard parse,50,,,56101030.0,ns,10608976
Parse,Standard parse,50,,,56873364.0,ns,10798422
Parse,Standard parse,50,,,57329158.0,ns,10987868
Parse,Standard parse,50,,,60015641.0,ns,11177314
Parse,Standard parse,50,,,56688422.0,ns,11366760
Parse,Standard parse,50,,,58263709.0,ns,11556206
Parse,Standard parse,50,,,58482745.0,ns,11745652
Parse,Standard parse,50,,,59273444.0,ns,11935098
Parse,Standard parse,50,,,62292046.0,ns,12124544
Parse,Standard parse,50,,,64538335.0,ns,12313990
Parse,Standard parse,50,,,64205693.0,ns,12503436
Parse,Standard parse,50,,,66068907.0,ns,12692882
Parse,Standard parse,50,,,63551163.0,ns,12882328
Parse,Standard parse,50,,,66495175.0,ns,13071774
Parse,Standard parse,50,,,67224998.0,ns,13261220
Parse,Standard parse,50,,,68354150.0,ns,13450666
Parse,Standard parse,50,,,73707528.0,ns,13640112
Parse,Standard parse,50,,,69690082.0,ns,13829558
Parse,Standard parse,50,,,70290420.0,ns,14019004
Parse,Standard parse,50,,,73371370.0,ns,14208450
Parse,Standard parse,50,,,72947256.0,ns,14397896
Parse,Standard parse,50,,,71603329.0,ns,14587342
Parse,Standard parse,50,,,73315895.0,ns,14776788
Parse,Standard parse,50,,,72992072.0,ns,14966234
Parse,Standard parse,50,,,73946522.0,ns,15155680
Parse,Standard parse,50,,,75407530.0,ns,15345126
Parse,Standard parse,50,,,76711242.0,ns,15534572
Parse,Standard parse,50,,,76650308.0,ns,15724018
Parse,Standard parse,50,,,79209088.0,ns,15913464
Parse,Standard parse,50,,,81039678.0,ns,16102910
Parse,Standard parse,50,,,80146375.0,ns,16292356
Parse,Standard parse,50,,,82513553.0,ns,16481802
Parse,Standard parse,50,,,82725343.0,ns,16671248
Parse,Standard parse,50,,,87260462.0,ns,16860694
Parse,Standard parse,50,,,87675148.0,ns,17050140
Parse,Standard parse,50,,,91425388.0,ns,17239586
Parse,Standard parse,50,,,92601908.0,ns,17429032
Parse,Standard parse,50,,,101602982.0,ns,17618478
Parse,Standard parse,50,,,90117508.0,ns,17807924
Parse,Standard parse,50,,,89351034.0,ns,17997370
Parse,Standard parse,50,,,88546971.0,ns,18186816
Parse,Standard parse,50,,,89535544.0,ns,18376262
Parse,Standard parse,50,,,93295243.0,ns,18565708
Parse,Standard parse,50,,,97541793.0,ns,18755154
Parse,Standard parse,50,,,96699135.0,ns,18944600
